entity_id,cats,,
21518,3087,Football,4758
22311,3089,Rugby,4748
23326,3087,Football,4758
23840,3144,Football,4758
23852,3144,Football,4758
23945,3087,Football,4758
23967,3144,Football,4758
23972,3087,Football,4758
24032,3087,Football,4758
24037,3144,Football,4758
24864,3144,Football,4758
25038,3087,Football,4758
25613,3144,Football,4758
26234,3087,Football,4758
26427,3144,Football,4758
28626,3087,Football,4758
28878,3144,Football,4758
29239,3144,Football,4758
29376,3144,Football,4758
29395,3087,Football,4758
29778,3144,Football,4758
30980,3144,Football,4758
30999,3144,Football,4758
31247,3162,Fashion,4742
32816,3154,Fashion,4742
33260,3162,Fashion,4742
33920,3144,Football,4758
34002,3087,Football,4758
34072,3089,Rugby,4748
34085,3089,Rugby,4748
34200,3144,Football,4758
34204,3144,Football,4758
34491,3089,Rugby,4748
34776,3144,Football,4758
34934,3144,Football,4758
34952,3087,Football,4758
34993,3087,Football,4758
35210,3087,Football,4758
35277,3144,Football,4758
35281,3144,Football,4758
36181,3144,Football,4758
36210,3144,Football,4758
36418,3144,Football,4758
37089,3087,Football,4758
37418,3144,Football,4758
37421,3087,Football,4758
38439,3089,Rugby,4748
38564,3085,Running,4749
39133,3144,Football,4758
39398,3089,Rugby,4748
39738,3144,Football,4758
40283,3087,Football,4758
40469,3087,Football,4758
41281,3087,Football,4758
41303,3144,Football,4758
42652,3087,Football,4758
43128,3087,Football,4758
43165,3089,Rugby,4748
43289,3087,Football,4758
44568,3087,Football,4758
44664,3144,Football,4758
44669,3144,Football,4758
44767,3144,Football,4758
44774,3144,Football,4758
45158,3085,Running,4749
45233,3087,Football,4758
45388,3087,Football,4758
45413,3087,Football,4758
45434,3144,Football,4758
46896,3087,Football,4758
46902,3087,Football,4758
46907,3144,Football,4758
46912,3144,Football,4758
47044,3144,Football,4758
47061,3144,Football,4758
47355,3118,Swimming,4750
47503,3087,Football,4758
48279,3087,Football,4758
48306,3087,Football,4758
50576,3115,Running,4749
50612,3115,Running,4749
50627,3115,Running,4749
50996,3115,Running,4749
51220,3116,Cycling,4741
51785,3115,Running,4749
51953,3115,Running,4749
51966,3085,Running,4749
52056,3115,Running,4749
52068,3115,Running,4749
52113,3115,Running,4749
52199,3115,Running,4749
52299,3115,Running,4749
52683,3115,Running,4749
52873,3115,Running,4749
53025,3115,Running,4749
53031,3115,Running,4749
53152,3115,Running,4749
53162,3115,Running,4749
53270,3115,Running,4749
53439,3115,Running,4749
53523,3085,Running,4749
53710,3115,Running,4749
53749,3115,Running,4749
53911,3115,Running,4749
54020,3115,Running,4749
54032,3115,Running,4749
54074,3115,Running,4749
54085,3115,Running,4749
54117,3115,Running,4749
54150,3115,Running,4749
54227,3115,Running,4749
54384,3115,Running,4749
54490,3085,Running,4749
54762,3115,Running,4749
54811,3115,Running,4749
54817,3115,Running,4749
54896,3115,Running,4749
55227,3085,Running,4749
55239,3115,Running,4749
55342,3115,Running,4749
55470,3115,Running,4749
55596,3115,Running,4749
55805,3115,Running,4749
55930,3115,Running,4749
56691,3085,Running,4749
56785,3115,Running,4749
56791,3115,Running,4749
57022,3115,Running,4749
57098,3115,Running,4749
57104,3115,Running,4749
57158,3115,Running,4749
57228,3115,Running,4749
57513,3115,Running,4749
58017,3115,Running,4749
58045,3115,Running,4749
58242,3115,Running,4749
58248,3115,Running,4749
58372,3115,Running,4749
58395,3115,Running,4749
58878,3118,Swimming,4750
58902,3115,Running,4749
58919,3115,Running,4749
58924,3115,Running,4749
58959,3115,Running,4749
58990,3085,Running,4749
59005,3115,Running,4749
59016,3115,Running,4749
59359,3115,Running,4749
59393,3115,Running,4749
59517,3115,Running,4749
59543,3115,Running,4749
59549,3115,Running,4749
59555,3115,Running,4749
59564,3085,Running,4749
59597,3115,Running,4749
59774,3115,Running,4749
59780,3115,Running,4749
59859,3115,Running,4749
59932,3115,Running,4749
59943,3115,Running,4749
59997,3115,Running,4749
60068,3115,Running,4749
60089,3115,Running,4749
60095,3115,Running,4749
60228,3115,Running,4749
60267,3115,Running,4749
60447,3115,Running,4749
60472,3115,Running,4749
60494,3115,Running,4749
60792,3115,Running,4749
60870,3115,Running,4749
60933,3115,Running,4749
60990,3085,Running,4749
61073,3115,Running,4749
61132,3085,Running,4749
61417,3115,Running,4749
61436,3118,Swimming,4750
61501,3115,Running,4749
61528,3115,Running,4749
61539,3085,Running,4749
61558,3115,Running,4749
61620,3115,Running,4749
61649,3115,Running,4749
61655,3115,Running,4749
61719,3115,Running,4749
61875,3115,Running,4749
61989,3085,Running,4749
62325,3085,Running,4749
62418,3115,Running,4749
62447,3115,Running,4749
62453,3115,Running,4749
62518,3115,Running,4749
62630,3115,Running,4749
62638,3115,Running,4749
62899,3115,Running,4749
63069,3115,Running,4749
63469,3115,Running,4749
63593,3085,Running,4749
63726,3115,Running,4749
63941,3115,Running,4749
64071,3115,Running,4749
64096,3115,Running,4749
64116,3115,Running,4749
64357,3115,Running,4749
64626,3115,Running,4749
64638,3115,Running,4749
83176,3142,Running,4749
83313,3145,Swimming,4750
83336,3142,Running,4749
83452,3087,Football,4758
83457,3144,Football,4758
83480,3144,Football,4758
83693,3142,Running,4749
83875,3115,Running,4749
83896,3085,Running,4749
83902,3115,Running,4749
83962,3115,Running,4749
83969,3086,Cycling,4741
83995,3115,Running,4749
84001,3115,Running,4749
84060,3115,Running,4749
84147,3162,Fashion,4742
84209,3115,Running,4749
84215,3115,Running,4749
84221,3115,Running,4749
84244,3115,Running,4749
84251,3115,Running,4749
84261,3085,Running,4749
84273,3115,Running,4749
84280,3085,Running,4749
84287,3085,Running,4749
84294,3115,Running,4749
84300,3115,Running,4749
84317,3085,Running,4749
84351,3085,Running,4749
84358,3115,Running,4749
84378,3115,Running,4749
84432,3115,Running,4749
84465,3115,Running,4749
84472,3115,Running,4749
84506,3085,Running,4749
84516,3142,Running,4749
84574,3086,Cycling,4741
84602,3086,Cycling,4741
84621,3142,Running,4749
84640,3155,Fashion,4742
84666,3085,Running,4749
84669,3086,Cycling,4741
84705,3115,Running,4749
84710,3085,Running,4749
84717,3086,Cycling,4741
84735,3115,Running,4749
84755,3115,Running,4749
84762,3085,Running,4749
84769,3115,Running,4749
84780,3096,Triathlon,4759
84785,3085,Running,4749
84803,3085,Running,4749
84814,3115,Running,4749
84823,3115,Running,4749
84830,3115,Running,4749
84837,3085,Running,4749
84844,3115,Running,4749
84886,3115,Running,4749
84892,3115,Running,4749
84906,3115,Running,4749
84919,3162,Fashion,4742
84921,3142,Running,4749
84941,3086,Cycling,4741
84948,3086,Cycling,4741
84960,3086,Cycling,4741
84967,3085,Running,4749
84974,3115,Running,4749
84988,3086,Cycling,4741
84995,3115,Running,4749
85002,3085,Running,4749
85025,3085,Running,4749
85030,3085,Running,4749
85035,3142,Running,4749
85046,3115,Running,4749
85078,3085,Running,4749
85160,3085,Running,4749
85191,3115,Running,4749
85198,3115,Running,4749
85220,3085,Running,4749
85243,3115,Running,4749
85248,3142,Running,4749
85306,3115,Running,4749
85317,3085,Running,4749
85324,3085,Running,4749
85341,3115,Running,4749
85353,3085,Running,4749
85410,3085,Running,4749
85454,3085,Running,4749
85461,3115,Running,4749
85482,3085,Running,4749
85500,3085,Running,4749
85537,3085,Running,4749
85565,3115,Running,4749
85572,3115,Running,4749
85583,3115,Running,4749
85639,3085,Running,4749
85646,3085,Running,4749
85689,3115,Running,4749
85695,3086,Cycling,4741
85722,3115,Running,4749
85740,3115,Running,4749
85755,3085,Running,4749
85771,3142,Running,4749
85804,3115,Running,4749
85830,3085,Running,4749
85837,3085,Running,4749
85844,3085,Running,4749
85861,3087,Football,4758
85886,3085,Running,4749
85911,3085,Running,4749
85933,3085,Running,4749
85940,3115,Running,4749
85970,3085,Running,4749
85983,3115,Running,4749
85997,3115,Running,4749
86004,3115,Running,4749
86018,3085,Running,4749
86023,3085,Running,4749
86030,3115,Running,4749
86071,3085,Running,4749
86078,3085,Running,4749
86090,3085,Running,4749
86097,3085,Running,4749
86103,3085,Running,4749
86117,3115,Running,4749
86143,3085,Running,4749
86149,3115,Running,4749
86162,3115,Running,4749
86169,3115,Running,4749
86188,3115,Running,4749
86197,3115,Running,4749
86209,3085,Running,4749
86214,3085,Running,4749
86221,3115,Running,4749
86228,3085,Running,4749
86241,3115,Running,4749
86248,3115,Running,4749
86307,3115,Running,4749
86314,3115,Running,4749
86320,3085,Running,4749
86332,3085,Running,4749
86338,3162,Fashion,4742
86370,3115,Running,4749
86387,3085,Running,4749
86392,3085,Running,4749
86405,3115,Running,4749
86411,3115,Running,4749
86419,3086,Cycling,4741
86529,3086,Cycling,4741
86579,3115,Running,4749
86607,3115,Running,4749
86629,3085,Running,4749
86651,3115,Running,4749
86683,3085,Running,4749
86690,3085,Running,4749
86707,3086,Cycling,4741
86735,3086,Cycling,4741
86742,3086,Cycling,4741
86748,3143,Cycling,4741
86755,3085,Running,4749
86768,3115,Running,4749
86775,3085,Running,4749
86782,3085,Running,4749
86788,3085,Running,4749
86815,3162,Fashion,4742
86820,3085,Running,4749
86829,3085,Running,4749
86877,3085,Running,4749
86884,3086,Cycling,4741
86891,3085,Running,4749
86951,3085,Running,4749
86957,3115,Running,4749
86963,3115,Running,4749
86970,3115,Running,4749
86977,3115,Running,4749
86997,3085,Running,4749
87003,3085,Running,4749
87010,3115,Running,4749
87124,3115,Running,4749
87167,3085,Running,4749
87200,3086,Cycling,4741
87226,3085,Running,4749
87298,3085,Running,4749
87345,3142,Running,4749
87352,3115,Running,4749
87358,3115,Running,4749
87375,3085,Running,4749
87382,3085,Running,4749
87389,3085,Running,4749
87415,3115,Running,4749
87421,3085,Running,4749
87434,3115,Running,4749
87443,3125,Triathlon,4759
87461,3096,Triathlon,4759
87516,3085,Running,4749
87521,3086,Cycling,4741
87544,3085,Running,4749
87561,3085,Running,4749
87569,3115,Running,4749
87575,3115,Running,4749
87596,3115,Running,4749
87615,3086,Cycling,4741
87622,3085,Running,4749
87629,3162,Fashion,4742
87645,3085,Running,4749
87660,3115,Running,4749
87688,3115,Running,4749
87693,3085,Running,4749
87699,3115,Running,4749
87712,3085,Running,4749
87719,3085,Running,4749
87722,3086,Cycling,4741
87757,3085,Running,4749
87766,3085,Running,4749
87773,3086,Cycling,4741
87787,3085,Running,4749
87798,3085,Running,4749
87805,3085,Running,4749
87811,3115,Running,4749
87818,3115,Running,4749
87865,3115,Running,4749
87874,3115,Running,4749
87943,3115,Running,4749
88037,3115,Running,4749
88072,3143,Cycling,4741
88089,3162,Fashion,4742
88118,3115,Running,4749
88133,3115,Running,4749
88140,3085,Running,4749
88152,3085,Running,4749
88232,3085,Running,4749
88238,3125,Triathlon,4759
88243,3125,Triathlon,4759
88256,3115,Running,4749
88262,3115,Running,4749
88273,3086,Cycling,4741
88285,3115,Running,4749
88292,3086,Cycling,4741
88316,3115,Running,4749
88352,3085,Running,4749
88369,3086,Cycling,4741
88389,3087,Football,4758
88457,3142,Running,4749
88555,3115,Running,4749
89387,3115,Running,4749
89483,3115,Running,4749
89501,3115,Running,4749
89507,3115,Running,4749
89767,3085,Running,4749
90756,3115,Running,4749
90763,3115,Running,4749
90776,3086,Cycling,4741
90907,3085,Running,4749
91064,3115,Running,4749
91111,3144,Football,4758
91116,3144,Football,4758
91432,3085,Running,4749
91481,3115,Running,4749
91487,3115,Running,4749
91493,3115,Running,4749
91499,3115,Running,4749
91523,3115,Running,4749
91529,3115,Running,4749
92735,3115,Running,4749
92762,3085,Running,4749
92770,3115,Running,4749
94507,3085,Running,4749
94520,3085,Running,4749
94527,3115,Running,4749
94674,3115,Running,4749
94804,3115,Running,4749
94819,3144,Football,4758
94894,3087,Football,4758
94904,3144,Football,4758
94924,3155,Fashion,4742
95047,3087,Football,4758
95320,3144,Football,4758
95469,3115,Running,4749
95473,3087,Football,4758
95479,3115,Running,4749
95495,3115,Running,4749
95514,3115,Running,4749
95537,3115,Running,4749
95570,3115,Running,4749
95580,3115,Running,4749
95740,3087,Football,4758
96178,3144,Football,4758
96491,3144,Football,4758
96677,3146,Rugby,4748
97859,3142,Running,4749
97864,3142,Running,4749
97879,3142,Running,4749
97909,3142,Running,4749
97919,3142,Running,4749
97939,3142,Running,4749
98064,3085,Running,4749
98115,3115,Running,4749
98726,3146,Rugby,4748
98859,3085,Running,4749
98865,3085,Running,4749
98970,3144,Football,4758
98976,3144,Football,4758
99182,3115,Running,4749
99232,3115,Running,4749
99932,3115,Running,4749
100084,3115,Running,4749
100759,3085,Running,4749
101023,3087,Football,4758
101028,3087,Football,4758
101039,3144,Football,4758
101044,3144,Football,4758
101074,3115,Running,4749
101180,3115,Running,4749
101217,3085,Running,4749
101296,3115,Running,4749
101334,3115,Running,4749
101336,3115,Running,4749
101388,3115,Running,4749
101405,3085,Running,4749
101429,3085,Running,4749
101487,3085,Running,4749
101513,3085,Running,4749
101522,3115,Running,4749
101540,3115,Running,4749
101590,3085,Running,4749
101597,3085,Running,4749
101870,3115,Running,4749
101947,3115,Running,4749
101971,3086,Cycling,4741
101983,3085,Running,4749
101990,3115,Running,4749
102629,3089,Rugby,4748
102850,3085,Running,4749
102948,3115,Running,4749
103091,3115,Running,4749
103216,3144,Football,4758
103221,3144,Football,4758
103226,3087,Football,4758
103237,3087,Football,4758
103287,3144,Football,4758
103544,3096,Triathlon,4759
103551,3125,Triathlon,4759
104037,3146,Rugby,4748
104043,3089,Rugby,4748
104226,3115,Running,4749
104233,3115,Running,4749
104265,3115,Running,4749
104689,3087,Football,4758
104923,3085,Running,4749
105012,3115,Running,4749
105020,3162,Fashion,4742
105035,3162,Fashion,4742
105581,3115,Running,4749
105593,3115,Running,4749
105735,3115,Running,4749
105747,3115,Running,4749
105763,3115,Running,4749
105775,3115,Running,4749
105787,3115,Running,4749
106319,3087,Football,4758
106324,3144,Football,4758
106329,3087,Football,4758
106341,3144,Football,4758
106680,3085,Running,4749
106696,3085,Running,4749
106725,3085,Running,4749
106753,3085,Running,4749
106996,3115,Running,4749
107027,3115,Running,4749
107194,3146,Rugby,4748
107299,3115,Running,4749
107307,3115,Running,4749
107415,3115,Running,4749
107567,3085,Running,4749
107612,3144,Football,4758
107617,3085,Running,4749
107638,3115,Running,4749
107925,3087,Football,4758
107993,3085,Running,4749
108032,3144,Football,4758
108192,3115,Running,4749
108277,3115,Running,4749
109739,3115,Running,4749
110823,3087,Football,4758
110833,3115,Running,4749
111121,3115,Running,4749
111367,3115,Running,4749
111384,3115,Running,4749
111398,3115,Running,4749
111617,3115,Running,4749
111628,3115,Running,4749
111634,3142,Running,4749
112163,3115,Running,4749
112178,3115,Running,4749
112184,3115,Running,4749
112190,3115,Running,4749
112265,3085,Running,4749
113075,3144,Football,4758
113370,3115,Running,4749
113430,3115,Running,4749
113435,3115,Running,4749
113471,3115,Running,4749
113537,3115,Running,4749
113929,3085,Running,4749
113935,3085,Running,4749
114163,3142,Running,4749
114247,3085,Running,4749
114257,3085,Running,4749
114311,3115,Running,4749
114340,3115,Running,4749
114350,3115,Running,4749
114356,3115,Running,4749
114362,3115,Running,4749
114368,3115,Running,4749
114573,3144,Football,4758
115031,3115,Running,4749
115582,3115,Running,4749
115917,3093,Oudoors,4747
118025,3085,Running,4749
118030,3085,Running,4749
118035,3085,Running,4749
118461,3089,Rugby,4748
118467,3089,Rugby,4748
118473,3089,Rugby,4748
118479,3089,Rugby,4748
118560,3087,Football,4758
118565,3087,Football,4758
118570,3144,Football,4758
118585,3087,Football,4758
119885,3087,Football,4758
119896,3087,Football,4758
119903,3087,Football,4758
119914,3115,Running,4749
120903,3085,Running,4749
121343,3142,Running,4749
121390,3142,Running,4749
121409,3142,Running,4749
121947,3085,Running,4749
121954,3085,Running,4749
122290,3085,Running,4749
122585,3115,Running,4749
122631,3115,Running,4749
122922,3085,Running,4749
122929,3085,Running,4749
122959,3085,Running,4749
123013,3085,Running,4749
123125,3085,Running,4749
123126,3085,Running,4749
123127,3085,Running,4749
123128,3085,Running,4749
123776,3115,Running,4749
123865,3115,Running,4749
123905,3085,Running,4749
123911,3142,Running,4749
124278,3085,Running,4749
124497,3115,Running,4749
124823,3119,Rugby,4748
124984,3115,Running,4749
124991,3115,Running,4749
124999,3115,Running,4749
125565,3115,Running,4749
125571,3115,Running,4749
125732,3115,Running,4749
125738,3115,Running,4749
125749,3115,Running,4749
125760,3085,Running,4749
125765,3085,Running,4749
126486,3115,Running,4749
126492,3115,Running,4749
126530,3115,Running,4749
126551,3085,Running,4749
126558,3085,Running,4749
126572,3115,Running,4749
126578,3115,Running,4749
126605,3085,Running,4749
126610,3085,Running,4749
126637,3115,Running,4749
126655,3115,Running,4749
126773,3115,Running,4749
127134,3115,Running,4749
127159,3115,Running,4749
127160,3144,Football,4758
127221,3115,Running,4749
127231,3115,Running,4749
127311,3115,Running,4749
127312,3115,Running,4749
127344,3115,Running,4749
127395,3115,Running,4749
127427,3115,Running,4749
127667,3085,Running,4749
127725,3085,Running,4749
127889,3115,Running,4749
127910,3115,Running,4749
127916,3115,Running,4749
128006,3115,Running,4749
128015,3115,Running,4749
128309,3144,Football,4758
129347,3123,Outdoors,4738
129482,3123,Outdoors,4738
129496,3123,Outdoors,4738
129689,3093,Oudoors,4747
129883,3089,Rugby,4748
130334,3115,Running,4749
130343,3115,Running,4749
130509,3115,Running,4749
130852,3089,Rugby,4748
130869,3089,Rugby,4748
131945,3116,Cycling,4741
132896,3144,Football,4758
132939,3085,Running,4749
132951,3115,Running,4749
133079,3115,Running,4749
133123,3115,Running,4749
133140,3115,Running,4749
133278,3087,Football,4758
133383,3085,Running,4749
133438,3093,Oudoors,4747
133558,3123,Outdoors,4738
134158,3116,Cycling,4741
134173,3116,Cycling,4741
134178,3116,Cycling,4741
134183,3116,Cycling,4741
134189,3116,Cycling,4741
134195,3116,Cycling,4741
134201,3116,Cycling,4741
134207,3116,Cycling,4741
134232,3086,Cycling,4741
134241,3086,Cycling,4741
134248,3086,Cycling,4741
134257,3086,Cycling,4741
134263,3086,Cycling,4741
134269,3086,Cycling,4741
134275,3086,Cycling,4741
134281,3086,Cycling,4741
134288,3086,Cycling,4741
134294,3086,Cycling,4741
134374,3086,Cycling,4741
134376,3086,Cycling,4741
134378,3086,Cycling,4741
134392,3086,Cycling,4741
134394,3086,Cycling,4741
134398,3116,Cycling,4741
134418,3143,Cycling,4741
134451,3085,Running,4749
134558,3142,Running,4749
134563,3142,Running,4749
134568,3142,Running,4749
134855,3142,Running,4749
135228,3142,Running,4749
135361,3086,Cycling,4741
135705,3089,Rugby,4748
136274,3115,Running,4749
136399,3144,Football,4758
136513,3088,Swimming,4750
136525,3088,Swimming,4750
136597,3085,Running,4749
137207,3115,Running,4749
137237,3144,Football,4758
137247,3144,Football,4758
137252,3144,Football,4758
137752,3144,Football,4758
137806,3115,Running,4749
137822,3115,Running,4749
137826,3115,Running,4749
137894,3115,Running,4749
137901,3115,Running,4749
137913,3115,Running,4749
137919,3115,Running,4749
137931,3115,Running,4749
137937,3115,Running,4749
138106,3085,Running,4749
138113,3085,Running,4749
138120,3085,Running,4749
138127,3085,Running,4749
138141,3085,Running,4749
138390,3144,Football,4758
138395,3144,Football,4758
138400,3144,Football,4758
138478,3087,Football,4758
138511,3144,Football,4758
138523,3144,Football,4758
138541,3144,Football,4758
138553,3087,Football,4758
138578,3142,Running,4749
138584,3142,Running,4749
138590,3142,Running,4749
138596,3142,Running,4749
138667,3142,Running,4749
138967,3087,Football,4758
139601,3144,Football,4758
139606,3144,Football,4758
140408,3144,Football,4758
141759,3144,Football,4758
142002,3144,Football,4758
142037,3087,Football,4758
142075,3115,Running,4749
142081,3115,Running,4749
142281,3087,Football,4758
142315,3144,Football,4758
142326,3087,Football,4758
142776,3087,Football,4758
142810,3087,Football,4758
142816,3144,Football,4758
142821,3144,Football,4758
142867,3087,Football,4758
142972,3144,Football,4758
142985,3144,Football,4758
143040,3087,Football,4758
143046,3144,Football,4758
143343,3087,Football,4758
143729,3115,Running,4749
143753,3115,Running,4749
143988,3089,Rugby,4748
144284,3115,Running,4749
144302,3115,Running,4749
144308,3115,Running,4749
144345,3087,Football,4758
144396,3087,Football,4758
144402,3144,Football,4758
144414,3087,Football,4758
144708,3085,Running,4749
145234,3115,Running,4749
145290,3115,Running,4749
145296,3115,Running,4749
145434,3087,Football,4758
145529,3144,Football,4758
145534,3087,Football,4758
145545,3144,Football,4758
145550,3144,Football,4758
145558,3144,Football,4758
145573,3144,Football,4758
145619,3087,Football,4758
145883,3085,Running,4749
146104,3085,Running,4749
146281,3144,Football,4758
146331,3144,Football,4758
146336,3144,Football,4758
146368,3085,Running,4749
146378,3085,Running,4749
146418,3142,Running,4749
146423,3142,Running,4749
146428,3142,Running,4749
146433,3142,Running,4749
146843,3087,Football,4758
146965,3115,Running,4749
146977,3115,Running,4749
147010,3115,Running,4749
147115,3086,Cycling,4741
147213,3119,Rugby,4748
147219,3089,Rugby,4748
147256,3089,Rugby,4748
147398,3115,Running,4749
147404,3115,Running,4749
147410,3115,Running,4749
147416,3115,Running,4749
147422,3115,Running,4749
147434,3115,Running,4749
147744,3146,Rugby,4748
147746,3146,Rugby,4748
147772,3089,Rugby,4748
147781,3089,Rugby,4748
148192,3086,Cycling,4741
148299,3087,Football,4758
148347,3115,Running,4749
148353,3115,Running,4749
148367,3115,Running,4749
148371,3115,Running,4749
148385,3115,Running,4749
148498,3086,Cycling,4741
148569,3142,Running,4749
148616,3142,Running,4749
148627,3085,Running,4749
148638,3115,Running,4749
148650,3115,Running,4749
148656,3115,Running,4749
148679,3085,Running,4749
148715,3142,Running,4749
148721,3115,Running,4749
148751,3142,Running,4749
148811,3142,Running,4749
148877,3085,Running,4749
149712,3115,Running,4749
149718,3115,Running,4749
149999,3085,Running,4749
150009,3115,Running,4749
150251,3085,Running,4749
150263,3085,Running,4749
150269,3085,Running,4749
150275,3085,Running,4749
150305,3115,Running,4749
150311,3115,Running,4749
150317,3142,Running,4749
150341,3089,Rugby,4748
150813,3089,Rugby,4748
150840,3144,Football,4758
150928,3085,Running,4749
150970,3144,Football,4758
150977,3146,Rugby,4748
150990,3115,Running,4749
151385,3085,Running,4749
151787,3115,Running,4749
151848,3115,Running,4749
152155,3144,Football,4758
152341,3142,Running,4749
152839,3087,Football,4758
152844,3087,Football,4758
152871,3144,Football,4758
152884,3144,Football,4758
152907,3087,Football,4758
152987,3142,Running,4749
153074,3146,Rugby,4748
153459,3085,Running,4749
153988,3115,Running,4749
154243,3085,Running,4749
154321,3085,Running,4749
154827,3115,Running,4749
155353,3144,Football,4758
155440,3087,Football,4758
155445,3144,Football,4758
155854,3093,Oudoors,4747
155904,3142,Running,4749
156144,3142,Running,4749
156176,3142,Running,4749
156185,3142,Running,4749
156199,3142,Running,4749
156205,3142,Running,4749
156279,3115,Running,4749
156786,3085,Running,4749
156799,3085,Running,4749
156815,3142,Running,4749
156839,3085,Running,4749
157118,3115,Running,4749
157159,3085,Running,4749
157242,3115,Running,4749
157296,3085,Running,4749
157302,3085,Running,4749
157402,3115,Running,4749
157408,3115,Running,4749
157431,3115,Running,4749
157460,3115,Running,4749
157496,3085,Running,4749
157764,3093,Oudoors,4747
157805,3123,Outdoors,4738
157930,3093,Oudoors,4747
158427,3087,Football,4758
158663,3144,Football,4758
158770,3142,Running,4749
158776,3142,Running,4749
158793,3085,Running,4749
159372,3142,Running,4749
159548,3146,Rugby,4748
160326,3086,Cycling,4741
160333,3086,Cycling,4741
160465,3143,Cycling,4741
160487,3143,Cycling,4741
160496,3143,Cycling,4741
160531,3143,Cycling,4741
161172,3144,Football,4758
161440,3142,Running,4749
162080,3115,Running,4749
162145,3085,Running,4749
162410,3085,Running,4749
162442,3085,Running,4749
162450,3085,Running,4749
162543,3115,Running,4749
162551,3115,Running,4749
162557,3115,Running,4749
162751,3115,Running,4749
162787,3115,Running,4749
162793,3115,Running,4749
162823,3115,Running,4749
162829,3115,Running,4749
162841,3115,Running,4749
163030,3085,Running,4749
163054,3085,Running,4749
163072,3085,Running,4749
163086,3085,Running,4749
164084,3086,Cycling,4741
164091,3086,Cycling,4741
164294,3115,Running,4749
164300,3115,Running,4749
164306,3115,Running,4749
164313,3115,Running,4749
164325,3115,Running,4749
164331,3115,Running,4749
164337,3115,Running,4749
164343,3115,Running,4749
164349,3115,Running,4749
164355,3115,Running,4749
164361,3115,Running,4749
164387,3115,Running,4749
164415,3115,Running,4749
164439,3115,Running,4749
164445,3115,Running,4749
164451,3115,Running,4749
164457,3115,Running,4749
164464,3115,Running,4749
164470,3115,Running,4749
164488,3115,Running,4749
164494,3115,Running,4749
164506,3115,Running,4749
164512,3115,Running,4749
164593,3085,Running,4749
164600,3115,Running,4749
164612,3086,Cycling,4741
164617,3086,Cycling,4741
164622,3085,Running,4749
164628,3085,Running,4749
164640,3085,Running,4749
164887,3086,Cycling,4741
165004,3115,Running,4749
165010,3115,Running,4749
165016,3115,Running,4749
165022,3115,Running,4749
165031,3115,Running,4749
165043,3115,Running,4749
165049,3115,Running,4749
165055,3115,Running,4749
165067,3115,Running,4749
165073,3085,Running,4749
165079,3085,Running,4749
165085,3115,Running,4749
165091,3115,Running,4749
165097,3115,Running,4749
165434,3085,Running,4749
166952,3085,Running,4749
167082,3115,Running,4749
167288,3085,Running,4749
167490,3085,Running,4749
167497,3085,Running,4749
167509,3142,Running,4749
167525,3142,Running,4749
167531,3142,Running,4749
167559,3085,Running,4749
167568,3085,Running,4749
167587,3085,Running,4749
167593,3085,Running,4749
167663,3142,Running,4749
167688,3115,Running,4749
167715,3115,Running,4749
167728,3115,Running,4749
167752,3142,Running,4749
167758,3142,Running,4749
167779,3115,Running,4749
167795,3115,Running,4749
167802,3115,Running,4749
167820,3115,Running,4749
167826,3115,Running,4749
167844,3115,Running,4749
167850,3115,Running,4749
167862,3115,Running,4749
167868,3115,Running,4749
167874,3115,Running,4749
167880,3115,Running,4749
167886,3115,Running,4749
167892,3115,Running,4749
167999,3086,Cycling,4741
168006,3086,Cycling,4741
168044,3085,Running,4749
168077,3085,Running,4749
168083,3085,Running,4749
168101,3085,Running,4749
168179,3115,Running,4749
168372,3115,Running,4749
168378,3115,Running,4749
168384,3115,Running,4749
168429,3085,Running,4749
168461,3115,Running,4749
168473,3115,Running,4749
168507,3115,Running,4749
168568,3115,Running,4749
168592,3115,Running,4749
168598,3115,Running,4749
168614,3142,Running,4749
168620,3142,Running,4749
168626,3142,Running,4749
168722,3085,Running,4749
168742,3085,Running,4749
168783,3115,Running,4749
168793,3115,Running,4749
168798,3115,Running,4749
168812,3115,Running,4749
168817,3115,Running,4749
168832,3115,Running,4749
168857,3115,Running,4749
169617,3115,Running,4749
169737,3115,Running,4749
169844,3085,Running,4749
170013,3085,Running,4749
170024,3085,Running,4749
170036,3085,Running,4749
170042,3085,Running,4749
170179,3085,Running,4749
170258,3085,Running,4749
170264,3085,Running,4749
170295,3142,Running,4749
170315,3085,Running,4749
170490,3115,Running,4749
170497,3115,Running,4749
170503,3115,Running,4749
170562,3115,Running,4749
170568,3115,Running,4749
171000,3087,Football,4758
171005,3087,Football,4758
171129,3144,Football,4758
171249,3087,Football,4758
171352,3115,Running,4749
171364,3115,Running,4749
171452,3085,Running,4749
171570,3096,Triathlon,4759
171637,3115,Running,4749
171644,3115,Running,4749
171716,3116,Cycling,4741
171734,3116,Cycling,4741
171757,3116,Cycling,4741
171858,3116,Cycling,4741
171948,3115,Running,4749
172082,3085,Running,4749
172807,3115,Running,4749
172897,3089,Rugby,4748
173069,3096,Triathlon,4759
173074,3088,Swimming,4750
173138,3096,Triathlon,4759
173581,3142,Running,4749
173600,3088,Swimming,4750
173656,3085,Running,4749
173678,3115,Running,4749
174221,3085,Running,4749
174302,3085,Running,4749
174356,3116,Cycling,4741
174422,3116,Cycling,4741
174589,3085,Running,4749
174607,3115,Running,4749
174613,3115,Running,4749
174630,3116,Cycling,4741
174632,3116,Cycling,4741
174711,3115,Running,4749
175200,3144,Football,4758
175339,3115,Running,4749
175391,3144,Football,4758
175397,3144,Football,4758
175402,3144,Football,4758
175472,3085,Running,4749
175478,3085,Running,4749
175490,3085,Running,4749
175507,3115,Running,4749
175513,3115,Running,4749
175519,3115,Running,4749
175525,3115,Running,4749
175531,3115,Running,4749
175567,3085,Running,4749
175664,3116,Cycling,4741
175743,3093,Oudoors,4747
175846,3115,Running,4749
176142,3085,Running,4749
176148,3085,Running,4749
176160,3085,Running,4749
176190,3089,Rugby,4748
176196,3089,Rugby,4748
176202,3089,Rugby,4748
176208,3089,Rugby,4748
176216,3089,Rugby,4748
176221,3089,Rugby,4748
176226,3089,Rugby,4748
176232,3089,Rugby,4748
176238,3089,Rugby,4748
176327,3085,Running,4749
176821,3144,Football,4758
176853,3115,Running,4749
176867,3115,Running,4749
177995,3085,Running,4749
178044,3085,Running,4749
178169,3093,Oudoors,4747
178283,3123,Outdoors,4738
178317,3093,Oudoors,4747
178534,3086,Cycling,4741
178550,3086,Cycling,4741
179329,3115,Running,4749
179402,3144,Football,4758
179412,3144,Football,4758
179475,3085,Running,4749
179481,3085,Running,4749
179487,3085,Running,4749
179592,3115,Running,4749
179845,3144,Football,4758
179880,3087,Football,4758
179886,3087,Football,4758
179892,3144,Football,4758
179942,3087,Football,4758
179948,3144,Football,4758
179953,3087,Football,4758
179959,3144,Football,4758
179991,3144,Football,4758
180007,3087,Football,4758
180012,3087,Football,4758
180498,3087,Football,4758
180515,3087,Football,4758
181065,3085,Running,4749
181169,3085,Running,4749
181303,3086,Cycling,4741
181675,3144,Football,4758
181888,3144,Football,4758
182264,3144,Football,4758
182485,3085,Running,4749
182500,3085,Running,4749
182537,3115,Running,4749
182538,3085,Running,4749
182669,3144,Football,4758
182681,3144,Football,4758
182700,3142,Running,4749
182717,3087,Football,4758
182812,3085,Running,4749
182887,3115,Running,4749
182938,3087,Football,4758
182946,3087,Football,4758
183146,3115,Running,4749
183170,3085,Running,4749
183202,3144,Football,4758
183219,3085,Running,4749
183420,3085,Running,4749
183426,3144,Football,4758
183671,3115,Running,4749
183690,3115,Running,4749
183735,3142,Running,4749
183759,3087,Football,4758
183779,3087,Football,4758
183816,3087,Football,4758
183856,3087,Football,4758
184000,3125,Triathlon,4759
184047,3144,Football,4758
184119,3144,Football,4758
184125,3144,Football,4758
184134,3087,Football,4758
184228,3085,Running,4749
184320,3125,Triathlon,4759
184408,3096,Triathlon,4759
184452,3096,Triathlon,4759
184540,3153,Triathlon,4759
184543,3153,Triathlon,4759
184759,3115,Running,4749
184942,3085,Running,4749
184953,3115,Running,4749
185058,3085,Running,4749
185173,3085,Running,4749
185201,3085,Running,4749
185211,3085,Running,4749
185229,3085,Running,4749
185253,3142,Running,4749
185267,3115,Running,4749
185280,3115,Running,4749
185287,3115,Running,4749
185339,3085,Running,4749
185488,3087,Football,4758
185533,3115,Running,4749
185577,3115,Running,4749
185583,3115,Running,4749
185611,3115,Running,4749
185813,3162,Fashion,4742
185922,3085,Running,4749
185943,3115,Running,4749
185964,3085,Running,4749
186157,3115,Running,4749
186195,3115,Running,4749
186205,3115,Running,4749
186352,3087,Football,4758
186423,3087,Football,4758
186847,3115,Running,4749
186924,3085,Running,4749
186975,3085,Running,4749
186986,3085,Running,4749
187030,3115,Running,4749
187039,3087,Football,4758
187050,3087,Football,4758
187068,3085,Running,4749
187090,3085,Running,4749
187096,3085,Running,4749
187105,3085,Running,4749
187106,3144,Football,4758
187122,3142,Running,4749
187123,3115,Running,4749
187137,3086,Cycling,4741
187147,3086,Cycling,4741
187236,3086,Cycling,4741
187237,3086,Cycling,4741
187238,3086,Cycling,4741
187273,3085,Running,4749
187562,3086,Cycling,4741
187635,3116,Cycling,4741
187645,3116,Cycling,4741
187657,3116,Cycling,4741
187662,3116,Cycling,4741
187668,3116,Cycling,4741
187765,3116,Cycling,4741
187911,3115,Running,4749
187957,3115,Running,4749
187966,3115,Running,4749
188116,3116,Cycling,4741
188750,3085,Running,4749
188946,3115,Running,4749
188959,3115,Running,4749
189244,3085,Running,4749
189559,3115,Running,4749
189571,3085,Running,4749
189582,3142,Running,4749
189635,3085,Running,4749
189685,3085,Running,4749
189942,3144,Football,4758
189951,3085,Running,4749
189958,3162,Fashion,4742
190214,3087,Football,4758
190276,3085,Running,4749
190351,3087,Football,4758
190378,3162,Fashion,4742
190386,3162,Fashion,4742
190418,3162,Fashion,4742
190435,3085,Running,4749
190447,3086,Cycling,4741
190456,3087,Football,4758
190550,3087,Football,4758
190602,3085,Running,4749
190874,3115,Running,4749
190908,3085,Running,4749
190922,3085,Running,4749
190997,3115,Running,4749
191109,3115,Running,4749
191118,3115,Running,4749
191251,3085,Running,4749
191267,3144,Football,4758
191270,3087,Football,4758
191289,3087,Football,4758
191310,3086,Cycling,4741
191380,3085,Running,4749
191388,3116,Cycling,4741
191509,3115,Running,4749
191566,3085,Running,4749
191575,3115,Running,4749
191595,3162,Fashion,4742
191605,3162,Fashion,4742
191618,3162,Fashion,4742
191651,3162,Fashion,4742
191674,3162,Fashion,4742
191713,3093,Oudoors,4747
191729,3093,Oudoors,4747
191735,3086,Cycling,4741
191822,3115,Running,4749
191894,3085,Running,4749
191913,3142,Running,4749
191958,3085,Running,4749
191972,3085,Running,4749
192127,3086,Cycling,4741
192154,3086,Cycling,4741
192181,3115,Running,4749
192198,3115,Running,4749
192240,3085,Running,4749
192340,3116,Cycling,4741
192344,3085,Running,4749
192348,3116,Cycling,4741
192357,3162,Fashion,4742
192385,3093,Oudoors,4747
192400,3123,Outdoors,4738
192544,3093,Oudoors,4747
192576,3123,Outdoors,4738
192584,3123,Outdoors,4738
192623,3086,Cycling,4741
192651,3116,Cycling,4741
192656,3116,Cycling,4741
192668,3116,Cycling,4741
192684,3086,Cycling,4741
192788,3144,Football,4758
192841,3146,Rugby,4748
193130,3144,Football,4758
193292,3087,Football,4758
193396,3115,Running,4749
193435,3115,Running,4749
193503,3144,Football,4758
195162,3087,Football,4758
195605,3085,Running,4749
195724,3086,Cycling,4741
195730,3086,Cycling,4741
195734,3086,Cycling,4741
195736,3086,Cycling,4741
195739,3086,Cycling,4741
195742,3086,Cycling,4741
195752,3086,Cycling,4741
195754,3086,Cycling,4741
195788,3086,Cycling,4741
195808,3086,Cycling,4741
195857,3116,Cycling,4741
195865,3116,Cycling,4741
195872,3116,Cycling,4741
195917,3116,Cycling,4741
195929,3116,Cycling,4741
195939,3116,Cycling,4741
195948,3116,Cycling,4741
195995,3116,Cycling,4741
196001,3116,Cycling,4741
196003,3116,Cycling,4741
196010,3116,Cycling,4741
196116,3116,Cycling,4741
196120,3116,Cycling,4741
196124,3116,Cycling,4741
196143,3116,Cycling,4741
196150,3116,Cycling,4741
196256,3116,Cycling,4741
196357,3116,Cycling,4741
196386,3116,Cycling,4741
196413,3116,Cycling,4741
196471,3116,Cycling,4741
196494,3086,Cycling,4741
196501,3087,Football,4758
196544,3085,Running,4749
196915,3085,Running,4749
197001,3086,Cycling,4741
197100,3086,Cycling,4741
198498,3086,Cycling,4741
198593,3086,Cycling,4741
198720,3115,Running,4749
198783,3115,Running,4749
198789,3115,Running,4749
198819,3115,Running,4749
199171,3115,Running,4749
199434,3085,Running,4749
199438,3086,Cycling,4741
199455,3086,Cycling,4741
199475,3086,Cycling,4741
199480,3086,Cycling,4741
199494,3086,Cycling,4741
199520,3086,Cycling,4741
199535,3086,Cycling,4741
199563,3085,Running,4749
199571,3162,Fashion,4742
199626,3085,Running,4749
199645,3085,Running,4749
199660,3142,Running,4749
199766,3142,Running,4749
199767,3142,Running,4749
199992,3115,Running,4749
199999,3085,Running,4749
200674,3162,Fashion,4742
200675,3162,Fashion,4742
200676,3162,Fashion,4742
200677,3162,Fashion,4742
200678,3162,Fashion,4742
200687,3162,Fashion,4742
200726,3162,Fashion,4742
200743,3162,Fashion,4742
200749,3162,Fashion,4742
200771,3162,Fashion,4742
201034,3085,Running,4749
201702,3115,Running,4749
201721,3115,Running,4749
201784,3144,Football,4758
201790,3087,Football,4758
202729,3115,Running,4749
202811,3115,Running,4749
202827,3087,Football,4758
202849,3115,Running,4749
202860,3115,Running,4749
202866,3115,Running,4749
202880,3115,Running,4749
202930,3115,Running,4749
203406,3085,Running,4749
203626,3085,Running,4749
203637,3085,Running,4749
203639,3085,Running,4749
203677,3085,Running,4749
203790,3085,Running,4749
203805,3094,Golf,4744
203902,3162,Fashion,4742
204708,3085,Running,4749
204713,3085,Running,4749
204743,3085,Running,4749
204766,3085,Running,4749
204781,3085,Running,4749
204787,3095,Gym,4745
204792,3087,Football,4758
204796,3087,Football,4758
204806,3115,Running,4749
204870,3115,Running,4749
204876,3087,Football,4758
204882,3144,Football,4758
204886,3144,Football,4758
204892,3087,Football,4758
204899,3085,Running,4749
204921,3087,Football,4758
204978,3116,Cycling,4741
205077,3085,Running,4749
205082,3088,Swimming,4750
205088,3088,Swimming,4750
205095,3088,Swimming,4750
205178,3143,Cycling,4741
205182,3086,Cycling,4741
205240,3162,Fashion,4742
205398,3085,Running,4749
205547,3142,Running,4749
205554,3142,Running,4749
205556,3142,Running,4749
205559,3142,Running,4749
205563,3150,Outdoors,4738
205569,3150,Outdoors,4738
205577,3150,Outdoors,4738
205579,3093,Oudoors,4747
205587,3123,Outdoors,4738
205741,3085,Running,4749
205748,3115,Running,4749
205788,3085,Running,4749
205841,3115,Running,4749
206046,3085,Running,4749
206050,3085,Running,4749
206060,3115,Running,4749
206066,3115,Running,4749
206072,3115,Running,4749
206096,3094,Golf,4744
206111,3094,Golf,4744
206117,3085,Running,4749
206122,3094,Golf,4744
206134,3094,Golf,4744
206557,3094,Golf,4744
206642,3094,Golf,4744
206656,3094,Golf,4744
206726,3094,Golf,4744
206733,3094,Golf,4744
206735,3094,Golf,4744
206739,3094,Golf,4744
206744,3138,Golf,4744
206748,3138,Golf,4744
206752,3151,Golf,4744
206773,3138,Golf,4744
206897,3085,Running,4749
206989,3085,Running,4749
207998,3138,Golf,4744
208013,3138,Golf,4744
208014,3138,Golf,4744
208016,3138,Golf,4744
208043,3138,Golf,4744
208071,3086,Cycling,4741
208110,3138,Golf,4744
208114,3138,Golf,4744
208120,3138,Golf,4744
208128,3138,Golf,4744
208136,3138,Golf,4744
208142,3138,Golf,4744
208146,3138,Golf,4744
208148,3138,Golf,4744
208150,3138,Golf,4744
208460,3125,Triathlon,4759
208741,3085,Running,4749
208819,3085,Running,4749
208831,3085,Running,4749
208837,3095,Gym,4745
208842,3095,Gym,4745
208883,3089,Rugby,4748
208884,3089,Rugby,4748
208919,3093,Oudoors,4747
208925,3093,Oudoors,4747
208937,3123,Outdoors,4738
208942,3123,Outdoors,4738
208972,3115,Running,4749
208994,3087,Football,4758
209027,3093,Oudoors,4747
209051,3123,Outdoors,4738
209071,3093,Oudoors,4747
209082,3123,Outdoors,4738
209097,3123,Outdoors,4738
209273,3093,Oudoors,4747
209279,3093,Oudoors,4747
209787,3115,Running,4749
209790,3087,Football,4758
209793,3085,Running,4749
209797,3115,Running,4749
209803,3115,Running,4749
209805,3085,Running,4749
209821,3115,Running,4749
209873,3115,Running,4749
209879,3095,Gym,4745
209884,3095,Gym,4745
209888,3095,Gym,4745
209919,3085,Running,4749
210475,3085,Running,4749
210882,3087,Football,4758
210891,3162,Fashion,4742
210906,3085,Running,4749
210929,3155,Fashion,4742
210933,3087,Football,4758
210958,3087,Football,4758
210964,3085,Running,4749
210993,3085,Running,4749
211007,3162,Fashion,4742
211024,3162,Fashion,4742
211031,3162,Fashion,4742
211093,3087,Football,4758
211096,3087,Football,4758
211101,3155,Fashion,4742
211105,3155,Fashion,4742
211114,3087,Football,4758
211119,3085,Running,4749
211127,3087,Football,4758
211137,3237,Badminton,4762
211159,3115,Running,4749
211166,3087,Football,4758
211172,3087,Football,4758
211267,3162,Fashion,4742
211279,3162,Fashion,4742
211288,3162,Fashion,4742
211298,3162,Fashion,4742
211326,3085,Running,4749
211337,3085,Running,4749
211343,3085,Running,4749
211357,3085,Running,4749
211370,3085,Running,4749
211392,3085,Running,4749
211420,3085,Running,4749
211429,3085,Running,4749
211449,3085,Running,4749
211470,3085,Running,4749
211535,3085,Running,4749
211583,3085,Running,4749
211589,3085,Running,4749
211602,3085,Running,4749
211608,3085,Running,4749
211614,3085,Running,4749
211620,3085,Running,4749
211626,3085,Running,4749
211632,3085,Running,4749
211638,3085,Running,4749
211650,3085,Running,4749
211656,3085,Running,4749
211662,3085,Running,4749
211668,3085,Running,4749
211674,3085,Running,4749
211680,3085,Running,4749
211686,3085,Running,4749
211692,3085,Running,4749
211698,3085,Running,4749
211704,3085,Running,4749
211710,3085,Running,4749
211718,3085,Running,4749
211724,3085,Running,4749
211730,3085,Running,4749
211737,3085,Running,4749
211739,3085,Running,4749
211749,3085,Running,4749
211759,3085,Running,4749
211801,3115,Running,4749
211808,3085,Running,4749
211825,3087,Football,4758
211829,3085,Running,4749
211917,3194,Motorsport,4746
211943,3194,Motorsport,4746
211947,3194,Motorsport,4746
211955,3194,Motorsport,4746
211958,3194,Motorsport,4746
211963,3195,Motorsport,4746
211969,3195,Motorsport,4746
211973,3195,Motorsport,4746
211977,3195,Motorsport,4746
211982,3194,Motorsport,4746
212112,3196,Motorsport,4746
212119,3196,Motorsport,4746
212124,3196,Motorsport,4746
212129,3196,Motorsport,4746
212136,3196,Motorsport,4746
212143,3195,Motorsport,4746
212147,3195,Motorsport,4746
212153,3195,Motorsport,4746
212165,3194,Motorsport,4746
212171,3195,Motorsport,4746
212175,3194,Motorsport,4746
212179,3194,Motorsport,4746
212185,3194,Motorsport,4746
212191,3194,Motorsport,4746
212198,3194,Motorsport,4746
212203,3194,Motorsport,4746
212208,3194,Motorsport,4746
212213,3087,Football,4758
212221,3085,Running,4749
212226,3162,Fashion,4742
212232,3194,Motorsport,4746
212238,3194,Motorsport,4746
212247,3085,Running,4749
212253,3085,Running,4749
212431,3085,Running,4749
212487,3085,Running,4749
212498,3085,Running,4749
212505,3085,Running,4749
212516,3085,Running,4749
212523,3085,Running,4749
212534,3085,Running,4749
212543,3085,Running,4749
212576,3085,Running,4749
212598,3085,Running,4749
212606,3085,Running,4749
212705,3194,Motorsport,4746
212712,3194,Motorsport,4746
212730,3194,Motorsport,4746
212739,3155,Fashion,4742
212751,3115,Running,4749
212756,3195,Motorsport,4746
212780,3194,Motorsport,4746
212785,3195,Motorsport,4746
212790,3115,Running,4749
212805,3162,Fashion,4742
212823,3089,Rugby,4748
212830,3089,Rugby,4748
212839,3089,Rugby,4748
212854,3194,Motorsport,4746
212902,3115,Running,4749
212960,3194,Motorsport,4746
212964,3194,Motorsport,4746
212970,3087,Football,4758
212972,3162,Fashion,4742
212986,3085,Running,4749
212993,3162,Fashion,4742
213005,3093,Oudoors,4747
213010,3093,Oudoors,4747
213016,3123,Outdoors,4738
213023,3093,Oudoors,4747
213028,3093,Oudoors,4747
213034,3085,Running,4749
213043,3085,Running,4749
213050,3085,Running,4749
213060,3085,Running,4749
213073,3115,Running,4749
213074,3085,Running,4749
213088,3085,Running,4749
213097,3085,Running,4749
213121,3085,Running,4749
213138,3085,Running,4749
213145,3085,Running,4749
213153,3085,Running,4749
213171,3085,Running,4749
213178,3085,Running,4749
213185,3085,Running,4749
213192,3085,Running,4749
213203,3085,Running,4749
213210,3085,Running,4749
213333,3138,Golf,4744
213350,3138,Golf,4744
213363,3138,Golf,4744
213365,3138,Golf,4744
213367,3138,Golf,4744
213370,3138,Golf,4744
213413,3138,Golf,4744
213441,3138,Golf,4744
213443,3138,Golf,4744
213663,3116,Cycling,4741
213669,3086,Cycling,4741
213677,3115,Running,4749
213737,3085,Running,4749
213743,3085,Running,4749
213749,3115,Running,4749
213756,3086,Cycling,4741
213763,3086,Cycling,4741
214617,3162,Fashion,4742
214624,3085,Running,4749
214634,3094,Golf,4744
214636,3094,Golf,4744
214719,3116,Cycling,4741
214725,3085,Running,4749
214783,3154,Fashion,4742
214814,3087,Football,4758
215712,3085,Running,4749
215722,3085,Running,4749
215730,3085,Running,4749
215739,3085,Running,4749
216014,3138,Golf,4744
216017,3138,Golf,4744
216019,3138,Golf,4744
216120,3138,Golf,4744
216122,3138,Golf,4744
216124,3138,Golf,4744
216126,3094,Golf,4744
216480,3115,Running,4749
216487,3115,Running,4749
216494,3115,Running,4749
216501,3115,Running,4749
216508,3115,Running,4749
216515,3115,Running,4749
216569,3162,Fashion,4742
216791,3085,Running,4749
216796,3162,Fashion,4742
216801,3085,Running,4749
216811,3115,Running,4749
216817,3115,Running,4749
216823,3115,Running,4749
216832,3085,Running,4749
216851,3162,Fashion,4742
216857,3162,Fashion,4742
216965,3085,Running,4749
216972,3085,Running,4749
216981,3085,Running,4749
216989,3144,Football,4758
216997,3142,Running,4749
217003,3115,Running,4749
217009,3115,Running,4749
217020,3115,Running,4749
217105,3115,Running,4749
217109,3087,Football,4758
217122,3144,Football,4758
217156,3196,Motorsport,4746
217160,3196,Motorsport,4746
217167,3196,Motorsport,4746
217170,3196,Motorsport,4746
217178,3144,Football,4758
217202,3087,Football,4758
217423,3195,Motorsport,4746
217438,3087,Football,4758
217538,3194,Motorsport,4746
217905,3085,Running,4749
217928,3085,Running,4749
217994,3085,Running,4749
218005,3085,Running,4749
218016,3123,Outdoors,4738
218018,3123,Outdoors,4738
218059,3123,Outdoors,4738
218071,3093,Oudoors,4747
218086,3123,Outdoors,4738
218088,3123,Outdoors,4738
218095,3123,Outdoors,4738
218099,3123,Outdoors,4738
218105,3123,Outdoors,4738
218109,3123,Outdoors,4738
218136,3093,Oudoors,4747
218151,3093,Oudoors,4747
218158,3093,Oudoors,4747
218163,3093,Oudoors,4747
218174,3123,Outdoors,4738
218176,3123,Outdoors,4738
218178,3093,Oudoors,4747
218196,3093,Oudoors,4747
218198,3123,Outdoors,4738
218202,3093,Oudoors,4747
218209,3115,Running,4749
218219,3093,Oudoors,4747
218221,3115,Running,4749
218227,3093,Oudoors,4747
218231,3093,Oudoors,4747
218235,3093,Oudoors,4747
218245,3093,Oudoors,4747
218254,3123,Outdoors,4738
218256,3115,Running,4749
218262,3093,Oudoors,4747
218266,3093,Oudoors,4747
218284,3093,Oudoors,4747
218296,3150,Outdoors,4738
218303,3150,Outdoors,4738
218320,3150,Outdoors,4738
218326,3150,Outdoors,4738
218422,3150,Outdoors,4738
218590,3150,Outdoors,4738
218601,3150,Outdoors,4738
218614,3150,Outdoors,4738
218624,3150,Outdoors,4738
218664,3086,Cycling,4741
218666,3086,Cycling,4741
218699,3138,Golf,4744
218706,3138,Golf,4744
218747,3094,Golf,4744
218753,3138,Golf,4744
218769,3138,Golf,4744
218777,3138,Golf,4744
218796,3094,Golf,4744
218799,3138,Golf,4744
218811,3094,Golf,4744
218822,3094,Golf,4744
218823,3144,Football,4758
218843,3144,Football,4758
218867,3138,Golf,4744
218886,3094,Golf,4744
218908,3094,Golf,4744
218920,3094,Golf,4744
218936,3094,Golf,4744
218955,3138,Golf,4744
218961,3138,Golf,4744
218968,3138,Golf,4744
218975,3138,Golf,4744
218982,3138,Golf,4744
218989,3138,Golf,4744
218997,3094,Golf,4744
219014,3094,Golf,4744
219023,3094,Golf,4744
219031,3094,Golf,4744
219038,3094,Golf,4744
219045,3138,Golf,4744
219052,3094,Golf,4744
219059,3138,Golf,4744
219065,3138,Golf,4744
219071,3138,Golf,4744
219076,3138,Golf,4744
219082,3094,Golf,4744
219091,3138,Golf,4744
219098,3138,Golf,4744
219110,3138,Golf,4744
219115,3138,Golf,4744
219125,3094,Golf,4744
219132,3094,Golf,4744
219659,3086,Cycling,4741
219680,3086,Cycling,4741
219694,3086,Cycling,4741
219710,3093,Oudoors,4747
219727,3093,Oudoors,4747
219754,3085,Running,4749
219774,3162,Fashion,4742
219925,3138,Golf,4744
219933,3138,Golf,4744
219951,3138,Golf,4744
219968,3138,Golf,4744
220002,3085,Running,4749
220031,3162,Fashion,4742
220383,3138,Golf,4744
220387,3138,Golf,4744
220394,3138,Golf,4744
221655,3085,Running,4749
221754,3085,Running,4749
221759,3085,Running,4749
221764,3085,Running,4749
221769,3085,Running,4749
221773,3085,Running,4749
221777,3085,Running,4749
221782,3085,Running,4749
221874,3115,Running,4749
221877,3085,Running,4749
221885,3085,Running,4749
221915,3085,Running,4749
221925,3085,Running,4749
221929,3085,Running,4749
221931,3085,Running,4749
221942,3085,Running,4749
221949,3085,Running,4749
221952,3115,Running,4749
221960,3085,Running,4749
222412,3144,Football,4758
222420,3087,Football,4758
222428,3144,Football,4758
222433,3087,Football,4758
222438,3144,Football,4758
222443,3087,Football,4758
222629,3087,Football,4758
222643,3162,Fashion,4742
222654,3162,Fashion,4742
222659,3162,Fashion,4742
222666,3088,Swimming,4750
222672,3095,Gym,4745
222697,3088,Swimming,4750
222702,3085,Running,4749
222705,3088,Swimming,4750
222721,3088,Swimming,4750
222742,3088,Swimming,4750
222758,3088,Swimming,4750
222766,3088,Swimming,4750
222776,3085,Running,4749
222828,3085,Running,4749
222850,3115,Running,4749
222875,3115,Running,4749
222881,3162,Fashion,4742
222887,3162,Fashion,4742
222893,3162,Fashion,4742
222900,3115,Running,4749
222923,3162,Fashion,4742
222935,3115,Running,4749
222960,3115,Running,4749
222968,3087,Football,4758
222986,3095,Gym,4745
223009,3162,Fashion,4742
223015,3162,Fashion,4742
223025,3095,Gym,4745
223044,3162,Fashion,4742
223291,3085,Running,4749
223299,3085,Running,4749
223303,3085,Running,4749
223333,3162,Fashion,4742
223366,3155,Fashion,4742
223371,3085,Running,4749
223374,3085,Running,4749
223377,3085,Running,4749
223393,3085,Running,4749
223397,3085,Running,4749
223402,3115,Running,4749
223416,3085,Running,4749
223441,3115,Running,4749
223444,3115,Running,4749
223448,3115,Running,4749
223452,3085,Running,4749
223478,3162,Fashion,4742
223485,3115,Running,4749
223491,3115,Running,4749
223498,3088,Swimming,4750
223503,3162,Fashion,4742
223507,3162,Fashion,4742
223559,3095,Gym,4745
223574,3162,Fashion,4742
223580,3088,Swimming,4750
223585,3088,Swimming,4750
223588,3085,Running,4749
223598,3085,Running,4749
223601,3088,Swimming,4750
223606,3162,Fashion,4742
223611,3086,Cycling,4741
223617,3162,Fashion,4742
223622,3162,Fashion,4742
223627,3085,Running,4749
223628,3162,Fashion,4742
223637,3162,Fashion,4742
223644,3162,Fashion,4742
223671,3085,Running,4749
223685,3085,Running,4749
223691,3085,Running,4749
223696,3085,Running,4749
223701,3085,Running,4749
223706,3085,Running,4749
223714,3085,Running,4749
223717,3085,Running,4749
223721,3085,Running,4749
223734,3085,Running,4749
223738,3085,Running,4749
223743,3194,Motorsport,4746
223751,3195,Motorsport,4746
223757,3195,Motorsport,4746
223763,3195,Motorsport,4746
223770,3195,Motorsport,4746
224006,3088,Swimming,4750
224015,3162,Fashion,4742
224021,3085,Running,4749
224028,3085,Running,4749
224031,3093,Oudoors,4747
224038,3093,Oudoors,4747
224043,3093,Oudoors,4747
224050,3085,Running,4749
224052,3093,Oudoors,4747
224060,3093,Oudoors,4747
224064,3093,Oudoors,4747
224067,3085,Running,4749
224070,3093,Oudoors,4747
224076,3093,Oudoors,4747
224081,3194,Motorsport,4746
224088,3194,Motorsport,4746
224134,3194,Motorsport,4746
224142,3194,Motorsport,4746
224148,3194,Motorsport,4746
224167,3093,Oudoors,4747
224172,3093,Oudoors,4747
224180,3093,Oudoors,4747
224187,3093,Oudoors,4747
224192,3093,Oudoors,4747
224196,3123,Outdoors,4738
224199,3123,Outdoors,4738
224216,3123,Outdoors,4738
224220,3123,Outdoors,4738
224229,3123,Outdoors,4738
224234,3123,Outdoors,4738
224238,3123,Outdoors,4738
224247,3123,Outdoors,4738
224250,3123,Outdoors,4738
224256,3123,Outdoors,4738
224260,3123,Outdoors,4738
224264,3123,Outdoors,4738
224335,3195,Motorsport,4746
224355,3194,Motorsport,4746
224581,3093,Oudoors,4747
224610,3123,Outdoors,4738
224639,3162,Fashion,4742
224645,3093,Oudoors,4747
224648,3162,Fashion,4742
224656,3123,Outdoors,4738
224658,3162,Fashion,4742
224664,3123,Outdoors,4738
224667,3123,Outdoors,4738
224670,3123,Outdoors,4738
224674,3123,Outdoors,4738
224678,3093,Oudoors,4747
224682,3093,Oudoors,4747
224893,3089,Rugby,4748
224900,3146,Rugby,4748
224903,3089,Rugby,4748
224911,3089,Rugby,4748
224927,3220,Netball,4747
224955,3089,Rugby,4748
224963,3119,Rugby,4748
224969,3146,Rugby,4748
224975,3119,Rugby,4748
224984,3089,Rugby,4748
225306,3124,Gym,4745
225312,3124,Gym,4745
225318,3095,Gym,4745
225324,3085,Running,4749
225332,3085,Running,4749
225337,3087,Football,4758
225342,3087,Football,4758
225352,3162,Fashion,4742
225357,3085,Running,4749
225366,3095,Gym,4745
225716,3115,Running,4749
225730,3115,Running,4749
225743,3115,Running,4749
226029,3115,Running,4749
226035,3237,Badminton,4762
226042,3085,Running,4749
226049,3115,Running,4749
226054,3115,Running,4749
226059,3087,Football,4758
226065,3085,Running,4749
226069,3115,Running,4749
226073,3085,Running,4749
226077,3087,Football,4758
226222,3085,Running,4749
226228,3144,Football,4758
226236,3115,Running,4749
226246,3115,Running,4749
226261,3088,Swimming,4750
226281,3085,Running,4749
226287,3085,Running,4749
226293,3087,Football,4758
226299,3085,Running,4749
226344,3085,Running,4749
226437,3162,Fashion,4742
226440,3162,Fashion,4742
226450,3162,Fashion,4742
226455,3162,Fashion,4742
226460,3162,Fashion,4742
226661,3085,Running,4749
226708,3115,Running,4749
226715,3144,Football,4758
226721,3094,Golf,4744
226723,3138,Golf,4744
226725,3094,Golf,4744
226729,3094,Golf,4744
226733,3094,Golf,4744
226735,3094,Golf,4744
226737,3094,Golf,4744
226743,3094,Golf,4744
226746,3094,Golf,4744
226748,3094,Golf,4744
226751,3094,Golf,4744
226762,3094,Golf,4744
226764,3094,Golf,4744
226767,3094,Golf,4744
226769,3094,Golf,4744
226771,3094,Golf,4744
226773,3094,Golf,4744
226775,3094,Golf,4744
226777,3094,Golf,4744
226795,3085,Running,4749
226800,3085,Running,4749
226807,3094,Golf,4744
226809,3094,Golf,4744
226811,3094,Golf,4744
226916,3094,Golf,4744
226918,3094,Golf,4744
226920,3094,Golf,4744
226922,3094,Golf,4744
226924,3094,Golf,4744
226926,3094,Golf,4744
226928,3094,Golf,4744
226930,3094,Golf,4744
226932,3094,Golf,4744
227024,3123,Outdoors,4738
227029,3123,Outdoors,4738
227036,3123,Outdoors,4738
227043,3123,Outdoors,4738
227450,3123,Outdoors,4738
227455,3123,Outdoors,4738
227460,3123,Outdoors,4738
227464,3123,Outdoors,4738
227466,3123,Outdoors,4738
227485,3123,Outdoors,4738
227645,3162,Fashion,4742
227651,3162,Fashion,4742
227658,3162,Fashion,4742
227664,3162,Fashion,4742
227670,3093,Oudoors,4747
227706,3162,Fashion,4742
227712,3162,Fashion,4742
227727,3086,Cycling,4741
227728,3162,Fashion,4742
227737,3086,Cycling,4741
227739,3162,Fashion,4742
227740,3086,Cycling,4741
227757,3086,Cycling,4741
227762,3086,Cycling,4741
227766,3086,Cycling,4741
227772,3123,Outdoors,4738
227781,3123,Outdoors,4738
227795,3123,Outdoors,4738
227811,3123,Outdoors,4738
227819,3123,Outdoors,4738
227987,3162,Fashion,4742
227996,3162,Fashion,4742
228012,3162,Fashion,4742
228018,3162,Fashion,4742
228024,3162,Fashion,4742
228031,3162,Fashion,4742
228050,3162,Fashion,4742
228076,3162,Fashion,4742
228082,3162,Fashion,4742
228088,3162,Fashion,4742
228096,3123,Outdoors,4738
228241,3143,Cycling,4741
229031,3094,Golf,4744
229129,3094,Golf,4744
229131,3094,Golf,4744
229639,3095,Gym,4745
229649,3085,Running,4749
229655,3085,Running,4749
229715,3085,Running,4749
229729,3162,Fashion,4742
229730,3162,Fashion,4742
229732,3162,Fashion,4742
229747,3091,Tennis,4750
229748,3085,Running,4749
229750,3085,Running,4749
229755,3162,Fashion,4742
229766,3162,Fashion,4742
229776,3085,Running,4749
229782,3085,Running,4749
229874,3124,Gym,4745
229875,3124,Gym,4745
229877,3124,Gym,4745
229883,3095,Gym,4745
229898,3162,Fashion,4742
229901,3246,Basketball,4740
230241,3124,Gym,4745
230268,3162,Fashion,4742
230300,3085,Running,4749
230311,3162,Fashion,4742
230352,3144,Football,4758
230517,3085,Running,4749
230520,3085,Running,4749
230524,3085,Running,4749
230527,3094,Golf,4744
230533,3094,Golf,4744
230540,3091,Tennis,4750
230544,3162,Fashion,4742
230551,3091,Tennis,4750
230553,3162,Fashion,4742
230557,3085,Running,4749
230572,3162,Fashion,4742
230588,3155,Fashion,4742
230594,3162,Fashion,4742
230605,3155,Fashion,4742
230617,3155,Fashion,4742
230633,3162,Fashion,4742
230643,3162,Fashion,4742
230648,3155,Fashion,4742
230655,3162,Fashion,4742
230662,3162,Fashion,4742
230667,3162,Fashion,4742
230676,3162,Fashion,4742
230682,3162,Fashion,4742
230687,3162,Fashion,4742
230694,3162,Fashion,4742
230699,3162,Fashion,4742
230704,3162,Fashion,4742
230712,3162,Fashion,4742
230717,3162,Fashion,4742
230722,3162,Fashion,4742
230727,3162,Fashion,4742
230733,3162,Fashion,4742
230749,3162,Fashion,4742
230759,3162,Fashion,4742
230777,3162,Fashion,4742
230786,3162,Fashion,4742
230806,3162,Fashion,4742
230816,3162,Fashion,4742
230825,3162,Fashion,4742
230831,3162,Fashion,4742
230837,3162,Fashion,4742
230850,3162,Fashion,4742
230851,3162,Fashion,4742
230852,3162,Fashion,4742
230853,3085,Running,4749
230857,3085,Running,4749
230864,3115,Running,4749
230867,3087,Football,4758
230874,3155,Fashion,4742
231178,3115,Running,4749
231185,3123,Outdoors,4738
231201,3123,Outdoors,4738
231210,3123,Outdoors,4738
231218,3123,Outdoors,4738
231230,3123,Outdoors,4738
231237,3087,Football,4758
231260,3087,Football,4758
231290,3093,Oudoors,4747
231297,3093,Oudoors,4747
231309,3093,Oudoors,4747
231370,3085,Running,4749
233834,3155,Fashion,4742
234294,3162,Fashion,4742
234304,3155,Fashion,4742
234310,3155,Fashion,4742
234318,3155,Fashion,4742
234325,3162,Fashion,4742
234327,3155,Fashion,4742
234333,3162,Fashion,4742
234334,3162,Fashion,4742
234338,3162,Fashion,4742
234344,3162,Fashion,4742
234350,3162,Fashion,4742
234356,3162,Fashion,4742
234362,3162,Fashion,4742
234469,3162,Fashion,4742
234475,3155,Fashion,4742
234484,3155,Fashion,4742
234488,3155,Fashion,4742
234677,3123,Outdoors,4738
234708,3085,Running,4749
234713,3155,Fashion,4742
234823,3087,Football,4758
234829,3087,Football,4758
234835,3087,Football,4758
234842,3087,Football,4758
234926,3162,Fashion,4742
234944,3085,Running,4749
234951,3115,Running,4749
234958,3115,Running,4749
234970,3115,Running,4749
234971,3115,Running,4749
234981,3115,Running,4749
234986,3087,Football,4758
234999,3115,Running,4749
235004,3086,Cycling,4741
235011,3115,Running,4749
235014,3086,Cycling,4741
235019,3115,Running,4749
235023,3116,Cycling,4741
235029,3115,Running,4749
235043,3116,Cycling,4741
235056,3115,Running,4749
235059,3116,Cycling,4741
235063,3115,Running,4749
235075,3115,Running,4749
235080,3115,Running,4749
235096,3115,Running,4749
235124,3115,Running,4749
235152,3124,Gym,4745
235167,3138,Golf,4744
235180,3124,Gym,4745
235183,3115,Running,4749
235190,3115,Running,4749
235362,3095,Gym,4745
235366,3087,Football,4758
235387,3162,Fashion,4742
235406,3144,Football,4758
235818,3091,Tennis,4750
235830,3091,Tennis,4750
235835,3121,Tennis,4750
235862,3091,Tennis,4750
235872,3091,Tennis,4750
235877,3085,Running,4749
235895,3091,Tennis,4750
235905,3085,Running,4749
235910,3121,Tennis,4750
235923,3121,Tennis,4750
235939,3162,Fashion,4742
235960,3124,Gym,4745
235972,3121,Tennis,4750
235976,3115,Running,4749
235985,3091,Tennis,4750
235992,3121,Tennis,4750
235998,3085,Running,4749
236006,3085,Running,4749
236017,3121,Tennis,4750
236026,3121,Tennis,4750
236031,3091,Tennis,4750
236039,3091,Tennis,4750
236049,3091,Tennis,4750
236054,3091,Tennis,4750
236059,3091,Tennis,4750
236064,3121,Tennis,4750
236070,3091,Tennis,4750
236097,3162,Fashion,4742
236103,3085,Running,4749
236115,3115,Running,4749
236131,3162,Fashion,4742
236185,3086,Cycling,4741
236209,3150,Outdoors,4738
236213,3150,Outdoors,4738
236217,3150,Outdoors,4738
236224,3123,Outdoors,4738
236229,3150,Outdoors,4738
236235,3123,Outdoors,4738
236242,3123,Outdoors,4738
236251,3150,Outdoors,4738
236264,3123,Outdoors,4738
236267,3150,Outdoors,4738
236278,3150,Outdoors,4738
236325,3091,Tennis,4750
236331,3121,Tennis,4750
236336,3123,Outdoors,4738
236343,3093,Oudoors,4747
236662,3085,Running,4749
236664,3085,Running,4749
237109,3162,Fashion,4742
237271,3085,Running,4749
237706,3094,Golf,4744
237723,3115,Running,4749
237749,3115,Running,4749
237756,3115,Running,4749
237767,3085,Running,4749
237772,3115,Running,4749
237786,3095,Gym,4745
237791,3142,Running,4749
237799,3085,Running,4749
237806,3085,Running,4749
237809,3115,Running,4749
237814,3085,Running,4749
237983,3123,Outdoors,4738
237987,3123,Outdoors,4738
237991,3123,Outdoors,4738
237994,3123,Outdoors,4738
237998,3123,Outdoors,4738
238002,3123,Outdoors,4738
238004,3093,Oudoors,4747
238007,3123,Outdoors,4738
238010,3123,Outdoors,4738
238014,3123,Outdoors,4738
238018,3124,Gym,4745
238020,3124,Gym,4745
238027,3124,Gym,4745
238032,3124,Gym,4745
238038,3124,Gym,4745
238041,3124,Gym,4745
238141,3124,Gym,4745
238143,3085,Running,4749
238150,3085,Running,4749
238157,3085,Running,4749
238164,3085,Running,4749
238171,3085,Running,4749
238178,3085,Running,4749
238381,3085,Running,4749
238405,3085,Running,4749
238416,3085,Running,4749
238427,3085,Running,4749
238439,3085,Running,4749
238451,3085,Running,4749
238539,3095,Gym,4745
238541,3095,Gym,4745
238551,3124,Gym,4745
238558,3085,Running,4749
238560,3085,Running,4749
238563,3142,Running,4749
238572,3150,Outdoors,4738
238582,3093,Oudoors,4747
238592,3093,Oudoors,4747
238600,3093,Oudoors,4747
238602,3123,Outdoors,4738
238605,3123,Outdoors,4738
238608,3093,Oudoors,4747
238610,3093,Oudoors,4747
238612,3123,Outdoors,4738
238629,3085,Running,4749
238636,3085,Running,4749
238643,3085,Running,4749
238651,3123,Outdoors,4738
238745,3085,Running,4749
238887,3155,Fashion,4742
239025,3085,Running,4749
239041,3085,Running,4749
239049,3085,Running,4749
239058,3085,Running,4749
239064,3085,Running,4749
239070,3085,Running,4749
239135,3093,Oudoors,4747
239138,3093,Oudoors,4747
239140,3093,Oudoors,4747
239251,3085,Running,4749
240163,3085,Running,4749
240166,3115,Running,4749
240173,3123,Outdoors,4738
240178,3115,Running,4749
240186,3085,Running,4749
240190,3085,Running,4749
240197,3115,Running,4749
240202,3085,Running,4749
240213,3094,Golf,4744
240286,3085,Running,4749
240295,3094,Golf,4744
240304,3095,Gym,4745
240310,3246,Basketball,4740
240316,3246,Basketball,4740
240364,3085,Running,4749
240574,3087,Football,4758
240580,3087,Football,4758
240588,3087,Football,4758
240596,3162,Fashion,4742
240601,3162,Fashion,4742
240607,3087,Football,4758
240868,3162,Fashion,4742
240870,3085,Running,4749
240890,3085,Running,4749
240892,3085,Running,4749
240909,3151,Golf,4744
240926,3151,Golf,4744
240952,3142,Running,4749
240979,3085,Running,4749
240984,3138,Golf,4744
240997,3115,Running,4749
241017,3115,Running,4749
241066,3085,Running,4749
241087,3085,Running,4749
241104,3115,Running,4749
241107,3115,Running,4749
241138,3142,Running,4749
241154,3142,Running,4749
241169,3142,Running,4749
241182,3142,Running,4749
241190,3142,Running,4749
241207,3142,Running,4749
241222,3142,Running,4749
241245,3142,Running,4749
241285,3142,Running,4749
241293,3142,Running,4749
241339,3142,Running,4749
241365,3142,Running,4749
241371,3142,Running,4749
241745,3162,Fashion,4742
241756,3162,Fashion,4742
241762,3093,Oudoors,4747
241764,3093,Oudoors,4747
241765,3123,Outdoors,4738
241771,3123,Outdoors,4738
241778,3093,Oudoors,4747
241784,3142,Running,4749
241789,3154,Fashion,4742
241793,3142,Running,4749
242119,3123,Outdoors,4738
242121,3123,Outdoors,4738
242127,3162,Fashion,4742
242133,3162,Fashion,4742
242143,3162,Fashion,4742
242215,3085,Running,4749
242218,3115,Running,4749
242220,3085,Running,4749
242223,3115,Running,4749
242229,3085,Running,4749
242232,3115,Running,4749
242247,3085,Running,4749
242254,3162,Fashion,4742
242258,3094,Golf,4744
242264,3085,Running,4749
242269,3093,Oudoors,4747
242275,3115,Running,4749
242280,3115,Running,4749
242285,3115,Running,4749
242290,3115,Running,4749
242295,3115,Running,4749
242299,3124,Gym,4745
242303,3115,Running,4749
242311,3115,Running,4749
242319,3115,Running,4749
242323,3115,Running,4749
242333,3162,Fashion,4742
242352,3155,Fashion,4742
242380,3162,Fashion,4742
242387,3093,Oudoors,4747
242394,3144,Football,4758
242399,3085,Running,4749
242407,3155,Fashion,4742
242411,3085,Running,4749
242426,3155,Fashion,4742
242432,3085,Running,4749
242438,3085,Running,4749
242477,3115,Running,4749
242485,3155,Fashion,4742
242492,3155,Fashion,4742
242498,3124,Gym,4745
242507,3085,Running,4749
242567,3146,Rugby,4748
242572,3144,Football,4758
242581,3087,Football,4758
242590,3087,Football,4758
242761,3115,Running,4749
242770,3115,Running,4749
242780,3115,Running,4749
242782,3115,Running,4749
242787,3115,Running,4749
242796,3115,Running,4749
242815,3138,Golf,4744
242817,3142,Running,4749
242819,3115,Running,4749
242824,3142,Running,4749
242829,3142,Running,4749
242836,3085,Running,4749
242843,3142,Running,4749
242848,3154,Fashion,4742
242850,3142,Running,4749
242855,3142,Running,4749
242858,3115,Running,4749
242863,3142,Running,4749
242868,3151,Golf,4744
242870,3154,Fashion,4742
242875,3162,Fashion,4742
242880,3162,Fashion,4742
242882,3162,Fashion,4742
242884,3162,Fashion,4742
242886,3162,Fashion,4742
242889,3115,Running,4749
242894,3085,Running,4749
242898,3115,Running,4749
242910,3142,Running,4749
242917,3142,Running,4749
242925,3155,Fashion,4742
242928,3115,Running,4749
242933,3115,Running,4749
242935,3085,Running,4749
242939,3155,Fashion,4742
242957,3085,Running,4749
242959,3115,Running,4749
242997,3115,Running,4749
243017,3115,Running,4749
243019,3124,Gym,4745
243038,3138,Golf,4744
243043,3115,Running,4749
243062,3124,Gym,4745
243068,3115,Running,4749
243085,3115,Running,4749
243089,3115,Running,4749
243106,3115,Running,4749
243109,3115,Running,4749
243115,3115,Running,4749
243150,3115,Running,4749
243155,3115,Running,4749
243160,3115,Running,4749
243170,3115,Running,4749
243175,3162,Fashion,4742
243195,3115,Running,4749
243214,3115,Running,4749
243299,3094,Golf,4744
243304,3093,Oudoors,4747
243312,3142,Running,4749
243314,3085,Running,4749
243318,3085,Running,4749
243321,3085,Running,4749
243325,3162,Fashion,4742
243330,3085,Running,4749
243337,3085,Running,4749
243343,3085,Running,4749
243346,3093,Oudoors,4747
243350,3115,Running,4749
243354,3094,Golf,4744
243358,3085,Running,4749
243364,3085,Running,4749
243370,3085,Running,4749
243515,3085,Running,4749
243517,3162,Fashion,4742
243538,3162,Fashion,4742
243557,3085,Running,4749
243562,3162,Fashion,4742
243584,3162,Fashion,4742
243647,3123,Outdoors,4738
243661,3123,Outdoors,4738
243679,3123,Outdoors,4738
243697,3123,Outdoors,4738
243710,3123,Outdoors,4738
243717,3093,Oudoors,4747
243753,3150,Outdoors,4738
243756,3150,Outdoors,4738
243761,3150,Outdoors,4738
243772,3150,Outdoors,4738
243775,3150,Outdoors,4738
243884,3115,Running,4749
243888,3124,Gym,4745
243891,3115,Running,4749
243896,3115,Running,4749
243898,3115,Running,4749
243901,3115,Running,4749
243903,3115,Running,4749
243908,3155,Fashion,4742
243910,3085,Running,4749
243914,3124,Gym,4745
243919,3155,Fashion,4742
243926,3155,Fashion,4742
243930,3155,Fashion,4742
243945,3093,Oudoors,4747
243947,3085,Running,4749
243951,3155,Fashion,4742
243956,3115,Running,4749
