[
  {
    "entity_id": 169610,
    "sport": "Running"
  },
  {
    "entity_id": 174021,
    "sport": "Fashion"
  },
  {
    "entity_id": 179886,
    "sport": "Football"
  },
  {
    "entity_id": 179892,
    "sport": "Football"
  },
  {
    "entity_id": 179942,
    "sport": "Football"
  },
  {
    "entity_id": 179948,
    "sport": "Football"
  },
  {
    "entity_id": 180515,
    "sport": "Football"
  },
  {
    "entity_id": 180520,
    "sport": "Football"
  },
  {
    "entity_id": 180523,
    "sport": "Football"
  },
  {
    "entity_id": 181065,
    "sport": "Running"
  },
  {
    "entity_id": 182264,
    "sport": "Football"
  },
  {
    "entity_id": 182717,
    "sport": "Football"
  },
  {
    "entity_id": 184010,
    "sport": "Running"
  },
  {
    "entity_id": 186195,
    "sport": "Running"
  },
  {
    "entity_id": 186728,
    "sport": "Running"
  },
  {
    "entity_id": 187727,
    "sport": "Running"
  },
  {
    "entity_id": 187930,
    "sport": "Gym"
  },
  {
    "entity_id": 189153,
    "sport": "Running"
  },
  {
    "entity_id": 190602,
    "sport": "Running"
  },
  {
    "entity_id": 190997,
    "sport": "Running"
  },
  {
    "entity_id": 192181,
    "sport": "Running"
  },
  {
    "entity_id": 192223,
    "sport": "Running"
  },
  {
    "entity_id": 196420,
    "sport": "Running"
  },
  {
    "entity_id": 196600,
    "sport": "Running"
  },
  {
    "entity_id": 198013,
    "sport": "Running"
  },
  {
    "entity_id": 198597,
    "sport": "Gym"
  },
  {
    "entity_id": 201034,
    "sport": "Running"
  },
  {
    "entity_id": 203552,
    "sport": "Running"
  },
  {
    "entity_id": 205841,
    "sport": "Running"
  },
  {
    "entity_id": 226333,
    "sport": "Running"
  },
  {
    "entity_id": 229715,
    "sport": "Running"
  },
  {
    "entity_id": 229750,
    "sport": "Running"
  },
  {
    "entity_id": 234145,
    "sport": "Gym"
  },
  {
    "entity_id": 234835,
    "sport": "Football"
  },
  {
    "entity_id": 234842,
    "sport": "Football"
  },
  {
    "entity_id": 234926,
    "sport": "Fashion"
  },
  {
    "entity_id": 234944,
    "sport": "Running"
  },
  {
    "entity_id": 234951,
    "sport": "Gym"
  },
  {
    "entity_id": 234958,
    "sport": "Gym"
  },
  {
    "entity_id": 234970,
    "sport": "Gym"
  },
  {
    "entity_id": 234971,
    "sport": "Gym"
  },
  {
    "entity_id": 234981,
    "sport": "Gym"
  },
  {
    "entity_id": 234986,
    "sport": "Football"
  },
  {
    "entity_id": 234994,
    "sport": "Gym"
  },
  {
    "entity_id": 234999,
    "sport": "Gym"
  },
  {
    "entity_id": 235004,
    "sport": "Cycling"
  },
  {
    "entity_id": 235011,
    "sport": "Running"
  },
  {
    "entity_id": 235014,
    "sport": "Cycling"
  },
  {
    "entity_id": 235019,
    "sport": "Gym"
  },
  {
    "entity_id": 235023,
    "sport": "Cycling"
  },
  {
    "entity_id": 235029,
    "sport": "Running"
  },
  {
    "entity_id": 235043,
    "sport": "Cycling"
  },
  {
    "entity_id": 235056,
    "sport": "Gym"
  },
  {
    "entity_id": 235059,
    "sport": "Cycling"
  },
  {
    "entity_id": 235063,
    "sport": "Running"
  },
  {
    "entity_id": 235068,
    "sport": "Cycling"
  },
  {
    "entity_id": 235071,
    "sport": "Gym"
  },
  {
    "entity_id": 235075,
    "sport": "Running"
  },
  {
    "entity_id": 235080,
    "sport": "Running"
  },
  {
    "entity_id": 235085,
    "sport": "Gym"
  },
  {
    "entity_id": 235087,
    "sport": "Gym"
  },
  {
    "entity_id": 235091,
    "sport": "Running"
  },
  {
    "entity_id": 235096,
    "sport": "Gym"
  },
  {
    "entity_id": 235124,
    "sport": "Gym"
  },
  {
    "entity_id": 235145,
    "sport": "Running"
  },
  {
    "entity_id": 235152,
    "sport": "Gym"
  },
  {
    "entity_id": 235157,
    "sport": "Running"
  },
  {
    "entity_id": 235165,
    "sport": "Gym"
  },
  {
    "entity_id": 235167,
    "sport": "Golf"
  },
  {
    "entity_id": 235180,
    "sport": "Gym"
  },
  {
    "entity_id": 235183,
    "sport": "Running"
  },
  {
    "entity_id": 235188,
    "sport": "Running"
  },
  {
    "entity_id": 235190,
    "sport": "Running"
  },
  {
    "entity_id": 235818,
    "sport": "Tennis"
  },
  {
    "entity_id": 235830,
    "sport": "Tennis"
  },
  {
    "entity_id": 235835,
    "sport": "Tennis"
  },
  {
    "entity_id": 235862,
    "sport": "Tennis"
  },
  {
    "entity_id": 235872,
    "sport": "Tennis"
  },
  {
    "entity_id": 235877,
    "sport": "Running"
  },
  {
    "entity_id": 235886,
    "sport": "Fashion"
  },
  {
    "entity_id": 235895,
    "sport": "Tennis"
  },
  {
    "entity_id": 235905,
    "sport": "Gym"
  },
  {
    "entity_id": 235910,
    "sport": "Tennis"
  },
  {
    "entity_id": 235923,
    "sport": "Tennis"
  },
  {
    "entity_id": 235939,
    "sport": "Fashion"
  },
  {
    "entity_id": 235960,
    "sport": "Gym"
  },
  {
    "entity_id": 235972,
    "sport": "Tennis"
  },
  {
    "entity_id": 235976,
    "sport": "Gym"
  },
  {
    "entity_id": 235985,
    "sport": "Tennis"
  },
  {
    "entity_id": 235992,
    "sport": "Tennis"
  },
  {
    "entity_id": 235998,
    "sport": "Running"
  },
  {
    "entity_id": 236006,
    "sport": "Running"
  }
]