296880,1,3300001638,CRAMLINGTON,001
298438,1,3300001638,CRAMLINGTON,001
298440,1,3300001638,CRAMLINGTON,001
310879,1,3300001638,CRAMLINGTON,001
310884,1,3300001638,CRAMLINGTON,001
310885,1,3300001638,CRAMLINGTON,001
310915,3,3300001638,CRAMLINGTON,001
310916,1,3300001638,CRAMLINGTON,001
310919,1,3300001638,CRAMLINGTON,001
294626,1,3300001638,CRAMLINGTON,001
312003,2,3300001638,CRAMLINGTON,001
312004,3,3300001638,CRAMLINGTON,001
312005,1,3300001638,CRAMLINGTON,001
312013,1,3300001638,CRAMLINGTON,001
312015,1,3300001638,CRAMLINGTON,001
312016,1,3300001638,CRAMLINGTON,001
312017,2,3300001638,CRAMLINGTON,001
294726,1,3300001638,CRAMLINGTON,001
298522,1,3300001638,CRAMLINGTON,001
298523,1,3300001638,CRAMLINGTON,001
298525,1,3300001638,CRAMLINGTON,001
319844,1,3300001638,CRAMLINGTON,001
308814,1,3300001638,CRAMLINGTON,001
310409,1,3300001638,CRAMLINGTON,001
240734,1,3300001638,CRAMLINGTON,001
240738,1,3300001638,CRAMLINGTON,001
240739,1,3300001638,CRAMLINGTON,001
240740,1,3300001638,CRAMLINGTON,001
240741,2,3300001638,CRAMLINGTON,001
240742,1,3300001638,CRAMLINGTON,001
