240906,1,3300000357,CRAMLINGTON,001
241205,2,3300000357,CRAMLINGTON,001
241059,1,3300000357,CRAMLINGTON,001
219494,1,3300000357,CRAMLINGTON,001
252854,1,3300000357,CRAMLINGTON,001
252855,1,3300000357,CRAMLINGTON,001
252856,1,3300000357,CRAMLINGTON,001
252857,1,3300000357,CRAMLINGTON,001
252858,1,3300000357,CRAMLINGTON,001
252859,1,3300000357,CRAMLINGTON,001
252860,1,3300000357,CRAMLINGTON,001
252861,1,3300000357,CRAMLINGTON,001
252862,1,3300000357,CRAMLINGTON,001
252863,1,3300000357,CRAMLINGTON,001
252864,1,3300000357,CRAMLINGTON,001
252865,1,3300000357,CRAMLINGTON,001
227523,2,3300000357,CRAMLINGTON,001
227524,2,3300000357,CRAMLINGTON,001
227525,1,3300000357,CRAMLINGTON,001
240701,1,3300000357,CRAMLINGTON,001
240702,1,3300000357,CRAMLINGTON,001
240703,2,3300000357,CRAMLINGTON,001
240704,2,3300000357,CRAMLINGTON,001
240705,2,3300000357,CRAMLINGTON,001
240706,2,3300000357,CRAMLINGTON,001
240707,2,3300000357,CRAMLINGTON,001
240708,2,3300000357,CRAMLINGTON,001
240709,2,3300000357,CRAMLINGTON,001
240710,1,3300000357,CRAMLINGTON,001
240711,1,3300000357,CRAMLINGTON,001
