301706,1,3300001025,CRAMLINGTON,001
301707,1,3300001025,CRAMLINGTON,001
301708,1,3300001025,CRAMLINGTON,001
301709,1,3300001025,CRAMLINGTON,001
301710,1,3300001025,CRAMLINGTON,001
301711,1,3300001025,CRAMLINGTON,001
301712,1,3300001025,CRAMLINGTON,001
301713,1,3300001025,CRAMLINGTON,001
301714,1,3300001025,CRAMLINGTON,001
301849,1,3300001025,CRAMLINGTON,001
301850,1,3300001025,CRAMLINGTON,001
301851,1,3300001025,CRAMLINGTON,001
301852,1,3300001025,CRAMLINGTON,001
301853,1,3300001025,CRAMLINGTON,001
301854,1,3300001025,CRAMLINGTON,001
301855,1,3300001025,CRAMLINGTON,001
301856,1,3300001025,CRAMLINGTON,001
301857,1,3300001025,CRAMLINGTON,001
301858,1,3300001025,CRAMLINGTON,001
301859,1,3300001025,CRAMLINGTON,001
301770,1,3300001025,CRAMLINGTON,001
301771,1,3300001025,CRAMLINGTON,001
301772,1,3300001025,CRAMLINGTON,001
301773,1,3300001025,CRAMLINGTON,001
301774,1,3300001025,CRAMLINGTON,001
301775,1,3300001025,CRAMLINGTON,001
301776,1,3300001025,CRAMLINGTON,001
301784,1,3300001025,CRAMLINGTON,001
301785,1,3300001025,CRAMLINGTON,001
301786,1,3300001025,CRAMLINGTON,001
