302625,1,3300001053,CRAMLINGTON,001
302626,1,3300001053,CRAMLINGTON,001
302627,1,3300001053,CRAMLINGTON,001
302628,1,3300001053,CRAMLINGTON,001
302629,1,3300001053,CRAMLINGTON,001
302630,1,3300001053,CRAMLINGTON,001
302631,1,3300001053,CRAMLINGTON,001
302653,1,3300001053,CRAMLINGTON,001
302654,1,3300001053,CRAMLINGTON,001
302655,1,3300001053,CRAMLINGTON,001
302656,1,3300001053,CRAMLINGTON,001
302658,1,3300001053,CRAMLINGTON,001
302659,1,3300001053,CRAMLINGTON,001
302660,1,3300001053,CRAMLINGTON,001
302661,1,3300001053,CRAMLINGTON,001
302662,1,3300001053,CRAMLINGTON,001
302663,1,3300001053,CRAMLINGTON,001
294392,1,3300001053,CRAMLINGTON,001
302677,1,3300001053,CRAMLINGTON,001
302678,1,3300001053,CRAMLINGTON,001
302679,1,3300001053,CRAMLINGTON,001
302680,1,3300001053,CRAMLINGTON,001
302681,1,3300001053,CRAMLINGTON,001
302682,1,3300001053,CRAMLINGTON,001
302683,1,3300001053,CRAMLINGTON,001
302684,1,3300001053,CRAMLINGTON,001
302685,1,3300001053,CRAMLINGTON,001
302686,1,3300001053,CRAMLINGTON,001
302687,1,3300001053,CRAMLINGTON,001
302691,1,3300001053,CRAMLINGTON,001
