293776,1,3300001161,CRAMLINGTON,001
294261,1,3300001161,CRAMLINGTON,001
247783,2,3300001161,CRAMLINGTON,001
247784,1,3300001161,CRAMLINGTON,001
247787,1,3300001161,CRAMLINGTON,001
296884,1,3300001161,CRAMLINGTON,001
294405,1,3300001161,CRAMLINGTON,001
300542,1,3300001161,CRAMLINGTON,001
300548,1,3300001161,CRAMLINGTON,001
300560,1,3300001161,CRAMLINGTON,001
294095,1,3300001161,CRAMLINGTON,001
294098,1,3300001161,CRAMLINGTON,001
301120,1,3300001161,CRAMLINGTON,001
302625,1,3300001161,CRAMLINGTON,001
294190,1,3300001161,CRAMLINGTON,001
294365,1,3300001161,CRAMLINGTON,001
294378,1,3300001161,CRAMLINGTON,001
302683,1,3300001161,CRAMLINGTON,001
239430,1,3300001161,CRAMLINGTON,001
239431,1,3300001161,CRAMLINGTON,001
298438,1,3300001161,CRAMLINGTON,001
298440,1,3300001161,CRAMLINGTON,001
239368,1,3300001161,CRAMLINGTON,001
298450,1,3300001161,CRAMLINGTON,001
298454,1,3300001161,CRAMLINGTON,001
298457,1,3300001161,CRAMLINGTON,001
299089,1,3300001161,CRAMLINGTON,001
299093,1,3300001161,CRAMLINGTON,001
239479,1,3300001161,CRAMLINGTON,001
243862,1,3300001161,CRAMLINGTON,001
