240996,1,3300000803,CRAMLINGTON,001
241280,1,3300000803,CRAMLINGTON,001
252254,1,3300000803,CRAMLINGTON,001
229531,1,3300000803,CRAMLINGTON,001
244789,1,3300000803,CRAMLINGTON,001
244791,1,3300000803,CRAMLINGTON,001
293776,1,3300000803,CRAMLINGTON,001
296364,1,3300000803,CRAMLINGTON,001
241131,1,3300000803,CRAMLINGTON,001
241134,1,3300000803,CRAMLINGTON,001
247790,1,3300000803,CRAMLINGTON,001
242099,1,3300000803,CRAMLINGTON,001
297947,1,3300000803,CRAMLINGTON,001
297948,1,3300000803,CRAMLINGTON,001
294394,1,3300000803,CRAMLINGTON,001
294395,1,3300000803,CRAMLINGTON,001
239434,1,3300000803,CRAMLINGTON,001
241909,1,3300000803,CRAMLINGTON,001
294579,1,3300000803,CRAMLINGTON,001
294626,1,3300000803,CRAMLINGTON,001
294639,1,3300000803,CRAMLINGTON,001
294662,1,3300000803,CRAMLINGTON,001
239475,1,3300000803,CRAMLINGTON,001
219494,1,3300000803,CRAMLINGTON,001
231512,1,3300000803,CRAMLINGTON,001
231513,1,3300000803,CRAMLINGTON,001
239403,1,3300000803,CRAMLINGTON,001
239405,1,3300000803,CRAMLINGTON,001
241829,1,3300000803,CRAMLINGTON,001
241845,1,3300000803,CRAMLINGTON,001
