294244,1,3300001178,CRAMLINGTON,001
296363,1,3300001178,CRAMLINGTON,001
300939,1,3300001178,CRAMLINGTON,001
294186,1,3300001178,CRAMLINGTON,001
294393,1,3300001178,CRAMLINGTON,001
239432,1,3300001178,CRAMLINGTON,001
239402,1,3300001178,CRAMLINGTON,001
294692,1,3300001178,CRAMLINGTON,001
298520,1,3300001178,CRAMLINGTON,001
244554,1,3300001178,CRAMLINGTON,001
293356,1,3300001178,CRAMLINGTON,001
228554,1,3300001178,CRAMLINGTON,001
239080,1,3300001178,CRAMLINGTON,001
216086,1,3300001178,CRAMLINGTON,001
240703,1,3300001178,CRAMLINGTON,001
240704,2,3300001178,CRAMLINGTON,001
240708,1,3300001178,CRAMLINGTON,001
240709,1,3300001178,CRAMLINGTON,001
292354,1,3300001178,CRAMLINGTON,001
303106,1,3300001178,CRAMLINGTON,001
189050,1,3300001178,CRAMLINGTON,001
306578,1,3300001178,CRAMLINGTON,001
306579,1,3300001178,CRAMLINGTON,001
306580,1,3300001178,CRAMLINGTON,001
306581,1,3300001178,CRAMLINGTON,001
306582,2,3300001178,CRAMLINGTON,001
306583,2,3300001178,CRAMLINGTON,001
306584,2,3300001178,CRAMLINGTON,001
306585,2,3300001178,CRAMLINGTON,001
306586,2,3300001178,CRAMLINGTON,001
