318636,1,3300001666,CRAMLINGTON,001
300569,1,3300001666,CRAMLINGTON,001
309799,1,3300001666,CRAMLINGTON,001
310110,1,3300001666,CRAMLINGTON,001
314603,1,3300001666,CRAMLINGTON,001
314636,1,3300001666,CRAMLINGTON,001
292083,1,3300001666,CRAMLINGTON,001
314937,1,3300001666,CRAMLINGTON,001
248948,1,3300001666,CRAMLINGTON,001
304653,1,3300001666,CRAMLINGTON,001
312227,1,3300001666,CRAMLINGTON,001
313391,1,3300001666,CRAMLINGTON,001
249143,1,3300001666,CRAMLINGTON,001
312446,1,3300001666,CRAMLINGTON,001
306934,1,3300001666,CRAMLINGTON,001
315020,1,3300001666,CRAMLINGTON,001
312836,1,3300001666,CRAMLINGTON,001
312849,1,3300001666,CRAMLINGTON,001
312850,1,3300001666,CRAMLINGTON,001
315112,1,3300001666,CRAMLINGTON,001
297915,1,3300001666,CRAMLINGTON,001
301855,1,3300001666,CRAMLINGTON,001
302388,1,3300001666,CRAMLINGTON,001
303213,1,3300001666,CRAMLINGTON,001
309972,1,3300001666,CRAMLINGTON,001
309976,1,3300001666,CRAMLINGTON,001
