332787,1,3300002023,CRAMLINGTON,001
316956,1,3300002023,CRAMLINGTON,001
316957,1,3300002023,CRAMLINGTON,001
316958,1,3300002023,CRAMLINGTON,001
316959,1,3300002023,CRAMLINGTON,001
316960,1,3300002023,CRAMLINGTON,001
316961,1,3300002023,CRAMLINGTON,001
316962,1,3300002023,CRAMLINGTON,001
316963,2,3300002023,CRAMLINGTON,001
316964,1,3300002023,CRAMLINGTON,001
316965,1,3300002023,CRAMLINGTON,001
316966,1,3300002023,CRAMLINGTON,001
316967,1,3300002023,CRAMLINGTON,001
316968,1,3300002023,CRAMLINGTON,001
310094,1,3300002023,CRAMLINGTON,001
332800,1,3300002023,CRAMLINGTON,001
327858,1,3300002023,CRAMLINGTON,001
327859,1,3300002023,CRAMLINGTON,001
330899,1,3300002023,CRAMLINGTON,001
332022,1,3300002023,CRAMLINGTON,001
332024,1,3300002023,CRAMLINGTON,001
332025,1,3300002023,CRAMLINGTON,001
332026,2,3300002023,CRAMLINGTON,001
332027,2,3300002023,CRAMLINGTON,001
332028,3,3300002023,CRAMLINGTON,001
332029,2,3300002023,CRAMLINGTON,001
332030,2,3300002023,CRAMLINGTON,001
332031,2,3300002023,CRAMLINGTON,001
332032,1,3300002023,CRAMLINGTON,001
332033,1,3300002023,CRAMLINGTON,001
