304637,1,3300001764,CRAMLINGTON,001
304820,1,3300001764,CRAMLINGTON,001
296263,1,3300001764,CRAMLINGTON,001
98519,1,3300001764,CRAMLINGTON,001
98520,1,3300001764,CRAMLINGTON,001
98524,1,3300001764,CRAMLINGTON,001
98528,1,3300001764,CRAMLINGTON,001
230179,1,3300001764,CRAMLINGTON,001
234371,1,3300001764,CRAMLINGTON,001
234372,1,3300001764,CRAMLINGTON,001
234373,1,3300001764,CRAMLINGTON,001
234374,1,3300001764,CRAMLINGTON,001
234375,1,3300001764,CRAMLINGTON,001
234376,1,3300001764,CRAMLINGTON,001
234377,1,3300001764,CRAMLINGTON,001
234378,1,3300001764,CRAMLINGTON,001
234379,1,3300001764,CRAMLINGTON,001
234380,1,3300001764,CRAMLINGTON,001
234382,2,3300001764,CRAMLINGTON,001
234384,1,3300001764,CRAMLINGTON,001
234388,1,3300001764,CRAMLINGTON,001
234403,1,3300001764,CRAMLINGTON,001
234404,1,3300001764,CRAMLINGTON,001
234405,1,3300001764,CRAMLINGTON,001
234406,1,3300001764,CRAMLINGTON,001
234408,1,3300001764,CRAMLINGTON,001
234410,1,3300001764,CRAMLINGTON,001
234411,1,3300001764,CRAMLINGTON,001
234412,1,3300001764,CRAMLINGTON,001
234415,1,3300001764,CRAMLINGTON,001
