303332,1,3300001140,CRAMLINGTON,001
294676,1,3300001140,CRAMLINGTON,001
298510,1,3300001140,CRAMLINGTON,001
301657,1,3300001140,CRAMLINGTON,001
301724,1,3300001140,CRAMLINGTON,001
296106,1,3300001140,CRAMLINGTON,001
244552,1,3300001140,CRAMLINGTON,001
226179,1,3300001140,CRAMLINGTON,001
293403,1,3300001140,CRAMLINGTON,001
303282,1,3300001140,CRAMLINGTON,001
303287,1,3300001140,CRAMLINGTON,001
303290,2,3300001140,CRAMLINGTON,001
303292,1,3300001140,CRAMLINGTON,001
239079,1,3300001140,CRAMLINGTON,001
244515,1,3300001140,CRAMLINGTON,001
300422,1,3300001140,CRAMLINGTON,001
301006,1,3300001140,CRAMLINGTON,001
247851,1,3300001140,CRAMLINGTON,001
299908,1,3300001140,CRAMLINGTON,001
216086,1,3300001140,CRAMLINGTON,001
294152,1,3300001140,CRAMLINGTON,001
227525,1,3300001140,CRAMLINGTON,001
240739,1,3300001140,CRAMLINGTON,001
292070,1,3300001140,CRAMLINGTON,001
292071,1,3300001140,CRAMLINGTON,001
292320,1,3300001140,CRAMLINGTON,001
243720,1,3300001140,CRAMLINGTON,001
291845,1,3300001140,CRAMLINGTON,001
291980,1,3300001140,CRAMLINGTON,001
292349,1,3300001140,CRAMLINGTON,001
