293747,1,3300001330,CRAMLINGTON,001
296879,1,3300001330,CRAMLINGTON,001
298440,1,3300001330,CRAMLINGTON,001
312007,1,3300001330,CRAMLINGTON,001
312008,1,3300001330,CRAMLINGTON,001
294723,1,3300001330,CRAMLINGTON,001
294727,1,3300001330,CRAMLINGTON,001
247149,1,3300001330,CRAMLINGTON,001
308798,1,3300001330,CRAMLINGTON,001
303316,1,3300001330,CRAMLINGTON,001
299965,1,3300001330,CRAMLINGTON,001
291897,1,3300001330,CRAMLINGTON,001
292322,1,3300001330,CRAMLINGTON,001
243013,1,3300001330,CRAMLINGTON,001
198735,1,3300001330,CRAMLINGTON,001
240511,1,3300001330,CRAMLINGTON,001
291939,1,3300001330,CRAMLINGTON,001
303228,1,3300001330,CRAMLINGTON,001
232215,1,3300001330,CRAMLINGTON,001
292040,1,3300001330,CRAMLINGTON,001
228784,1,3300001330,CRAMLINGTON,001
228809,1,3300001330,CRAMLINGTON,001
306585,1,3300001330,CRAMLINGTON,001
245769,1,3300001330,CRAMLINGTON,001
249232,1,3300001330,CRAMLINGTON,001
303355,1,3300001330,CRAMLINGTON,001
307039,1,3300001330,CRAMLINGTON,001
