249173,1,3300000614,CRAMLINGTON,001
231511,1,3300000614,CRAMLINGTON,001
239402,1,3300000614,CRAMLINGTON,001
239464,1,3300000614,CRAMLINGTON,001
241828,1,3300000614,CRAMLINGTON,001
241841,1,3300000614,CRAMLINGTON,001
241844,2,3300000614,CRAMLINGTON,001
241848,1,3300000614,CRAMLINGTON,001
241861,1,3300000614,CRAMLINGTON,001
249264,1,3300000614,CRAMLINGTON,001
249895,1,3300000614,CRAMLINGTON,001
244181,1,3300000614,CRAMLINGTON,001
244213,1,3300000614,CRAMLINGTON,001
253224,1,3300000614,CRAMLINGTON,001
238994,1,3300000614,CRAMLINGTON,001
226164,1,3300000614,CRAMLINGTON,001
226176,1,3300000614,CRAMLINGTON,001
247129,1,3300000614,CRAMLINGTON,001
253409,1,3300000614,CRAMLINGTON,001
215307,1,3300000614,CRAMLINGTON,001
215308,1,3300000614,CRAMLINGTON,001
215309,1,3300000614,CRAMLINGTON,001
239021,1,3300000614,CRAMLINGTON,001
244404,1,3300000614,CRAMLINGTON,001
244565,1,3300000614,CRAMLINGTON,001
247070,1,3300000614,CRAMLINGTON,001
244821,1,3300000614,CRAMLINGTON,001
252304,1,3300000614,CRAMLINGTON,001
216083,1,3300000614,CRAMLINGTON,001
240708,1,3300000614,CRAMLINGTON,001
