312742,1,3300001890,CRAMLINGTON,001
315129,1,3300001890,CRAMLINGTON,001
312001,1,3300001890,CRAMLINGTON,001
312014,1,3300001890,CRAMLINGTON,001
312016,1,3300001890,CRAMLINGTON,001
317262,1,3300001890,CRAMLINGTON,001
317267,1,3300001890,CRAMLINGTON,001
304535,1,3300001890,CRAMLINGTON,001
239080,1,3300001890,CRAMLINGTON,001
244951,1,3300001890,CRAMLINGTON,001
225724,1,3300001890,CRAMLINGTON,001
301144,1,3300001890,CRAMLINGTON,001
331289,1,3300001890,CRAMLINGTON,001
331290,1,3300001890,CRAMLINGTON,001
331291,2,3300001890,CRAMLINGTON,001
331292,2,3300001890,CRAMLINGTON,001
331293,2,3300001890,CRAMLINGTON,001
331294,2,3300001890,CRAMLINGTON,001
331295,2,3300001890,CRAMLINGTON,001
331296,2,3300001890,CRAMLINGTON,001
331297,2,3300001890,CRAMLINGTON,001
331298,1,3300001890,CRAMLINGTON,001
331299,1,3300001890,CRAMLINGTON,001
309925,1,3300001890,CRAMLINGTON,001
331303,1,3300001890,CRAMLINGTON,001
331304,1,3300001890,CRAMLINGTON,001
331305,1,3300001890,CRAMLINGTON,001
331306,1,3300001890,CRAMLINGTON,001
331307,1,3300001890,CRAMLINGTON,001
331308,1,3300001890,CRAMLINGTON,001
