296870,1,3300001491,CRAMLINGTON,001
296881,1,3300001491,CRAMLINGTON,001
302608,1,3300001491,CRAMLINGTON,001
294381,1,3300001491,CRAMLINGTON,001
302709,1,3300001491,CRAMLINGTON,001
298521,1,3300001491,CRAMLINGTON,001
312079,1,3300001491,CRAMLINGTON,001
304779,1,3300001491,CRAMLINGTON,001
293345,1,3300001491,CRAMLINGTON,001
302179,1,3300001491,CRAMLINGTON,001
303313,1,3300001491,CRAMLINGTON,001
300571,1,3300001491,CRAMLINGTON,001
254430,1,3300001491,CRAMLINGTON,001
301514,1,3300001491,CRAMLINGTON,001
303226,1,3300001491,CRAMLINGTON,001
309923,1,3300001491,CRAMLINGTON,001
249232,1,3300001491,CRAMLINGTON,001
296264,1,3300001491,CRAMLINGTON,001
312433,1,3300001491,CRAMLINGTON,001
234391,1,3300001491,CRAMLINGTON,001
151590,1,3300001491,CRAMLINGTON,001
306939,1,3300001491,CRAMLINGTON,001
