240996,1,3300000790,CRAMLINGTON,001
293767,1,3300000790,CRAMLINGTON,001
293769,1,3300000790,CRAMLINGTON,001
293770,1,3300000790,CRAMLINGTON,001
293771,1,3300000790,CRAMLINGTON,001
293772,1,3300000790,CRAMLINGTON,001
293773,1,3300000790,CRAMLINGTON,001
293774,1,3300000790,CRAMLINGTON,001
293775,1,3300000790,CRAMLINGTON,001
293776,1,3300000790,CRAMLINGTON,001
293777,1,3300000790,CRAMLINGTON,001
293778,1,3300000790,CRAMLINGTON,001
293779,1,3300000790,CRAMLINGTON,001
296361,1,3300000790,CRAMLINGTON,001
241081,1,3300000790,CRAMLINGTON,001
241530,1,3300000790,CRAMLINGTON,001
241414,1,3300000790,CRAMLINGTON,001
293795,1,3300000790,CRAMLINGTON,001
293796,1,3300000790,CRAMLINGTON,001
293797,1,3300000790,CRAMLINGTON,001
293798,1,3300000790,CRAMLINGTON,001
293799,1,3300000790,CRAMLINGTON,001
293800,1,3300000790,CRAMLINGTON,001
293801,1,3300000790,CRAMLINGTON,001
293802,1,3300000790,CRAMLINGTON,001
293803,1,3300000790,CRAMLINGTON,001
293804,1,3300000790,CRAMLINGTON,001
293805,1,3300000790,CRAMLINGTON,001
293807,1,3300000790,CRAMLINGTON,001
293808,1,3300000790,CRAMLINGTON,001
