229569,1,3300000881,CRAMLINGTON,001
229570,1,3300000881,CRAMLINGTON,001
229577,1,3300000881,CRAMLINGTON,001
241145,1,3300000881,CRAMLINGTON,001
241146,1,3300000881,CRAMLINGTON,001
294366,1,3300000881,CRAMLINGTON,001
241907,1,3300000881,CRAMLINGTON,001
241909,1,3300000881,CRAMLINGTON,001
241914,1,3300000881,CRAMLINGTON,001
294564,1,3300000881,CRAMLINGTON,001
294580,1,3300000881,CRAMLINGTON,001
299087,1,3300000881,CRAMLINGTON,001
299088,1,3300000881,CRAMLINGTON,001
299089,1,3300000881,CRAMLINGTON,001
299090,1,3300000881,CRAMLINGTON,001
299091,2,3300000881,CRAMLINGTON,001
299092,2,3300000881,CRAMLINGTON,001
299093,2,3300000881,CRAMLINGTON,001
299094,2,3300000881,CRAMLINGTON,001
299095,1,3300000881,CRAMLINGTON,001
299096,1,3300000881,CRAMLINGTON,001
299097,1,3300000881,CRAMLINGTON,001
243787,1,3300000881,CRAMLINGTON,001
243791,1,3300000881,CRAMLINGTON,001
243859,1,3300000881,CRAMLINGTON,001
249874,1,3300000881,CRAMLINGTON,001
241828,1,3300000881,CRAMLINGTON,001
241832,1,3300000881,CRAMLINGTON,001
241843,1,3300000881,CRAMLINGTON,001
298519,1,3300000881,CRAMLINGTON,001
