213289,1,3300000845,CRAMLINGTON,001
293773,1,3300000845,CRAMLINGTON,001
293774,1,3300000845,CRAMLINGTON,001
293801,1,3300000845,CRAMLINGTON,001
293803,1,3300000845,CRAMLINGTON,001
297941,1,3300000845,CRAMLINGTON,001
249315,1,3300000845,CRAMLINGTON,001
294559,1,3300000845,CRAMLINGTON,001
239405,1,3300000845,CRAMLINGTON,001
244194,1,3300000845,CRAMLINGTON,001
244449,1,3300000845,CRAMLINGTON,001
244452,1,3300000845,CRAMLINGTON,001
244454,1,3300000845,CRAMLINGTON,001
293214,1,3300000845,CRAMLINGTON,001
293215,1,3300000845,CRAMLINGTON,001
293216,1,3300000845,CRAMLINGTON,001
293217,1,3300000845,CRAMLINGTON,001
293218,1,3300000845,CRAMLINGTON,001
293219,1,3300000845,CRAMLINGTON,001
293220,1,3300000845,CRAMLINGTON,001
293221,1,3300000845,CRAMLINGTON,001
293222,1,3300000845,CRAMLINGTON,001
293223,1,3300000845,CRAMLINGTON,001
293224,1,3300000845,CRAMLINGTON,001
293226,1,3300000845,CRAMLINGTON,001
293227,1,3300000845,CRAMLINGTON,001
293228,1,3300000845,CRAMLINGTON,001
293229,1,3300000845,CRAMLINGTON,001
293230,1,3300000845,CRAMLINGTON,001
293231,1,3300000845,CRAMLINGTON,001
