330969,1,3300002178,CRAMLINGTON,001
333164,1,3300002178,CRAMLINGTON,001
315047,1,3300002178,CRAMLINGTON,001
332997,1,3300002178,CRAMLINGTON,001
328643,1,3300002178,CRAMLINGTON,001
330485,1,3300002178,CRAMLINGTON,001
330938,1,3300002178,CRAMLINGTON,001
335238,1,3300002178,CRAMLINGTON,001
327707,1,3300002178,CRAMLINGTON,001
327750,1,3300002178,CRAMLINGTON,001
326695,1,3300002178,CRAMLINGTON,001
293243,1,3300002178,CRAMLINGTON,001
333388,1,3300002178,CRAMLINGTON,001
244510,1,3300002178,CRAMLINGTON,001
332538,1,3300002178,CRAMLINGTON,001
332539,1,3300002178,CRAMLINGTON,001
332540,1,3300002178,CRAMLINGTON,001
332541,1,3300002178,CRAMLINGTON,001
332542,1,3300002178,CRAMLINGTON,001
332543,1,3300002178,CRAMLINGTON,001
332544,1,3300002178,CRAMLINGTON,001
332545,1,3300002178,CRAMLINGTON,001
332546,1,3300002178,CRAMLINGTON,001
332547,1,3300002178,CRAMLINGTON,001
332627,1,3300002178,CRAMLINGTON,001
334297,1,3300002178,CRAMLINGTON,001
334298,1,3300002178,CRAMLINGTON,001
334299,1,3300002178,CRAMLINGTON,001
334300,1,3300002178,CRAMLINGTON,001
334301,1,3300002178,CRAMLINGTON,001
