300561,1,3300001419,CRAMLINGTON,001
300777,1,3300001419,CRAMLINGTON,001
300971,1,3300001419,CRAMLINGTON,001
301118,1,3300001419,CRAMLINGTON,001
312996,1,3300001419,CRAMLINGTON,001
312997,1,3300001419,CRAMLINGTON,001
312998,1,3300001419,CRAMLINGTON,001
312999,1,3300001419,CRAMLINGTON,001
313000,1,3300001419,CRAMLINGTON,001
313001,1,3300001419,CRAMLINGTON,001
313002,1,3300001419,CRAMLINGTON,001
313003,1,3300001419,CRAMLINGTON,001
313004,1,3300001419,CRAMLINGTON,001
313005,1,3300001419,CRAMLINGTON,001
313006,1,3300001419,CRAMLINGTON,001
315046,1,3300001419,CRAMLINGTON,001
315047,1,3300001419,CRAMLINGTON,001
315048,1,3300001419,CRAMLINGTON,001
315049,1,3300001419,CRAMLINGTON,001
315050,1,3300001419,CRAMLINGTON,001
315051,1,3300001419,CRAMLINGTON,001
315052,1,3300001419,CRAMLINGTON,001
315053,1,3300001419,CRAMLINGTON,001
315054,1,3300001419,CRAMLINGTON,001
315055,1,3300001419,CRAMLINGTON,001
315056,1,3300001419,CRAMLINGTON,001
294370,1,3300001419,CRAMLINGTON,001
302693,1,3300001419,CRAMLINGTON,001
302705,1,3300001419,CRAMLINGTON,001
313173,1,3300001419,CRAMLINGTON,001
