247785,1,3300001574,CRAMLINGTON,001
318271,1,3300001574,CRAMLINGTON,001
302706,1,3300001574,CRAMLINGTON,001
313891,1,3300001574,CRAMLINGTON,001
311883,1,3300001574,CRAMLINGTON,001
298522,1,3300001574,CRAMLINGTON,001
244554,1,3300001574,CRAMLINGTON,001
293345,1,3300001574,CRAMLINGTON,001
301006,1,3300001574,CRAMLINGTON,001
301168,1,3300001574,CRAMLINGTON,001
307173,1,3300001574,CRAMLINGTON,001
310096,1,3300001574,CRAMLINGTON,001
312214,1,3300001574,CRAMLINGTON,001
315114,1,3300001574,CRAMLINGTON,001
