312002,2,3300001803,CRAMLINGTON,001
294738,1,3300001803,CRAMLINGTON,001
294740,1,3300001803,CRAMLINGTON,001
312092,1,3300001803,CRAMLINGTON,001
312136,2,3300001803,CRAMLINGTON,001
312153,1,3300001803,CRAMLINGTON,001
326103,1,3300001803,CRAMLINGTON,001
311947,1,3300001803,CRAMLINGTON,001
287524,1,3300001803,CRAMLINGTON,001
287541,1,3300001803,CRAMLINGTON,001
317255,1,3300001803,CRAMLINGTON,001
317264,1,3300001803,CRAMLINGTON,001
301723,1,3300001803,CRAMLINGTON,001
317355,1,3300001803,CRAMLINGTON,001
302176,1,3300001803,CRAMLINGTON,001
310610,1,3300001803,CRAMLINGTON,001
310615,1,3300001803,CRAMLINGTON,001
244990,1,3300001803,CRAMLINGTON,001
244516,1,3300001803,CRAMLINGTON,001
302190,1,3300001803,CRAMLINGTON,001
244940,1,3300001803,CRAMLINGTON,001
301009,1,3300001803,CRAMLINGTON,001
318631,1,3300001803,CRAMLINGTON,001
325078,1,3300001803,CRAMLINGTON,001
325080,1,3300001803,CRAMLINGTON,001
240742,1,3300001803,CRAMLINGTON,001
237432,1,3300001803,CRAMLINGTON,001
314637,1,3300001803,CRAMLINGTON,001
243402,1,3300001803,CRAMLINGTON,001
310095,1,3300001803,CRAMLINGTON,001
