213310,1,3300000522,CRAMLINGTON,001
241191,1,3300000522,CRAMLINGTON,001
241260,1,3300000522,CRAMLINGTON,001
213393,1,3300000522,CRAMLINGTON,001
241136,1,3300000522,CRAMLINGTON,001
229891,1,3300000522,CRAMLINGTON,001
248434,1,3300000522,CRAMLINGTON,001
223841,1,3300000522,CRAMLINGTON,001
219434,1,3300000522,CRAMLINGTON,001
243787,1,3300000522,CRAMLINGTON,001
243801,1,3300000522,CRAMLINGTON,001
239441,1,3300000522,CRAMLINGTON,001
239455,1,3300000522,CRAMLINGTON,001
214447,1,3300000522,CRAMLINGTON,001
241895,1,3300000522,CRAMLINGTON,001
249892,1,3300000522,CRAMLINGTON,001
244061,1,3300000522,CRAMLINGTON,001
244089,1,3300000522,CRAMLINGTON,001
244094,1,3300000522,CRAMLINGTON,001
238995,1,3300000522,CRAMLINGTON,001
239120,1,3300000522,CRAMLINGTON,001
253406,1,3300000522,CRAMLINGTON,001
216081,1,3300000522,CRAMLINGTON,001
241606,1,3300000522,CRAMLINGTON,001
243238,1,3300000522,CRAMLINGTON,001
243241,1,3300000522,CRAMLINGTON,001
249814,1,3300000522,CRAMLINGTON,001
243033,1,3300000522,CRAMLINGTON,001
243053,1,3300000522,CRAMLINGTON,001
243704,1,3300000522,CRAMLINGTON,001
