298435,1,3300001829,CRAMLINGTON,001
311875,1,3300001829,CRAMLINGTON,001
312141,1,3300001829,CRAMLINGTON,001
319840,1,3300001829,CRAMLINGTON,001
317318,1,3300001829,CRAMLINGTON,001
200406,1,3300001829,CRAMLINGTON,001
293343,1,3300001829,CRAMLINGTON,001
293345,1,3300001829,CRAMLINGTON,001
244516,1,3300001829,CRAMLINGTON,001
209606,1,3300001829,CRAMLINGTON,001
247855,1,3300001829,CRAMLINGTON,001
325084,1,3300001829,CRAMLINGTON,001
309794,1,3300001829,CRAMLINGTON,001
323494,1,3300001829,CRAMLINGTON,001
314605,1,3300001829,CRAMLINGTON,001
243401,1,3300001829,CRAMLINGTON,001
291858,1,3300001829,CRAMLINGTON,001
292803,1,3300001829,CRAMLINGTON,001
325419,1,3300001829,CRAMLINGTON,001
