306879,1,3300001195,CRAMLINGTON,001
306880,1,3300001195,CRAMLINGTON,001
306881,1,3300001195,CRAMLINGTON,001
306882,1,3300001195,CRAMLINGTON,001
306883,1,3300001195,CRAMLINGTON,001
306884,1,3300001195,CRAMLINGTON,001
301963,1,3300001195,CRAMLINGTON,001
301964,1,3300001195,CRAMLINGTON,001
301965,1,3300001195,CRAMLINGTON,001
301966,1,3300001195,CRAMLINGTON,001
301967,1,3300001195,CRAMLINGTON,001
301968,1,3300001195,CRAMLINGTON,001
301969,1,3300001195,CRAMLINGTON,001
301970,1,3300001195,CRAMLINGTON,001
301971,1,3300001195,CRAMLINGTON,001
301972,1,3300001195,CRAMLINGTON,001
301974,1,3300001195,CRAMLINGTON,001
301975,1,3300001195,CRAMLINGTON,001
301976,1,3300001195,CRAMLINGTON,001
301977,1,3300001195,CRAMLINGTON,001
301978,1,3300001195,CRAMLINGTON,001
301979,1,3300001195,CRAMLINGTON,001
301980,1,3300001195,CRAMLINGTON,001
301981,1,3300001195,CRAMLINGTON,001
301982,1,3300001195,CRAMLINGTON,001
301983,1,3300001195,CRAMLINGTON,001
294149,1,3300001195,CRAMLINGTON,001
291941,1,3300001195,CRAMLINGTON,001
303990,1,3300001195,CRAMLINGTON,001
203373,1,3300001195,CRAMLINGTON,001
