303344,1,3300001114,CRAMLINGTON,001
303362,1,3300001114,CRAMLINGTON,001
303363,1,3300001114,CRAMLINGTON,001
303364,1,3300001114,CRAMLINGTON,001
303365,1,3300001114,CRAMLINGTON,001
303366,1,3300001114,CRAMLINGTON,001
303367,1,3300001114,CRAMLINGTON,001
303368,1,3300001114,CRAMLINGTON,001
249233,1,3300001114,CRAMLINGTON,001
296264,1,3300001114,CRAMLINGTON,001
303350,1,3300001114,CRAMLINGTON,001
303351,1,3300001114,CRAMLINGTON,001
303352,1,3300001114,CRAMLINGTON,001
303353,1,3300001114,CRAMLINGTON,001
303354,1,3300001114,CRAMLINGTON,001
303355,1,3300001114,CRAMLINGTON,001
303356,1,3300001114,CRAMLINGTON,001
303454,1,3300001114,CRAMLINGTON,001
303455,1,3300001114,CRAMLINGTON,001
303456,1,3300001114,CRAMLINGTON,001
303457,1,3300001114,CRAMLINGTON,001
303458,1,3300001114,CRAMLINGTON,001
303459,1,3300001114,CRAMLINGTON,001
303460,1,3300001114,CRAMLINGTON,001
296286,1,3300001114,CRAMLINGTON,001
293804,1,3300001114,CRAMLINGTON,001
293813,1,3300001114,CRAMLINGTON,001
303220,1,3300001114,CRAMLINGTON,001
