296869,1,3300000950,CRAMLINGTON,001
296361,1,3300000950,CRAMLINGTON,001
296836,1,3300000950,CRAMLINGTON,001
296839,1,3300000950,CRAMLINGTON,001
241078,1,3300000950,CRAMLINGTON,001
294423,1,3300000950,CRAMLINGTON,001
300541,2,3300000950,CRAMLINGTON,001
300542,2,3300000950,CRAMLINGTON,001
300543,2,3300000950,CRAMLINGTON,001
300544,2,3300000950,CRAMLINGTON,001
300546,2,3300000950,CRAMLINGTON,001
300547,2,3300000950,CRAMLINGTON,001
300548,2,3300000950,CRAMLINGTON,001
300549,2,3300000950,CRAMLINGTON,001
300553,2,3300000950,CRAMLINGTON,001
300554,2,3300000950,CRAMLINGTON,001
300555,2,3300000950,CRAMLINGTON,001
300556,2,3300000950,CRAMLINGTON,001
300558,2,3300000950,CRAMLINGTON,001
300559,2,3300000950,CRAMLINGTON,001
300560,2,3300000950,CRAMLINGTON,001
300561,2,3300000950,CRAMLINGTON,001
242010,1,3300000950,CRAMLINGTON,001
298440,1,3300000950,CRAMLINGTON,001
239369,1,3300000950,CRAMLINGTON,001
219479,1,3300000950,CRAMLINGTON,001
241834,1,3300000950,CRAMLINGTON,001
298539,1,3300000950,CRAMLINGTON,001
298573,1,3300000950,CRAMLINGTON,001
295930,1,3300000950,CRAMLINGTON,001
