237531,1,3300001134,CRAMLINGTON,001
237532,1,3300001134,CRAMLINGTON,001
240654,1,3300001134,CRAMLINGTON,001
197839,1,3300001134,CRAMLINGTON,001
234425,1,3300001134,CRAMLINGTON,001
300815,1,3300001134,CRAMLINGTON,001
294179,1,3300001134,CRAMLINGTON,001
301852,1,3300001134,CRAMLINGTON,001
