310152,1,3300001963,CRAMLINGTON,001
245579,1,3300001963,CRAMLINGTON,001
316062,1,3300001963,CRAMLINGTON,001
327667,1,3300001963,CRAMLINGTON,001
312954,1,3300001963,CRAMLINGTON,001
312956,1,3300001963,CRAMLINGTON,001
312958,2,3300001963,CRAMLINGTON,001
328599,1,3300001963,CRAMLINGTON,001
326813,1,3300001963,CRAMLINGTON,001
331740,1,3300001963,CRAMLINGTON,001
331743,1,3300001963,CRAMLINGTON,001
331745,1,3300001963,CRAMLINGTON,001
