203373,1,3300001155,CRAMLINGTON,001
249246,1,3300001155,CRAMLINGTON,001
234418,1,3300001155,CRAMLINGTON,001
293815,1,3300001155,CRAMLINGTON,001
303214,2,3300001155,CRAMLINGTON,001
303215,2,3300001155,CRAMLINGTON,001
