294179,1,3300000907,CRAMLINGTON,001
294656,1,3300000907,CRAMLINGTON,001
298456,1,3300000907,CRAMLINGTON,001
239475,1,3300000907,CRAMLINGTON,001
243791,1,3300000907,CRAMLINGTON,001
294692,1,3300000907,CRAMLINGTON,001
294754,1,3300000907,CRAMLINGTON,001
298534,1,3300000907,CRAMLINGTON,001
298574,1,3300000907,CRAMLINGTON,001
200440,1,3300000907,CRAMLINGTON,001
236957,1,3300000907,CRAMLINGTON,001
216082,1,3300000907,CRAMLINGTON,001
243239,1,3300000907,CRAMLINGTON,001
243243,1,3300000907,CRAMLINGTON,001
290645,1,3300000907,CRAMLINGTON,001
222279,1,3300000907,CRAMLINGTON,001
221353,1,3300000907,CRAMLINGTON,001
286089,1,3300000907,CRAMLINGTON,001
247761,1,3300000907,CRAMLINGTON,001
293735,1,3300000907,CRAMLINGTON,001
