294407,1,3300000699,CRAMLINGTON,001
294408,1,3300000699,CRAMLINGTON,001
294409,1,3300000699,CRAMLINGTON,001
294410,1,3300000699,CRAMLINGTON,001
294411,1,3300000699,CRAMLINGTON,001
294415,1,3300000699,CRAMLINGTON,001
294416,1,3300000699,CRAMLINGTON,001
294417,1,3300000699,CRAMLINGTON,001
294418,1,3300000699,CRAMLINGTON,001
294419,1,3300000699,CRAMLINGTON,001
294420,1,3300000699,CRAMLINGTON,001
294421,1,3300000699,CRAMLINGTON,001
294422,1,3300000699,CRAMLINGTON,001
294423,1,3300000699,CRAMLINGTON,001
294424,1,3300000699,CRAMLINGTON,001
294425,1,3300000699,CRAMLINGTON,001
140009,1,3300000699,CRAMLINGTON,001
293781,1,3300000699,CRAMLINGTON,001
293782,1,3300000699,CRAMLINGTON,001
293783,1,3300000699,CRAMLINGTON,001
293784,1,3300000699,CRAMLINGTON,001
293785,1,3300000699,CRAMLINGTON,001
293786,1,3300000699,CRAMLINGTON,001
293787,1,3300000699,CRAMLINGTON,001
293788,1,3300000699,CRAMLINGTON,001
293789,1,3300000699,CRAMLINGTON,001
293790,1,3300000699,CRAMLINGTON,001
293791,1,3300000699,CRAMLINGTON,001
294080,1,3300000699,CRAMLINGTON,001
294081,1,3300000699,CRAMLINGTON,001
