330970,1,3300002003,CRAMLINGTON,001
327719,1,3300002003,CRAMLINGTON,001
327721,1,3300002003,CRAMLINGTON,001
311876,1,3300002003,CRAMLINGTON,001
298520,1,3300002003,CRAMLINGTON,001
298521,1,3300002003,CRAMLINGTON,001
298522,2,3300002003,CRAMLINGTON,001
298523,2,3300002003,CRAMLINGTON,001
298525,1,3300002003,CRAMLINGTON,001
298526,1,3300002003,CRAMLINGTON,001
312086,1,3300002003,CRAMLINGTON,001
312087,1,3300002003,CRAMLINGTON,001
312088,1,3300002003,CRAMLINGTON,001
312089,1,3300002003,CRAMLINGTON,001
312090,2,3300002003,CRAMLINGTON,001
312091,2,3300002003,CRAMLINGTON,001
312092,2,3300002003,CRAMLINGTON,001
312094,1,3300002003,CRAMLINGTON,001
312031,1,3300002003,CRAMLINGTON,001
326744,1,3300002003,CRAMLINGTON,001
293243,1,3300002003,CRAMLINGTON,001
308815,1,3300002003,CRAMLINGTON,001
308816,1,3300002003,CRAMLINGTON,001
244514,1,3300002003,CRAMLINGTON,001
309846,1,3300002003,CRAMLINGTON,001
310124,1,3300002003,CRAMLINGTON,001
310204,1,3300002003,CRAMLINGTON,001
292087,1,3300002003,CRAMLINGTON,001
309811,1,3300002003,CRAMLINGTON,001
245771,1,3300002003,CRAMLINGTON,001
