244958,1,3300000970,CRAMLINGTON,001
247855,1,3300000970,CRAMLINGTON,001
216086,1,3300000970,CRAMLINGTON,001
294154,1,3300000970,CRAMLINGTON,001
243238,1,3300000970,CRAMLINGTON,001
237327,1,3300000970,CRAMLINGTON,001
176610,1,3300000970,CRAMLINGTON,001
291939,1,3300000970,CRAMLINGTON,001
243449,1,3300000970,CRAMLINGTON,001
243451,1,3300000970,CRAMLINGTON,001
240457,1,3300000970,CRAMLINGTON,001
243400,1,3300000970,CRAMLINGTON,001
243417,1,3300000970,CRAMLINGTON,001
292096,1,3300000970,CRAMLINGTON,001
189042,1,3300000970,CRAMLINGTON,001
189050,1,3300000970,CRAMLINGTON,001
294873,1,3300000970,CRAMLINGTON,001
222281,1,3300000970,CRAMLINGTON,001
296284,1,3300000970,CRAMLINGTON,001
247754,1,3300000970,CRAMLINGTON,001
294111,1,3300000970,CRAMLINGTON,001
297417,1,3300000970,CRAMLINGTON,001
293412,1,3300000970,CRAMLINGTON,001
293801,1,3300000970,CRAMLINGTON,001
293816,1,3300000970,CRAMLINGTON,001
297912,1,3300000970,CRAMLINGTON,001
