330867,1,3300002198,CRAMLINGTON,001
333163,1,3300002198,CRAMLINGTON,001
312781,1,3300002198,CRAMLINGTON,001
327000,1,3300002198,CRAMLINGTON,001
315127,1,3300002198,CRAMLINGTON,001
330483,1,3300002198,CRAMLINGTON,001
332890,1,3300002198,CRAMLINGTON,001
333112,1,3300002198,CRAMLINGTON,001
333116,1,3300002198,CRAMLINGTON,001
326946,1,3300002198,CRAMLINGTON,001
327709,1,3300002198,CRAMLINGTON,001
310893,1,3300002198,CRAMLINGTON,001
326116,1,3300002198,CRAMLINGTON,001
327695,1,3300002198,CRAMLINGTON,001
326707,1,3300002198,CRAMLINGTON,001
326098,1,3300002198,CRAMLINGTON,001
326723,1,3300002198,CRAMLINGTON,001
331992,1,3300002198,CRAMLINGTON,001
333476,1,3300002198,CRAMLINGTON,001
293317,1,3300002198,CRAMLINGTON,001
310476,1,3300002198,CRAMLINGTON,001
310477,2,3300002198,CRAMLINGTON,001
310482,1,3300002198,CRAMLINGTON,001
310721,1,3300002198,CRAMLINGTON,001
326044,1,3300002198,CRAMLINGTON,001
329300,1,3300002198,CRAMLINGTON,001
330782,1,3300002198,CRAMLINGTON,001
244513,1,3300002198,CRAMLINGTON,001
329286,1,3300002198,CRAMLINGTON,001
330710,1,3300002198,CRAMLINGTON,001
