296018,1,3300000857,CRAMLINGTON,001
296019,1,3300000857,CRAMLINGTON,001
296020,1,3300000857,CRAMLINGTON,001
244060,1,3300000857,CRAMLINGTON,001
296101,1,3300000857,CRAMLINGTON,001
296102,1,3300000857,CRAMLINGTON,001
296103,1,3300000857,CRAMLINGTON,001
296104,1,3300000857,CRAMLINGTON,001
296105,1,3300000857,CRAMLINGTON,001
296106,1,3300000857,CRAMLINGTON,001
296107,1,3300000857,CRAMLINGTON,001
296108,1,3300000857,CRAMLINGTON,001
296109,1,3300000857,CRAMLINGTON,001
296110,1,3300000857,CRAMLINGTON,001
296111,1,3300000857,CRAMLINGTON,001
238993,1,3300000857,CRAMLINGTON,001
238999,1,3300000857,CRAMLINGTON,001
200440,1,3300000857,CRAMLINGTON,001
285835,1,3300000857,CRAMLINGTON,001
230201,1,3300000857,CRAMLINGTON,001
249141,1,3300000857,CRAMLINGTON,001
293378,1,3300000857,CRAMLINGTON,001
