317244,1,3300001559,CRAMLINGTON,001
317249,1,3300001559,CRAMLINGTON,001
317250,1,3300001559,CRAMLINGTON,001
317251,1,3300001559,CRAMLINGTON,001
317252,1,3300001559,CRAMLINGTON,001
317253,1,3300001559,CRAMLINGTON,001
317255,1,3300001559,CRAMLINGTON,001
317256,1,3300001559,CRAMLINGTON,001
317257,1,3300001559,CRAMLINGTON,001
317260,1,3300001559,CRAMLINGTON,001
317261,1,3300001559,CRAMLINGTON,001
317262,1,3300001559,CRAMLINGTON,001
317264,1,3300001559,CRAMLINGTON,001
317265,1,3300001559,CRAMLINGTON,001
317266,1,3300001559,CRAMLINGTON,001
317267,1,3300001559,CRAMLINGTON,001
317268,1,3300001559,CRAMLINGTON,001
317269,1,3300001559,CRAMLINGTON,001
317270,1,3300001559,CRAMLINGTON,001
317275,1,3300001559,CRAMLINGTON,001
317276,1,3300001559,CRAMLINGTON,001
317278,1,3300001559,CRAMLINGTON,001
317279,1,3300001559,CRAMLINGTON,001
317280,1,3300001559,CRAMLINGTON,001
317282,1,3300001559,CRAMLINGTON,001
317283,1,3300001559,CRAMLINGTON,001
319822,1,3300001559,CRAMLINGTON,001
319823,1,3300001559,CRAMLINGTON,001
319824,1,3300001559,CRAMLINGTON,001
319825,1,3300001559,CRAMLINGTON,001
