293707,1,3300001139,CRAMLINGTON,001
293708,1,3300001139,CRAMLINGTON,001
296869,1,3300001139,CRAMLINGTON,001
296870,1,3300001139,CRAMLINGTON,001
294250,1,3300001139,CRAMLINGTON,001
247783,1,3300001139,CRAMLINGTON,001
247786,1,3300001139,CRAMLINGTON,001
296877,1,3300001139,CRAMLINGTON,001
294405,1,3300001139,CRAMLINGTON,001
300541,1,3300001139,CRAMLINGTON,001
294099,1,3300001139,CRAMLINGTON,001
300970,1,3300001139,CRAMLINGTON,001
302608,1,3300001139,CRAMLINGTON,001
302612,1,3300001139,CRAMLINGTON,001
294375,1,3300001139,CRAMLINGTON,001
301062,1,3300001139,CRAMLINGTON,001
298441,1,3300001139,CRAMLINGTON,001
294637,1,3300001139,CRAMLINGTON,001
298456,1,3300001139,CRAMLINGTON,001
299093,1,3300001139,CRAMLINGTON,001
243862,1,3300001139,CRAMLINGTON,001
243863,1,3300001139,CRAMLINGTON,001
239485,1,3300001139,CRAMLINGTON,001
249345,1,3300001139,CRAMLINGTON,001
298518,1,3300001139,CRAMLINGTON,001
298522,1,3300001139,CRAMLINGTON,001
298535,1,3300001139,CRAMLINGTON,001
298567,1,3300001139,CRAMLINGTON,001
298573,1,3300001139,CRAMLINGTON,001
303326,1,3300001139,CRAMLINGTON,001
