213291,2,3300000320,CRAMLINGTON,001
213308,1,3300000320,CRAMLINGTON,001
213310,1,3300000320,CRAMLINGTON,001
213312,1,3300000320,CRAMLINGTON,001
240987,1,3300000320,CRAMLINGTON,001
241191,1,3300000320,CRAMLINGTON,001
241251,1,3300000320,CRAMLINGTON,001
241254,1,3300000320,CRAMLINGTON,001
241262,1,3300000320,CRAMLINGTON,001
241300,1,3300000320,CRAMLINGTON,001
229520,1,3300000320,CRAMLINGTON,001
252373,1,3300000320,CRAMLINGTON,001
213391,2,3300000320,CRAMLINGTON,001
213394,1,3300000320,CRAMLINGTON,001
213395,2,3300000320,CRAMLINGTON,001
213397,1,3300000320,CRAMLINGTON,001
216083,2,3300000320,CRAMLINGTON,001
216085,1,3300000320,CRAMLINGTON,001
213955,1,3300000320,CRAMLINGTON,001
241559,1,3300000320,CRAMLINGTON,001
248418,1,3300000320,CRAMLINGTON,001
248281,1,3300000320,CRAMLINGTON,001
248436,1,3300000320,CRAMLINGTON,001
241046,1,3300000320,CRAMLINGTON,001
241352,1,3300000320,CRAMLINGTON,001
229577,1,3300000320,CRAMLINGTON,001
214492,1,3300000320,CRAMLINGTON,001
214495,1,3300000320,CRAMLINGTON,001
214498,1,3300000320,CRAMLINGTON,001
214500,1,3300000320,CRAMLINGTON,001
