241362,1,3300000545,CRAMLINGTON,001
219433,1,3300000545,CRAMLINGTON,001
239378,1,3300000545,CRAMLINGTON,001
239379,2,3300000545,CRAMLINGTON,001
239429,1,3300000545,CRAMLINGTON,001
241929,1,3300000545,CRAMLINGTON,001
243787,1,3300000545,CRAMLINGTON,001
243790,1,3300000545,CRAMLINGTON,001
243802,1,3300000545,CRAMLINGTON,001
243803,1,3300000545,CRAMLINGTON,001
249327,1,3300000545,CRAMLINGTON,001
197275,1,3300000545,CRAMLINGTON,001
197276,1,3300000545,CRAMLINGTON,001
239481,1,3300000545,CRAMLINGTON,001
249875,1,3300000545,CRAMLINGTON,001
249876,1,3300000545,CRAMLINGTON,001
239452,1,3300000545,CRAMLINGTON,001
239457,1,3300000545,CRAMLINGTON,001
214429,1,3300000545,CRAMLINGTON,001
241856,1,3300000545,CRAMLINGTON,001
241858,1,3300000545,CRAMLINGTON,001
241859,1,3300000545,CRAMLINGTON,001
249348,1,3300000545,CRAMLINGTON,001
214421,1,3300000545,CRAMLINGTON,001
224752,1,3300000545,CRAMLINGTON,001
244235,1,3300000545,CRAMLINGTON,001
244061,1,3300000545,CRAMLINGTON,001
287607,1,3300000545,CRAMLINGTON,001
239000,1,3300000545,CRAMLINGTON,001
247132,1,3300000545,CRAMLINGTON,001
