249895,1,3300000564,CRAMLINGTON,001
244179,1,3300000564,CRAMLINGTON,001
244213,1,3300000564,CRAMLINGTON,001
244043,1,3300000564,CRAMLINGTON,001
244056,1,3300000564,CRAMLINGTON,001
244060,1,3300000564,CRAMLINGTON,001
244062,2,3300000564,CRAMLINGTON,001
244076,1,3300000564,CRAMLINGTON,001
244078,1,3300000564,CRAMLINGTON,001
244087,1,3300000564,CRAMLINGTON,001
220421,1,3300000564,CRAMLINGTON,001
220424,1,3300000564,CRAMLINGTON,001
247164,1,3300000564,CRAMLINGTON,001
253403,1,3300000564,CRAMLINGTON,001
215305,1,3300000564,CRAMLINGTON,001
215309,2,3300000564,CRAMLINGTON,001
239085,1,3300000564,CRAMLINGTON,001
237011,1,3300000564,CRAMLINGTON,001
216081,1,3300000564,CRAMLINGTON,001
216082,1,3300000564,CRAMLINGTON,001
216083,3,3300000564,CRAMLINGTON,001
216086,1,3300000564,CRAMLINGTON,001
240706,1,3300000564,CRAMLINGTON,001
240711,1,3300000564,CRAMLINGTON,001
242951,1,3300000564,CRAMLINGTON,001
243057,1,3300000564,CRAMLINGTON,001
243596,1,3300000564,CRAMLINGTON,001
252602,1,3300000564,CRAMLINGTON,001
285875,1,3300000564,CRAMLINGTON,001
199098,1,3300000564,CRAMLINGTON,001
