294223,1,3300000983,CRAMLINGTON,001
294262,1,3300000983,CRAMLINGTON,001
294393,1,3300000983,CRAMLINGTON,001
298437,1,3300000983,CRAMLINGTON,001
298439,1,3300000983,CRAMLINGTON,001
294611,1,3300000983,CRAMLINGTON,001
249878,1,3300000983,CRAMLINGTON,001
241831,1,3300000983,CRAMLINGTON,001
294738,1,3300000983,CRAMLINGTON,001
298521,1,3300000983,CRAMLINGTON,001
239502,1,3300000983,CRAMLINGTON,001
227522,1,3300000983,CRAMLINGTON,001
292070,1,3300000983,CRAMLINGTON,001
243635,1,3300000983,CRAMLINGTON,001
286091,1,3300000983,CRAMLINGTON,001
293800,1,3300000983,CRAMLINGTON,001
293803,1,3300000983,CRAMLINGTON,001
294175,1,3300000983,CRAMLINGTON,001
294176,1,3300000983,CRAMLINGTON,001
294177,1,3300000983,CRAMLINGTON,001
294178,1,3300000983,CRAMLINGTON,001
294179,1,3300000983,CRAMLINGTON,001
294180,1,3300000983,CRAMLINGTON,001
294181,1,3300000983,CRAMLINGTON,001
