213310,1,3300000540,CRAMLINGTON,001
213312,1,3300000540,CRAMLINGTON,001
240996,1,3300000540,CRAMLINGTON,001
247722,1,3300000540,CRAMLINGTON,001
213392,1,3300000540,CRAMLINGTON,001
213393,1,3300000540,CRAMLINGTON,001
213359,1,3300000540,CRAMLINGTON,001
215570,1,3300000540,CRAMLINGTON,001
214500,1,3300000540,CRAMLINGTON,001
239387,1,3300000540,CRAMLINGTON,001
244211,1,3300000540,CRAMLINGTON,001
287563,1,3300000540,CRAMLINGTON,001
238999,1,3300000540,CRAMLINGTON,001
217305,1,3300000540,CRAMLINGTON,001
212329,1,3300000540,CRAMLINGTON,001
236966,1,3300000540,CRAMLINGTON,001
216086,1,3300000540,CRAMLINGTON,001
240705,1,3300000540,CRAMLINGTON,001
240706,1,3300000540,CRAMLINGTON,001
240743,1,3300000540,CRAMLINGTON,001
240744,1,3300000540,CRAMLINGTON,001
243057,1,3300000540,CRAMLINGTON,001
240522,1,3300000540,CRAMLINGTON,001
221279,1,3300000540,CRAMLINGTON,001
197837,1,3300000540,CRAMLINGTON,001
249230,1,3300000540,CRAMLINGTON,001
249231,1,3300000540,CRAMLINGTON,001
249233,1,3300000540,CRAMLINGTON,001
249244,1,3300000540,CRAMLINGTON,001
249246,1,3300000540,CRAMLINGTON,001
