294218,1,3300001230,CRAMLINGTON,001
293746,1,3300001230,CRAMLINGTON,001
293783,1,3300001230,CRAMLINGTON,001
294084,1,3300001230,CRAMLINGTON,001
302622,1,3300001230,CRAMLINGTON,001
302631,1,3300001230,CRAMLINGTON,001
298535,1,3300001230,CRAMLINGTON,001
298569,1,3300001230,CRAMLINGTON,001
304775,1,3300001230,CRAMLINGTON,001
304777,1,3300001230,CRAMLINGTON,001
303285,1,3300001230,CRAMLINGTON,001
303289,1,3300001230,CRAMLINGTON,001
244514,1,3300001230,CRAMLINGTON,001
216086,1,3300001230,CRAMLINGTON,001
240705,1,3300001230,CRAMLINGTON,001
292323,1,3300001230,CRAMLINGTON,001
