312825,1,3300001873,CRAMLINGTON,001
313278,1,3300001873,CRAMLINGTON,001
315068,1,3300001873,CRAMLINGTON,001
241144,1,3300001873,CRAMLINGTON,001
311881,1,3300001873,CRAMLINGTON,001
311913,1,3300001873,CRAMLINGTON,001
312003,1,3300001873,CRAMLINGTON,001
247150,1,3300001873,CRAMLINGTON,001
310734,1,3300001873,CRAMLINGTON,001
306879,1,3300001873,CRAMLINGTON,001
292316,1,3300001873,CRAMLINGTON,001
292317,1,3300001873,CRAMLINGTON,001
292318,1,3300001873,CRAMLINGTON,001
292319,3,3300001873,CRAMLINGTON,001
292320,1,3300001873,CRAMLINGTON,001
292321,3,3300001873,CRAMLINGTON,001
292322,1,3300001873,CRAMLINGTON,001
292323,2,3300001873,CRAMLINGTON,001
292324,1,3300001873,CRAMLINGTON,001
292325,1,3300001873,CRAMLINGTON,001
292326,1,3300001873,CRAMLINGTON,001
300568,2,3300001873,CRAMLINGTON,001
300569,1,3300001873,CRAMLINGTON,001
300570,1,3300001873,CRAMLINGTON,001
300571,1,3300001873,CRAMLINGTON,001
300573,1,3300001873,CRAMLINGTON,001
310110,1,3300001873,CRAMLINGTON,001
292089,1,3300001873,CRAMLINGTON,001
249229,1,3300001873,CRAMLINGTON,001
296262,1,3300001873,CRAMLINGTON,001
