241278,1,3300000648,CRAMLINGTON,001
247786,1,3300000648,CRAMLINGTON,001
213358,1,3300000648,CRAMLINGTON,001
241558,1,3300000648,CRAMLINGTON,001
241911,2,3300000648,CRAMLINGTON,001
241912,2,3300000648,CRAMLINGTON,001
241915,1,3300000648,CRAMLINGTON,001
241916,1,3300000648,CRAMLINGTON,001
241918,1,3300000648,CRAMLINGTON,001
243787,1,3300000648,CRAMLINGTON,001
243803,1,3300000648,CRAMLINGTON,001
239477,1,3300000648,CRAMLINGTON,001
249878,1,3300000648,CRAMLINGTON,001
241814,1,3300000648,CRAMLINGTON,001
241816,1,3300000648,CRAMLINGTON,001
214411,1,3300000648,CRAMLINGTON,001
241841,1,3300000648,CRAMLINGTON,001
241844,2,3300000648,CRAMLINGTON,001
241855,1,3300000648,CRAMLINGTON,001
241857,1,3300000648,CRAMLINGTON,001
241858,1,3300000648,CRAMLINGTON,001
241859,2,3300000648,CRAMLINGTON,001
241860,2,3300000648,CRAMLINGTON,001
244555,1,3300000648,CRAMLINGTON,001
247129,1,3300000648,CRAMLINGTON,001
215305,1,3300000648,CRAMLINGTON,001
215309,1,3300000648,CRAMLINGTON,001
239021,1,3300000648,CRAMLINGTON,001
236958,1,3300000648,CRAMLINGTON,001
216082,2,3300000648,CRAMLINGTON,001
