312726,1,3300001837,CRAMLINGTON,001
312825,1,3300001837,CRAMLINGTON,001
312828,1,3300001837,CRAMLINGTON,001
318258,1,3300001837,CRAMLINGTON,001
318259,1,3300001837,CRAMLINGTON,001
318263,1,3300001837,CRAMLINGTON,001
241149,2,3300001837,CRAMLINGTON,001
312937,1,3300001837,CRAMLINGTON,001
312954,1,3300001837,CRAMLINGTON,001
312956,1,3300001837,CRAMLINGTON,001
318365,1,3300001837,CRAMLINGTON,001
298438,1,3300001837,CRAMLINGTON,001
298440,1,3300001837,CRAMLINGTON,001
310879,1,3300001837,CRAMLINGTON,001
310883,1,3300001837,CRAMLINGTON,001
294622,1,3300001837,CRAMLINGTON,001
312062,1,3300001837,CRAMLINGTON,001
312100,1,3300001837,CRAMLINGTON,001
298423,1,3300001837,CRAMLINGTON,001
311882,1,3300001837,CRAMLINGTON,001
312001,1,3300001837,CRAMLINGTON,001
312006,1,3300001837,CRAMLINGTON,001
312014,2,3300001837,CRAMLINGTON,001
294722,1,3300001837,CRAMLINGTON,001
294723,1,3300001837,CRAMLINGTON,001
312134,1,3300001837,CRAMLINGTON,001
312149,1,3300001837,CRAMLINGTON,001
320631,1,3300001837,CRAMLINGTON,001
320641,1,3300001837,CRAMLINGTON,001
311948,1,3300001837,CRAMLINGTON,001
