302705,1,3300001662,CRAMLINGTON,001
302711,1,3300001662,CRAMLINGTON,001
318397,1,3300001662,CRAMLINGTON,001
318411,1,3300001662,CRAMLINGTON,001
310909,1,3300001662,CRAMLINGTON,001
294629,1,3300001662,CRAMLINGTON,001
294654,1,3300001662,CRAMLINGTON,001
312102,1,3300001662,CRAMLINGTON,001
311907,1,3300001662,CRAMLINGTON,001
302184,1,3300001662,CRAMLINGTON,001
310722,1,3300001662,CRAMLINGTON,001
244513,1,3300001662,CRAMLINGTON,001
291935,1,3300001662,CRAMLINGTON,001
294876,1,3300001662,CRAMLINGTON,001
304625,1,3300001662,CRAMLINGTON,001
300830,1,3300001662,CRAMLINGTON,001
249246,1,3300001662,CRAMLINGTON,001
312245,1,3300001662,CRAMLINGTON,001
293733,1,3300001662,CRAMLINGTON,001
293734,1,3300001662,CRAMLINGTON,001
