294219,1,3300001111,CRAMLINGTON,001
300558,1,3300001111,CRAMLINGTON,001
203970,1,3300001111,CRAMLINGTON,001
302628,1,3300001111,CRAMLINGTON,001
294560,1,3300001111,CRAMLINGTON,001
298538,1,3300001111,CRAMLINGTON,001
295995,1,3300001111,CRAMLINGTON,001
301657,1,3300001111,CRAMLINGTON,001
247859,1,3300001111,CRAMLINGTON,001
240737,1,3300001111,CRAMLINGTON,001
303103,1,3300001111,CRAMLINGTON,001
303104,1,3300001111,CRAMLINGTON,001
303105,1,3300001111,CRAMLINGTON,001
303106,1,3300001111,CRAMLINGTON,001
303107,1,3300001111,CRAMLINGTON,001
303108,1,3300001111,CRAMLINGTON,001
303109,1,3300001111,CRAMLINGTON,001
303110,1,3300001111,CRAMLINGTON,001
303111,1,3300001111,CRAMLINGTON,001
303112,1,3300001111,CRAMLINGTON,001
240656,1,3300001111,CRAMLINGTON,001
243400,1,3300001111,CRAMLINGTON,001
243401,1,3300001111,CRAMLINGTON,001
243402,1,3300001111,CRAMLINGTON,001
243407,1,3300001111,CRAMLINGTON,001
303984,1,3300001111,CRAMLINGTON,001
303985,1,3300001111,CRAMLINGTON,001
303986,1,3300001111,CRAMLINGTON,001
303987,1,3300001111,CRAMLINGTON,001
303988,1,3300001111,CRAMLINGTON,001
