293435,1,3300000832,CRAMLINGTON,001
239080,1,3300000832,CRAMLINGTON,001
244320,1,3300000832,CRAMLINGTON,001
253367,1,3300000832,CRAMLINGTON,001
244958,1,3300000832,CRAMLINGTON,001
231934,1,3300000832,CRAMLINGTON,001
248460,1,3300000832,CRAMLINGTON,001
225724,1,3300000832,CRAMLINGTON,001
237008,1,3300000832,CRAMLINGTON,001
216082,2,3300000832,CRAMLINGTON,001
216086,2,3300000832,CRAMLINGTON,001
218657,1,3300000832,CRAMLINGTON,001
243239,1,3300000832,CRAMLINGTON,001
243240,1,3300000832,CRAMLINGTON,001
249812,1,3300000832,CRAMLINGTON,001
243288,1,3300000832,CRAMLINGTON,001
243664,1,3300000832,CRAMLINGTON,001
249585,1,3300000832,CRAMLINGTON,001
237535,1,3300000832,CRAMLINGTON,001
240458,1,3300000832,CRAMLINGTON,001
243416,1,3300000832,CRAMLINGTON,001
189042,1,3300000832,CRAMLINGTON,001
189051,1,3300000832,CRAMLINGTON,001
290398,1,3300000832,CRAMLINGTON,001
245835,1,3300000832,CRAMLINGTON,001
245592,1,3300000832,CRAMLINGTON,001
249288,1,3300000832,CRAMLINGTON,001
249392,1,3300000832,CRAMLINGTON,001
131111,1,3300000832,CRAMLINGTON,001
234411,1,3300000832,CRAMLINGTON,001
