310733,1,3300001489,CRAMLINGTON,001
310734,1,3300001489,CRAMLINGTON,001
310735,1,3300001489,CRAMLINGTON,001
310736,1,3300001489,CRAMLINGTON,001
310737,1,3300001489,CRAMLINGTON,001
310738,1,3300001489,CRAMLINGTON,001
310739,1,3300001489,CRAMLINGTON,001
310740,1,3300001489,CRAMLINGTON,001
310741,1,3300001489,CRAMLINGTON,001
292083,1,3300001489,CRAMLINGTON,001
306586,1,3300001489,CRAMLINGTON,001
245578,1,3300001489,CRAMLINGTON,001
304666,1,3300001489,CRAMLINGTON,001
249243,1,3300001489,CRAMLINGTON,001
296263,1,3300001489,CRAMLINGTON,001
249145,1,3300001489,CRAMLINGTON,001
315035,1,3300001489,CRAMLINGTON,001
310587,1,3300001489,CRAMLINGTON,001
310588,1,3300001489,CRAMLINGTON,001
310589,1,3300001489,CRAMLINGTON,001
310590,1,3300001489,CRAMLINGTON,001
310591,1,3300001489,CRAMLINGTON,001
310592,1,3300001489,CRAMLINGTON,001
310593,1,3300001489,CRAMLINGTON,001
310671,1,3300001489,CRAMLINGTON,001
310672,1,3300001489,CRAMLINGTON,001
310673,1,3300001489,CRAMLINGTON,001
310674,1,3300001489,CRAMLINGTON,001
310675,1,3300001489,CRAMLINGTON,001
310676,1,3300001489,CRAMLINGTON,001
