301647,1,3300000994,CRAMLINGTON,001
301648,1,3300000994,CRAMLINGTON,001
301649,1,3300000994,CRAMLINGTON,001
301671,1,3300000994,CRAMLINGTON,001
301672,1,3300000994,CRAMLINGTON,001
301673,1,3300000994,CRAMLINGTON,001
301674,1,3300000994,CRAMLINGTON,001
301675,2,3300000994,CRAMLINGTON,001
301676,2,3300000994,CRAMLINGTON,001
301677,2,3300000994,CRAMLINGTON,001
301678,2,3300000994,CRAMLINGTON,001
301679,1,3300000994,CRAMLINGTON,001
301680,1,3300000994,CRAMLINGTON,001
301681,1,3300000994,CRAMLINGTON,001
301655,1,3300000994,CRAMLINGTON,001
301656,1,3300000994,CRAMLINGTON,001
301657,1,3300000994,CRAMLINGTON,001
301658,1,3300000994,CRAMLINGTON,001
301659,1,3300000994,CRAMLINGTON,001
301660,1,3300000994,CRAMLINGTON,001
301661,1,3300000994,CRAMLINGTON,001
301662,1,3300000994,CRAMLINGTON,001
301663,1,3300000994,CRAMLINGTON,001
301664,1,3300000994,CRAMLINGTON,001
301665,1,3300000994,CRAMLINGTON,001
301720,1,3300000994,CRAMLINGTON,001
301721,1,3300000994,CRAMLINGTON,001
301722,1,3300000994,CRAMLINGTON,001
301723,1,3300000994,CRAMLINGTON,001
301724,2,3300000994,CRAMLINGTON,001
