243711,1,3300000547,CRAMLINGTON,001
252601,1,3300000547,CRAMLINGTON,001
252702,1,3300000547,CRAMLINGTON,001
285835,1,3300000547,CRAMLINGTON,001
285836,1,3300000547,CRAMLINGTON,001
202840,1,3300000547,CRAMLINGTON,001
242970,1,3300000547,CRAMLINGTON,001
243448,1,3300000547,CRAMLINGTON,001
285844,1,3300000547,CRAMLINGTON,001
243413,1,3300000547,CRAMLINGTON,001
240518,1,3300000547,CRAMLINGTON,001
189051,1,3300000547,CRAMLINGTON,001
188906,1,3300000547,CRAMLINGTON,001
203379,1,3300000547,CRAMLINGTON,001
188960,1,3300000547,CRAMLINGTON,001
161607,1,3300000547,CRAMLINGTON,001
221534,1,3300000547,CRAMLINGTON,001
197839,1,3300000547,CRAMLINGTON,001
197987,1,3300000547,CRAMLINGTON,001
197991,1,3300000547,CRAMLINGTON,001
221505,1,3300000547,CRAMLINGTON,001
221507,1,3300000547,CRAMLINGTON,001
245741,1,3300000547,CRAMLINGTON,001
249286,1,3300000547,CRAMLINGTON,001
234412,1,3300000547,CRAMLINGTON,001
