213291,1,3300000409,CRAMLINGTON,001
213308,1,3300000409,CRAMLINGTON,001
213392,1,3300000409,CRAMLINGTON,001
227636,1,3300000409,CRAMLINGTON,001
140009,1,3300000409,CRAMLINGTON,001
239421,1,3300000409,CRAMLINGTON,001
243788,1,3300000409,CRAMLINGTON,001
214515,1,3300000409,CRAMLINGTON,001
243869,1,3300000409,CRAMLINGTON,001
249114,1,3300000409,CRAMLINGTON,001
219499,1,3300000409,CRAMLINGTON,001
215306,1,3300000409,CRAMLINGTON,001
215309,1,3300000409,CRAMLINGTON,001
247095,1,3300000409,CRAMLINGTON,001
252305,1,3300000409,CRAMLINGTON,001
216083,1,3300000409,CRAMLINGTON,001
243256,1,3300000409,CRAMLINGTON,001
197928,1,3300000409,CRAMLINGTON,001
221533,1,3300000409,CRAMLINGTON,001
