327708,1,3300001982,CRAMLINGTON,001
327711,1,3300001982,CRAMLINGTON,001
327719,1,3300001982,CRAMLINGTON,001
327723,2,3300001982,CRAMLINGTON,001
327728,1,3300001982,CRAMLINGTON,001
310894,1,3300001982,CRAMLINGTON,001
311875,1,3300001982,CRAMLINGTON,001
311878,1,3300001982,CRAMLINGTON,001
311912,1,3300001982,CRAMLINGTON,001
320609,1,3300001982,CRAMLINGTON,001
326127,1,3300001982,CRAMLINGTON,001
326655,1,3300001982,CRAMLINGTON,001
327763,1,3300001982,CRAMLINGTON,001
327766,1,3300001982,CRAMLINGTON,001
312016,1,3300001982,CRAMLINGTON,001
312020,1,3300001982,CRAMLINGTON,001
326696,1,3300001982,CRAMLINGTON,001
326708,1,3300001982,CRAMLINGTON,001
294736,1,3300001982,CRAMLINGTON,001
312093,1,3300001982,CRAMLINGTON,001
312149,1,3300001982,CRAMLINGTON,001
312153,1,3300001982,CRAMLINGTON,001
320631,1,3300001982,CRAMLINGTON,001
326060,1,3300001982,CRAMLINGTON,001
311952,1,3300001982,CRAMLINGTON,001
312031,1,3300001982,CRAMLINGTON,001
312645,1,3300001982,CRAMLINGTON,001
332002,1,3300001982,CRAMLINGTON,001
331876,1,3300001982,CRAMLINGTON,001
293442,1,3300001982,CRAMLINGTON,001
