296861,1,3300001469,CRAMLINGTON,001
296863,1,3300001469,CRAMLINGTON,001
296866,1,3300001469,CRAMLINGTON,001
296871,1,3300001469,CRAMLINGTON,001
247782,1,3300001469,CRAMLINGTON,001
296881,1,3300001469,CRAMLINGTON,001
296882,1,3300001469,CRAMLINGTON,001
296884,1,3300001469,CRAMLINGTON,001
315604,1,3300001469,CRAMLINGTON,001
315639,1,3300001469,CRAMLINGTON,001
300772,1,3300001469,CRAMLINGTON,001
300967,1,3300001469,CRAMLINGTON,001
302610,1,3300001469,CRAMLINGTON,001
302611,1,3300001469,CRAMLINGTON,001
302615,1,3300001469,CRAMLINGTON,001
302623,1,3300001469,CRAMLINGTON,001
302625,1,3300001469,CRAMLINGTON,001
302629,1,3300001469,CRAMLINGTON,001
294374,1,3300001469,CRAMLINGTON,001
294377,1,3300001469,CRAMLINGTON,001
294378,1,3300001469,CRAMLINGTON,001
294379,1,3300001469,CRAMLINGTON,001
313290,1,3300001469,CRAMLINGTON,001
313895,1,3300001469,CRAMLINGTON,001
310894,1,3300001469,CRAMLINGTON,001
310896,2,3300001469,CRAMLINGTON,001
312051,1,3300001469,CRAMLINGTON,001
312104,1,3300001469,CRAMLINGTON,001
312105,1,3300001469,CRAMLINGTON,001
298421,2,3300001469,CRAMLINGTON,001
