296860,1,3300001298,CRAMLINGTON,001
296861,1,3300001298,CRAMLINGTON,001
296862,2,3300001298,CRAMLINGTON,001
296863,3,3300001298,CRAMLINGTON,001
296864,2,3300001298,CRAMLINGTON,001
296867,3,3300001298,CRAMLINGTON,001
296868,2,3300001298,CRAMLINGTON,001
296871,1,3300001298,CRAMLINGTON,001
296875,1,3300001298,CRAMLINGTON,001
296878,2,3300001298,CRAMLINGTON,001
296879,2,3300001298,CRAMLINGTON,001
296880,3,3300001298,CRAMLINGTON,001
296881,1,3300001298,CRAMLINGTON,001
296884,1,3300001298,CRAMLINGTON,001
294403,1,3300001298,CRAMLINGTON,001
294405,1,3300001298,CRAMLINGTON,001
294406,1,3300001298,CRAMLINGTON,001
294409,1,3300001298,CRAMLINGTON,001
294099,1,3300001298,CRAMLINGTON,001
294123,1,3300001298,CRAMLINGTON,001
239471,1,3300001298,CRAMLINGTON,001
298533,1,3300001298,CRAMLINGTON,001
296105,1,3300001298,CRAMLINGTON,001
302230,1,3300001298,CRAMLINGTON,001
292307,1,3300001298,CRAMLINGTON,001
290495,1,3300001298,CRAMLINGTON,001
249228,1,3300001298,CRAMLINGTON,001
249229,1,3300001298,CRAMLINGTON,001
249230,1,3300001298,CRAMLINGTON,001
249231,1,3300001298,CRAMLINGTON,001
