293232,1,3300000846,CRAMLINGTON,001
293233,1,3300000846,CRAMLINGTON,001
293234,1,3300000846,CRAMLINGTON,001
293235,1,3300000846,CRAMLINGTON,001
293236,1,3300000846,CRAMLINGTON,001
293239,1,3300000846,CRAMLINGTON,001
293240,1,3300000846,CRAMLINGTON,001
293241,1,3300000846,CRAMLINGTON,001
293242,1,3300000846,CRAMLINGTON,001
293243,1,3300000846,CRAMLINGTON,001
293244,1,3300000846,CRAMLINGTON,001
293245,1,3300000846,CRAMLINGTON,001
293246,1,3300000846,CRAMLINGTON,001
293247,1,3300000846,CRAMLINGTON,001
293248,1,3300000846,CRAMLINGTON,001
293249,1,3300000846,CRAMLINGTON,001
293313,1,3300000846,CRAMLINGTON,001
293314,1,3300000846,CRAMLINGTON,001
293315,1,3300000846,CRAMLINGTON,001
293316,1,3300000846,CRAMLINGTON,001
293317,1,3300000846,CRAMLINGTON,001
293318,1,3300000846,CRAMLINGTON,001
293319,1,3300000846,CRAMLINGTON,001
293320,1,3300000846,CRAMLINGTON,001
293321,1,3300000846,CRAMLINGTON,001
293322,1,3300000846,CRAMLINGTON,001
293328,1,3300000846,CRAMLINGTON,001
216082,1,3300000846,CRAMLINGTON,001
243269,1,3300000846,CRAMLINGTON,001
221532,1,3300000846,CRAMLINGTON,001
