312893,2,3300001595,CRAMLINGTON,001
297928,1,3300001595,CRAMLINGTON,001
303212,1,3300001595,CRAMLINGTON,001
303213,1,3300001595,CRAMLINGTON,001
309946,1,3300001595,CRAMLINGTON,001
309948,1,3300001595,CRAMLINGTON,001
309970,1,3300001595,CRAMLINGTON,001
