312954,1,3300001762,CRAMLINGTON,001
312955,1,3300001762,CRAMLINGTON,001
312956,1,3300001762,CRAMLINGTON,001
312957,1,3300001762,CRAMLINGTON,001
312958,1,3300001762,CRAMLINGTON,001
312959,1,3300001762,CRAMLINGTON,001
312960,1,3300001762,CRAMLINGTON,001
312961,1,3300001762,CRAMLINGTON,001
318410,1,3300001762,CRAMLINGTON,001
318411,1,3300001762,CRAMLINGTON,001
312046,1,3300001762,CRAMLINGTON,001
312105,1,3300001762,CRAMLINGTON,001
312016,1,3300001762,CRAMLINGTON,001
312019,1,3300001762,CRAMLINGTON,001
294724,1,3300001762,CRAMLINGTON,001
298526,1,3300001762,CRAMLINGTON,001
312086,1,3300001762,CRAMLINGTON,001
312088,1,3300001762,CRAMLINGTON,001
312091,1,3300001762,CRAMLINGTON,001
312135,1,3300001762,CRAMLINGTON,001
312138,1,3300001762,CRAMLINGTON,001
312140,1,3300001762,CRAMLINGTON,001
312149,1,3300001762,CRAMLINGTON,001
312154,1,3300001762,CRAMLINGTON,001
320630,2,3300001762,CRAMLINGTON,001
320632,1,3300001762,CRAMLINGTON,001
320646,1,3300001762,CRAMLINGTON,001
311949,1,3300001762,CRAMLINGTON,001
317266,1,3300001762,CRAMLINGTON,001
317277,1,3300001762,CRAMLINGTON,001
