213291,2,3300001201,CRAMLINGTON,001
241013,1,3300001201,CRAMLINGTON,001
294219,1,3300001201,CRAMLINGTON,001
294246,1,3300001201,CRAMLINGTON,001
294260,1,3300001201,CRAMLINGTON,001
294262,1,3300001201,CRAMLINGTON,001
296357,1,3300001201,CRAMLINGTON,001
293747,1,3300001201,CRAMLINGTON,001
293748,1,3300001201,CRAMLINGTON,001
293751,1,3300001201,CRAMLINGTON,001
296881,1,3300001201,CRAMLINGTON,001
293781,1,3300001201,CRAMLINGTON,001
302623,1,3300001201,CRAMLINGTON,001
294189,1,3300001201,CRAMLINGTON,001
294190,1,3300001201,CRAMLINGTON,001
294193,1,3300001201,CRAMLINGTON,001
294387,1,3300001201,CRAMLINGTON,001
302698,1,3300001201,CRAMLINGTON,001
298440,1,3300001201,CRAMLINGTON,001
294656,1,3300001201,CRAMLINGTON,001
298455,2,3300001201,CRAMLINGTON,001
299095,1,3300001201,CRAMLINGTON,001
239440,1,3300001201,CRAMLINGTON,001
243862,1,3300001201,CRAMLINGTON,001
249875,1,3300001201,CRAMLINGTON,001
298424,1,3300001201,CRAMLINGTON,001
298425,1,3300001201,CRAMLINGTON,001
298426,1,3300001201,CRAMLINGTON,001
249260,1,3300001201,CRAMLINGTON,001
294693,1,3300001201,CRAMLINGTON,001
