310736,1,3300001913,CRAMLINGTON,001
244952,1,3300001913,CRAMLINGTON,001
313060,1,3300001913,CRAMLINGTON,001
216086,1,3300001913,CRAMLINGTON,001
254430,1,3300001913,CRAMLINGTON,001
237432,1,3300001913,CRAMLINGTON,001
309807,1,3300001913,CRAMLINGTON,001
245582,1,3300001913,CRAMLINGTON,001
248947,1,3300001913,CRAMLINGTON,001
245746,1,3300001913,CRAMLINGTON,001
249230,1,3300001913,CRAMLINGTON,001
327154,1,3300001913,CRAMLINGTON,001
330876,1,3300001913,CRAMLINGTON,001
293528,1,3300001913,CRAMLINGTON,001
301693,1,3300001913,CRAMLINGTON,001
