244512,1,3300002125,CRAMLINGTON,001
333412,1,3300002125,CRAMLINGTON,001
247093,1,3300002125,CRAMLINGTON,001
293330,1,3300002125,CRAMLINGTON,001
322786,1,3300002125,CRAMLINGTON,001
336146,1,3300002125,CRAMLINGTON,001
301968,1,3300002125,CRAMLINGTON,001
301969,1,3300002125,CRAMLINGTON,001
301970,1,3300002125,CRAMLINGTON,001
301971,1,3300002125,CRAMLINGTON,001
331473,1,3300002125,CRAMLINGTON,001
335190,1,3300002125,CRAMLINGTON,001
335784,1,3300002125,CRAMLINGTON,001
335785,1,3300002125,CRAMLINGTON,001
335786,1,3300002125,CRAMLINGTON,001
335787,1,3300002125,CRAMLINGTON,001
335788,1,3300002125,CRAMLINGTON,001
335789,1,3300002125,CRAMLINGTON,001
335790,1,3300002125,CRAMLINGTON,001
335791,1,3300002125,CRAMLINGTON,001
335792,1,3300002125,CRAMLINGTON,001
335793,1,3300002125,CRAMLINGTON,001
335794,1,3300002125,CRAMLINGTON,001
335798,1,3300002125,CRAMLINGTON,001
335799,1,3300002125,CRAMLINGTON,001
335800,1,3300002125,CRAMLINGTON,001
335801,1,3300002125,CRAMLINGTON,001
335802,1,3300002125,CRAMLINGTON,001
335803,1,3300002125,CRAMLINGTON,001
335804,1,3300002125,CRAMLINGTON,001
