241269,1,3300000760,CRAMLINGTON,001
252251,1,3300000760,CRAMLINGTON,001
252350,1,3300000760,CRAMLINGTON,001
296362,1,3300000760,CRAMLINGTON,001
213392,1,3300000760,CRAMLINGTON,001
229577,1,3300000760,CRAMLINGTON,001
294560,1,3300000760,CRAMLINGTON,001
294659,1,3300000760,CRAMLINGTON,001
219479,1,3300000760,CRAMLINGTON,001
241829,1,3300000760,CRAMLINGTON,001
239497,1,3300000760,CRAMLINGTON,001
244087,1,3300000760,CRAMLINGTON,001
247892,1,3300000760,CRAMLINGTON,001
243666,1,3300000760,CRAMLINGTON,001
243415,1,3300000760,CRAMLINGTON,001
243419,1,3300000760,CRAMLINGTON,001
240522,1,3300000760,CRAMLINGTON,001
98519,1,3300000760,CRAMLINGTON,001
175793,1,3300000760,CRAMLINGTON,001
175794,1,3300000760,CRAMLINGTON,001
175797,1,3300000760,CRAMLINGTON,001
249146,1,3300000760,CRAMLINGTON,001
247722,1,3300000760,CRAMLINGTON,001
247755,1,3300000760,CRAMLINGTON,001
