247783,1,3300001785,CRAMLINGTON,001
247786,1,3300001785,CRAMLINGTON,001
315604,1,3300001785,CRAMLINGTON,001
315630,1,3300001785,CRAMLINGTON,001
302656,1,3300001785,CRAMLINGTON,001
312780,1,3300001785,CRAMLINGTON,001
312784,1,3300001785,CRAMLINGTON,001
312811,1,3300001785,CRAMLINGTON,001
313273,1,3300001785,CRAMLINGTON,001
318260,1,3300001785,CRAMLINGTON,001
318272,1,3300001785,CRAMLINGTON,001
241146,1,3300001785,CRAMLINGTON,001
241149,1,3300001785,CRAMLINGTON,001
312938,1,3300001785,CRAMLINGTON,001
312940,1,3300001785,CRAMLINGTON,001
312942,1,3300001785,CRAMLINGTON,001
312958,1,3300001785,CRAMLINGTON,001
318379,1,3300001785,CRAMLINGTON,001
318407,1,3300001785,CRAMLINGTON,001
318410,1,3300001785,CRAMLINGTON,001
310913,1,3300001785,CRAMLINGTON,001
310897,1,3300001785,CRAMLINGTON,001
312046,1,3300001785,CRAMLINGTON,001
312059,1,3300001785,CRAMLINGTON,001
312101,1,3300001785,CRAMLINGTON,001
312107,1,3300001785,CRAMLINGTON,001
320610,1,3300001785,CRAMLINGTON,001
312008,1,3300001785,CRAMLINGTON,001
294721,1,3300001785,CRAMLINGTON,001
312141,1,3300001785,CRAMLINGTON,001
