313051,1,3300001767,CRAMLINGTON,001
315063,1,3300001767,CRAMLINGTON,001
312901,1,3300001767,CRAMLINGTON,001
318381,1,3300001767,CRAMLINGTON,001
318390,1,3300001767,CRAMLINGTON,001
312106,1,3300001767,CRAMLINGTON,001
312108,1,3300001767,CRAMLINGTON,001
312146,1,3300001767,CRAMLINGTON,001
317267,1,3300001767,CRAMLINGTON,001
301726,1,3300001767,CRAMLINGTON,001
239079,1,3300001767,CRAMLINGTON,001
254434,1,3300001767,CRAMLINGTON,001
310109,1,3300001767,CRAMLINGTON,001
310126,1,3300001767,CRAMLINGTON,001
310201,1,3300001767,CRAMLINGTON,001
309919,1,3300001767,CRAMLINGTON,001
309921,1,3300001767,CRAMLINGTON,001
309922,1,3300001767,CRAMLINGTON,001
309928,1,3300001767,CRAMLINGTON,001
197782,1,3300001767,CRAMLINGTON,001
75923,1,3300001767,CRAMLINGTON,001
75924,1,3300001767,CRAMLINGTON,001
75925,1,3300001767,CRAMLINGTON,001
75926,1,3300001767,CRAMLINGTON,001
75927,1,3300001767,CRAMLINGTON,001
292798,1,3300001767,CRAMLINGTON,001
292799,1,3300001767,CRAMLINGTON,001
292800,1,3300001767,CRAMLINGTON,001
292801,1,3300001767,CRAMLINGTON,001
292802,2,3300001767,CRAMLINGTON,001
