312866,1,3300001910,CRAMLINGTON,001
327564,1,3300001910,CRAMLINGTON,001
327566,1,3300001910,CRAMLINGTON,001
327568,1,3300001910,CRAMLINGTON,001
327569,1,3300001910,CRAMLINGTON,001
327570,1,3300001910,CRAMLINGTON,001
327571,1,3300001910,CRAMLINGTON,001
327572,1,3300001910,CRAMLINGTON,001
310106,1,3300001910,CRAMLINGTON,001
309844,1,3300001910,CRAMLINGTON,001
309808,1,3300001910,CRAMLINGTON,001
309809,1,3300001910,CRAMLINGTON,001
309810,1,3300001910,CRAMLINGTON,001
314937,1,3300001910,CRAMLINGTON,001
314938,1,3300001910,CRAMLINGTON,001
296267,1,3300001910,CRAMLINGTON,001
330899,1,3300001910,CRAMLINGTON,001
330721,1,3300001910,CRAMLINGTON,001
330722,1,3300001910,CRAMLINGTON,001
330723,1,3300001910,CRAMLINGTON,001
330724,1,3300001910,CRAMLINGTON,001
330725,1,3300001910,CRAMLINGTON,001
330726,1,3300001910,CRAMLINGTON,001
330727,1,3300001910,CRAMLINGTON,001
330760,1,3300001910,CRAMLINGTON,001
330761,1,3300001910,CRAMLINGTON,001
330762,1,3300001910,CRAMLINGTON,001
330763,1,3300001910,CRAMLINGTON,001
330764,1,3300001910,CRAMLINGTON,001
330765,1,3300001910,CRAMLINGTON,001
