296860,1,3300001334,CRAMLINGTON,001
296867,1,3300001334,CRAMLINGTON,001
296868,1,3300001334,CRAMLINGTON,001
296871,1,3300001334,CRAMLINGTON,001
293775,1,3300001334,CRAMLINGTON,001
294257,1,3300001334,CRAMLINGTON,001
247787,1,3300001334,CRAMLINGTON,001
294416,1,3300001334,CRAMLINGTON,001
293790,1,3300001334,CRAMLINGTON,001
300778,1,3300001334,CRAMLINGTON,001
300946,1,3300001334,CRAMLINGTON,001
301045,1,3300001334,CRAMLINGTON,001
301076,1,3300001334,CRAMLINGTON,001
302612,1,3300001334,CRAMLINGTON,001
302624,1,3300001334,CRAMLINGTON,001
294396,1,3300001334,CRAMLINGTON,001
301061,1,3300001334,CRAMLINGTON,001
302696,1,3300001334,CRAMLINGTON,001
249308,1,3300001334,CRAMLINGTON,001
294559,1,3300001334,CRAMLINGTON,001
294576,1,3300001334,CRAMLINGTON,001
294608,1,3300001334,CRAMLINGTON,001
294610,1,3300001334,CRAMLINGTON,001
294642,1,3300001334,CRAMLINGTON,001
310895,1,3300001334,CRAMLINGTON,001
311880,1,3300001334,CRAMLINGTON,001
312002,1,3300001334,CRAMLINGTON,001
312018,1,3300001334,CRAMLINGTON,001
231516,1,3300001334,CRAMLINGTON,001
249261,1,3300001334,CRAMLINGTON,001
