213290,1,3300000944,CRAMLINGTON,001
293710,1,3300000944,CRAMLINGTON,001
296364,1,3300000944,CRAMLINGTON,001
241533,1,3300000944,CRAMLINGTON,001
247782,1,3300000944,CRAMLINGTON,001
296880,1,3300000944,CRAMLINGTON,001
294406,1,3300000944,CRAMLINGTON,001
297942,1,3300000944,CRAMLINGTON,001
223881,1,3300000944,CRAMLINGTON,001
293787,1,3300000944,CRAMLINGTON,001
294136,1,3300000944,CRAMLINGTON,001
294642,1,3300000944,CRAMLINGTON,001
298426,1,3300000944,CRAMLINGTON,001
241831,1,3300000944,CRAMLINGTON,001
298534,1,3300000944,CRAMLINGTON,001
298535,1,3300000944,CRAMLINGTON,001
298572,1,3300000944,CRAMLINGTON,001
294670,1,3300000944,CRAMLINGTON,001
244092,1,3300000944,CRAMLINGTON,001
296064,1,3300000944,CRAMLINGTON,001
238992,1,3300000944,CRAMLINGTON,001
293342,1,3300000944,CRAMLINGTON,001
216086,1,3300000944,CRAMLINGTON,001
243240,1,3300000944,CRAMLINGTON,001
243272,1,3300000944,CRAMLINGTON,001
243274,1,3300000944,CRAMLINGTON,001
230198,1,3300000944,CRAMLINGTON,001
98762,1,3300000944,CRAMLINGTON,001
293763,1,3300000944,CRAMLINGTON,001
