241279,1,3300000819,CRAMLINGTON,001
294217,1,3300000819,CRAMLINGTON,001
294218,1,3300000819,CRAMLINGTON,001
294219,1,3300000819,CRAMLINGTON,001
294228,1,3300000819,CRAMLINGTON,001
294229,1,3300000819,CRAMLINGTON,001
294233,1,3300000819,CRAMLINGTON,001
213392,1,3300000819,CRAMLINGTON,001
203971,1,3300000819,CRAMLINGTON,001
241344,1,3300000819,CRAMLINGTON,001
294088,1,3300000819,CRAMLINGTON,001
294089,1,3300000819,CRAMLINGTON,001
294090,1,3300000819,CRAMLINGTON,001
294392,1,3300000819,CRAMLINGTON,001
294395,1,3300000819,CRAMLINGTON,001
294565,1,3300000819,CRAMLINGTON,001
294623,1,3300000819,CRAMLINGTON,001
294644,1,3300000819,CRAMLINGTON,001
219536,1,3300000819,CRAMLINGTON,001
239402,1,3300000819,CRAMLINGTON,001
294674,1,3300000819,CRAMLINGTON,001
244177,1,3300000819,CRAMLINGTON,001
244178,1,3300000819,CRAMLINGTON,001
244244,1,3300000819,CRAMLINGTON,001
244285,1,3300000819,CRAMLINGTON,001
176608,1,3300000819,CRAMLINGTON,001
176612,1,3300000819,CRAMLINGTON,001
234403,1,3300000819,CRAMLINGTON,001
294171,1,3300000819,CRAMLINGTON,001
