312004,1,3300002031,CRAMLINGTON,001
312021,1,3300002031,CRAMLINGTON,001
326708,1,3300002031,CRAMLINGTON,001
320631,1,3300002031,CRAMLINGTON,001
312036,1,3300002031,CRAMLINGTON,001
312658,1,3300002031,CRAMLINGTON,001
326721,1,3300002031,CRAMLINGTON,001
326723,1,3300002031,CRAMLINGTON,001
326734,1,3300002031,CRAMLINGTON,001
326737,1,3300002031,CRAMLINGTON,001
319841,1,3300002031,CRAMLINGTON,001
301759,1,3300002031,CRAMLINGTON,001
331890,1,3300002031,CRAMLINGTON,001
200406,1,3300002031,CRAMLINGTON,001
293342,1,3300002031,CRAMLINGTON,001
308814,1,3300002031,CRAMLINGTON,001
310479,1,3300002031,CRAMLINGTON,001
310723,1,3300002031,CRAMLINGTON,001
330799,1,3300002031,CRAMLINGTON,001
308797,1,3300002031,CRAMLINGTON,001
310736,1,3300002031,CRAMLINGTON,001
310737,1,3300002031,CRAMLINGTON,001
319143,1,3300002031,CRAMLINGTON,001
233334,1,3300002031,CRAMLINGTON,001
322782,1,3300002031,CRAMLINGTON,001
323163,1,3300002031,CRAMLINGTON,001
301965,1,3300002031,CRAMLINGTON,001
323177,1,3300002031,CRAMLINGTON,001
318631,1,3300002031,CRAMLINGTON,001
325173,1,3300002031,CRAMLINGTON,001
