209325,1,3300002213,CRAMLINGTON,001
209326,1,3300002213,CRAMLINGTON,001
209327,1,3300002213,CRAMLINGTON,001
209328,1,3300002213,CRAMLINGTON,001
209329,1,3300002213,CRAMLINGTON,001
209330,1,3300002213,CRAMLINGTON,001
209331,1,3300002213,CRAMLINGTON,001
209332,1,3300002213,CRAMLINGTON,001
212959,1,3300002213,CRAMLINGTON,001
219907,1,3300002213,CRAMLINGTON,001
299895,1,3300002213,CRAMLINGTON,001
299896,1,3300002213,CRAMLINGTON,001
299897,1,3300002213,CRAMLINGTON,001
299898,1,3300002213,CRAMLINGTON,001
299899,1,3300002213,CRAMLINGTON,001
299900,1,3300002213,CRAMLINGTON,001
299901,1,3300002213,CRAMLINGTON,001
299902,1,3300002213,CRAMLINGTON,001
299903,1,3300002213,CRAMLINGTON,001
299904,1,3300002213,CRAMLINGTON,001
331299,1,3300002213,CRAMLINGTON,001
331275,1,3300002213,CRAMLINGTON,001
334301,1,3300002213,CRAMLINGTON,001
310093,1,3300002213,CRAMLINGTON,001
332908,1,3300002213,CRAMLINGTON,001
