243864,1,3300001050,CRAMLINGTON,001
298424,1,3300001050,CRAMLINGTON,001
239402,1,3300001050,CRAMLINGTON,001
294738,1,3300001050,CRAMLINGTON,001
298520,1,3300001050,CRAMLINGTON,001
298536,1,3300001050,CRAMLINGTON,001
298538,1,3300001050,CRAMLINGTON,001
294671,1,3300001050,CRAMLINGTON,001
301675,1,3300001050,CRAMLINGTON,001
295961,1,3300001050,CRAMLINGTON,001
301754,1,3300001050,CRAMLINGTON,001
296059,1,3300001050,CRAMLINGTON,001
238991,1,3300001050,CRAMLINGTON,001
293218,1,3300001050,CRAMLINGTON,001
293342,1,3300001050,CRAMLINGTON,001
300447,1,3300001050,CRAMLINGTON,001
215306,1,3300001050,CRAMLINGTON,001
228551,1,3300001050,CRAMLINGTON,001
228554,1,3300001050,CRAMLINGTON,001
244515,1,3300001050,CRAMLINGTON,001
227786,1,3300001050,CRAMLINGTON,001
236957,1,3300001050,CRAMLINGTON,001
216082,1,3300001050,CRAMLINGTON,001
216086,1,3300001050,CRAMLINGTON,001
218654,1,3300001050,CRAMLINGTON,001
240739,1,3300001050,CRAMLINGTON,001
243238,1,3300001050,CRAMLINGTON,001
249809,1,3300001050,CRAMLINGTON,001
292066,1,3300001050,CRAMLINGTON,001
240878,1,3300001050,CRAMLINGTON,001
