214416,1,3300000655,CRAMLINGTON,001
244233,1,3300000655,CRAMLINGTON,001
238993,1,3300000655,CRAMLINGTON,001
239000,1,3300000655,CRAMLINGTON,001
239115,1,3300000655,CRAMLINGTON,001
244554,1,3300000655,CRAMLINGTON,001
247151,1,3300000655,CRAMLINGTON,001
215309,1,3300000655,CRAMLINGTON,001
228555,1,3300000655,CRAMLINGTON,001
253366,1,3300000655,CRAMLINGTON,001
244956,1,3300000655,CRAMLINGTON,001
236956,1,3300000655,CRAMLINGTON,001
216083,1,3300000655,CRAMLINGTON,001
216086,1,3300000655,CRAMLINGTON,001
243242,1,3300000655,CRAMLINGTON,001
243254,1,3300000655,CRAMLINGTON,001
249810,1,3300000655,CRAMLINGTON,001
243275,1,3300000655,CRAMLINGTON,001
243705,1,3300000655,CRAMLINGTON,001
243707,1,3300000655,CRAMLINGTON,001
249581,1,3300000655,CRAMLINGTON,001
252749,1,3300000655,CRAMLINGTON,001
285873,1,3300000655,CRAMLINGTON,001
243450,1,3300000655,CRAMLINGTON,001
252658,1,3300000655,CRAMLINGTON,001
252661,1,3300000655,CRAMLINGTON,001
240522,1,3300000655,CRAMLINGTON,001
203378,1,3300000655,CRAMLINGTON,001
203380,1,3300000655,CRAMLINGTON,001
