330867,1,3300002095,CRAMLINGTON,001
333166,1,3300002095,CRAMLINGTON,001
333065,1,3300002095,CRAMLINGTON,001
315128,1,3300002095,CRAMLINGTON,001
330939,1,3300002095,CRAMLINGTON,001
333118,1,3300002095,CRAMLINGTON,001
310913,1,3300002095,CRAMLINGTON,001
320613,1,3300002095,CRAMLINGTON,001
326700,1,3300002095,CRAMLINGTON,001
326710,1,3300002095,CRAMLINGTON,001
326714,1,3300002095,CRAMLINGTON,001
320633,1,3300002095,CRAMLINGTON,001
311952,1,3300002095,CRAMLINGTON,001
331990,1,3300002095,CRAMLINGTON,001
333473,1,3300002095,CRAMLINGTON,001
333474,1,3300002095,CRAMLINGTON,001
333475,1,3300002095,CRAMLINGTON,001
333476,2,3300002095,CRAMLINGTON,001
333477,2,3300002095,CRAMLINGTON,001
333478,2,3300002095,CRAMLINGTON,001
333479,2,3300002095,CRAMLINGTON,001
333480,2,3300002095,CRAMLINGTON,001
333481,1,3300002095,CRAMLINGTON,001
333482,1,3300002095,CRAMLINGTON,001
333483,1,3300002095,CRAMLINGTON,001
310649,1,3300002095,CRAMLINGTON,001
310703,1,3300002095,CRAMLINGTON,001
330788,1,3300002095,CRAMLINGTON,001
333461,1,3300002095,CRAMLINGTON,001
333462,1,3300002095,CRAMLINGTON,001
