302626,1,3300001347,CRAMLINGTON,001
294189,1,3300001347,CRAMLINGTON,001
312041,1,3300001347,CRAMLINGTON,001
312042,1,3300001347,CRAMLINGTON,001
312043,1,3300001347,CRAMLINGTON,001
312044,1,3300001347,CRAMLINGTON,001
312045,2,3300001347,CRAMLINGTON,001
312046,2,3300001347,CRAMLINGTON,001
312047,2,3300001347,CRAMLINGTON,001
312048,2,3300001347,CRAMLINGTON,001
312049,1,3300001347,CRAMLINGTON,001
312050,1,3300001347,CRAMLINGTON,001
312051,1,3300001347,CRAMLINGTON,001
312056,1,3300001347,CRAMLINGTON,001
312057,1,3300001347,CRAMLINGTON,001
312058,1,3300001347,CRAMLINGTON,001
312059,1,3300001347,CRAMLINGTON,001
312060,2,3300001347,CRAMLINGTON,001
312061,2,3300001347,CRAMLINGTON,001
312062,2,3300001347,CRAMLINGTON,001
312063,2,3300001347,CRAMLINGTON,001
312064,1,3300001347,CRAMLINGTON,001
312065,1,3300001347,CRAMLINGTON,001
312066,1,3300001347,CRAMLINGTON,001
312100,1,3300001347,CRAMLINGTON,001
312101,1,3300001347,CRAMLINGTON,001
312102,1,3300001347,CRAMLINGTON,001
312103,1,3300001347,CRAMLINGTON,001
312104,2,3300001347,CRAMLINGTON,001
312105,2,3300001347,CRAMLINGTON,001
