240659,1,3300001594,CRAMLINGTON,001
292085,1,3300001594,CRAMLINGTON,001
240456,1,3300001594,CRAMLINGTON,001
252678,1,3300001594,CRAMLINGTON,001
291856,1,3300001594,CRAMLINGTON,001
291950,1,3300001594,CRAMLINGTON,001
291952,1,3300001594,CRAMLINGTON,001
294877,1,3300001594,CRAMLINGTON,001
306583,1,3300001594,CRAMLINGTON,001
245569,1,3300001594,CRAMLINGTON,001
245583,1,3300001594,CRAMLINGTON,001
304475,1,3300001594,CRAMLINGTON,001
245595,1,3300001594,CRAMLINGTON,001
304502,1,3300001594,CRAMLINGTON,001
304650,1,3300001594,CRAMLINGTON,001
249232,1,3300001594,CRAMLINGTON,001
249233,1,3300001594,CRAMLINGTON,001
249245,1,3300001594,CRAMLINGTON,001
312491,1,3300001594,CRAMLINGTON,001
234420,1,3300001594,CRAMLINGTON,001
306937,1,3300001594,CRAMLINGTON,001
306940,1,3300001594,CRAMLINGTON,001
312691,1,3300001594,CRAMLINGTON,001
312697,1,3300001594,CRAMLINGTON,001
312699,1,3300001594,CRAMLINGTON,001
315036,1,3300001594,CRAMLINGTON,001
318176,1,3300001594,CRAMLINGTON,001
293799,1,3300001594,CRAMLINGTON,001
312839,1,3300001594,CRAMLINGTON,001
312853,1,3300001594,CRAMLINGTON,001
