294260,1,3300001199,CRAMLINGTON,001
296882,1,3300001199,CRAMLINGTON,001
239434,1,3300001199,CRAMLINGTON,001
294608,1,3300001199,CRAMLINGTON,001
243861,1,3300001199,CRAMLINGTON,001
294690,1,3300001199,CRAMLINGTON,001
298524,1,3300001199,CRAMLINGTON,001
239500,1,3300001199,CRAMLINGTON,001
294671,1,3300001199,CRAMLINGTON,001
301659,1,3300001199,CRAMLINGTON,001
296104,1,3300001199,CRAMLINGTON,001
296109,1,3300001199,CRAMLINGTON,001
226173,1,3300001199,CRAMLINGTON,001
293356,1,3300001199,CRAMLINGTON,001
303319,2,3300001199,CRAMLINGTON,001
299913,1,3300001199,CRAMLINGTON,001
243665,1,3300001199,CRAMLINGTON,001
189042,1,3300001199,CRAMLINGTON,001
300830,1,3300001199,CRAMLINGTON,001
234404,1,3300001199,CRAMLINGTON,001
234410,1,3300001199,CRAMLINGTON,001
98777,1,3300001199,CRAMLINGTON,001
249140,1,3300001199,CRAMLINGTON,001
