241281,1,3300000710,CRAMLINGTON,001
229588,1,3300000710,CRAMLINGTON,001
241015,1,3300000710,CRAMLINGTON,001
213390,1,3300000710,CRAMLINGTON,001
213391,1,3300000710,CRAMLINGTON,001
213392,1,3300000710,CRAMLINGTON,001
241134,1,3300000710,CRAMLINGTON,001
247786,1,3300000710,CRAMLINGTON,001
294407,1,3300000710,CRAMLINGTON,001
294421,1,3300000710,CRAMLINGTON,001
294085,1,3300000710,CRAMLINGTON,001
294134,1,3300000710,CRAMLINGTON,001
223837,1,3300000710,CRAMLINGTON,001
229570,1,3300000710,CRAMLINGTON,001
239431,1,3300000710,CRAMLINGTON,001
241909,1,3300000710,CRAMLINGTON,001
241913,1,3300000710,CRAMLINGTON,001
243790,1,3300000710,CRAMLINGTON,001
249331,1,3300000710,CRAMLINGTON,001
219481,1,3300000710,CRAMLINGTON,001
243863,1,3300000710,CRAMLINGTON,001
239450,1,3300000710,CRAMLINGTON,001
231516,1,3300000710,CRAMLINGTON,001
239465,1,3300000710,CRAMLINGTON,001
241829,1,3300000710,CRAMLINGTON,001
241844,1,3300000710,CRAMLINGTON,001
241846,1,3300000710,CRAMLINGTON,001
241847,1,3300000710,CRAMLINGTON,001
249260,1,3300000710,CRAMLINGTON,001
249261,1,3300000710,CRAMLINGTON,001
