241191,1,3300000433,CRAMLINGTON,001
241252,1,3300000433,CRAMLINGTON,001
241298,1,3300000433,CRAMLINGTON,001
241531,1,3300000433,CRAMLINGTON,001
214497,1,3300000433,CRAMLINGTON,001
239381,1,3300000433,CRAMLINGTON,001
243804,1,3300000433,CRAMLINGTON,001
197277,1,3300000433,CRAMLINGTON,001
214442,1,3300000433,CRAMLINGTON,001
244050,1,3300000433,CRAMLINGTON,001
217299,1,3300000433,CRAMLINGTON,001
247341,1,3300000433,CRAMLINGTON,001
247342,1,3300000433,CRAMLINGTON,001
247343,1,3300000433,CRAMLINGTON,001
247344,1,3300000433,CRAMLINGTON,001
247345,1,3300000433,CRAMLINGTON,001
247346,1,3300000433,CRAMLINGTON,001
247347,1,3300000433,CRAMLINGTON,001
247348,1,3300000433,CRAMLINGTON,001
247349,1,3300000433,CRAMLINGTON,001
247350,1,3300000433,CRAMLINGTON,001
247351,1,3300000433,CRAMLINGTON,001
247484,1,3300000433,CRAMLINGTON,001
247485,1,3300000433,CRAMLINGTON,001
247486,1,3300000433,CRAMLINGTON,001
247487,1,3300000433,CRAMLINGTON,001
247488,1,3300000433,CRAMLINGTON,001
247489,1,3300000433,CRAMLINGTON,001
247490,1,3300000433,CRAMLINGTON,001
247491,1,3300000433,CRAMLINGTON,001
