312779,1,3300002220,CRAMLINGTON,001
326997,1,3300002220,CRAMLINGTON,001
330470,1,3300002220,CRAMLINGTON,001
332873,1,3300002220,CRAMLINGTON,001
294193,1,3300002220,CRAMLINGTON,001
310918,1,3300002220,CRAMLINGTON,001
327710,1,3300002220,CRAMLINGTON,001
310893,1,3300002220,CRAMLINGTON,001
326113,1,3300002220,CRAMLINGTON,001
320604,1,3300002220,CRAMLINGTON,001
327733,1,3300002220,CRAMLINGTON,001
326733,1,3300002220,CRAMLINGTON,001
308813,1,3300002220,CRAMLINGTON,001
310719,1,3300002220,CRAMLINGTON,001
306881,1,3300002220,CRAMLINGTON,001
322787,1,3300002220,CRAMLINGTON,001
240701,1,3300002220,CRAMLINGTON,001
331292,1,3300002220,CRAMLINGTON,001
254431,1,3300002220,CRAMLINGTON,001
309999,1,3300002220,CRAMLINGTON,001
310003,1,3300002220,CRAMLINGTON,001
334276,1,3300002220,CRAMLINGTON,001
334245,1,3300002220,CRAMLINGTON,001
326884,1,3300002220,CRAMLINGTON,001
327967,1,3300002220,CRAMLINGTON,001
312893,1,3300002220,CRAMLINGTON,001
312895,1,3300002220,CRAMLINGTON,001
332216,1,3300002220,CRAMLINGTON,001
336400,1,3300002220,CRAMLINGTON,001
331743,1,3300002220,CRAMLINGTON,001
