249363,1,3300000527,CRAMLINGTON,001
249368,1,3300000527,CRAMLINGTON,001
239496,1,3300000527,CRAMLINGTON,001
244176,1,3300000527,CRAMLINGTON,001
238998,1,3300000527,CRAMLINGTON,001
220428,1,3300000527,CRAMLINGTON,001
215310,1,3300000527,CRAMLINGTON,001
244401,1,3300000527,CRAMLINGTON,001
247094,1,3300000527,CRAMLINGTON,001
233044,1,3300000527,CRAMLINGTON,001
216077,2,3300000527,CRAMLINGTON,001
216082,1,3300000527,CRAMLINGTON,001
216083,2,3300000527,CRAMLINGTON,001
220096,1,3300000527,CRAMLINGTON,001
241595,1,3300000527,CRAMLINGTON,001
240705,1,3300000527,CRAMLINGTON,001
242949,1,3300000527,CRAMLINGTON,001
242950,1,3300000527,CRAMLINGTON,001
242952,1,3300000527,CRAMLINGTON,001
242954,1,3300000527,CRAMLINGTON,001
243245,1,3300000527,CRAMLINGTON,001
243028,1,3300000527,CRAMLINGTON,001
243596,1,3300000527,CRAMLINGTON,001
249579,1,3300000527,CRAMLINGTON,001
243448,1,3300000527,CRAMLINGTON,001
243641,1,3300000527,CRAMLINGTON,001
249793,1,3300000527,CRAMLINGTON,001
189042,1,3300000527,CRAMLINGTON,001
161608,1,3300000527,CRAMLINGTON,001
245595,1,3300000527,CRAMLINGTON,001
