197984,1,3300001072,CRAMLINGTON,001
249231,1,3300001072,CRAMLINGTON,001
249232,1,3300001072,CRAMLINGTON,001
234411,1,3300001072,CRAMLINGTON,001
98773,1,3300001072,CRAMLINGTON,001
300815,1,3300001072,CRAMLINGTON,001
293734,1,3300001072,CRAMLINGTON,001
294110,1,3300001072,CRAMLINGTON,001
293800,1,3300001072,CRAMLINGTON,001
293805,1,3300001072,CRAMLINGTON,001
293814,1,3300001072,CRAMLINGTON,001
294180,1,3300001072,CRAMLINGTON,001
302386,1,3300001072,CRAMLINGTON,001
