213312,1,3300000654,CRAMLINGTON,001
240995,1,3300000654,CRAMLINGTON,001
241269,1,3300000654,CRAMLINGTON,001
252350,1,3300000654,CRAMLINGTON,001
213388,1,3300000654,CRAMLINGTON,001
213390,2,3300000654,CRAMLINGTON,001
241084,1,3300000654,CRAMLINGTON,001
247785,1,3300000654,CRAMLINGTON,001
247771,1,3300000654,CRAMLINGTON,001
247775,1,3300000654,CRAMLINGTON,001
140009,1,3300000654,CRAMLINGTON,001
223886,1,3300000654,CRAMLINGTON,001
241361,1,3300000654,CRAMLINGTON,001
223838,1,3300000654,CRAMLINGTON,001
227945,1,3300000654,CRAMLINGTON,001
241146,1,3300000654,CRAMLINGTON,001
239380,1,3300000654,CRAMLINGTON,001
241907,1,3300000654,CRAMLINGTON,001
241913,1,3300000654,CRAMLINGTON,001
243789,1,3300000654,CRAMLINGTON,001
243802,1,3300000654,CRAMLINGTON,001
249314,1,3300000654,CRAMLINGTON,001
181658,1,3300000654,CRAMLINGTON,001
239413,1,3300000654,CRAMLINGTON,001
239416,1,3300000654,CRAMLINGTON,001
241845,1,3300000654,CRAMLINGTON,001
241857,1,3300000654,CRAMLINGTON,001
241859,1,3300000654,CRAMLINGTON,001
249344,1,3300000654,CRAMLINGTON,001
249345,1,3300000654,CRAMLINGTON,001
