296866,1,3300001133,CRAMLINGTON,001
293772,1,3300001133,CRAMLINGTON,001
293773,1,3300001133,CRAMLINGTON,001
293776,1,3300001133,CRAMLINGTON,001
293779,1,3300001133,CRAMLINGTON,001
294251,1,3300001133,CRAMLINGTON,001
300560,1,3300001133,CRAMLINGTON,001
294082,1,3300001133,CRAMLINGTON,001
294093,1,3300001133,CRAMLINGTON,001
294094,1,3300001133,CRAMLINGTON,001
294621,1,3300001133,CRAMLINGTON,001
243785,1,3300001133,CRAMLINGTON,001
298520,1,3300001133,CRAMLINGTON,001
298524,1,3300001133,CRAMLINGTON,001
293343,1,3300001133,CRAMLINGTON,001
300453,1,3300001133,CRAMLINGTON,001
300454,1,3300001133,CRAMLINGTON,001
300455,1,3300001133,CRAMLINGTON,001
300456,1,3300001133,CRAMLINGTON,001
300457,1,3300001133,CRAMLINGTON,001
300458,1,3300001133,CRAMLINGTON,001
300459,1,3300001133,CRAMLINGTON,001
300460,1,3300001133,CRAMLINGTON,001
300461,1,3300001133,CRAMLINGTON,001
300462,1,3300001133,CRAMLINGTON,001
300463,1,3300001133,CRAMLINGTON,001
220096,1,3300001133,CRAMLINGTON,001
294147,1,3300001133,CRAMLINGTON,001
243706,1,3300001133,CRAMLINGTON,001
237467,1,3300001133,CRAMLINGTON,001
