327525,1,3300002197,CRAMLINGTON,001
327527,1,3300002197,CRAMLINGTON,001
328586,2,3300002197,CRAMLINGTON,001
335174,1,3300002197,CRAMLINGTON,001
328522,1,3300002197,CRAMLINGTON,001
335456,1,3300002197,CRAMLINGTON,001
328520,2,3300002197,CRAMLINGTON,001
