309796,1,3300001882,CRAMLINGTON,001
300578,1,3300001882,CRAMLINGTON,001
300581,1,3300001882,CRAMLINGTON,001
300582,1,3300001882,CRAMLINGTON,001
314654,1,3300001882,CRAMLINGTON,001
286092,1,3300001882,CRAMLINGTON,001
319922,1,3300001882,CRAMLINGTON,001
