293773,1,3300000920,CRAMLINGTON,001
247782,1,3300000920,CRAMLINGTON,001
296880,1,3300000920,CRAMLINGTON,001
213657,1,3300000920,CRAMLINGTON,001
241047,1,3300000920,CRAMLINGTON,001
241610,1,3300000920,CRAMLINGTON,001
294099,1,3300000920,CRAMLINGTON,001
294582,1,3300000920,CRAMLINGTON,001
298456,1,3300000920,CRAMLINGTON,001
298458,1,3300000920,CRAMLINGTON,001
219472,1,3300000920,CRAMLINGTON,001
243786,1,3300000920,CRAMLINGTON,001
249357,1,3300000920,CRAMLINGTON,001
294737,1,3300000920,CRAMLINGTON,001
244194,1,3300000920,CRAMLINGTON,001
244212,1,3300000920,CRAMLINGTON,001
244214,1,3300000920,CRAMLINGTON,001
244044,1,3300000920,CRAMLINGTON,001
244096,1,3300000920,CRAMLINGTON,001
215306,1,3300000920,CRAMLINGTON,001
216082,1,3300000920,CRAMLINGTON,001
241603,1,3300000920,CRAMLINGTON,001
242948,1,3300000920,CRAMLINGTON,001
243729,1,3300000920,CRAMLINGTON,001
243444,1,3300000920,CRAMLINGTON,001
131113,1,3300000920,CRAMLINGTON,001
293734,1,3300000920,CRAMLINGTON,001
293759,1,3300000920,CRAMLINGTON,001
