252301,1,3300000779,CRAMLINGTON,001
252302,1,3300000779,CRAMLINGTON,001
252303,1,3300000779,CRAMLINGTON,001
252304,1,3300000779,CRAMLINGTON,001
252305,1,3300000779,CRAMLINGTON,001
252306,1,3300000779,CRAMLINGTON,001
252307,1,3300000779,CRAMLINGTON,001
252308,1,3300000779,CRAMLINGTON,001
