296864,1,3300001608,CRAMLINGTON,001
312753,1,3300001608,CRAMLINGTON,001
241004,1,3300001608,CRAMLINGTON,001
296840,1,3300001608,CRAMLINGTON,001
296842,1,3300001608,CRAMLINGTON,001
296843,1,3300001608,CRAMLINGTON,001
296877,1,3300001608,CRAMLINGTON,001
296880,2,3300001608,CRAMLINGTON,001
296853,1,3300001608,CRAMLINGTON,001
296857,1,3300001608,CRAMLINGTON,001
315648,1,3300001608,CRAMLINGTON,001
318261,1,3300001608,CRAMLINGTON,001
241148,1,3300001608,CRAMLINGTON,001
302692,1,3300001608,CRAMLINGTON,001
298441,1,3300001608,CRAMLINGTON,001
310917,1,3300001608,CRAMLINGTON,001
294628,1,3300001608,CRAMLINGTON,001
312041,1,3300001608,CRAMLINGTON,001
317576,1,3300001608,CRAMLINGTON,001
312018,1,3300001608,CRAMLINGTON,001
312021,1,3300001608,CRAMLINGTON,001
312090,1,3300001608,CRAMLINGTON,001
298508,1,3300001608,CRAMLINGTON,001
312076,1,3300001608,CRAMLINGTON,001
317353,1,3300001608,CRAMLINGTON,001
247145,1,3300001608,CRAMLINGTON,001
247151,1,3300001608,CRAMLINGTON,001
304535,1,3300001608,CRAMLINGTON,001
310649,1,3300001608,CRAMLINGTON,001
239078,1,3300001608,CRAMLINGTON,001
