244300,1,3300000622,CRAMLINGTON,001
215306,2,3300000622,CRAMLINGTON,001
200463,1,3300000622,CRAMLINGTON,001
244940,1,3300000622,CRAMLINGTON,001
216080,1,3300000622,CRAMLINGTON,001
216082,1,3300000622,CRAMLINGTON,001
216083,3,3300000622,CRAMLINGTON,001
218660,1,3300000622,CRAMLINGTON,001
242953,1,3300000622,CRAMLINGTON,001
243008,1,3300000622,CRAMLINGTON,001
252604,1,3300000622,CRAMLINGTON,001
252608,1,3300000622,CRAMLINGTON,001
240460,1,3300000622,CRAMLINGTON,001
240855,1,3300000622,CRAMLINGTON,001
240524,1,3300000622,CRAMLINGTON,001
169155,1,3300000622,CRAMLINGTON,001
188960,1,3300000622,CRAMLINGTON,001
249290,1,3300000622,CRAMLINGTON,001
234380,1,3300000622,CRAMLINGTON,001
247755,1,3300000622,CRAMLINGTON,001
247757,1,3300000622,CRAMLINGTON,001
