296865,1,3300001276,CRAMLINGTON,001
223919,1,3300001276,CRAMLINGTON,001
239365,1,3300001276,CRAMLINGTON,001
298452,1,3300001276,CRAMLINGTON,001
294770,1,3300001276,CRAMLINGTON,001
239503,1,3300001276,CRAMLINGTON,001
247147,1,3300001276,CRAMLINGTON,001
308809,1,3300001276,CRAMLINGTON,001
300601,1,3300001276,CRAMLINGTON,001
292031,1,3300001276,CRAMLINGTON,001
303989,1,3300001276,CRAMLINGTON,001
303354,1,3300001276,CRAMLINGTON,001
294180,1,3300001276,CRAMLINGTON,001
