313273,1,3300001758,CRAMLINGTON,001
313277,1,3300001758,CRAMLINGTON,001
302699,1,3300001758,CRAMLINGTON,001
318380,1,3300001758,CRAMLINGTON,001
312060,1,3300001758,CRAMLINGTON,001
311883,1,3300001758,CRAMLINGTON,001
294738,1,3300001758,CRAMLINGTON,001
312152,1,3300001758,CRAMLINGTON,001
311953,1,3300001758,CRAMLINGTON,001
312028,1,3300001758,CRAMLINGTON,001
312076,1,3300001758,CRAMLINGTON,001
312077,1,3300001758,CRAMLINGTON,001
247151,1,3300001758,CRAMLINGTON,001
308814,1,3300001758,CRAMLINGTON,001
306877,1,3300001758,CRAMLINGTON,001
310002,1,3300001758,CRAMLINGTON,001
310113,1,3300001758,CRAMLINGTON,001
314605,1,3300001758,CRAMLINGTON,001
326753,1,3300001758,CRAMLINGTON,001
326754,1,3300001758,CRAMLINGTON,001
326755,1,3300001758,CRAMLINGTON,001
326756,1,3300001758,CRAMLINGTON,001
326757,1,3300001758,CRAMLINGTON,001
326758,1,3300001758,CRAMLINGTON,001
326759,1,3300001758,CRAMLINGTON,001
326760,1,3300001758,CRAMLINGTON,001
326761,1,3300001758,CRAMLINGTON,001
326762,1,3300001758,CRAMLINGTON,001
326763,1,3300001758,CRAMLINGTON,001
326764,1,3300001758,CRAMLINGTON,001
