243863,1,3300001162,CRAMLINGTON,001
243865,1,3300001162,CRAMLINGTON,001
298423,1,3300001162,CRAMLINGTON,001
239402,1,3300001162,CRAMLINGTON,001
241827,1,3300001162,CRAMLINGTON,001
249345,1,3300001162,CRAMLINGTON,001
294724,1,3300001162,CRAMLINGTON,001
298522,1,3300001162,CRAMLINGTON,001
298538,1,3300001162,CRAMLINGTON,001
298569,1,3300001162,CRAMLINGTON,001
298571,1,3300001162,CRAMLINGTON,001
295999,1,3300001162,CRAMLINGTON,001
296015,1,3300001162,CRAMLINGTON,001
301659,1,3300001162,CRAMLINGTON,001
301757,1,3300001162,CRAMLINGTON,001
301758,1,3300001162,CRAMLINGTON,001
296108,1,3300001162,CRAMLINGTON,001
304539,1,3300001162,CRAMLINGTON,001
304541,1,3300001162,CRAMLINGTON,001
226176,1,3300001162,CRAMLINGTON,001
293393,1,3300001162,CRAMLINGTON,001
293436,1,3300001162,CRAMLINGTON,001
302233,1,3300001162,CRAMLINGTON,001
303278,1,3300001162,CRAMLINGTON,001
303284,1,3300001162,CRAMLINGTON,001
303285,1,3300001162,CRAMLINGTON,001
303287,1,3300001162,CRAMLINGTON,001
303291,1,3300001162,CRAMLINGTON,001
228550,1,3300001162,CRAMLINGTON,001
239082,1,3300001162,CRAMLINGTON,001
