315303,1,3300002149,CRAMLINGTON,001
314640,1,3300002149,CRAMLINGTON,001
310098,1,3300002149,CRAMLINGTON,001
310150,1,3300002149,CRAMLINGTON,001
249229,1,3300002149,CRAMLINGTON,001
327099,1,3300002149,CRAMLINGTON,001
327121,1,3300002149,CRAMLINGTON,001
330882,1,3300002149,CRAMLINGTON,001
