306942,1,3300001361,CRAMLINGTON,001
307035,2,3300001361,CRAMLINGTON,001
307039,1,3300001361,CRAMLINGTON,001
293801,1,3300001361,CRAMLINGTON,001
293812,1,3300001361,CRAMLINGTON,001
293814,1,3300001361,CRAMLINGTON,001
293829,1,3300001361,CRAMLINGTON,001
302401,1,3300001361,CRAMLINGTON,001
