240988,1,600494257,CRAMLINGTON,001
241390,1,600494255,CRAMLINGTON,001
285857,1,600494254,CRAMLINGTON,001
241845,1,600494251,CRAMLINGTON,001
218674,1,600494250,CRAMLINGTON,001
248280,2,600494610,CRAMLINGTON,001
248281,2,600494610,CRAMLINGTON,001
248282,1,600494610,CRAMLINGTON,001
248424,2,600494610,CRAMLINGTON,001
248425,2,600494610,CRAMLINGTON,001
248426,2,600494610,CRAMLINGTON,001
248427,2,600494610,CRAMLINGTON,001
248428,1,600494610,CRAMLINGTON,001
250139,1,600494610,CRAMLINGTON,001
248416,2,600494609,CRAMLINGTON,001
