230172,1,600526266,CRAMLINGTON,001
230173,1,600526266,CRAMLINGTON,001
230174,1,600526266,CRAMLINGTON,001
230176,1,600526266,CRAMLINGTON,001
230177,1,600526266,CRAMLINGTON,001
230178,1,600526266,CRAMLINGTON,001
230179,1,600526266,CRAMLINGTON,001
230180,1,600526266,CRAMLINGTON,001
230181,1,600526266,CRAMLINGTON,001
230182,1,600526266,CRAMLINGTON,001
234928,1,600526266,CRAMLINGTON,001
234930,1,600526266,CRAMLINGTON,001
234931,1,600526266,CRAMLINGTON,001
234932,1,600526266,CRAMLINGTON,001
234933,1,600526266,CRAMLINGTON,001
234934,1,600526266,CRAMLINGTON,001
234935,1,600526266,CRAMLINGTON,001
234936,1,600526266,CRAMLINGTON,001
230195,1,600526266,CRAMLINGTON,001
230196,1,600526266,CRAMLINGTON,001
230197,1,600526266,CRAMLINGTON,001
230198,1,600526266,CRAMLINGTON,001
230199,2,600526266,CRAMLINGTON,001
230200,2,600526266,CRAMLINGTON,001
230201,2,600526266,CRAMLINGTON,001
230220,2,600526266,CRAMLINGTON,001
230221,2,600526266,CRAMLINGTON,001
230222,2,600526266,CRAMLINGTON,001
230223,1,600526266,CRAMLINGTON,001
230225,1,600526266,CRAMLINGTON,001
230232,0,600526266,CRAMLINGTON,001
230233,1,600526266,CRAMLINGTON,001
230234,1,600526266,CRAMLINGTON,001
230235,1,600526266,CRAMLINGTON,001
230236,1,600526266,CRAMLINGTON,001
230237,1,600526266,CRAMLINGTON,001
230238,1,600526266,CRAMLINGTON,001
230239,1,600526266,CRAMLINGTON,001
230240,1,600526266,CRAMLINGTON,001
234371,1,600526266,CRAMLINGTON,001
234372,1,600526266,CRAMLINGTON,001
234382,1,600526266,CRAMLINGTON,001
234383,1,600526266,CRAMLINGTON,001
234384,1,600526266,CRAMLINGTON,001
234385,1,600526266,CRAMLINGTON,001
234387,1,600526266,CRAMLINGTON,001
234388,1,600526266,CRAMLINGTON,001
234389,1,600526266,CRAMLINGTON,001
234390,1,600526266,CRAMLINGTON,001
234391,1,600526266,CRAMLINGTON,001
234393,1,600526266,CRAMLINGTON,001
234394,1,600526266,CRAMLINGTON,001
234395,2,600526266,CRAMLINGTON,001
234396,1,600526266,CRAMLINGTON,001
234397,1,600526266,CRAMLINGTON,001
234399,1,600526266,CRAMLINGTON,001
234400,1,600526266,CRAMLINGTON,001
234401,1,600526266,CRAMLINGTON,001
