,,,Zone's,,,Royal Mail Airmail,Royal Mail Signed For,DPD Expresspak,DPD Classic,DHL Road,DHL Road,DHL Road,DHL Road,DHL Road,DHL Road,DHL Air Express,DHL Air Express,DHL Air Express,DHL Air Express,DHL Air Express,DHL Air Express,DHL Air Express,DHL Air Express,DHL Air Express,DHL Air Express,DHL Air Express,DHL Air Express,DHL Air Express,DHL Air Express,,,,,,,,,,,,,,,,,,,,,,,,,,,,,,,,,,,,,,,,,,,,
Country,Metapack ID,Royal Mail,DHL Road,DHL Air ,Type,Upto 1kg,Upto 2kg,Upto 2kg,Upto 30kg,Upto 10.5kg,Upto 11.5kg,Upto 12.5kg,Upto 15.5kg,Upto 20.5kg,Upto 25.5kg,Upto 2.5kg,Upto 3.5kg,Upto 4.5kg,Upto 5.5kg,Upto 6.5kg,Upto 7.5kg,Upto 8.5kg,Upto 9.5kg,Upto 10.5kg,Upto 11.5kg,Upto 12.5kg,Upto 15.5kg,Upto 20.5kg,Upto 25.5kg,,,,,,,,,,,,,,,,,,,,,,,,,,,,,,,,,,,,,,,,,,,,
Aland Islands,3357,ROW,,1,EU,£3.53,£11.31,,,,,,,,,£14.85,£18.66,£26.29,£33.92,£39.52,£45.12,£50.71,£56.31,£61.91,£67.51,£73.11,£89.91,£118.17,£132.31,,,,,,,,,,,,,,,,,,,,,,,,,,,,,,,,,,,,,,,,,,,,
Afghanistan,4,ROW,,10,ROW,£3.53,£11.31,,,,,,,,,£26.05,£32.13,£44.30,£56.47,£67.03,£77.60,£88.17,£98.73,£109.30,£120.14,£130.97,£163.47,£226.74,£258.37,,,,,,,,,,,,,,,,,,,,,,,,,,,,,,,,,,,,,,,,,,,,
Albania,8,EU,,5,ROW,£3.38,£11.10,,,,,,,,,£19.55,£22.19,£27.47,£32.76,£36.44,£40.13,£43.81,£47.50,£51.18,£54.87,£58.55,£69.61,£91.59,£102.58,,,,,,,,,,,,,,,,,,,,,,,,,,,,,,,,,,,,,,,,,,,,
Algeria,12,ROW,,10,ROW,£3.53,£11.31,,,,,,,,,£26.05,£32.13,£44.30,£56.47,£67.03,£77.60,£88.17,£98.73,£109.30,£120.14,£130.97,£163.47,£226.74,£258.37,,,,,,,,,,,,,,,,,,,,,,,,,,,,,,,,,,,,,,,,,,,,
American Samoa,16,ROW,,10,ROW,£3.53,£11.31,,,,,,,,,£26.05,£32.13,£44.30,£56.47,£67.03,£77.60,£88.17,£98.73,£109.30,£120.14,£130.97,£163.47,£226.74,£258.37,,,,,,,,,,,,,,,,,,,,,,,,,,,,,,,,,,,,,,,,,,,,
Andorra,20,EU,3,4,ROW,£3.53,£11.10,,,£5.00,£19.96,£23.14,£25.26,£30.56,£43.30,£14.85,£18.74,£26.53,£34.32,£39.97,£45.62,£51.27,£56.93,£62.58,£68.18,£73.78,£90.58,£119.37,£133.77,,,,,,,,,,,,,,,,,,,,,,,,,,,,,,,,,,,,,,,,,,,,
Angola,24,ROW,,10,ROW,£3.53,£11.31,,,,,,,,,£26.05,£32.13,£44.30,£56.47,£67.03,£77.60,£88.17,£98.73,£109.30,£120.14,£130.97,£163.47,£226.74,£258.37,,,,,,,,,,,,,,,,,,,,,,,,,,,,,,,,,,,,,,,,,,,,
Anguilla,660,ROW,,10,ROW,£3.53,£11.31,,,,,,,,,£26.05,£32.13,£44.30,£56.47,£67.03,£77.60,£88.17,£98.73,£109.30,£120.14,£130.97,£163.47,£226.74,£258.37,,,,,,,,,,,,,,,,,,,,,,,,,,,,,,,,,,,,,,,,,,,,
Antigua,28,ROW,,10,ROW,£3.53,£11.31,,,,,,,,,£26.05,£32.13,£44.30,£56.47,£67.03,£77.60,£88.17,£98.73,£109.30,£120.14,£130.97,£163.47,£226.74,£258.37,,,,,,,,,,,,,,,,,,,,,,,,,,,,,,,,,,,,,,,,,,,,
Argentina,32,ROW,,10,ROW,£3.53,£9.92,,,,,,,,,£26.05,£32.13,£44.30,£56.47,£67.03,£77.60,£88.17,£98.73,£109.30,£120.14,£130.97,£163.47,£226.74,£258.37,,,,,,,,,,,,,,,,,,,,,,,,,,,,,,,,,,,,,,,,,,,,
Armenia,51,ROW,,10,ROW,£3.53,£11.31,,,,,,,,,£26.05,£32.13,£44.30,£56.47,£67.03,£77.60,£88.17,£98.73,£109.30,£120.14,£130.97,£163.47,£226.74,£258.37,,,,,,,,,,,,,,,,,,,,,,,,,,,,,,,,,,,,,,,,,,,,
Aruba,533,ROW,,10,ROW,£3.53,£11.31,,,,,,,,,£26.05,£32.13,£44.30,£56.47,£67.03,£77.60,£88.17,£98.73,£109.30,£120.14,£130.97,£163.47,£226.74,£258.37,,,,,,,,,,,,,,,,,,,,,,,,,,,,,,,,,,,,,,,,,,,,
Australia,36,ROW,,8,ROW,£3.53,£9.47,,,,,,,,,£19.55,£24.88,£35.53,£46.19,£56.00,£65.81,£75.62,£85.44,£95.25,£105.28,£115.32,£145.42,£204.03,£233.33,,,,,,,,,,,,,,,,,,,,,,,,,,,,,,,,,,,,,,,,,,,,
Austria,40,EU,2,1,EU,£3.38,£11.10,£9.71,£10.43,£3.00,£13.57,£15.61,£16.96,£20.36,£28.53,£14.85,£18.66,£26.29,£33.92,£39.52,£45.12,£50.71,£56.31,£61.91,£67.51,£73.11,£89.91,£118.17,£132.31,,,,,,,,,,,,,,,,,,,,,,,,,,,,,,,,,,,,, ,,,,,,,  
Azerbaijan,31,EU,,10,ROW,£3.38,£11.10,,,,,,,,,£26.05,£32.13,£44.30,£56.47,£67.03,£77.60,£88.17,£98.73,£109.30,£120.14,£130.97,£163.47,£226.74,£258.37,,,,,,,,,,,,,,,,,,,,,,,,,,,,,,,,,,,,,,,,,,,,
Bahamas,44,ROW,,10,ROW,£3.53,£11.31,,,,,,,,,£26.05,£32.13,£44.30,£56.47,£67.03,£77.60,£88.17,£98.73,£109.30,£120.14,£130.97,£163.47,£226.74,£258.37,,,,,,,,,,,,,,,,,,,,,,,,,,,,,,,,,,,,,,,,,,,,
Bahrain,48,ROW,,9,ROW,£3.53,£11.31,,,,,,,,,£22.79,£28.87,£41.04,£53.20,£63.77,£74.34,£84.90,£95.47,£106.04,£116.87,£127.71,£160.21,£223.48,£255.11,,,,,,,,,,,,,,,,,,,,,,,,,,,,,,,,,,,,,,,,,,,,
Bangladesh,50,ROW,,10,ROW,£3.53,£11.31,,,,,,,,,£26.05,£32.13,£44.30,£56.47,£67.03,£77.60,£88.17,£98.73,£109.30,£120.14,£130.97,£163.47,£226.74,£258.37,,,,,,,,,,,,,,,,,,,,,,,,,,,,,,,,,,,,,,,,,,,,
Barbados,52,ROW,,10,ROW,£3.53,£11.31,,,,,,,,,£26.05,£32.13,£44.30,£56.47,£67.03,£77.60,£88.17,£98.73,£109.30,£120.14,£130.97,£163.47,£226.74,£258.37,,,,,,,,,,,,,,,,,,,,,,,,,,,,,,,,  ,,,,,,,,,,,,
Belarus,112,ROW,,5,ROW,£3.53,£11.31,,,,,,,,,£19.55,£22.19,£27.47,£32.76,£36.44,£40.13,£43.81,£47.50,£51.18,£54.87,£58.55,£69.61,£91.59,£102.58,,,,,,,,,,,,,,,,,,,,,,,,,,,,,,,,,,,,,,,,,,,,
Belgium,56,EU,2,2,EU,£3.38,£11.10,£8.18,£8.90,£1.00,£13.57,£15.24,£16.35,£19.14,£25.84,£14.85,£16.64,£20.21,£23.78,£26.02,£28.26,£30.50,£32.74,£34.98,£37.54,£40.10,£47.78,£61.65,£68.58,,,,,,,,,,,,,,,,,,,,,,,,,,,,,,,,,,,,,,,,,,,,
Belize,84,ROW,,10,ROW,£3.53,£11.31,,,,,,,,,£26.05,£32.13,£44.30,£56.47,£67.03,£77.60,£88.17,£98.73,£109.30,£120.14,£130.97,£163.47,£226.74,£258.37,,,,,,,,,,,,,,,,,,,,,,,,,,,,,,,,,,,,,,,,,,,,
Benin,204,ROW,,10,ROW,£3.53,£11.31,,,,,,,,,£26.05,£32.13,£44.30,£56.47,£67.03,£77.60,£88.17,£98.73,£109.30,£120.14,£130.97,£163.47,£226.74,£258.37,,,,,,,,,,,,,,,,,,,,,,,,,,,,,,,,,,,,,,,,,,,,
Bermuda,60,ROW,,10,ROW,£3.53,£11.31,,,,,,,,,£26.05,£32.13,£44.30,£56.47,£67.03,£77.60,£88.17,£98.73,£109.30,£120.14,£130.97,£163.47,£226.74,£258.37,,,,,,,,,,,,,,,,,,,,,,,,,,,,,,,,,,,,,,,,,,,,
Bhutan,64,ROW,,10,ROW,£3.53,£11.31,,,,,,,,,£26.05,£32.13,£44.30,£56.47,£67.03,£77.60,£88.17,£98.73,£109.30,£120.14,£130.97,£163.47,£226.74,£258.37,,,,,,,,,,,,,,,,,,,,,,,,,,,,,,,,,,,,,,,,,,,,
Bolivia,68,ROW,,10,ROW,£3.53,£11.31,,,,,,,,,£26.05,£32.13,£44.30,£56.47,£67.03,£77.60,£88.17,£98.73,£109.30,£120.14,£130.97,£163.47,£226.74,£258.37,,,,,,,,,,,,,,,,,,,,,,,,,,,,,,,,,,,,,,,,,,,,
Bosnia & Herzegovina,70,EU,,5,ROW,£3.38,£11.10,£26.39,£27.12,,,,,,,£19.55,£22.19,£27.47,£32.76,£36.44,£40.13,£43.81,£47.50,£51.18,£54.87,£58.55,£69.61,£91.59,£102.58,,,,,,,,,,,,,,,,,,,,,,,,,,,,,,,,,,,,,,,,,,,,
Botswana,72,ROW,,10,ROW,£3.53,£11.31,,,,,,,,,£26.05,£32.13,£44.30,£56.47,£67.03,£77.60,£88.17,£98.73,£109.30,£120.14,£130.97,£163.47,£226.74,£258.37,,,,,,,,,,,,,,,,,,,,,,,,,,,,,,,,,,,,,,,,,,,,
Brazil,76,ROW,,10,ROW,£3.53,£9.47,,,,,,,,,£26.05,£32.13,£44.30,£56.47,£67.03,£77.60,£88.17,£98.73,£109.30,£120.14,£130.97,£163.47,£226.74,£258.37,,,,,,,,,,,,,,,,,,,,,,,,,,,,,,,,,,,,,,,,,,,,
Brunei,96,ROW,,9,ROW,£3.53,£11.31,,,,,,,,,£22.79,£28.87,£41.04,£53.20,£63.77,£74.34,£84.90,£95.47,£106.04,£116.87,£127.71,£160.21,£223.48,£255.11,,,,,,,,,,,,,,,,,,,,,,,,,,,,,,,,,,,,,,,,,,,,
Bulgaria,100,EU,5,4,ROW,£3.38,£11.10,£23.95,£24.67,£5.00,£19.96,£23.14,£25.26,£30.56,£43.30,£14.85,£18.74,£26.53,£34.32,£39.97,£45.62,£51.27,£56.93,£62.58,£68.18,£73.78,£90.58,£119.37,£133.77,,,,,,,,,,,,,,,,,,,,,,,,,,,,,,,,,,,,,,,,,,,,
Burkina Faso,854,ROW,,10,ROW,£3.53,£11.31,,,,,,,,,£26.05,£32.13,£44.30,£56.47,£67.03,£77.60,£88.17,£98.73,£109.30,£120.14,£130.97,£163.47,£226.74,£258.37,,,,,,,,,,,,,,,,,,,,,,,,,,,,,,,,,,,,,,,,,,,,
Burundi,108,ROW,,10,ROW,£3.53,£11.31,,,,,,,,,£26.05,£32.13,£44.30,£56.47,£67.03,£77.60,£88.17,£98.73,£109.30,£120.14,£130.97,£163.47,£226.74,£258.37,,,,,,,,,,,,,,,,,,,,,,,,,,,,,,,,,,,,,,,,,,,,
Cambodia,116,ROW,,9,ROW,£3.53,£11.31,,,,,,,,,£22.79,£28.87,£41.04,£53.20,£63.77,£74.34,£84.90,£95.47,£106.04,£116.87,£127.71,£160.21,£223.48,£255.11,,,,,,,,,,,,,,,,,,,,,,,,,,,,,,,,,,,,,,,,,,,,
Cameroon,120,ROW,,10,ROW,£3.53,£11.31,,,,,,,,,£26.05,£32.13,£44.30,£56.47,£67.03,£77.60,£88.17,£98.73,£109.30,£120.14,£130.97,£163.47,£226.74,£258.37,,,,,,,,,,,,,,,,,,,,,,,,,,,,,,,,,,,,,,,,,,,,
Canada,124,ROW,,6,ROW,£3.53,£9.92,,,,,,,,,£16.28,£20.19,£28.01,£35.82,£43.01,£50.21,£57.40,£64.59,£71.78,£78.67,£85.55,£106.19,£146.38,£166.47,,,,,,,,,,,,,,,,,,,,,,,,,,,,,,,,,,,,,,,,,,,,
Cayman Islands,136,ROW,,10,ROW,£3.53,£11.31,,,,,,,,,£26.05,£32.13,£44.30,£56.47,£67.03,£77.60,£88.17,£98.73,£109.30,£120.14,£130.97,£163.47,£226.74,£258.37,,,,,,,,,,,,,,,,,,,,,,,,,,,,,,,,,,,,,,,,,,,,
Central African Republic,140,ROW,,10,ROW,£3.53,£11.31,,,,,,,,,£26.05,£32.13,£44.30,£56.47,£67.03,£77.60,£88.17,£98.73,£109.30,£120.14,£130.97,£163.47,£226.74,£258.37,,,,,,,,,,,,,,,,,,,,,,,,,,,,,,,,,,,,,,,,,,,,
Chad,148,ROW,,10,ROW,£3.53,£11.31,,,,,,,,,£26.05,£32.13,£44.30,£56.47,£67.03,£77.60,£88.17,£98.73,£109.30,£120.14,£130.97,£163.47,£226.74,£258.37,,,,,,,,,,,,,,,,,,,,,,,,,,,,,,,,,,,,,,,,,,,,
Chile,152,ROW,,10,ROW,£3.53,£11.31,,,,,,,,,£26.05,£32.13,£44.30,£56.47,£67.03,£77.60,£88.17,£98.73,£109.30,£120.14,£130.97,£163.47,£226.74,£258.37,,,,,,,,,,,,,,,,,,,,,,,,,,,,,,,,,,,,,,,,,,,,
China,156,ROW,,8,ROW,£3.53,£11.31,,,,,,,,,£19.55,£24.88,£35.53,£46.19,£56.00,£65.81,£75.62,£85.44,£95.25,£105.28,£115.32,£145.42,£204.03,£233.33,,,,,,,,,,,,,,,,,,,,,,,,,,,,,,,,,,,,,,,,,,,,
Colombia,170,ROW,,10,ROW,£3.53,£11.31,,,,,,,,,£26.05,£32.13,£44.30,£56.47,£67.03,£77.60,£88.17,£98.73,£109.30,£120.14,£130.97,£163.47,£226.74,£258.37,,,,,,,,,,,,,,,,,,,,,,,,,,,,,,,,,,,,,,,,,,,,
Comoros Islands,174,ROW,,10,ROW,£3.53,£11.31,,,,,,,,,£26.05,£32.13,£44.30,£56.47,£67.03,£77.60,£88.17,£98.73,£109.30,£120.14,£130.97,£163.47,£226.74,£258.37,,,,,,,,,,,,,,,,,,,,,,,,,,,,,,,,,,,,,,,,,,,,
Congo,178,ROW,,10,ROW,£3.53,£11.31,,,,,,,,,£26.05,£32.13,£44.30,£56.47,£67.03,£77.60,£88.17,£98.73,£109.30,£120.14,£130.97,£163.47,£226.74,£258.37,,,,,,,,,,,,,,,,,,,,,,,,,,,,,,,,,,,,,,,,,,,,
Cook Islands,184,ROW,,10,ROW,£3.53,£11.31,,,,,,,,,£26.05,£32.13,£44.30,£56.47,£67.03,£77.60,£88.17,£98.73,£109.30,£120.14,£130.97,£163.47,£226.74,£258.37,,,,,,,,,,,,,,,,,,,,,,,,,,,,,,,,,,,,,,,,,,,,
Costa Rica,188,ROW,,10,ROW,£3.53,£11.31,,,,,,,,,£26.05,£32.13,£44.30,£56.47,£67.03,£77.60,£88.17,£98.73,£109.30,£120.14,£130.97,£163.47,£226.74,£258.37,,,,,,,,,,,,,,,,,,,,,,,,,,,,,,,,,,,,,,,,,,,,
Croatia,191,EU,3,5,ROW,£3.38,£11.10,£17.80,£18.51,£5.00,£19.96,£23.14,£25.26,£30.56,£43.30,£19.55,£22.19,£27.47,£32.76,£36.44,£40.13,£43.81,£47.50,£51.18,£54.87,£58.55,£69.61,£91.59,£102.58,,,,,,,,,,,,,,,,,,,,,,,,,,,,,,,,,,,,,,,,,,,,
Cuba,192,ROW,,10,ROW,£3.53,£11.31,,,,,,,,,£26.05,£32.13,£44.30,£56.47,£67.03,£77.60,£88.17,£98.73,£109.30,£120.14,£130.97,£163.47,£226.74,£258.37,,,,,,,,,,,,,,,,,,,,,,,,,,,,,,,,,,,,,,,,,,,,
Cyprus,196,EU,,4,ROW,£3.38,£9.28,,,,,,,,,£14.85,£18.74,£26.53,£34.32,£39.97,£45.62,£51.27,£56.93,£62.58,£68.18,£73.78,£90.58,£119.37,£133.77,,,,,,,,,,,,,,,,,,,,,,,,,,,,,,,,,,,,,,,,,,,,
Czech Republic,203,EU,2-3,4,ROW,£3.38,£11.10,£9.36,£10.09,£5.00,£19.96,£23.14,£25.26,£30.56,£43.30,£14.85,£18.74,£26.53,£34.32,£39.97,£45.62,£51.27,£56.93,£62.58,£68.18,£73.78,£90.58,£119.37,£133.77,,,,,,,,,,,,,,,,,,,,,,,,,,,,,,,,,,,,,,,,,,,,
Denmark,208,EU,2,1,EU,£3.38,£11.10,£10.50,£11.23,£4.00,£13.57,£15.85,£17.37,£21.18,£30.32,£14.85,£18.66,£26.29,£33.92,£39.52,£45.12,£50.71,£56.31,£61.91,£67.51,£73.11,£89.91,£118.17,£132.31,,,,,,,,,,,,,,,,,,,,,,,,,,,,,,,,,,,,,,,,,,,,
Djibouti,262,ROW,,10,ROW,£3.53,£11.31,,,,,,,,,£26.05,£32.13,£44.30,£56.47,£67.03,£77.60,£88.17,£98.73,£109.30,£120.14,£130.97,£163.47,£226.74,£258.37,,,,,,,,,,,,,,,,,,,,,,,,,,,,,,,,,,,,,,,,,,,,
Dominica,212,ROW,,10,ROW,£3.53,£11.31,,,,,,,,,£26.05,£32.13,£44.30,£56.47,£67.03,£77.60,£88.17,£98.73,£109.30,£120.14,£130.97,£163.47,£226.74,£258.37,,,,,,,,,,,,,,,,,,,,,,,,,,,,,,,,,,,,,,,,,,,,
Dominican Republic,214,ROW,,10,ROW,£3.53,£11.31,,,,,,,,,£26.05,£32.13,£44.30,£56.47,£67.03,£77.60,£88.17,£98.73,£109.30,£120.14,£130.97,£163.47,£226.74,£258.37,,,,,,,,,,,,,,,,,,,,,,,,,,,,,,,,,,,,,,,,,,,,
East Timor,626,ROW,,10,ROW,£3.53,£11.31,,,,,,,,,£26.05,£32.13,£44.30,£56.47,£67.03,£77.60,£88.17,£98.73,£109.30,£120.14,£130.97,£163.47,£226.74,£258.37,,,,,,,,,,,,,,,,,,,,,,,,,,,,,,,,,,,,,,,,,,,,
Ecuador,218,ROW,,10,ROW,£3.53,£11.31,,,,,,,,,£26.05,£32.13,£44.30,£56.47,£67.03,£77.60,£88.17,£98.73,£109.30,£120.14,£130.97,£163.47,£226.74,£258.37,,,,,,,,,,,,,,,,,,,,,,,,,,,,,,,,,,,,,,,,,,,,
Egypt,818,ROW,,10,ROW,£3.53,£11.31,,,,,,,,,£26.05,£32.13,£44.30,£56.47,£67.03,£77.60,£88.17,£98.73,£109.30,£120.14,£130.97,£163.47,£226.74,£258.37,,,,,,,,,,,,,,,,,,,,,,,,,,,,,,,,,,,,,,,,,,,,
El Salvador,222,ROW,,10,ROW,£3.53,£11.31,,,,,,,,,£26.05,£32.13,£44.30,£56.47,£67.03,£77.60,£88.17,£98.73,£109.30,£120.14,£130.97,£163.47,£226.74,£258.37,,,,,,,,,,,,,,,,,,,,,,,,,,,,,,,,,,,,,,,,,,,,
Equatorial Guinea,226,ROW,,10,ROW,£3.53,£11.31,,,,,,,,,£26.05,£32.13,£44.30,£56.47,£67.03,£77.60,£88.17,£98.73,£109.30,£120.14,£130.97,£163.47,£226.74,£258.37,,,,,,,,,,,,,,,,,,,,,,,,,,,,,,,,,,,,,,,,,,,,
Eritrea,232,ROW,,10,ROW,£3.53,£11.31,,,,,,,,,£26.05,£32.13,£44.30,£56.47,£67.03,£77.60,£88.17,£98.73,£109.30,£120.14,£130.97,£163.47,£226.74,£258.37,,,,,,,,,,,,,,,,,,,,,,,,,,,,,,,,,,,,,,,,,,,,
Estonia,233,EU,5,4,ROW,£3.38,£11.10,£15.28,£15.99,£5.00,£19.96,£23.14,£25.26,£30.56,£43.30,£14.85,£18.74,£26.53,£34.32,£39.97,£45.62,£51.27,£56.93,£62.58,£68.18,£73.78,£90.58,£119.37,£133.77,,,,,,,,,,,,,,,,,,,,,,,,,,,,,,,,,,,,,,,,,,,,
Ethiopia,231,ROW,,10,ROW,£3.53,£11.31,,,,,,,,,£26.05,£32.13,£44.30,£56.47,£67.03,£77.60,£88.17,£98.73,£109.30,£120.14,£130.97,£163.47,£226.74,£258.37,,,,,,,,,,,,,,,,,,,,,,,,,,,,,,,,,,,,,,,,,,,,
Falkl& Islands,238,ROW,,10,ROW,£3.53,£11.31,,,,,,,,,£26.05,£32.13,£44.30,£56.47,£67.03,£77.60,£88.17,£98.73,£109.30,£120.14,£130.97,£163.47,£226.74,£258.37,,,,,,,,,,,,,,,,,,,,,,,,,,,,,,,,,,,,,,,,,,,,
Faroe Islands,234,EU,,5,ROW,£3.38,£11.10,,,,,,,,,£19.55,£22.19,£27.47,£32.76,£36.44,£40.13,£43.81,£47.50,£51.18,£54.87,£58.55,£69.61,£91.59,£102.58,,,,,,,,,,,,,,,,,,,,,,,,,,,,,,,,,,,,,,,,,,,,
Fiji,242,ROW,,10,ROW,£3.53,£11.31,,,,,,,,,£26.05,£32.13,£44.30,£56.47,£67.03,£77.60,£88.17,£98.73,£109.30,£120.14,£130.97,£163.47,£226.74,£258.37,,,,,,,,,,,,,,,,,,,,,,,,,,,,,,,,,,,,,,,,,,,,
Finland,246,EU,4,1,EU,£3.38,£9.81,£20.28,£21.01,£4.00,£13.57,£15.85,£17.37,£21.18,£30.32,£14.85,£18.66,£26.29,£33.92,£39.52,£45.12,£50.71,£56.31,£61.91,£67.51,£73.11,£89.91,£118.17,£132.31,,,,,,,,,,,,,,,,,,,,,,,,,,,,,,,,,,,,,,,,,,,,
France,250,EU,2-3,2,EU,£3.38,£11.10,£8.65,£10.25,£2.00,£13.57,£15.24,£16.35,£19.14,£25.84,£14.85,£16.64,£20.21,£23.78,£26.02,£28.26,£30.50,£32.74,£34.98,£37.54,£40.10,£47.78,£61.65,£68.58,,,,,,,,,,,,,,,,,,,,,,,,,,,,,,,,,,,,,,,,,,,,
French Guiana,254,ROW,,10,ROW,£3.53,£11.31,,,,,,,,,£26.05,£32.13,£44.30,£56.47,£67.03,£77.60,£88.17,£98.73,£109.30,£120.14,£130.97,£163.47,£226.74,£258.37,,,,,,,,,,,,,,,,,,,,,,,,,,,,,,,,,,,,,,,,,,,,
French Polynesia,258,ROW,,10,ROW,£3.53,£11.31,,,,,,,,,£26.05,£32.13,£44.30,£56.47,£67.03,£77.60,£88.17,£98.73,£109.30,£120.14,£130.97,£163.47,£226.74,£258.37,,,,,,,,,,,,,,,,,,,,,,,,,,,,,,,,,,,,,,,,,,,,
Gabon,266,ROW,,10,ROW,£3.53,£11.31,,,,,,,,,£26.05,£32.13,£44.30,£56.47,£67.03,£77.60,£88.17,£98.73,£109.30,£120.14,£130.97,£163.47,£226.74,£258.37,,,,,,,,,,,,,,,,,,,,,,,,,,,,,,,,,,,,,,,,,,,,
Gambia,270,ROW,,10,ROW,£3.53,£11.31,,,,,,,,,£26.05,£32.13,£44.30,£56.47,£67.03,£77.60,£88.17,£98.73,£109.30,£120.14,£130.97,£163.47,£226.74,£258.37,,,,,,,,,,,,,,,,,,,,,,,,,,,,,,,,,,,,,,,,,,,,
Georgia,268,ROW,,10,ROW,£3.53,£11.31,,,,,,,,,£26.05,£32.13,£44.30,£56.47,£67.03,£77.60,£88.17,£98.73,£109.30,£120.14,£130.97,£163.47,£226.74,£258.37,,,,,,,,,,,,,,,,,,,,,,,,,,,,,,,,,,,,,,,,,,,,
Germany,276,EU,2,2,EU,£3.38,£11.10,£7.33,£8.86,£2.00,£13.57,£15.24,£16.35,£19.14,£25.84,£14.85,£16.64,£20.21,£23.78,£26.02,£28.26,£30.50,£32.74,£34.98,£37.54,£40.10,£47.78,£61.65,£68.58,,,,,,,,,,,,,,,,,,,,,,,,,,,,,,,,,,,,,,,,,,,,
Ghana,288,ROW,,10,ROW,£3.53,£11.31,,,,,,,,,£26.05,£32.13,£44.30,£56.47,£67.03,£77.60,£88.17,£98.73,£109.30,£120.14,£130.97,£163.47,£226.74,£258.37,,,,,,,,,,,,,,,,,,,,,,,,,,,,,,,,,,,,,,,,,,,,
Gibraltar,292,EU,3-4,5,ROW,£3.38,£11.10,,,£5.00,£19.96,£23.14,£25.26,£30.56,£43.30,£19.55,£22.19,£27.47,£32.76,£36.44,£40.13,£43.81,£47.50,£51.18,£54.87,£58.55,£69.61,£91.59,£102.58,,,,,,,,,,,,,,,,,,,,,,,,,,,,,,,,,,,,,,,,,,,,
Greece,300,EU,5,4,ROW,£3.38,£11.10,£31.23,£31.95,£5.00,£19.96,£23.14,£25.26,£30.56,£43.30,£14.85,£18.74,£26.53,£34.32,£39.97,£45.62,£51.27,£56.93,£62.58,£68.18,£73.78,£90.58,£119.37,£133.77,,,,,,,,,,,,,,,,,,,,,,,,,,,,,,,,,,,,,,,,,,,,
Greenland,304,ROW,,5,ROW,£3.53,£11.31,,,,,,,,,£19.55,£22.19,£27.47,£32.76,£36.44,£40.13,£43.81,£47.50,£51.18,£54.87,£58.55,£69.61,£91.59,£102.58,,,,,,,,,,,,,,,,,,,,,,,,,,,,,,,,,,,,,,,,,,,,
Grenada,308,ROW,,10,ROW,£3.53,£11.31,,,,,,,,,£26.05,£32.13,£44.30,£56.47,£67.03,£77.60,£88.17,£98.73,£109.30,£120.14,£130.97,£163.47,£226.74,£258.37,,,,,,,,,,,,,,,,,,,,,,,,,,,,,,,,,,,,,,,,,,,,
Guadeloupe,312,ROW,,10,ROW,£3.53,£11.31,,,,,,,,,£26.05,£32.13,£44.30,£56.47,£67.03,£77.60,£88.17,£98.73,£109.30,£120.14,£130.97,£163.47,£226.74,£258.37,,,,,,,,,,,,,,,,,,,,,,,,,,,,,,,,,,,,,,,,,,,,
Guam,316,ROW,,10,ROW,£3.53,£11.31,,,,,,,,,£26.05,£32.13,£44.30,£56.47,£67.03,£77.60,£88.17,£98.73,£109.30,£120.14,£130.97,£163.47,£226.74,£258.37,,,,,,,,,,,,,,,,,,,,,,,,,,,,,,,,,,,,,,,,,,,,
Guatemala,320,ROW,,10,ROW,£3.53,£11.31,,,,,,,,,£26.05,£32.13,£44.30,£56.47,£67.03,£77.60,£88.17,£98.73,£109.30,£120.14,£130.97,£163.47,£226.74,£258.37,,,,,,,,,,,,,,,,,,,,,,,,,,,,,,,,,,,,,,,,,,,,
Guinea-Bissau,624,ROW,,10,ROW,£3.53,£11.31,,,,,,,,,£26.05,£32.13,£44.30,£56.47,£67.03,£77.60,£88.17,£98.73,£109.30,£120.14,£130.97,£163.47,£226.74,£258.37,,,,,,,,,,,,,,,,,,,,,,,,,,,,,,,,,,,,,,,,,,,,
Guyana,328,ROW,,10,ROW,£3.53,£11.31,,,,,,,,,£26.05,£32.13,£44.30,£56.47,£67.03,£77.60,£88.17,£98.73,£109.30,£120.14,£130.97,£163.47,£226.74,£258.37,,,,,,,,,,,,,,,,,,,,,,,,,,,,,,,,,,,,,,,,,,,,
Haiti,332,ROW,,10,ROW,£3.53,£11.31,,,,,,,,,£26.05,£32.13,£44.30,£56.47,£67.03,£77.60,£88.17,£98.73,£109.30,£120.14,£130.97,£163.47,£226.74,£258.37,,,,,,,,,,,,,,,,,,,,,,,,,,,,,,,,,,,,,,,,,,,,
Honduras,340,ROW,,10,ROW,£3.53,£11.31,,,,,,,,,£26.05,£32.13,£44.30,£56.47,£67.03,£77.60,£88.17,£98.73,£109.30,£120.14,£130.97,£163.47,£226.74,£258.37,,,,,,,,,,,,,,,,,,,,,,,,,,,,,,,,,,,,,,,,,,,,
Hong Kong,344,ROW,,8,ROW,£3.53,£9.92,,,,,,,,,£19.55,£24.88,£35.53,£46.19,£56.00,£65.81,£75.62,£85.44,£95.25,£105.28,£115.32,£145.42,£204.03,£233.33,,,,,,,,,,,,,,,,,,,,,,,,,,,,,,,,,,,,,,,,,,,,
Hungary,348,EU,3,4,ROW,£3.38,£11.10,£10.98,£11.71,£5.00,£19.96,£23.14,£25.26,£30.56,£43.30,£14.85,£18.74,£26.53,£34.32,£39.97,£45.62,£51.27,£56.93,£62.58,£68.18,£73.78,£90.58,£119.37,£133.77,,,,,,,,,,,,,,,,,,,,,,,,,,,,,,,,,,,,,,,,,,,,
Iceland,352,EU,,5,ROW,£3.38,£11.10,£36.41,£37.12,,,,,,,£19.55,£22.19,£27.47,£32.76,£36.44,£40.13,£43.81,£47.50,£51.18,£54.87,£58.55,£69.61,£91.59,£102.58,,,,,,,,,,,,,,,,,,,,,,,,,,,,,,,,,,,,,,,,,,,,
India,356,ROW,,8,ROW,£3.53,£11.31,,,,,,,,,£19.55,£24.88,£35.53,£46.19,£56.00,£65.81,£75.62,£85.44,£95.25,£105.28,£115.32,£145.42,£204.03,£233.33,,,,,,,,,,,,,,,,,,,,,,,,,,,,,,,,,,,,,,,,,,,,
Indonesia,360,ROW,,8,ROW,£3.53,£11.31,,,,,,,,,£19.55,£24.88,£35.53,£46.19,£56.00,£65.81,£75.62,£85.44,£95.25,£105.28,£115.32,£145.42,£204.03,£233.33,,,,,,,,,,,,,,,,,,,,,,,,,,,,,,,,,,,,,,,,,,,,
Iran,364,ROW,,10,ROW,£3.53,£11.31,,,,,,,,,£26.05,£32.13,£44.30,£56.47,£67.03,£77.60,£88.17,£98.73,£109.30,£120.14,£130.97,£163.47,£226.74,£258.37,,,,,,,,,,,,,,,,,,,,,,,,,,,,,,,,,,,,,,,,,,,,
Iraq,368,ROW,,10,ROW,£3.53,£11.31,,,,,,,,,£26.05,£32.13,£44.30,£56.47,£67.03,£77.60,£88.17,£98.73,£109.30,£120.14,£130.97,£163.47,£226.74,£258.37,,,,,,,,,,,,,,,,,,,,,,,,,,,,,,,,,,,,,,,,,,,,
Ireland,372,EU,2,2,EU,£3.38,£11.10,,£7.71,£1.00,£13.57,£15.24,£16.35,£19.14,£25.84,£14.85,£16.64,£20.21,£23.78,£26.02,£28.26,£30.50,£32.74,£34.98,£37.54,£40.10,£47.78,£61.65,£68.58,,,,,,,,,,,,,,,,,,,,,,,,,,,,,,,,,,,,,,,,,,,,
Israel,376,ROW,,10,ROW,£3.38,£9.47,,,,,,,,,£26.05,£32.13,£44.30,£56.47,£67.03,£77.60,£88.17,£98.73,£109.30,£120.14,£130.97,£163.47,£226.74,£258.37,,,,,,,,,,,,,,,,,,,,,,,,,,,,,,,,,,,,,,,,,,,,
Italy,380,EU,2-3,1,EU,£3.38,£11.10,£10.97,£13.27,£3.00,£13.57,£15.61,£16.96,£20.36,£28.53,£14.85,£18.66,£26.29,£33.92,£39.52,£45.12,£50.71,£56.31,£61.91,£67.51,£73.11,£89.91,£118.17,£132.31,,,,,,,,,,,,,,,,,,,,,,,,,,,,,,,,,,,,,,,,,,,,
Ivory Coast,384,ROW,,10,ROW,£3.53,£11.31,,,,,,,,,£26.05,£32.13,£44.30,£56.47,£67.03,£77.60,£88.17,£98.73,£109.30,£120.14,£130.97,£163.47,£226.74,£258.37,,,,,,,,,,,,,,,,,,,,,,,,,,,,,,,,,,,,,,,,,,,,
Jamaica,388,ROW,,10,ROW,£3.53,£11.31,,,,,,,,,£26.05,£32.13,£44.30,£56.47,£67.03,£77.60,£88.17,£98.73,£109.30,£120.14,£130.97,£163.47,£226.74,£258.37,,,,,,,,,,,,,,,,,,,,,,,,,,,,,,,,,,,,,,,,,,,,
Japan,392,ROW,,8,ROW,£3.53,£9.92,,,,,,,,,£19.55,£24.88,£35.53,£46.19,£56.00,£65.81,£75.62,£85.44,£95.25,£105.28,£115.32,£145.42,£204.03,£233.33,,,,,,,,,,,,,,,,,,,,,,,,,,,,,,,,,,,,,,,,,,,,
Jordan,400,ROW,,9,ROW,£3.53,£11.31,,,,,,,,,£22.79,£28.87,£41.04,£53.20,£63.77,£74.34,£84.90,£95.47,£106.04,£116.87,£127.71,£160.21,£223.48,£255.11,,,,,,,,,,,,,,,,,,,,,,,,,,,,,,,,,,,,,,,,,,,,
Kazakhstan,398,ROW,,10,ROW,£3.53,£11.31,,,,,,,,,£26.05,£32.13,£44.30,£56.47,£67.03,£77.60,£88.17,£98.73,£109.30,£120.14,£130.97,£163.47,£226.74,£258.37,,,,,,,,,,,,,,,,,,,,,,,,,,,,,,,,,,,,,,,,,,,,
Kenya,404,ROW,,10,ROW,£3.53,£11.31,,,,,,,,,£26.05,£32.13,£44.30,£56.47,£67.03,£77.60,£88.17,£98.73,£109.30,£120.14,£130.97,£163.47,£226.74,£258.37,,,,,,,,,,,,,,,,,,,,,,,,,,,,,,,,,,,,,,,,,,,,
Kiribati,296,ROW,,10,ROW,£3.53,£11.31,,,,,,,,,£26.05,£32.13,£44.30,£56.47,£67.03,£77.60,£88.17,£98.73,£109.30,£120.14,£130.97,£163.47,£226.74,£258.37,,,,,,,,,,,,,,,,,,,,,,,,,,,,,,,,,,,,,,,,,,,,
North Korea,408,ROW,,10,ROW,£3.53,£11.31,,,,,,,,,£26.05,£32.13,£44.30,£56.47,£67.03,£77.60,£88.17,£98.73,£109.30,£120.14,£130.97,£163.47,£226.74,£258.37,,,,,,,,,,,,,,,,,,,,,,,,,,,,,,,,,,,,,,,,,,,,
South Korea,410,ROW,,8,ROW,£3.53,£9.92,,,,,,,,,£19.55,£24.88,£35.53,£46.19,£56.00,£65.81,£75.62,£85.44,£95.25,£105.28,£115.32,£145.42,£204.03,£233.33,,,,,,,,,,,,,,,,,,,,,,,,,,,,,,,,,,,,,,,,,,,,
Kuwait,414,ROW,,9,ROW,£3.53,£11.31,,,,,,,,,£22.79,£28.87,£41.04,£53.20,£63.77,£74.34,£84.90,£95.47,£106.04,£116.87,£127.71,£160.21,£223.48,£255.11,,,,,,,,,,,,,,,,,,,,,,,,,,,,,,,,,,,,,,,,,,,,
Kyrgyzstan,417,ROW,,10,ROW,£3.53,£11.31,,,,,,,,,£26.05,£32.13,£44.30,£56.47,£67.03,£77.60,£88.17,£98.73,£109.30,£120.14,£130.97,£163.47,£226.74,£258.37,,,,,,,,,,,,,,,,,,,,,,,,,,,,,,,,,,,,,,,,,,,,
Latvia,428,EU,5,4,ROW,£3.38,£11.10,£13.62,£14.34,£5.00,£19.96,£23.14,£25.26,£30.56,£43.30,£14.85,£18.74,£26.53,£34.32,£39.97,£45.62,£51.27,£56.93,£62.58,£68.18,£73.78,£90.58,£119.37,£133.77,,,,,,,,,,,,,,,,,,,,,,,,,,,,,,,,,,,,,,,,,,,,
Lebanon,422,ROW,,10,ROW,£3.53,£11.31,,,,,,,,,£26.05,£32.13,£44.30,£56.47,£67.03,£77.60,£88.17,£98.73,£109.30,£120.14,£130.97,£163.47,£226.74,£258.37,,,,,,,,,,,,,,,,,,,,,,,,,,,,,,,,,,,,,,,,,,,,
Lesotho,426,ROW,,10,ROW,£3.53,£11.31,,,,,,,,,£26.05,£32.13,£44.30,£56.47,£67.03,£77.60,£88.17,£98.73,£109.30,£120.14,£130.97,£163.47,£226.74,£258.37,,,,,,,,,,,,,,,,,,,,,,,,,,,,,,,,,,,,,,,,,,,,
Liberia,430,ROW,,10,ROW,£3.53,£11.31,,,,,,,,,£26.05,£32.13,£44.30,£56.47,£67.03,£77.60,£88.17,£98.73,£109.30,£120.14,£130.97,£163.47,£226.74,£258.37,,,,,,,,,,,,,,,,,,,,,,,,,,,,,,,,,,,,,,,,,,,,
Libya,434,ROW,,10,ROW,£3.53,£11.31,,,,,,,,,£26.05,£32.13,£44.30,£56.47,£67.03,£77.60,£88.17,£98.73,£109.30,£120.14,£130.97,£163.47,£226.74,£258.37,,,,,,,,,,,,,,,,,,,,,,,,,,,,,,,,,,,,,,,,,,,,
Liechtenstein,438,EU,3,5,ROW,£3.38,£11.10,,,£5.00,£19.96,£23.14,£25.26,£30.56,£43.30,£19.55,£22.19,£27.47,£32.76,£36.44,£40.13,£43.81,£47.50,£51.18,£54.87,£58.55,£69.61,£91.59,£102.58,,,,,,,,,,,,,,,,,,,,,,,,,,,,,,,,,,,,,,,,,,,,
Lithuania,440,EU,4,4,ROW,£3.38,£11.10,£11.32,£12.03,£5.00,£19.96,£23.14,£25.26,£30.56,£43.30,£14.85,£18.74,£26.53,£34.32,£39.97,£45.62,£51.27,£56.93,£62.58,£68.18,£73.78,£90.58,£119.37,£133.77,,,,,,,,,,,,,,,,,,,,,,,,,,,,,,,,,,,,,,,,,,,,
Luxembourg,442,EU,2,2,EU,£3.38,£11.10,£8.18,£8.90,£1.00,£13.57,£15.24,£16.35,£19.14,£25.84,£14.85,£16.64,£20.21,£23.78,£26.02,£28.26,£30.50,£32.74,£34.98,£37.54,£40.10,£47.78,£61.65,£68.58,,,,,,,,,,,,,,,,,,,,,,,,,,,,,,,,,,,,,,,,,,,,
Macau,446,ROW,,8,ROW,£3.53,£11.31,,,,,,,,,£19.55,£24.88,£35.53,£46.19,£56.00,£65.81,£75.62,£85.44,£95.25,£105.28,£115.32,£145.42,£204.03,£233.33,,,,,,,,,,,,,,,,,,,,,,,,,,,,,,,,,,,,,,,,,,,,
Macedonia,807,ROW,,5,ROW,£3.53,£11.31,,,,,,,,,£19.55,£22.19,£27.47,£32.76,£36.44,£40.13,£43.81,£47.50,£51.18,£54.87,£58.55,£69.61,£91.59,£102.58,,,,,,,,,,,,,,,,,,,,,,,,,,,,,,,,,,,,,,,,,,,,
Madagascar,450,ROW,,10,ROW,£3.53,£11.31,,,,,,,,,£26.05,£32.13,£44.30,£56.47,£67.03,£77.60,£88.17,£98.73,£109.30,£120.14,£130.97,£163.47,£226.74,£258.37,,,,,,,,,,,,,,,,,,,,,,,,,,,,,,,,,,,,,,,,,,,,
Malawi,454,ROW,,10,ROW,£3.53,£11.31,,,,,,,,,£26.05,£32.13,£44.30,£56.47,£67.03,£77.60,£88.17,£98.73,£109.30,£120.14,£130.97,£163.47,£226.74,£258.37,,,,,,,,,,,,,,,,,,,,,,,,,,,,,,,,,,,,,,,,,,,,
Malaysia,458,ROW,,8,ROW,£3.53,£9.47,,,,,,,,,£19.55,£24.88,£35.53,£46.19,£56.00,£65.81,£75.62,£85.44,£95.25,£105.28,£115.32,£145.42,£204.03,£233.33,,,,,,,,,,,,,,,,,,,,,,,,,,,,,,,,,,,,,,,,,,,,
Maldives,462,ROW,,10,ROW,£3.53,£11.31,,,,,,,,,£26.05,£32.13,£44.30,£56.47,£67.03,£77.60,£88.17,£98.73,£109.30,£120.14,£130.97,£163.47,£226.74,£258.37,,,,,,,,,,,,,,,,,,,,,,,,,,,,,,,,,,,,,,,,,,,,
Mali,466,ROW,,10,ROW,£3.53,£11.31,,,,,,,,,£26.05,£32.13,£44.30,£56.47,£67.03,£77.60,£88.17,£98.73,£109.30,£120.14,£130.97,£163.47,£226.74,£258.37,,,,,,,,,,,,,,,,,,,,,,,,,,,,,,,,,,,,,,,,,,,,
Malta,470,EU,,4,ROW,£3.38,£9.81,,,,,,,,,£14.85,£18.74,£26.53,£34.32,£39.97,£45.62,£51.27,£56.93,£62.58,£68.18,£73.78,£90.58,£119.37,£133.77,,,,,,,,,,,,,,,,,,,,,,,,,,,,,,,,,,,,,,,,,,,,
Marshall Islands,584,ROW,,10,ROW,£3.53,£11.31,,,,,,,,,£26.05,£32.13,£44.30,£56.47,£67.03,£77.60,£88.17,£98.73,£109.30,£120.14,£130.97,£163.47,£226.74,£258.37,,,,,,,,,,,,,,,,,,,,,,,,,,,,,,,,,,,,,,,,,,,,
Martinique,474,ROW,,10,ROW,£3.53,£11.31,,,,,,,,,£26.05,£32.13,£44.30,£56.47,£67.03,£77.60,£88.17,£98.73,£109.30,£120.14,£130.97,£163.47,£226.74,£258.37,,,,,,,,,,,,,,,,,,,,,,,,,,,,,,,,,,,,,,,,,,,,
Mauritania,478,ROW,,10,ROW,£3.53,£11.31,,,,,,,,,£26.05,£32.13,£44.30,£56.47,£67.03,£77.60,£88.17,£98.73,£109.30,£120.14,£130.97,£163.47,£226.74,£258.37,,,,,,,,,,,,,,,,,,,,,,,,,,,,,,,,,,,,,,,,,,,,
Mauritius,480,ROW,,10,ROW,£3.53,£11.31,,,,,,,,,£26.05,£32.13,£44.30,£56.47,£67.03,£77.60,£88.17,£98.73,£109.30,£120.14,£130.97,£163.47,£226.74,£258.37,,,,,,,,,,,,,,,,,,,,,,,,,,,,,,,,,,,,,,,,,,,,
Mayotte,175,ROW,,10,ROW,£3.53,£11.31,,,,,,,,,£26.05,£32.13,£44.30,£56.47,£67.03,£77.60,£88.17,£98.73,£109.30,£120.14,£130.97,£163.47,£226.74,£258.37,,,,,,,,,,,,,,,,,,,,,,,,,,,,,,,,,,,,,,,,,,,,
Mexico,484,ROW,,6,ROW,£3.53,£11.31,,,,,,,,,£16.28,£20.19,£28.01,£35.82,£43.01,£50.21,£57.40,£64.59,£71.78,£78.67,£85.55,£106.19,£146.38,£166.47,,,,,,,,,,,,,,,,,,,,,,,,,,,,,,,,,,,,,,,,,,,,
Micronesia,583,ROW,,10,ROW,£3.53,£11.31,,,,,,,,,£26.05,£32.13,£44.30,£56.47,£67.03,£77.60,£88.17,£98.73,£109.30,£120.14,£130.97,£163.47,£226.74,£258.37,,,,,,,,,,,,,,,,,,,,,,,,,,,,,,,,,,,,,,,,,,,,
Moldova,498,ROW,,5,ROW,£3.53,£11.31,,,,,,,,,£19.55,£22.19,£27.47,£32.76,£36.44,£40.13,£43.81,£47.50,£51.18,£54.87,£58.55,£69.61,£91.59,£102.58,,,,,,,,,,,,,,,,,,,,,,,,,,,,,,,,,,,,,,,,,,,,
Monaco,492,EU,2,3,EU,£3.38,£11.10,,,£2.00,£13.57,£15.24,£16.35,£19.14,£25.84,£14.85,£17.81,£23.73,£29.65,£33.33,£37.01,£40.69,£44.37,£48.05,£51.73,£55.41,£66.45,£85.11,£94.44,,,,,,,,,,,,,,,,,,,,,,,,,,,,,,,,,,,,,,,,,,,,
Mongolia,496,ROW,,10,ROW,£3.53,£11.31,,,,,,,,,£26.05,£32.13,£44.30,£56.47,£67.03,£77.60,£88.17,£98.73,£109.30,£120.14,£130.97,£163.47,£226.74,£258.37,,,,,,,,,,,,,,,,,,,,,,,,,,,,,,,,,,,,,,,,,,,,
Montenegro,499,EU,,5,ROW,£3.38,£11.10,,,,,,,,,£19.55,£22.19,£27.47,£32.76,£36.44,£40.13,£43.81,£47.50,£51.18,£54.87,£58.55,£69.61,£91.59,£102.58,,,,,,,,,,,,,,,,,,,,,,,,,,,,,,,,,,,,,,,,,,,,
Montserrat,500,ROW,,10,ROW,£3.53,£11.31,,,,,,,,,£26.05,£32.13,£44.30,£56.47,£67.03,£77.60,£88.17,£98.73,£109.30,£120.14,£130.97,£163.47,£226.74,£258.37,,,,,,,,,,,,,,,,,,,,,,,,,,,,,,,,,,,,,,,,,,,,
Morocco,504,ROW,,10,ROW,£3.53,£11.31,,,,,,,,,£26.05,£32.13,£44.30,£56.47,£67.03,£77.60,£88.17,£98.73,£109.30,£120.14,£130.97,£163.47,£226.74,£258.37,,,,,,,,,,,,,,,,,,,,,,,,,,,,,,,,,,,,,,,,,,,,
Mozambique,508,ROW,,10,ROW,£3.53,£11.31,,,,,,,,,£26.05,£32.13,£44.30,£56.47,£67.03,£77.60,£88.17,£98.73,£109.30,£120.14,£130.97,£163.47,£226.74,£258.37,,,,,,,,,,,,,,,,,,,,,,,,,,,,,,,,,,,,,,,,,,,,
Namibia,516,ROW,,10,ROW,£3.53,£11.31,,,,,,,,,£26.05,£32.13,£44.30,£56.47,£67.03,£77.60,£88.17,£98.73,£109.30,£120.14,£130.97,£163.47,£226.74,£258.37,,,,,,,,,,,,,,,,,,,,,,,,,,,,,,,,,,,,,,,,,,,,
Nauru,520,ROW,,10,ROW,£3.53,£11.31,,,,,,,,,£26.05,£32.13,£44.30,£56.47,£67.03,£77.60,£88.17,£98.73,£109.30,£120.14,£130.97,£163.47,£226.74,£258.37,,,,,,,,,,,,,,,,,,,,,,,,,,,,,,,,,,,,,,,,,,,,
Nepal,524,ROW,,10,ROW,£3.53,£11.31,,,,,,,,,£26.05,£32.13,£44.30,£56.47,£67.03,£77.60,£88.17,£98.73,£109.30,£120.14,£130.97,£163.47,£226.74,£258.37,,,,,,,,,,,,,,,,,,,,,,,,,,,,,,,,,,,,,,,,,,,,
Netherlands,528,EU,2,2,EU,£3.38,£11.10,£8.18,£8.90,£1.00,£13.57,£15.24,£16.35,£19.14,£25.84,£14.85,£16.64,£20.21,£23.78,£26.02,£28.26,£30.50,£32.74,£34.98,£37.54,£40.10,£47.78,£61.65,£68.58,,,,,,,,,,,,,,,,,,,,,,,,,,,,,,,,,,,,,,,,,,,,
Netherlands Antilles,530,ROW,,10,ROW,£3.53,£11.31,,,,,,,,,£26.05,£32.13,£44.30,£56.47,£67.03,£77.60,£88.17,£98.73,£109.30,£120.14,£130.97,£163.47,£226.74,£258.37,,,,,,,,,,,,,,,,,,,,,,,,,,,,,,,,,,,,,,,,,,,,
Nevis,659,ROW,,10,ROW,£3.53,£11.31,,,,,,,,,£26.05,£32.13,£44.30,£56.47,£67.03,£77.60,£88.17,£98.73,£109.30,£120.14,£130.97,£163.47,£226.74,£258.37,,,,,,,,,,,,,,,,,,,,,,,,,,,,,,,,,,,,,,,,,,,,
New Caledonia,540,ROW,,10,ROW,£3.53,£11.31,,,,,,,,,£26.05,£32.13,£44.30,£56.47,£67.03,£77.60,£88.17,£98.73,£109.30,£120.14,£130.97,£163.47,£226.74,£258.37,,,,,,,,,,,,,,,,,,,,,,,,,,,,,,,,,,,,,,,,,,,,
New Zealand,554,ROW,,9,ROW,£3.53,£9.92,,,,,,,,,£22.79,£28.87,£41.04,£53.20,£63.77,£74.34,£84.90,£95.47,£106.04,£116.87,£127.71,£160.21,£223.48,£255.11,,,,,,,,,,,,,,,,,,,,,,,,,,,,,,,,,,,,,,,,,,,,
Nicaragua,558,ROW,,10,ROW,£3.53,£11.31,,,,,,,,,£26.05,£32.13,£44.30,£56.47,£67.03,£77.60,£88.17,£98.73,£109.30,£120.14,£130.97,£163.47,£226.74,£258.37,,,,,,,,,,,,,,,,,,,,,,,,,,,,,,,,,,,,,,,,,,,,
Niger,562,ROW,,10,ROW,£3.53,£11.31,,,,,,,,,£26.05,£32.13,£44.30,£56.47,£67.03,£77.60,£88.17,£98.73,£109.30,£120.14,£130.97,£163.47,£226.74,£258.37,,,,,,,,,,,,,,,,,,,,,,,,,,,,,,,,,,,,,,,,,,,,
Nigeria,566,ROW,,10,ROW,£3.53,£11.31,,,,,,,,,£26.05,£32.13,£44.30,£56.47,£67.03,£77.60,£88.17,£98.73,£109.30,£120.14,£130.97,£163.47,£226.74,£258.37,,,,,,,,,,,,,,,,,,,,,,,,,,,,,,,,,,,,,,,,,,,,
Niue,570,ROW,,10,ROW,£3.53,£11.31,,,,,,,,,£26.05,£32.13,£44.30,£56.47,£67.03,£77.60,£88.17,£98.73,£109.30,£120.14,£130.97,£163.47,£226.74,£258.37,,,,,,,,,,,,,,,,,,,,,,,,,,,,,,,,,,,,,,,,,,,,
Norway,578,EU,3-4,5,ROW,£3.38,£9.47,£23.93,£24.64,£5.00,£19.96,£23.14,£25.26,£30.56,£43.30,£19.55,£22.19,£27.47,£32.76,£36.44,£40.13,£43.81,£47.50,£51.18,£54.87,£58.55,£69.61,£91.59,£102.58,,,,,,,,,,,,,,,,,,,,,,,,,,,,,,,,,,,,,,,,,,,,
Oman,512,ROW,,9,ROW,£3.53,£11.31,,,,,,,,,£22.79,£28.87,£41.04,£53.20,£63.77,£74.34,£84.90,£95.47,£106.04,£116.87,£127.71,£160.21,£223.48,£255.11,,,,,,,,,,,,,,,,,,,,,,,,,,,,,,,,,,,,,,,,,,,,
Pakistan,586,ROW,,10,ROW,£3.53,£11.31,,,,,,,,,£26.05,£32.13,£44.30,£56.47,£67.03,£77.60,£88.17,£98.73,£109.30,£120.14,£130.97,£163.47,£226.74,£258.37,,,,,,,,,,,,,,,,,,,,,,,,,,,,,,,,,,,,,,,,,,,,
Palau,585,ROW,,10,ROW,£3.53,£11.31,,,,,,,,,£26.05,£32.13,£44.30,£56.47,£67.03,£77.60,£88.17,£98.73,£109.30,£120.14,£130.97,£163.47,£226.74,£258.37,,,,,,,,,,,,,,,,,,,,,,,,,,,,,,,,,,,,,,,,,,,,
Panama,591,ROW,,10,ROW,£3.53,£11.31,,,,,,,,,£26.05,£32.13,£44.30,£56.47,£67.03,£77.60,£88.17,£98.73,£109.30,£120.14,£130.97,£163.47,£226.74,£258.37,,,,,,,,,,,,,,,,,,,,,,,,,,,,,,,,,,,,,,,,,,,,
Papua New Guinea,598,ROW,,10,ROW,£3.53,£11.31,,,,,,,,,£26.05,£32.13,£44.30,£56.47,£67.03,£77.60,£88.17,£98.73,£109.30,£120.14,£130.97,£163.47,£226.74,£258.37,,,,,,,,,,,,,,,,,,,,,,,,,,,,,,,,,,,,,,,,,,,,
Paraguay,600,ROW,,10,ROW,£3.53,£11.31,,,,,,,,,£26.05,£32.13,£44.30,£56.47,£67.03,£77.60,£88.17,£98.73,£109.30,£120.14,£130.97,£163.47,£226.74,£258.37,,,,,,,,,,,,,,,,,,,,,,,,,,,,,,,,,,,,,,,,,,,,
Peru,604,ROW,,10,ROW,£3.53,£11.31,,,,,,,,,£26.05,£32.13,£44.30,£56.47,£67.03,£77.60,£88.17,£98.73,£109.30,£120.14,£130.97,£163.47,£226.74,£258.37,,,,,,,,,,,,,,,,,,,,,,,,,,,,,,,,,,,,,,,,,,,,
Philippines,608,ROW,,8,ROW,£3.53,£11.31,,,,,,,,,£19.55,£24.88,£35.53,£46.19,£56.00,£65.81,£75.62,£85.44,£95.25,£105.28,£115.32,£145.42,£204.03,£233.33,,,,,,,,,,,,,,,,,,,,,,,,,,,,,,,,,,,,,,,,,,,,
Poland,616,EU,3,4,ROW,£3.38,£11.10,£8.92,£9.65,£5.00,£19.96,£23.14,£25.26,£30.56,£43.30,£14.85,£18.74,£26.53,£34.32,£39.97,£45.62,£51.27,£56.93,£62.58,£68.18,£73.78,£90.58,£119.37,£133.77,,,,,,,,,,,,,,,,,,,,,,,,,,,,,,,,,,,,,,,,,,,,
Portugal,620,EU,3,1,EU,£3.38,£11.10,£15.44,£16.16,£3.00,£13.57,£15.61,£16.96,£20.36,£28.53,£14.85,£18.66,£26.29,£33.92,£39.52,£45.12,£50.71,£56.31,£61.91,£67.51,£73.11,£89.91,£118.17,£132.31,,,,,,,,,,,,,,,,,,,,,,,,,,,,,,,,,,,,,,,,,,,,
Puerto Rico,630,ROW,,10,ROW,£3.53,£11.31,,,,,,,,,£26.05,£32.13,£44.30,£56.47,£67.03,£77.60,£88.17,£98.73,£109.30,£120.14,£130.97,£163.47,£226.74,£258.37,,,,,,,,,,,,,,,,,,,,,,,,,,,,,,,,,,,,,,,,,,,,
Qatar,634,ROW,,9,ROW,£3.53,£11.31,,,,,,,,,£22.79,£28.87,£41.04,£53.20,£63.77,£74.34,£84.90,£95.47,£106.04,£116.87,£127.71,£160.21,£223.48,£255.11,,,,,,,,,,,,,,,,,,,,,,,,,,,,,,,,,,,,,,,,,,,,
Reunion,638,ROW,,10,ROW,£3.53,£11.31,,,,,,,,,£26.05,£32.13,£44.30,£56.47,£67.03,£77.60,£88.17,£98.73,£109.30,£120.14,£130.97,£163.47,£226.74,£258.37,,,,,,,,,,,,,,,,,,,,,,,,,,,,,,,,,,,,,,,,,,,,
Romania,642,EU,4,4,ROW,£3.38,£11.10,£21.92,£22.63,£5.00,£19.96,£23.14,£25.26,£30.56,£43.30,£14.85,£18.74,£26.53,£34.32,£39.97,£45.62,£51.27,£56.93,£62.58,£68.18,£73.78,£90.58,£119.37,£133.77,,,,,,,,,,,,,,,,,,,,,,,,,,,,,,,,,,,,,,,,,,,,
Russia,643,ROW,,5,ROW,£3.53,£9.47,,,,,,,,,£19.55,£22.19,£27.47,£32.76,£36.44,£40.13,£43.81,£47.50,£51.18,£54.87,£58.55,£69.61,£91.59,£102.58,,,,,,,,,,,,,,,,,,,,,,,,,,,,,,,,,,,,,,,,,,,,
Rwanda,646,ROW,,10,ROW,£3.53,£11.31,,,,,,,,,£26.05,£32.13,£44.30,£56.47,£67.03,£77.60,£88.17,£98.73,£109.30,£120.14,£130.97,£163.47,£226.74,£258.37,,,,,,,,,,,,,,,,,,,,,,,,,,,,,,,,,,,,,,,,,,,,
Samoa,882,ROW,,10,ROW,£3.53,£11.31,,,,,,,,,£26.05,£32.13,£44.30,£56.47,£67.03,£77.60,£88.17,£98.73,£109.30,£120.14,£130.97,£163.47,£226.74,£258.37,,,,,,,,,,,,,,,,,,,,,,,,,,,,,,,,,,,,,,,,,,,,
San Marino,674,EU,5,1,EU,£3.38,£11.10,,,£6.00,£154.95,£162.21,£167.05,£179.15,£207.40,£14.85,£18.66,£26.29,£33.92,£39.52,£45.12,£50.71,£56.31,£61.91,£67.51,£73.11,£89.91,£118.17,£132.31,,,,,,,,,,,,,,,,,,,,,,,,,,,,,,,,,,,,,,,,,,,,
Sao Tome & Principe,678,ROW,,10,ROW,£3.53,£11.31,,,,,,,,,£26.05,£32.13,£44.30,£56.47,£67.03,£77.60,£88.17,£98.73,£109.30,£120.14,£130.97,£163.47,£226.74,£258.37,,,,,,,,,,,,,,,,,,,,,,,,,,,,,,,,,,,,,,,,,,,,
Saudi Arabia,682,ROW,,9,ROW,£3.53,£11.31,,,,,,,,,£22.79,£28.87,£41.04,£53.20,£63.77,£74.34,£84.90,£95.47,£106.04,£116.87,£127.71,£160.21,£223.48,£255.11,,,,,,,,,,,,,,,,,,,,,,,,,,,,,,,,,,,,,,,,,,,,
Senegal,686,ROW,,10,ROW,£3.53,£11.31,,,,,,,,,£26.05,£32.13,£44.30,£56.47,£67.03,£77.60,£88.17,£98.73,£109.30,£120.14,£130.97,£163.47,£226.74,£258.37,,,,,,,,,,,,,,,,,,,,,,,,,,,,,,,,,,,,,,,,,,,,
Serbia,688,EU,,5,ROW,£3.38,£11.10,£26.88,£27.61,,,,,,,£19.55,£22.19,£27.47,£32.76,£36.44,£40.13,£43.81,£47.50,£51.18,£54.87,£58.55,£69.61,£91.59,£102.58,,,,,,,,,,,,,,,,,,,,,,,,,,,,,,,,,,,,,,,,,,,,
Seychelles,690,ROW,,10,ROW,£3.53,£11.31,,,,,,,,,£26.05,£32.13,£44.30,£56.47,£67.03,£77.60,£88.17,£98.73,£109.30,£120.14,£130.97,£163.47,£226.74,£258.37,,,,,,,,,,,,,,,,,,,,,,,,,,,,,,,,,,,,,,,,,,,,
Sierra Leone,694,ROW,,10,ROW,£3.53,£11.31,,,,,,,,,£26.05,£32.13,£44.30,£56.47,£67.03,£77.60,£88.17,£98.73,£109.30,£120.14,£130.97,£163.47,£226.74,£258.37,,,,,,,,,,,,,,,,,,,,,,,,,,,,,,,,,,,,,,,,,,,,
Singapore,702,ROW,,8,ROW,£3.53,£11.31,,,,,,,,,£19.55,£24.88,£35.53,£46.19,£56.00,£65.81,£75.62,£85.44,£95.25,£105.28,£115.32,£145.42,£204.03,£233.33,,,,,,,,,,,,,,,,,,,,,,,,,,,,,,,,,,,,,,,,,,,,
Slovakia,703,EU,3,4,ROW,£3.38,£11.10,£10.99,£11.72,£5.00,£19.96,£23.14,£25.26,£30.56,£43.30,£14.85,£18.74,£26.53,£34.32,£39.97,£45.62,£51.27,£56.93,£62.58,£68.18,£73.78,£90.58,£119.37,£133.77,,,,,,,,,,,,,,,,,,,,,,,,,,,,,,,,,,,,,,,,,,,,
Slovenia,705,EU,3,4,ROW,£3.38,£11.10,£8.48,£9.21,£5.00,£19.96,£23.14,£25.26,£30.56,£43.30,£14.85,£18.74,£26.53,£34.32,£39.97,£45.62,£51.27,£56.93,£62.58,£68.18,£73.78,£90.58,£119.37,£133.77,,,,,,,,,,,,,,,,,,,,,,,,,,,,,,,,,,,,,,,,,,,,
Solomon Islands,90,ROW,,9,ROW,£3.53,£11.31,,,,,,,,,£22.79,£28.87,£41.04,£53.20,£63.77,£74.34,£84.90,£95.47,£106.04,£116.87,£127.71,£160.21,£223.48,£255.11,,,,,,,,,,,,,,,,,,,,,,,,,,,,,,,,,,,,,,,,,,,,
Somalia,706,ROW,,10,ROW,£3.53,£11.31,,,,,,,,,£26.05,£32.13,£44.30,£56.47,£67.03,£77.60,£88.17,£98.73,£109.30,£120.14,£130.97,£163.47,£226.74,£258.37,,,,,,,,,,,,,,,,,,,,,,,,,,,,,,,,,,,,,,,,,,,,
South Africa,710,ROW,,9,ROW,£3.53,£11.31,,,,,,,,,£22.79,£28.87,£41.04,£53.20,£63.77,£74.34,£84.90,£95.47,£106.04,£116.87,£127.71,£160.21,£223.48,£255.11,,,,,,,,,,,,,,,,,,,,,,,,,,,,,,,,,,,,,,,,,,,,
Spain,724,EU,2-3,1,EU,£3.38,£11.10,£11.05,£12.82,£3.00,£13.57,£15.61,£16.96,£20.36,£28.53,£14.85,£18.66,£26.29,£33.92,£39.52,£45.12,£50.71,£56.31,£61.91,£67.51,£73.11,£89.91,£118.17,£132.31,,,,,,,,,,,,,,,,,,,,,,,,,,,,,,,,,,,,,,,,,,,,
Sri Lanka,144,ROW,,10,ROW,£3.53,£11.31,,,,,,,,,£26.05,£32.13,£44.30,£56.47,£67.03,£77.60,£88.17,£98.73,£109.30,£120.14,£130.97,£163.47,£226.74,£258.37,,,,,,,,,,,,,,,,,,,,,,,,,,,,,,,,,,,,,,,,,,,,
Sudan,736,ROW,,10,ROW,£3.53,£11.31,,,,,,,,,£26.05,£32.13,£44.30,£56.47,£67.03,£77.60,£88.17,£98.73,£109.30,£120.14,£130.97,£163.47,£226.74,£258.37,,,,,,,,,,,,,,,,,,,,,,,,,,,,,,,,,,,,,,,,,,,,
Suriname,740,ROW,,10,ROW,£3.53,£11.31,,,,,,,,,£26.05,£32.13,£44.30,£56.47,£67.03,£77.60,£88.17,£98.73,£109.30,£120.14,£130.97,£163.47,£226.74,£258.37,,,,,,,,,,,,,,,,,,,,,,,,,,,,,,,,,,,,,,,,,,,,
Swaziland,748,ROW,,10,ROW,£3.53,£11.31,,,,,,,,,£26.05,£32.13,£44.30,£56.47,£67.03,£77.60,£88.17,£98.73,£109.30,£120.14,£130.97,£163.47,£226.74,£258.37,,,,,,,,,,,,,,,,,,,,,,,,,,,,,,,,,,,,,,,,,,,,
Sweden,752,EU,3,1,EU,£3.38,£11.10,£10.39,£12.36,£4.00,£13.57,£15.85,£17.37,£21.18,£30.32,£14.85,£18.66,£26.29,£33.92,£39.52,£45.12,£50.71,£56.31,£61.91,£67.51,£73.11,£89.91,£118.17,£132.31,,,,,,,,,,,,,,,,,,,,,,,,,,,,,,,,,,,,,,,,,,,,
Switzerland,756,EU,3,5,ROW,£3.38,£9.92,£10.89,£11.62,£5.00,£19.96,£23.14,£25.26,£30.56,£43.30,£19.55,£22.19,£27.47,£32.76,£36.44,£40.13,£43.81,£47.50,£51.18,£54.87,£58.55,£69.61,£91.59,£102.58,,,,,,,,,,,,,,,,,,,,,,,,,,,,,,,,,,,,,,,,,,,,
Syria,760,ROW,,10,ROW,£3.53,£11.31,,,,,,,,,£26.05,£32.13,£44.30,£56.47,£67.03,£77.60,£88.17,£98.73,£109.30,£120.14,£130.97,£163.47,£226.74,£258.37,,,,,,,,,,,,,,,,,,,,,,,,,,,,,,,,,,,,,,,,,,,,
Tahiti,2318,ROW,,10,ROW,£3.53,£11.31,,,,,,,,,£26.05,£32.13,£44.30,£56.47,£67.03,£77.60,£88.17,£98.73,£109.30,£120.14,£130.97,£163.47,£226.74,£258.37,,,,,,,,,,,,,,,,,,,,,,,,,,,,,,,,,,,,,,,,,,,,
Taiwan,158,ROW,,8,ROW,£3.53,£11.31,,,,,,,,,£19.55,£24.88,£35.53,£46.19,£56.00,£65.81,£75.62,£85.44,£95.25,£105.28,£115.32,£145.42,£204.03,£233.33,,,,,,,,,,,,,,,,,,,,,,,,,,,,,,,,,,,,,,,,,,,,
Tajikistan,762,ROW,,10,ROW,£3.53,£11.31,,,,,,,,,£26.05,£32.13,£44.30,£56.47,£67.03,£77.60,£88.17,£98.73,£109.30,£120.14,£130.97,£163.47,£226.74,£258.37,,,,,,,,,,,,,,,,,,,,,,,,,,,,,,,,,,,,,,,,,,,,
Tanzania,834,ROW,,10,ROW,£3.53,£11.31,,,,,,,,,£26.05,£32.13,£44.30,£56.47,£67.03,£77.60,£88.17,£98.73,£109.30,£120.14,£130.97,£163.47,£226.74,£258.37,,,,,,,,,,,,,,,,,,,,,,,,,,,,,,,,,,,,,,,,,,,,
Thailand,764,ROW,,8,ROW,£3.53,£11.31,,,,,,,,,£19.55,£24.88,£35.53,£46.19,£56.00,£65.81,£75.62,£85.44,£95.25,£105.28,£115.32,£145.42,£204.03,£233.33,,,,,,,,,,,,,,,,,,,,,,,,,,,,,,,,,,,,,,,,,,,,
Togo,768,ROW,,10,ROW,£3.53,£11.31,,,,,,,,,£26.05,£32.13,£44.30,£56.47,£67.03,£77.60,£88.17,£98.73,£109.30,£120.14,£130.97,£163.47,£226.74,£258.37,,,,,,,,,,,,,,,,,,,,,,,,,,,,,,,,,,,,,,,,,,,,
Tonga,776,ROW,,10,ROW,£3.53,£11.31,,,,,,,,,£26.05,£32.13,£44.30,£56.47,£67.03,£77.60,£88.17,£98.73,£109.30,£120.14,£130.97,£163.47,£226.74,£258.37,,,,,,,,,,,,,,,,,,,,,,,,,,,,,,,,,,,,,,,,,,,,
Trinidad & Tobago,780,ROW,,10,ROW,£3.53,£11.31,,,,,,,,,£26.05,£32.13,£44.30,£56.47,£67.03,£77.60,£88.17,£98.73,£109.30,£120.14,£130.97,£163.47,£226.74,£258.37,,,,,,,,,,,,,,,,,,,,,,,,,,,,,,,,,,,,,,,,,,,,
Tunisia,788,ROW,,10,ROW,£3.53,£11.31,,,,,,,,,£26.05,£32.13,£44.30,£56.47,£67.03,£77.60,£88.17,£98.73,£109.30,£120.14,£130.97,£163.47,£226.74,£258.37,,,,,,,,,,,,,,,,,,,,,,,,,,,,,,,,,,,,,,,,,,,,
Turkey,792,EU,,5,ROW,£3.38,£9.47,,,,,,,,,£19.55,£22.19,£27.47,£32.76,£36.44,£40.13,£43.81,£47.50,£51.18,£54.87,£58.55,£69.61,£91.59,£102.58,,,,,,,,,,,,,,,,,,,,,,,,,,,,,,,,,,,,,,,,,,,,
Turks & Caicos Islands,796,ROW,,10,ROW,£3.53,£11.31,,,,,,,,,£26.05,£32.13,£44.30,£56.47,£67.03,£77.60,£88.17,£98.73,£109.30,£120.14,£130.97,£163.47,£226.74,£258.37,,,,,,,,,,,,,,,,,,,,,,,,,,,,,,,,,,,,,,,,,,,,
Tuvalu,798,ROW,,10,ROW,£3.53,£11.31,,,,,,,,,£26.05,£32.13,£44.30,£56.47,£67.03,£77.60,£88.17,£98.73,£109.30,£120.14,£130.97,£163.47,£226.74,£258.37,,,,,,,,,,,,,,,,,,,,,,,,,,,,,,,,,,,,,,,,,,,,
Uganda,800,ROW,,10,ROW,£3.53,£11.31,,,,,,,,,£26.05,£32.13,£44.30,£56.47,£67.03,£77.60,£88.17,£98.73,£109.30,£120.14,£130.97,£163.47,£226.74,£258.37,,,,,,,,,,,,,,,,,,,,,,,,,,,,,,,,,,,,,,,,,,,,
Ukraine,804,ROW,,5,ROW,£3.53,£11.31,,,,,,,,,£19.55,£22.19,£27.47,£32.76,£36.44,£40.13,£43.81,£47.50,£51.18,£54.87,£58.55,£69.61,£91.59,£102.58,,,,,,,,,,,,,,,,,,,,,,,,,,,,,,,,,,,,,,,,,,,,
United Arab Emirates,784,ROW,,8,ROW,£3.53,£11.31,,,,,,,,,£19.55,£24.88,£35.53,£46.19,£56.00,£65.81,£75.62,£85.44,£95.25,£105.28,£115.32,£145.42,£204.03,£233.33,,,,,,,,,,,,,,,,,,,,,,,,,,,,,,,,,,,,,,,,,,,,
Uruguay,858,ROW,,10,ROW,£3.53,£11.31,,,,,,,,,£26.05,£32.13,£44.30,£56.47,£67.03,£77.60,£88.17,£98.73,£109.30,£120.14,£130.97,£163.47,£226.74,£258.37,,,,,,,,,,,,,,,,,,,,,,,,,,,,,,,,,,,,,,,,,,,,
USA,840,ROW,,7,ROW,£3.53,£9.92,,,,,,,,,£16.28,£19.17,£24.94,£30.71,£35.38,£40.04,£44.70,£49.36,£54.02,£58.69,£63.35,£77.33,£102.86,£115.63,,,,,,,,,,,,,,,,,,,,,,,,,,,,,,,,,,,,,,,,,,,,
Uzbekistan,860,ROW,,10,ROW,£3.53,£11.31,,,,,,,,,£26.05,£32.13,£44.30,£56.47,£67.03,£77.60,£88.17,£98.73,£109.30,£120.14,£130.97,£163.47,£226.74,£258.37,,,,,,,,,,,,,,,,,,,,,,,,,,,,,,,,,,,,,,,,,,,,
Vanuatu,548,ROW,,10,ROW,£3.53,£11.31,,,,,,,,,£26.05,£32.13,£44.30,£56.47,£67.03,£77.60,£88.17,£98.73,£109.30,£120.14,£130.97,£163.47,£226.74,£258.37,,,,,,,,,,,,,,,,,,,,,,,,,,,,,,,,,,,,,,,,,,,,
Venezuela,862,ROW,,10,ROW,£3.53,£11.31,,,,,,,,,£26.05,£32.13,£44.30,£56.47,£67.03,£77.60,£88.17,£98.73,£109.30,£120.14,£130.97,£163.47,£226.74,£258.37,,,,,,,,,,,,,,,,,,,,,,,,,,,,,,,,,,,,,,,,,,,,
Vietnam,704,ROW,,8,ROW,£3.53,£11.31,,,,,,,,,£19.55,£24.88,£35.53,£46.19,£56.00,£65.81,£75.62,£85.44,£95.25,£105.28,£115.32,£145.42,£204.03,£233.33,,,,,,,,,,,,,,,,,,,,,,,,,,,,,,,,,,,,,,,,,,,,
Yemen,887,ROW,,9,ROW,£3.53,£11.31,,,,,,,,,£22.79,£28.87,£41.04,£53.20,£63.77,£74.34,£84.90,£95.47,£106.04,£116.87,£127.71,£160.21,£223.48,£255.11,,,,,,,,,,,,,,,,,,,,,,,,,,,,,,,,,,,,,,,,,,,,
Zambia,894,ROW,,10,ROW,£3.53,£11.31,,,,,,,,,£26.05,£32.13,£44.30,£56.47,£67.03,£77.60,£88.17,£98.73,£109.30,£120.14,£130.97,£163.47,£226.74,£258.37,,,,,,,,,,,,,,,,,,,,,,,,,,,,,,,,,,,,,,,,,,,,
Zimbabwe,716,ROW,,10,ROW,£3.53,£11.31,,,,,,,,,£26.05,£32.13,£44.30,£56.47,£67.03,£77.60,£88.17,£98.73,£109.30,£120.14,£130.97,£163.47,£226.74,£258.37,,,,,,,,,,,,,,,,,,,,,,,,,,,,,,,,,,,,,,,,,,,,
,,,,,,,,,,,,,,,,,,,,,,,,,,,,,,,,,,,,,,,,,,,,,,,,,,,,,,,,,,,,,,,,,,,,,,,,,
