item_id,order_item_id,"Invoice ID","Order Number","Customer name",customer_email,"Credit Note No","Credit note Date",country_id,base_row_total_incl_tax,store_name,name,base_discount_amount,"Value less discount",tax_percent,"Net Discounted Amount","Return Date",month_year,value,product_id,customer_group_id,"net based on catalog vat","Net sales based on customer group"
7367084,7367084,205934,AMZ24000575162,"M2E Orders",m2eorders@startfitness.co.uk,24000041934,"2020-12-11 14:08:02",ES,70.9500,"Start Group
Start Group
Amazon","Reebok Crossfit Nano 2.0 Mens Training Shoes - Orange-10.5",,70.9500,20.0101,59.12002406,122020,122020,2,332224,1,59.13,59.1300
7471309,7471309,207466,24000573412,"M2E Orders",m2eorders@startfitness.co.uk,24000041669,"2020-12-21 11:20:44",ES,205.1000,"Start Group
Start Group
Amazon USA","Northwave Raptor Arctic GTX MTB Mens Winter Cycling Boots - Black-EU40",,205.1000,19.9977,170.91994263,122020,122020,2,306627,1,170.92,170.9200
7372776,7372776,206988,AMZ24000575606,"M2E Orders",m2eorders@startfitness.co.uk,24000042199,"2020-12-17 16:25:03",ES,25.6700,"Start Group
Start Group
Amazon","Under Armour Blitzing Womens Running Cap - Black-S-M",,25.6700,20.0094,21.38999112,122020,122020,2,328041,1,21.39,21.3900
7472094,7472094,205305,24000573634,"M2E Orders",m2eorders@startfitness.co.uk,24000041591,"2020-12-07 10:22:05",ES,12.9000,"Start Group
Start Group
Amazon USA","Under Armour Patterson Backpack - Grey",,12.9000,20.0000,10.75000000,122020,122020,2,349932,1,10.75,10.7500
7376363,7376363,208093,6000869876,,pedro.martinm@hotmail.com,6000062693,"2020-12-24 09:48:17",ES,147.0400,"Start Fitness
Fitness
SF English","Scott Road RC SL Mens Cycling Shoes - Yellow",14.7000,132.3400,21.0000,109.37190083,122020,122020,2,376968,0,110.28,110.2800
7472726,7472726,205328,24000573810,"M2E Orders",m2eorders@startfitness.co.uk,24000041597,"2020-12-07 10:46:54",ES,5.1600,"Start Group
Start Group
Amazon USA","Muc-Off Bio Chain Cleaner - 400ml",,5.1600,20.0000,4.30000000,122020,122020,2,14839,1,4.30,4.3000
7377850,7377850,207412,6000870167,"María del Mar Martín Bravo",madelman77@hotmail.com,6000062209,"2020-12-21 10:04:09",ES,45.2400,"Start Fitness
Fitness
SF English","Saucony Peregrine 8 Womens Trail Running Shoes - Red",4.5200,40.7200,21.0000,33.65289256,122020,122020,2,247089,1,33.93,33.9300
7473441,7473441,205408,24000574036,"M2E Orders",m2eorders@startfitness.co.uk,24000041605,"2020-12-07 15:55:09",ES,19.2800,"Start Group
Start Group
Amazon USA","Under Armour Patterson Backpack - Black",,19.2800,19.9751,16.07000119,122020,122020,2,349931,1,16.07,16.0700
7301368,7301368,205009,AMZ24000568080,"M2E Orders",m2eorders@startfitness.co.uk,24000041831,"2020-12-04 08:59:29",ES,40.2500,"Start Group
Start Group
Amazon","Under Armour Unstoppable Double Knit Mens Hoody - Black-L",,40.2500,20.0159,33.53722298,122020,122020,2,346197,1,33.54,33.5400
7473807,7473807,205330,24000574138,"M2E Orders",m2eorders@startfitness.co.uk,24000041598,"2020-12-07 10:49:10",ES,5.1600,"Start Group
Start Group
Amazon USA","Muc-Off Bio Chain Cleaner - 400ml",,5.1600,20.0000,4.30000000,122020,122020,2,14839,1,4.30,4.3000
7395430,7395430,207078,6000874032,"ADRIAN ARGILES MARTINEZ",aargilem@gmail.com,6000062004,"2020-12-18 13:54:53",ES,79.1700,"Start Fitness
Fitness
SF English","Scott Trail MTN Merino Mens Cycling Jacket - Blue",7.9100,71.2600,21.0000,58.89256198,122020,122020,2,376521,1,59.38,59.3800
7301373,7301373,205008,AMZ24000568085,"M2E Orders",m2eorders@startfitness.co.uk,24000041830,"2020-12-04 08:56:59",ES,20.7000,"Start Group
Start Group
Amazon","Reebok Quik Cotton Mens Sweatshirt - Blue-S",,20.7000,20.0000,17.25000000,122020,122020,2,291622,1,17.25,17.2500
7473808,7473808,205374,AMZ24000583791,"M2E Orders",m2eorders@startfitness.co.uk,24000041863,"2020-12-07 13:04:56",ES,12.9000,"Start Group
Start Group
Amazon","Compressport R2 (Race and Recovery) Compression Calf Guards - Pink-Size T4",,12.9000,20.0000,10.75000000,122020,122020,2,8945,1,10.75,10.7500
7395705,7395705,206990,AMZ24000577706,"M2E Orders",m2eorders@startfitness.co.uk,24000042201,"2020-12-17 17:01:01",ES,92.6200,"Start Group
Start Group
Amazon","Inov8 Race Elite 4 Inch Womens Running Shorts - Black-S",,92.6200,20.0052,77.17998887,122020,122020,2,324666,1,77.18,77.1800
7304452,7304452,206231,EBY24000568421,"M2E Orders",m2eorders@startfitness.co.uk,24000042033,"2020-12-14 11:23:36",ES,12.7000,"Start Group
Start Group
eBay","Under Armour HeatGear (3 Pack) Low Cut Socks - Black",,12.7000,20.0000,10.58333333,122020,122020,2,348255,1,10.58,10.5800
7474259,7474259,205332,24000574238,"M2E Orders",m2eorders@startfitness.co.uk,24000041599,"2020-12-07 10:49:48",ES,5.1600,"Start Group
Start Group
Amazon USA","Muc-Off Bio Chain Cleaner - 400ml",,5.1600,20.0000,4.30000000,122020,122020,2,14839,1,4.30,4.3000
7396467,7396467,206585,6000874246,"michael browne",michael@fivebyseven.online,6000061680,"2020-12-16 09:29:42",ES,99.8300,"Start Fitness
Fitness
SF English","Scott MTB RC Womens Cycling Shoes - Black",9.9800,89.8500,21.0000,74.25619835,122020,122020,2,377076,1,74.88,74.8800
7308502,7308502,206933,AMZ24000569537,"M2E Orders",m2eorders@startfitness.co.uk,24000042195,"2020-12-17 14:01:26",ES,74.6400,"Start Group
Start Group
Amazon","Reebok Crossfit Nano 9.0 Womens Training Shoes - White-8",,74.6400,19.9943,62.20295464,122020,122020,2,352631,1,62.20,62.2000
7475179,7475179,207712,24000574538,"M2E Orders",m2eorders@startfitness.co.uk,24000041682,"2020-12-22 13:06:43",ES,90.1700,"Start Group
Start Group
Amazon USA","Reebok Crossfit Nano 9.0 Mens Training Shoes - White-9",,90.1700,20.0027,75.13997602,122020,122020,2,349477,1,75.14,75.1400
7398421,7398421,207079,6000874650,"ADRIAN ARGILES MARTINEZ",aargilem@gmail.com,6000062005,"2020-12-18 13:56:56",ES,9.9800,"Start Fitness
Fitness
SF English","Scott Trail MTN Short Sleeve Mens Cycling Jersey - Yellow",1.0000,8.9800,21.0000,7.42148760,122020,122020,2,377455,1,7.48,7.4800
7327926,7327926,206993,AMZ24000571418,"M2E Orders",m2eorders@startfitness.co.uk,24000042203,"2020-12-17 17:05:39",ES,150.6300,"Start Group
Start Group
Amazon","Inov8 Roclite G 345 GTX Mens Walking Boots - Blue-9.5",,150.6300,21.0000,124.48760331,122020,122020,2,350146,1,125.53,125.5300
7475359,7475359,205336,24000574586,"M2E Orders",m2eorders@startfitness.co.uk,24000041600,"2020-12-07 11:03:34",ES,5.1600,"Start Group
Start Group
Amazon USA","Muc-Off Bio Chain Cleaner - 400ml",,5.1600,20.0000,4.30000000,122020,122020,2,14839,1,4.30,4.3000
7398423,7398423,207079,6000874650,"ADRIAN ARGILES MARTINEZ",aargilem@gmail.com,6000062005,"2020-12-18 13:56:56",ES,15.0200,"Start Fitness
Fitness
SF English","Scott 10 Icon Womens Cycling Hoody - Grey",1.5000,13.5200,21.0000,11.17355372,122020,122020,2,362500,1,11.27,11.2700
7330563,7330563,205289,6000859538,"Rose Aghdami",roseaghdami@yahoo.co.uk,6000060834,"2020-12-07 09:35:38",ES,170.3100,"Start Fitness
Fitness
SF English","Zone3 Valour Womens Wetsuit - Black",17.0300,153.2800,21.0000,126.67768595,122020,122020,2,372399,1,127.73,127.7300
7476053,7476053,205337,24000574852,"M2E Orders",m2eorders@startfitness.co.uk,24000041601,"2020-12-07 11:04:52",ES,5.1600,"Start Group
Start Group
Amazon USA","Muc-Off Bio Chain Cleaner - 400ml",,5.1600,20.0000,4.30000000,122020,122020,2,14839,1,4.30,4.3000
7406056,7406056,207679,AMZ24000578720,"M2E Orders",m2eorders@startfitness.co.uk,24000042353,"2020-12-22 12:43:25",ES,113.1600,"Start Group
Start Group
Amazon","Asics Gel FujiTrabuco 8 GTX Mens Trail Running Shoes - Black-9",,113.1600,21.0000,93.52066116,122020,122020,2,350727,1,94.30,94.3000
7331206,7331206,206171,AMZ24000571728,"M2E Orders",m2eorders@startfitness.co.uk,24000041952,"2020-12-12 15:19:57",ES,113.8500,"Start Group
Start Group
Amazon","Asics Gel FujiTrabuco 8 Womens Trail Running Shoes - Black-7",,113.8500,20.0056,94.87057271,122020,122020,2,371784,1,94.88,94.8800
7476176,7476176,205466,24000574886,"M2E Orders",m2eorders@startfitness.co.uk,24000041610,"2020-12-08 08:44:47",ES,12.9000,"Start Group
Start Group
Amazon USA","Under Armour Patterson Backpack - Blue",,12.9000,20.0000,10.75000000,122020,122020,2,349933,1,10.75,10.7500
7408337,7408337,206987,AMZ24000578974,"M2E Orders",m2eorders@startfitness.co.uk,24000042198,"2020-12-17 16:23:19",ES,83.7200,"Start Group
Start Group
Amazon","Reebok Crossfit Nano 9.0 Womens Training Shoes - White-8",,83.7200,19.9943,69.76998074,122020,122020,2,352631,1,69.77,69.7700
7331887,7331887,206926,AMZ24000571777,"M2E Orders",m2eorders@startfitness.co.uk,24000042190,"2020-12-17 13:57:44",ES,23.0000,"Start Group
Start Group
Amazon","Gore Bike Wear Oxygen Windstopper Cycling Leg Warmers - Black-XS",,23.0000,20.0000,19.16666667,122020,122020,2,109580,1,19.17,19.1700
7478831,7478831,205470,24000575523,"M2E Orders",m2eorders@startfitness.co.uk,24000041611,"2020-12-08 08:46:57",ES,101.9100,"Start Group
Start Group
Amazon USA","Reebok Nano X Womens Training Shoes - White-6",,101.9100,20.0071,84.91997557,122020,122020,2,387542,1,84.93,84.9300
7413330,7413330,208515,AMZ24000579418,"M2E Orders",m2eorders@startfitness.co.uk,24000042435,"2020-12-31 11:00:12",ES,52.0300,"Start Group
Start Group
Amazon","Under Armour HOVR Sonic NC Mens Running Shoes - White-9",,52.0300,21.0000,43.00000000,122020,122020,2,248450,1,43.36,43.3600
7332097,7332097,206927,AMZ24000571818,"M2E Orders",m2eorders@startfitness.co.uk,24000042191,"2020-12-17 13:57:50",ES,23.0000,"Start Group
Start Group
Amazon","Gore Bike Wear Oxygen Windstopper Cycling Leg Warmers - Black-XS",,23.0000,20.0000,19.16666667,122020,122020,2,109580,1,19.17,19.1700
7479439,7479439,205507,24000575701,"M2E Orders",m2eorders@startfitness.co.uk,24000041618,"2020-12-08 16:26:17",ES,19.2800,"Start Group
Start Group
Amazon USA","Under Armour Patterson Backpack - Black",,19.2800,19.9751,16.07000119,122020,122020,2,349931,1,16.07,16.0700
7420382,7420382,207027,AMZ24000580019,"M2E Orders",m2eorders@startfitness.co.uk,24000042221,"2020-12-18 10:17:08",ES,8.9000,"Start Group
Start Group
Amazon","Under Armour Heatgear Mirage 8 Inch Mens Running Shorts - Black-S",,8.9000,20.0085,7.41614136,122020,122020,2,62174,1,7.42,7.4200
7332355,7332355,206928,AMZ24000571837,"M2E Orders",m2eorders@startfitness.co.uk,24000042192,"2020-12-17 13:57:56",ES,23.0000,"Start Group
Start Group
Amazon","Gore Bike Wear Oxygen Windstopper Cycling Leg Warmers - Black-XS",,23.0000,20.0000,19.16666667,122020,122020,2,109580,1,19.17,19.1700
7480029,7480029,207286,24000575862,"M2E Orders",m2eorders@startfitness.co.uk,24000041664,"2020-12-19 13:23:50",ES,23.0900,"Start Group
Start Group
Amazon USA","Muc-Off Rainproof Essentials Case - Black",,23.0900,20.0104,19.23999920,122020,122020,2,386576,1,19.24,19.2400
7420383,7420383,207027,AMZ24000580019,"M2E Orders",m2eorders@startfitness.co.uk,24000042221,"2020-12-18 10:17:08",ES,19.3500,"Start Group
Start Group
Amazon","Under Armour Qualifier 2 In 1 Mens Running Shorts - Blue-S",,19.3500,20.0085,16.12385789,122020,122020,2,321851,1,16.13,16.1300
7335260,7335260,206995,AMZ24000572140,"M2E Orders",m2eorders@startfitness.co.uk,24000042204,"2020-12-17 17:09:24",ES,32.2500,"Start Group
Start Group
Amazon","adidas Freelift Prime Mens Training Hoody - Grey-M",,32.2500,20.0223,26.87000666,122020,122020,2,337715,1,26.88,26.8800
7481893,7481893,208534,24000576375,"M2E Orders",m2eorders@startfitness.co.uk,24000041710,"2020-12-31 11:29:28",ES,51.4700,"Start Group
Start Group
Amazon USA","Merrell Jungle Moc Mens Shoes - Brown-8",,51.4700,20.0047,42.88998681,122020,122020,2,341343,1,42.89,42.8900
7435272,7435272,206989,AMZ24000581578,"M2E Orders",m2eorders@startfitness.co.uk,24000042200,"2020-12-17 16:34:05",ES,86.8900,"Start Group
Start Group
Amazon","adidas Terrex Agravic TR GTX Mens Trail Running Shoes - Grey-6.5",,86.8900,19.9972,72.41002290,122020,122020,2,373586,1,72.41,72.4100
7436944,7436944,206929,AMZ24000581786,"M2E Orders",m2eorders@startfitness.co.uk,24000042193,"2020-12-17 13:58:11",ES,89.0100,"Start Group
Start Group
Amazon","adidas Pulse Boost HD Mens Running Shoes - Blue-9",,89.0100,20.0081,74.16999353,122020,122020,2,336327,1,74.18,74.1800
7337181,7337181,206095,AMZ24000572328,"M2E Orders",m2eorders@startfitness.co.uk,24000041945,"2020-12-12 12:47:45",ES,34.8300,"Start Group
Start Group
Amazon","Under Armour Rival Mens Full Zip Training Hoody - Grey-S",,34.8300,20.0207,29.01999405,122020,122020,2,302313,1,29.03,29.0300
7493289,7493289,208532,24000579260,"M2E Orders",m2eorders@startfitness.co.uk,24000041708,"2020-12-31 11:29:05",ES,23.2200,"Start Group
Start Group
Amazon USA","Puma Gym Medium Holdall - Black",,23.2200,20.0000,19.35000000,122020,122020,2,325991,1,19.35,19.3500
7437895,7437895,204977,AMZ24000581899,"M2E Orders",m2eorders@startfitness.co.uk,24000041823,"2020-12-03 14:52:25",ES,32.2500,"Start Group
Start Group
Amazon","Ronhill Vizion Contour Mens Running Tights - Black-XL",,32.2500,20.0223,26.87000666,122020,122020,2,46756,1,26.88,26.8800
7341548,7341548,206534,AMZ24000572781,"M2E Orders",m2eorders@startfitness.co.uk,24000042098,"2020-12-15 14:27:21",ES,12.9000,"Start Group
Start Group
Amazon","Under Armour Patterson Backpack - Blue",,12.9000,20.0000,10.75000000,122020,122020,2,349933,1,10.75,10.7500
7495047,7495047,207695,24000579825,"M2E Orders",m2eorders@startfitness.co.uk,24000041681,"2020-12-22 12:54:17",ES,38.8300,"Start Group
Start Group
Amazon USA","Scott RC Team ++ Mens Cycling Bib Shorts - Blue-XXL",,38.8300,19.9938,32.36000527,122020,122020,2,377343,1,32.36,32.3600
7438308,7438308,207102,AMZ24000581946,"M2E Orders",m2eorders@startfitness.co.uk,24000042236,"2020-12-18 16:05:51",ES,51.6000,"Start Group
Start Group
Amazon","Under Armour SpeedFoam AMP 2.0 Mens Training Shoes - Black-10.5",,51.6000,20.0000,43.00000000,122020,122020,2,343053,1,43.00,43.0000
7341775,7341775,205932,AMZ24000572801,"M2E Orders",m2eorders@startfitness.co.uk,24000041933,"2020-12-11 13:57:05",ES,17.9300,"Start Group
Start Group
Amazon","Syncros Digital Frame Bag",,17.9300,20.0134,14.93999837,122020,122020,2,346797,1,14.94,14.9400
7496548,7496548,208537,AMZ24000583900,"M2E Orders",m2eorders@startfitness.co.uk,24000042447,"2020-12-31 11:33:30",ES,12.9000,"Start Group
Start Group
Amazon","Under Armour Patterson Backpack - Blue",,12.9000,20.0000,10.75000000,122020,122020,2,349933,1,10.75,10.7500
7438542,7438542,208056,EBY24000577723,"M2E Orders",m2eorders@startfitness.co.uk,24000042233,"2020-12-24 08:39:42",ES,35.0000,"Start Group
Start Group
eBay","adidas Own The Run Camouflage Mens Running Jacket - Grey",,35.0000,20.0000,29.16666667,122020,122020,2,367106,1,29.17,29.1700
7342139,7342139,206041,6000862128,"Paula Folques Server",paulafolques@hotmail.com,6000061370,"2020-12-12 10:35:36",ES,66.7300,"Start Fitness
Fitness
SF English","Saucony Triumph ISO 5 Womens Running Shoes - Purple",6.6700,60.0600,21.0000,49.63636364,122020,122020,2,330694,1,50.05,50.0500
7501639,7501639,208538,AMZ24000584540,"M2E Orders",m2eorders@startfitness.co.uk,24000042448,"2020-12-31 11:33:32",ES,12.9000,"Start Group
Start Group
Amazon","Under Armour Patterson Backpack - Blue",,12.9000,20.0000,10.75000000,122020,122020,2,349933,1,10.75,10.7500
7443460,7443460,204735,AMZ24000582513,"M2E Orders",m2eorders@startfitness.co.uk,24000041788,"2020-12-01 13:00:00",ES,33.3800,"Start Group
Start Group
Amazon","Asics Essentials Womens Running Jacket - Black-S",,33.3800,19.9856,27.82000507,122020,122020,2,387032,1,27.82,27.8200
7343513,7343513,205682,6000862416,"Ignacio Sarmiento Soriano",naxo4v@gmail.com,6000061108,"2020-12-09 14:31:44",ES,56.5600,"Start Fitness
Fitness
SF English","Under Armour Velociti Racer Running Shoes - Orange",,56.5600,21.0000,46.74380165,122020,122020,2,369037,1,47.13,47.1300
7511795,7511795,206296,AMZ24000585888,"M2E Orders",m2eorders@startfitness.co.uk,24000041992,"2020-12-14 14:11:00",ES,37.4100,"Start Group
Start Group
Amazon","Under Armour Storm Feeder 1/4 Zip Mens Long Sleeve Golf Top - Blue-S",,37.4100,20.0192,31.17001280,122020,122020,2,362303,1,31.18,31.1800
7347115,7347115,206931,AMZ24000573222,"M2E Orders",m2eorders@startfitness.co.uk,24000042194,"2020-12-17 13:59:50",ES,76.1100,"Start Group
Start Group
Amazon","Vibram FiveFingers Trek Ascent Womens Trail Running Shoes - Black-6",,76.1100,20.0095,63.41997925,122020,122020,2,363697,1,63.43,63.4300
7533321,7533321,206966,AMZ24000588514,"M2E Orders",m2eorders@startfitness.co.uk,24000042196,"2020-12-17 15:24:57",ES,41.3200,"Start Group
Start Group
Amazon","Ergon GE1 Evo Factory Mountain Bike Grips - Grey-Standard",,41.3200,20.0116,34.43000510,122020,122020,2,355847,1,34.43,34.4300
7454682,7454682,206992,24000569068,"M2E Orders",m2eorders@startfitness.co.uk,24000041655,"2020-12-17 17:03:10",ES,77.2700,"Start Group
Start Group
Amazon USA","adidas Speedex 18 Boxing Shoes - Blue-9",,77.2700,20.0031,64.39000326,122020,122020,2,333677,1,64.39,64.3900
7349511,7349511,206232,AMZ24000573442,"M2E Orders",m2eorders@startfitness.co.uk,24000041978,"2020-12-14 11:25:00",ES,51.6000,"Start Group
Start Group
Amazon","Salming Race 6 Womens Running Shoes - Blue-3.5",,51.6000,20.0000,43.00000000,122020,122020,2,365944,1,43.00,43.0000
7538412,7538412,207797,AMZ24000588890,"M2E Orders",m2eorders@startfitness.co.uk,24000042357,"2020-12-22 15:49:43",ES,154.7700,"Start Group
Start Group
Amazon","Blackburn Tech Mag 5 Turbo Trainer - Black",,154.7700,21.0000,127.90909091,122020,122020,2,367451,1,128.98,128.9800
7456621,7456621,208539,24000569560,"M2E Orders",m2eorders@startfitness.co.uk,24000041713,"2020-12-31 11:34:58",ES,38.5700,"Start Group
Start Group
Amazon USA","Asics Patriot 11 Womens Running Shoes - Pink-6.5",,38.5700,20.0062,32.14000610,122020,122020,2,332838,1,32.14,32.1400
7353926,7353926,206233,AMZ24000573890,"M2E Orders",m2eorders@startfitness.co.uk,24000041979,"2020-12-14 11:27:26",ES,109.5200,"Start Group
Start Group
Amazon","Five Ten Freerider MTB Cycling Shoes - Black-11",,109.5200,19.9956,91.27001323,122020,122020,2,318555,1,91.27,91.2700
7546573,7546573,207800,AMZ24000589445,"M2E Orders",m2eorders@startfitness.co.uk,24000042360,"2020-12-22 15:54:00",ES,10.4100,"Start Group
Start Group
Amazon","Muc-Off Bio Chain Cleaner - 400ml",,10.4100,21.0000,8.60330579,122020,122020,2,14839,1,8.68,8.6800
7457526,7457526,205002,24000569834,"M2E Orders",m2eorders@startfitness.co.uk,24000041575,"2020-12-04 08:36:41",ES,97.9100,"Start Group
Start Group
Amazon USA","adidas Box Hog 3 Mens Boxing Shoes - Blue-7.5",,97.9100,20.0025,81.58996688,122020,122020,2,375760,1,81.59,81.5900
7354327,7354327,208094,6000864870,"Jess Gillespie",jsgillespie_87@hotmail.com,6000062694,"2020-12-24 09:48:52",ES,79.6600,"Start Fitness
Fitness
SF English","Mizuno Wave Rider 23 Mens Running Shoes - Black",7.9700,71.6900,21.0000,59.24793388,122020,122020,2,346319,0,59.74,59.7400
7555975,7555975,208304,6000910254,,jaime.talamanca@gmail.com,6000062835,"2020-12-29 16:52:01",ES,2519.8300,"Start Fitness
Fitness
SF English","Cervelo S3 Ultegra Carbon Road Bike 2020 - Yellow",,2519.8300,21.0000,2082.50413223,122020,122020,2,369480,0,2099.86,2099.8600
7465130,7465130,205293,24000571638,"M2E Orders",m2eorders@startfitness.co.uk,24000041587,"2020-12-07 09:56:20",ES,5.1600,"Start Group
Start Group
Amazon USA","Umbro Woven Womens Training Jacket - Black-L",,5.1600,20.0000,4.30000000,122020,122020,2,315762,1,4.30,4.3000
7354329,7354329,208094,6000864870,"Jess Gillespie",jsgillespie_87@hotmail.com,6000062694,"2020-12-24 09:48:52",ES,30.1500,"Start Fitness
Fitness
SF English","Under Armour Vanish Mid Womens Sports Bra - Orange",3.0100,27.1400,21.0000,22.42975207,122020,122020,2,325750,0,22.62,22.6200
7466021,7466021,205407,24000571884,"M2E Orders",m2eorders@startfitness.co.uk,24000041604,"2020-12-07 15:52:57",ES,15.4800,"Start Group
Start Group
Amazon USA","Under Armour HeatGear Compression Mens Short Sleeve Top - Red-M",,15.4800,20.0000,12.90000000,122020,122020,2,364947,1,12.90,12.9000
7355684,7355684,205007,AMZ24000574070,"M2E Orders",m2eorders@startfitness.co.uk,24000041829,"2020-12-04 08:53:15",ES,83.8500,"Start Group
Start Group
Amazon","Mizuno Wave Hayate 5 Mens Trail Running Shoes - Green-8",,83.8500,20.0086,69.86999265,122020,122020,2,350847,1,69.88,69.8800
7358794,7358794,206917,AMZ24000574390,"M2E Orders",m2eorders@startfitness.co.uk,24000042189,"2020-12-17 13:41:31",ES,16.6400,"Start Group
Start Group
Amazon","adidas AdiZero Womens Running Vest Tank Top - White-L",,16.6400,19.9712,13.86999547,122020,122020,2,231010,1,13.87,13.8700
7467289,7467289,208535,24000572276,"M2E Orders",m2eorders@startfitness.co.uk,24000041711,"2020-12-31 11:32:00",ES,12.9000,"Start Group
Start Group
Amazon USA","Under Armour Patterson Backpack - Blue",,12.9000,20.0000,10.75000000,122020,122020,2,349933,1,10.75,10.7500
7361120,7361120,206991,AMZ24000574592,"M2E Orders",m2eorders@startfitness.co.uk,24000042202,"2020-12-17 17:01:46",ES,76.1100,"Start Group
Start Group
Amazon","Under Armour HOVR Rise Mens Training Shoes - Black-10",,76.1100,20.0095,63.41997925,122020,122020,2,358518,1,63.43,63.4300
7467336,7467336,205304,24000572288,"M2E Orders",m2eorders@startfitness.co.uk,24000041590,"2020-12-07 10:21:03",ES,5.1000,"Start Group
Start Group
Amazon USA","SiS 800ml Graduated Sports Bottle - Clear",,5.1000,20.0000,4.25000000,122020,122020,2,82865,1,4.25,4.2500
7361881,7361881,206235,AMZ24000574684,"M2E Orders",m2eorders@startfitness.co.uk,24000041981,"2020-12-14 11:28:18",ES,34.7000,"Start Group
Start Group
Amazon","Under Armour Rush Seamless Fitted Short Sleeve Mens Training Top - Pink-M",,34.7000,19.9862,28.91999247,122020,122020,2,369292,1,28.92,28.9200
7468038,7468038,205323,24000572528,"M2E Orders",m2eorders@startfitness.co.uk,24000041594,"2020-12-07 10:42:45",ES,5.1600,"Start Group
Start Group
Amazon USA","Muc-Off Bio Chain Cleaner - 400ml",,5.1600,20.0000,4.30000000,122020,122020,2,14839,1,4.30,4.3000
7363923,7363923,207044,EBY24000573307,"M2E Orders",m2eorders@startfitness.co.uk,24000042125,"2020-12-18 12:15:59",ES,28.0400,"Start Group
Start Group
eBay","adidas Own The Run Speed Split Womens 7/8 Running Tights - Grey",,28.0400,20.0000,23.36666667,122020,122020,2,316667,1,23.37,23.3700
7469202,7469202,208536,24000572886,"M2E Orders",m2eorders@startfitness.co.uk,24000041712,"2020-12-31 11:32:01",ES,12.9000,"Start Group
Start Group
Amazon USA","Under Armour Patterson Backpack - Blue",,12.9000,20.0000,10.75000000,122020,122020,2,349933,1,10.75,10.7500
7364609,7364609,206102,6000867275,,sofia_alexandra_fc@yahoo.es,6000061426,"2020-12-12 12:54:39",ES,171.3200,"Start Fitness
Fitness
SF English","Nike Romaleos 4 Weightlifting Shoes - Black",,171.3200,21.0000,141.58677686,122020,122020,2,386506,0,142.77,142.7700
7469211,7469211,205325,24000572888,"M2E Orders",m2eorders@startfitness.co.uk,24000041595,"2020-12-07 10:43:39",ES,5.1600,"Start Group
Start Group
Amazon USA","Muc-Off Bio Chain Cleaner - 400ml",,5.1600,20.0000,4.30000000,122020,122020,2,14839,1,4.30,4.3000
7364847,7364847,206986,AMZ24000574948,"M2E Orders",m2eorders@startfitness.co.uk,24000042197,"2020-12-17 16:21:03",ES,70.9500,"Start Group
Start Group
Amazon","Asics Gel Pulse 11 Mens Running Shoes - Black-8",,70.9500,20.0101,59.12002406,122020,122020,2,331679,1,59.13,59.1300
7470646,7470646,205326,24000573222,"M2E Orders",m2eorders@startfitness.co.uk,24000041596,"2020-12-07 10:44:35",ES,2.5800,"Start Group
Start Group
Amazon USA","VR46 Kevin Schwantz 34 MotoGP Mens Top - White-S",,2.5800,20.0000,2.15000000,122020,122020,2,212204,1,2.15,2.1500
7450513,7450513,208540,AMZ24000583341,"M2E Orders",m2eorders@startfitness.co.uk,24000042449,"2020-12-31 11:35:24",ES,55.3400,"Start Group
Start Group
Amazon","Asics Gel Cumulus 22 GS Junior Running Shoes - Green-3",,55.3400,19.9913,46.12001037,122020,122020,5,368601,1,55.34,55.3400
