item_id,order_item_id,"Invoice ID","Order Number","Customer name",customer_email,"Credit Note No","Credit note Date",country_id,base_row_total_incl_tax,store_name,name,base_discount_amount,"Value less discount",tax_percent,"Net Discounted Amount","Return Date",month_year,value,product_id,customer_group_id,"net based on catalog vat","Net sales based on customer group"
7070430,7070430,201118,1900335870,"ursa koplan",ursula_surf@hotmail.com,1900028065,"2020-10-13 07:15:58",SI,29.0000,"Start Fitness
Fitness
Fitness Mobile","adidas Own The Run Womens Running Jacket - Pink",2.9000,26.1000,20.0000,21.75000000,102020,102020,2,352528,0,21.75,21.7500
7077736,7077736,201844,600787097,"Simon Kocjancic",simon_kocjancic@t-2.net,600072682,"2020-10-17 12:22:21",SI,20.0000,"Start Fitness
Fitness
SF English","More Mile Sonic Mens Tri Suit - Black",,20.0000,20.0000,16.66666667,102020,102020,2,103544,0,16.67,16.6700
7100850,7100850,200707,600789199,"Ales Berus",alesberus@gmail.com,600072333,"2020-10-08 13:10:04",SI,25.0000,"Start Fitness
Fitness
SF English","Asics Track And Field France Long Sleeve Mens Running Top",,25.0000,20.0000,20.83333333,102020,102020,2,372807,0,20.83,20.8300
7100852,7100852,200707,600789199,"Ales Berus",alesberus@gmail.com,600072333,"2020-10-08 13:10:04",SI,20.0000,"Start Fitness
Fitness
SF English","Asics Track And Field Long Sleeve Mens Running Top - Navy",,20.0000,20.0000,16.66666667,102020,102020,2,372597,0,16.67,16.6700
7103841,7103841,200588,600789526,"Tadej Križaj",tadej.krizaj@gmail.com,600072288,"2020-10-07 11:26:55",SI,70.0000,"Start Fitness
Fitness
SF English","Scott Trail MTN Merino Mens Cycling Jacket - Blue",7.0000,63.0000,20.0000,52.50000000,102020,102020,2,376521,1,52.50,52.5000
7154814,7154814,202965,1900343101,"Lea Belc",lea.belc@gmail.com,1900028547,"2020-10-27 10:40:52",SI,59.0000,"Start Fitness
Fitness
Fitness Mobile","Asics Gel Sonoma 5 GTX Womens Trail Running Shoes - Black",,59.0000,20.0000,49.16666667,102020,102020,2,351949,1,49.17,49.1700
7251975,7251975,201952,600804034,"Uros Znidarsic",uros.znidarsic@gmail.com,600072710,"2020-10-20 07:52:40",SI,17.0000,"Start Fitness
Fitness
SF English","GMTee Golf Winter Beanie Hat - Black",0.8500,16.1500,20.0000,13.45833333,102020,102020,2,242565,1,13.46,13.4600
7282573,7282573,203050,600807309,"Lara Omerzu",lara.omerzu@gmail.com,600073128,"2020-10-27 16:02:11",SI,19.9000,"Start Fitness
Fitness
SF English","adidas Core18 Mens Football Training Pants - Black",,19.9000,20.0000,16.58333333,102020,102020,2,314946,1,16.58,16.5800
