item_id,order_item_id,"Invoice ID","Order Number","Customer name",customer_email,"Credit Note No","Credit note Date",country_id,base_row_total_incl_tax,store_name,name,base_discount_amount,"Value less discount",tax_percent,"Net Discounted Amount","Return Date",month_year,value,product_id,customer_group_id,"net based on catalog vat","Net sales based on customer group"
7655148,7655148,218630,6000934372,"Melanie Gratton",melschilli15@gmail.com,6000070557,"2021-03-05 09:31:35",HU,83.2500,"Start Fitness
Fitness
SF English","Under Armour HOVR Apex 2 Womens Training Shoes - Black",,83.2500,0.0000,83.25000000,42021,32021,2,389579,0,69.38,69.3800
