item_id,order_item_id,"Invoice ID","Order Number","Customer name",customer_email,"Credit Note No","Credit note Date",country_id,base_row_total_incl_tax,store_name,name,base_discount_amount,"Value less discount",tax_percent,"Net Discounted Amount","Return Date",month_year,value,product_id,customer_group_id,"net based on catalog vat","Net sales based on customer group"
7508503,7508503,210682,AMZ24000585420,"M2E Orders",m2eorders@startfitness.co.uk,24000042712,"2021-01-15 12:06:05",DE,57.9200,"Start Group
Start Group
Amazon","SealSkinz Waterproof All Weather Insulated Mens Gloves - Black-M",,57.9200,16.0024,49.93000145,22021,12021,2,341782,1,48.27,48.2700
7372758,7372758,213075,AMZ24000575602,"M2E Orders",m2eorders@startfitness.co.uk,24000043002,"2021-01-27 09:29:12",DE,20.6400,"Start Group
Start Group
Amazon","TCA Thermal Warm-Up Funnel Neck Womens Long Sleeve Running Top - Grey-XS",,20.6400,15.9551,17.79999327,22021,12021,2,248411,1,17.20,17.2000
7411966,7411966,210918,6000877580,"Juratic  Marijan ",juratic@gmx.de,6000064765,"2021-01-16 10:10:56",DE,48.8000,"Start Fitness
Fitness
SF English","Scott RC Premium ITD Short Sleeve Mens Cycling Jersey - White",,48.8000,16.0000,42.06896552,22021,12021,2,361395,1,40.67,40.6700
7526035,7526035,213076,AMZ24000587742,"M2E Orders",m2eorders@startfitness.co.uk,24000043003,"2021-01-27 09:31:10",DE,51.6000,"Start Group
Start Group
Amazon","Asics Icon Mens Running Jacket - Yellow-L",,51.6000,16.0072,44.47999779,22021,12021,2,335572,1,43.00,43.0000
7667365,7667365,211043,6000938813,,simon.langen@gmail.com,6000064878,"2021-01-18 08:31:50",DE,41.6700,"Start Fitness
Fitness
SF English","Brooks Revel 3 Womens Running Shoes - Red",,41.6700,0.0000,41.67000000,22021,12021,2,326891,0,34.73,34.7300
7332598,7332598,213078,AMZ24000571862,"M2E Orders",m2eorders@startfitness.co.uk,24000043004,"2021-01-27 09:31:53",DE,9.2000,"Start Group
Start Group
Amazon","Muc-Off Nano Tech Bike Cleaner Concentrate Pouch - 500ml",,9.2000,15.9730,7.93288093,22021,12021,2,14837,1,7.67,7.6700
7676834,7676834,211108,6000941060,"DIMASOFT TESTING",speedking34@gmail.com,6000064931,"2021-01-18 10:46:18",DE,1.0000,"Start Fitness
Fitness
SF English","XIER KN95 Protective Face Mask 2 Pack - White-One Size",,1.0000,0.0000,1.00000000,22021,12021,2,365509,7,0.83,0.8300
7538768,7538768,213081,AMZ24000588918,"M2E Orders",m2eorders@startfitness.co.uk,24000043006,"2021-01-27 10:05:22",DE,167.5700,"Start Group
Start Group
Amazon","adidas Adizero Pro Mens Running Shoes - Blue-9.5",,167.5700,15.9975,144.46000991,22021,12021,2,372016,1,139.64,139.6400
7494603,7494603,208895,24000579727,"M2E Orders",m2eorders@startfitness.co.uk,24000041749,"2021-01-02 15:12:04",DE,25.8000,"Start Group
Start Group
Amazon USA","Asics Winter Womens Long Running Tights - Black-XL",,25.8000,16.0072,22.23999890,22021,12021,2,194740,1,21.50,21.5000
7531987,7531987,213082,AMZ24000588404,"M2E Orders",m2eorders@startfitness.co.uk,24000043007,"2021-01-27 10:08:47",DE,283.8000,"Start Group
Start Group
Amazon","Asics Gel Kayano 26 Mens Running Shoes - Black-8.5",,283.8000,15.9977,244.66002343,22021,12021,2,332986,1,236.50,236.5000
7596551,7596551,211138,EBY24000586056,"M2E Orders",m2eorders@startfitness.co.uk,24000042577,"2021-01-18 11:28:59",DE,11.2200,"Start Group
Start Group
eBay","Asics Onitsuka Tiger Mens Chino Shorts - Beige",,11.2200,20.0000,9.35000000,22021,12021,2,214373,1,9.35,9.3500
7593666,7593666,208921,EBY24000585938,"M2E Orders",0f0c6d48d784d3c93147@members.ebay.com,24000042304,"2021-01-04 09:37:24",DE,31.9200,"Start Group
Start Group
eBay","More Mile 9 Agility Training Cone - Red",,31.9200,20.0000,26.60000000,22021,12021,2,106988,1,26.60,26.6000
7357024,7357024,213084,AMZ24000574219,"M2E Orders",m2eorders@startfitness.co.uk,24000043008,"2021-01-27 10:15:57",DE,19.3500,"Start Group
Start Group
Amazon","Scott Trail Vertic (With Pad) Womens Cycling Shorts - Green-S",,19.3500,16.0072,16.67999917,22021,12021,2,362204,1,16.13,16.1300
7502302,7502302,211228,AMZ24000584621,"M2E Orders",m2eorders@startfitness.co.uk,24000042745,"2021-01-18 12:23:28",DE,127.7100,"Start Group
Start Group
Amazon","adidas Power Perfect lll Weightlifting Shoes - Black-10",,127.7100,16.0051,110.08998742,22021,12021,2,237510,1,106.43,106.4300
7437982,7437982,208942,EBY24000577689,"M2E Orders",00eb985c1d1098d81675@members.ebay.com,24000042320,"2021-01-04 11:45:35",DE,49.0000,"Start Group
Start Group
eBay","adidas ClimaHeat Mens Running Jacket - Black",,49.0000,20.0000,40.83333333,22021,12021,2,229873,1,40.83,40.8300
7522712,7522712,211242,AMZ24000587332,"M2E Orders",m2eorders@startfitness.co.uk,24000042755,"2021-01-18 12:28:20",DE,90.9200,"Start Group
Start Group
Amazon","adidas Terrex Agravic Mens Trail Running Shoes - Black-12.5",,90.9200,15.9990,78.37998603,22021,12021,2,356966,1,75.77,75.7700
7612200,7612200,209213,EBY24000586981,"M2E Orders",m2eorders@startfitness.co.uk,24000042388,"2021-01-06 13:48:46",DE,17.0000,"Start Group
Start Group
eBay","Sub Sports Cold Compression Thermal Womens Long Sleeve Top - Black",,17.0000,0.0000,17.00000000,22021,12021,2,365167,1,14.17,14.1700
7522535,7522535,213309,AMZ24000587310,"M2E Orders",m2eorders@startfitness.co.uk,24000043035,"2021-01-28 10:27:33",DE,25.6700,"Start Group
Start Group
Amazon","Puma PowerWarm Womens Running Tights - Black-M",,25.6700,15.9964,22.12999714,22021,12021,2,199798,1,21.39,21.3900
7442636,7442636,211301,AMZ24000582429,"M2E Orders",m2eorders@startfitness.co.uk,24000042774,"2021-01-18 14:17:58",DE,90.1700,"Start Group
Start Group
Amazon","Fox Defend Wind Mens Cycling Jacket - Black-XL",,90.1700,16.0041,77.73001127,22021,12021,2,356391,1,75.14,75.1400
7625353,7625353,209306,AMZ24000593643,"M2E Orders",m2eorders@startfitness.co.uk,24000042541,"2021-01-07 08:29:46",DE,64.9300,"Start Group
Start Group
Amazon","Asics Gel Pulse 11 Mens Running Shoes - Blue-7",,64.9300,0.0000,64.93000000,22021,12021,2,330465,1,54.11,54.1100
7719825,7719825,213416,EBY24000593371,"M2E Orders",m2eorders@startfitness.co.uk,24000042719,"2021-01-29 13:20:03",DE,15.0000,"Start Group
Start Group
eBay","Under Armour Threadborne Long Sleeve Mens Running Top - Navy",,15.0000,0.0000,15.00000000,22021,12021,2,389842,1,12.50,12.5000
7539234,7539234,211321,AMZ24000588945,"M2E Orders",m2eorders@startfitness.co.uk,24000042784,"2021-01-18 15:24:14",DE,108.3600,"Start Group
Start Group
Amazon","Asics Gel Cumulus 21 Womens Running Shoes - Green-7",,108.3600,16.0047,93.41000839,22021,12021,2,330940,1,90.30,90.3000
7431854,7431854,209321,EBY24000577283,"M2E Orders",m2eorders@startfitness.co.uk,24000042399,"2021-01-07 10:11:35",DE,22.3200,"Start Group
Start Group
eBay","Puma PowerWarm Womens Running Tights - Black",,22.3200,20.0000,18.60000000,22021,12021,2,199565,1,18.60,18.6000
7719827,7719827,213416,EBY24000593371,"M2E Orders",m2eorders@startfitness.co.uk,24000042719,"2021-01-29 13:20:03",DE,15.0000,"Start Group
Start Group
eBay","Under Armour Threadborne Long Sleeve Mens Running Top - Red",,15.0000,0.0000,15.00000000,22021,12021,2,389840,1,12.50,12.5000
7532776,7532776,211415,6000904727,,elena.mehl@web.de,6000065140,"2021-01-19 09:09:21",DE,164.2400,"Start Fitness
Fitness
SF English","Nike Romaleos 4 Weightlifting Shoes - White",16.4200,147.8200,16.0000,127.43103448,22021,12021,2,386459,0,123.18,123.1800
7520490,7520490,209331,AMZ24000587053,"M2E Orders",m2eorders@startfitness.co.uk,24000042543,"2021-01-07 10:54:35",DE,63.0800,"Start Group
Start Group
Amazon","Asics Patriot 12 Womens Running Shoes - Blue-6",,63.0800,15.9985,54.38001353,22021,12021,2,371538,1,52.57,52.5700
7402414,7402414,213532,AMZ24000578384,"M2E Orders",m2eorders@startfitness.co.uk,24000043041,"2021-01-30 10:39:43",DE,38.6900,"Start Group
Start Group
Amazon","Syncros RR2.0 Stem - Black-80mm",,38.6900,16.0120,33.34999828,22021,12021,2,287188,1,32.24,32.2400
7407257,7407257,211495,AMZ24000578850,"M2E Orders",m2eorders@startfitness.co.uk,24000042790,"2021-01-19 12:30:19",DE,64.5000,"Start Group
Start Group
Amazon","Saucony Kinvara 10 Womens Running Shoes - White-3",,64.5000,16.0072,55.59999724,22021,12021,2,350279,1,53.75,53.7500
7390987,7390987,209333,AMZ24000577250,"M2E Orders",m2eorders@startfitness.co.uk,24000042545,"2021-01-07 10:56:00",DE,16.6400,"Start Group
Start Group
Amazon","Under Armour MK1 7 Inch Mens Training Shorts - Blue-L",,16.6400,16.0391,14.33999402,22021,12021,2,350224,1,13.87,13.8700
7527771,7527771,213536,AMZ24000587947,"M2E Orders",m2eorders@startfitness.co.uk,24000043042,"2021-01-30 10:42:30",DE,51.6000,"Start Group
Start Group
Amazon","Asics Icon Mens Running Jacket - Yellow-L",,51.6000,16.0072,44.47999779,22021,12021,2,335572,1,43.00,43.0000
7302319,7302319,211502,AMZ24000568383,"M2E Orders",m2eorders@startfitness.co.uk,24000042791,"2021-01-19 12:43:17",DE,80.3900,"Start Group
Start Group
Amazon","Brooks Ricochet LE Mens Running Shoes - Black-8.5",,80.3900,16.0041,69.29927477,22021,12021,2,313355,1,66.99,66.9900
7303438,7303438,209417,AMZ24000568731,"M2E Orders",m2eorders@startfitness.co.uk,24000042561,"2021-01-07 15:58:51",DE,91.8900,"Start Group
Start Group
Amazon","adidas Adizero Discus / Hammer Field Event Spikes - Orange-10",,91.8900,16.0045,79.21244434,22021,12021,2,345969,1,76.58,76.5800
7524444,7524444,211786,AMZ24000587520,"M2E Orders",m2eorders@startfitness.co.uk,24000042840,"2021-01-20 11:49:53",DE,10.3100,"Start Group
Start Group
Amazon","Muc-Off Anti-Fog Mist Treatment Spray for Goggles and Glasses 32ml",,10.3100,15.9730,8.89000026,22021,12021,2,103652,1,8.59,8.5900
7328770,7328770,209418,AMZ24000571504,"M2E Orders",m2eorders@startfitness.co.uk,24000042562,"2021-01-07 15:59:33",DE,45.7700,"Start Group
Start Group
Amazon","SiS GO Electrolyte Drink Powder 1.6kg-Lemon & Lime",,45.7700,15.9964,39.45812111,22021,12021,2,9684,1,38.14,38.1400
7391107,7391107,212021,AMZ24000577266,"M2E Orders",m2eorders@startfitness.co.uk,24000042853,"2021-01-21 08:35:19",DE,108.3600,"Start Group
Start Group
Amazon","Salomon Advanced Skin 12 Set Backpack - Black-M-L",,108.3600,16.0047,93.41000839,22021,12021,2,291521,1,90.30,90.3000
7392952,7392952,209419,AMZ24000577463,"M2E Orders",m2eorders@startfitness.co.uk,24000042563,"2021-01-07 16:00:21",DE,12.9000,"Start Group
Start Group
Amazon","Sub Sports SubAir Seamless Womens Short Tights - Grey-XL",,12.9000,16.0072,11.11999945,22021,12021,2,326304,1,10.75,10.7500
7559813,7559813,212024,6000911219,,kevin_snoopy@icloud.com,6000065631,"2021-01-21 09:21:15",DE,107.3500,"Start Fitness
Fitness
SF English","Under Armour ColdGear Reactor Performance Mens Hybrid Jacket - Grey",,107.3500,16.0000,92.54310345,22021,12021,2,341895,0,89.46,89.4600
7338761,7338761,212073,AMZ24000572486,"M2E Orders",m2eorders@startfitness.co.uk,24000042855,"2021-01-21 11:36:23",DE,70.9500,"Start Group
Start Group
Amazon","Asics Lite Show 2 Winter Womens Long Running Tights - Black-S",,70.9500,16.0072,61.15999697,22021,12021,2,335909,1,59.13,59.1300
7392953,7392953,209419,AMZ24000577463,"M2E Orders",m2eorders@startfitness.co.uk,24000042563,"2021-01-07 16:00:21",DE,12.9000,"Start Group
Start Group
Amazon","Sub Sports Dual 2.0 Womens Compression Vest Tank Top - Black-XL",,12.9000,16.0072,11.11999945,22021,12021,2,358132,1,10.75,10.7500
7498516,7498516,212086,AMZ24000584154,"M2E Orders",m2eorders@startfitness.co.uk,24000042856,"2021-01-21 11:45:38",DE,108.3600,"Start Group
Start Group
Amazon","Asics Gel Cumulus 21 Womens Running Shoes - Green-5",,108.3600,16.0047,93.41000839,22021,12021,2,330936,1,90.30,90.3000
7392954,7392954,209419,AMZ24000577463,"M2E Orders",m2eorders@startfitness.co.uk,24000042563,"2021-01-07 16:00:21",DE,6.4500,"Start Group
Start Group
Amazon","Sub Sports SubAir Seamless Womens Vest Tank Top - Grey-M",,6.4500,16.0072,5.55999972,22021,12021,2,326296,1,5.38,5.3800
7527230,7527230,212103,AMZ24000587881,"M2E Orders",m2eorders@startfitness.co.uk,24000042857,"2021-01-21 12:19:19",DE,38.5700,"Start Group
Start Group
Amazon","adidas Prime Workout Mens Joggers - Black-L",,38.5700,16.0000,33.25000000,22021,12021,2,245499,1,32.14,32.1400
7629413,7629413,209447,AMZ24000593957,"M2E Orders",m2eorders@startfitness.co.uk,24000042564,"2021-01-08 08:26:33",DE,122.4500,"Start Group
Start Group
Amazon","Asics Gel Kayano 26 Lite Show Mens Running Shoes - Black-10.5",,122.4500,0.0000,122.45000000,22021,12021,2,348662,1,102.04,102.0400
7514212,7514212,212105,AMZ24000586210,"M2E Orders",m2eorders@startfitness.co.uk,24000042858,"2021-01-21 12:21:47",DE,37.4100,"Start Group
Start Group
Amazon","adidas ClimaProof 2.5L Waterproof Mens Track Rain Pants - Black-XL",,37.4100,16.0000,32.25000000,22021,12021,2,247188,1,31.18,31.1800
7626014,7626014,209450,AMZ24000593722,"M2E Orders",m2eorders@startfitness.co.uk,24000042565,"2021-01-08 09:03:40",DE,3.7700,"Start Group
Start Group
Amazon","Muc-Off Bio Chain Cleaner - 400ml",,3.7700,0.0000,3.77000000,22021,12021,2,14839,1,3.14,3.1400
7676756,7676756,212127,6000941040,"DIMASOFT TESTING",speedking34@gmail.com,6000065725,"2021-01-21 13:10:16",DE,1.0000,"Start Fitness
Fitness
SF English","XIER KN95 Protective Face Mask 2 Pack - White-One Size",,1.0000,0.0000,1.00000000,22021,12021,2,365509,7,0.83,0.8300
7435979,7435979,209452,AMZ24000581673,"M2E Orders",m2eorders@startfitness.co.uk,24000042566,"2021-01-08 10:23:30",DE,17.4000,"Start Group
Start Group
Amazon","Lezyne LED Femto USB Drive Rear Bike Light",,17.4000,16.0000,15.00000000,22021,12021,2,375999,1,14.50,14.5000
7676827,7676827,212128,6000941056,"DIMASOFT TESTING",speedking34@gmail.com,6000065726,"2021-01-21 13:10:33",DE,1.0000,"Start Fitness
Fitness
SF English","XIER KN95 Protective Face Mask 2 Pack - White-One Size",,1.0000,0.0000,1.00000000,22021,12021,2,365509,7,0.83,0.8300
7523454,7523454,209453,AMZ24000587404,"M2E Orders",m2eorders@startfitness.co.uk,24000042567,"2021-01-08 10:24:44",DE,12.9000,"Start Group
Start Group
Amazon","Sub Sports Dual All Season Womens Long Sleeve Compression Top - Black-XS",,12.9000,16.0072,11.11999945,22021,12021,2,365078,1,10.75,10.7500
7310401,7310401,212648,EBY24000569065,"M2E Orders",m2eorders@startfitness.co.uk,24000042649,"2021-01-25 09:08:09",DE,25.7900,"Start Group
Start Group
eBay","Asics Winter Womens Long Running Tights - Black",,25.7900,20.0000,21.49166667,22021,12021,2,194735,1,21.49,21.4900
7515210,7515210,209454,AMZ24000586341,"M2E Orders",m2eorders@startfitness.co.uk,24000042568,"2021-01-08 10:25:41",DE,83.7200,"Start Group
Start Group
Amazon","Under Armour ColdGear Qualifier IgNight Mens Running Hoody - Orange-M",,83.7200,16.0039,72.16998739,22021,12021,2,383868,1,69.77,69.7700
7511365,7511365,212846,AMZ24000585822,"M2E Orders",m2eorders@startfitness.co.uk,24000042964,"2021-01-25 14:55:47",DE,58.0500,"Start Group
Start Group
Amazon","adidas Adizero Avanti Boost Running Spikes - Black-UK 5½",,58.0500,16.0072,50.03999752,22021,12021,2,240635,1,48.38,48.3800
7511196,7511196,209981,AMZ24000585785,"M2E Orders",m2eorders@startfitness.co.uk,24000042615,"2021-01-11 11:57:36",DE,89.0100,"Start Group
Start Group
Amazon","adidas Nemeziz 17.1 Firm Ground Mens Football Boots - Blue-6",,89.0100,16.0042,76.72998047,22021,12021,2,227113,1,74.18,74.1800
7446063,7446063,212960,AMZ24000582761,"M2E Orders",m2eorders@startfitness.co.uk,24000042982,"2021-01-26 12:30:33",DE,12.9000,"Start Group
Start Group
Amazon","Sub Sports Dual All Season Mens Sleeveless Compression Top - Black-M",,12.9000,16.0072,11.11999945,22021,12021,2,365024,1,10.75,10.7500
7646819,7646819,210212,EBY24000588886,"M2E Orders",m2eorders@startfitness.co.uk,24000042493,"2021-01-12 15:44:09",DE,20.0000,"Start Group
Start Group
eBay","Brooks Run-Thru Mens Running Jacket - Black",,20.0000,20.0000,16.66666667,22021,12021,2,188430,1,16.67,16.6700
7693649,7693649,213014,AMZ24000599563,"M2E Orders",m2eorders@startfitness.co.uk,24000042986,"2021-01-26 15:37:01",DE,74.8000,"Start Group
Start Group
Amazon","Saucony Freedom ISO Womens Running Shoes - Grey-5",,74.8000,0.0000,74.80000000,22021,12021,2,244561,1,62.33,62.3300
7511019,7511019,210232,EBY24000582139,"M2E Orders",m2eorders@startfitness.co.uk,24000042502,"2021-01-12 16:51:46",DE,16.2700,"Start Group
Start Group
eBay","Sub Sports Cold Mens Compression Long Tights - Blue",,16.2700,16.0000,14.02586207,22021,12021,2,365147,1,13.56,13.5600
7402139,7402139,213067,AMZ24000578361,"M2E Orders",m2eorders@startfitness.co.uk,24000042995,"2021-01-27 09:16:58",DE,108.3600,"Start Group
Start Group
Amazon","Asics Gel Cumulus 21 Womens Running Shoes - Green-5.5",,108.3600,16.0047,93.41000839,22021,12021,2,330937,1,90.30,90.3000
7640955,7640955,210236,AMZ24000594735,"M2E Orders",m2eorders@startfitness.co.uk,24000042665,"2021-01-12 17:02:03",DE,96.4800,"Start Group
Start Group
Amazon","Reebok Nano X Mens Training Shoes - Black-8",,96.4800,0.0000,96.48000000,22021,12021,2,368520,1,80.40,80.4000
7463409,7463409,210420,24000571212,"M2E Orders",m2eorders@startfitness.co.uk,24000041809,"2021-01-14 10:55:47",DE,20.6400,"Start Group
Start Group
Amazon USA","Tokyo Laundry Xmas Happy New Beer Mens Christmas Jumper - Navy-L",,20.6400,16.0202,17.79000553,22021,12021,2,385622,1,17.20,17.2000
7403620,7403620,213070,AMZ24000578522,"M2E Orders",m2eorders@startfitness.co.uk,24000042997,"2021-01-27 09:21:47",DE,6.4500,"Start Group
Start Group
Amazon","Asics Winter Running Beanie Hat - Purple-L",,6.4500,16.0072,5.55999972,22021,12021,2,119548,1,5.38,5.3800
7540761,7540761,210424,AMZ24000589050,"M2E Orders",m2eorders@startfitness.co.uk,24000042678,"2021-01-14 11:09:57",DE,19.3500,"Start Group
Start Group
Amazon","Asics Onitsuka Tiger Mens Joggers - Grey-XL",,19.3500,16.0072,16.67999917,22021,12021,2,204319,1,16.13,16.1300
7546548,7546548,210653,AMZ24000589443,"M2E Orders",m2eorders@startfitness.co.uk,24000042709,"2021-01-15 10:59:35",DE,167.5700,"Start Group
Start Group
Amazon","Five Ten Trail Cross Mid Pro MTB Mens Cycling Shoes - Grey-9",,167.5700,15.9975,144.46000991,22021,12021,2,369330,1,139.64,139.6400
7494524,7494524,210669,24000579705,"M2E Orders",m2eorders@startfitness.co.uk,24000041821,"2021-01-15 11:24:19",DE,70.8200,"Start Group
Start Group
Amazon USA","Asics Lite-Show Winter Womens Long Running Tights - Black-S",,70.8200,16.0033,61.04998737,22021,12021,2,381193,1,59.02,59.0200
7508123,7508123,213074,AMZ24000585361,"M2E Orders",m2eorders@startfitness.co.uk,24000043001,"2021-01-27 09:28:32",DE,2.5800,"Start Group
Start Group
Amazon","Sub Sports Elite RX Womens Compression Arm Sleeves - Blue-XL",,2.5800,16.0072,2.22399989,22021,12021,2,213617,1,2.15,2.1500
7406475,7406475,210671,AMZ24000578772,"M2E Orders",m2eorders@startfitness.co.uk,24000042710,"2021-01-15 11:28:02",DE,50.3100,"Start Group
Start Group
Amazon","adidas Sprintstar Womens Running Spikes - Blue-5.5",,50.3100,16.0018,43.37001667,22021,12021,2,334610,1,41.93,41.9300
7508124,7508124,213074,AMZ24000585361,"M2E Orders",m2eorders@startfitness.co.uk,24000043001,"2021-01-27 09:28:32",DE,10.3200,"Start Group
Start Group
Amazon","Sub Sports Cold Thermal Compression Baselayer Mens Top - Blue-XL",,10.3200,16.0072,8.89599956,22021,12021,2,365128,1,8.60,8.6000
7503819,7503819,210674,AMZ24000584802,"M2E Orders",m2eorders@startfitness.co.uk,24000042711,"2021-01-15 11:30:56",DE,10.3200,"Start Group
Start Group
Amazon","TCA Thermal Warm-Up Funnel Neck Womens Long Sleeve Running Top - Grey-XS",,10.3200,15.9551,8.89999664,22021,12021,2,248411,1,8.60,8.6000
7508125,7508125,213074,AMZ24000585361,"M2E Orders",m2eorders@startfitness.co.uk,24000043001,"2021-01-27 09:28:32",DE,12.9000,"Start Group
Start Group
Amazon","Sub Sports Dual Compression Mens Boxer Shorts - Black-L",,12.9000,16.0072,11.11999945,22021,12021,2,365050,1,10.75,10.7500
7517422,7517422,213085,AMZ24000586662,"M2E Orders",m2eorders@startfitness.co.uk,24000043009,"2021-01-27 10:18:51",DE,60.0900,"Start Group
Start Group
Amazon","Scott Fuga Plus Rev Cycling Helmet - Grey-59-61cm",,60.0900,16.0039,51.79998259,22021,12021,10,376376,1,50.08,50.0800
7368161,7368161,213071,AMZ24000575261,"M2E Orders",m2eorders@startfitness.co.uk,24000042998,"2021-01-27 09:22:40",DE,6.4500,"Start Group
Start Group
Amazon","More Mile Girls Fleece Sweatshirt - Grey-13-14 Years",,6.4500,16.0072,5.55999972,22021,12021,11,301179,1,5.38,5.3800
7369275,7369275,213073,AMZ24000575318,"M2E Orders",m2eorders@startfitness.co.uk,24000043000,"2021-01-27 09:27:29",DE,16.7700,"Start Group
Start Group
Amazon","adidas Condivo 18 Junior Training Pants - Grey-13-14 Years",,16.7700,15.9751,14.46000047,22021,12021,11,364924,1,13.98,13.9800
