item_id,order_item_id,"Invoice ID","Order Number","Customer name",customer_email,"Credit Note No","Credit note Date",country_id,base_row_total_incl_tax,store_name,name,base_discount_amount,"Value less discount",tax_percent,"Net Discounted Amount","Return Date",month_year,value,product_id,customer_group_id,"net based on catalog vat","Net sales based on customer group"
7655349,7655349,217076,6000934427,"Jeanet Bloemert",Jeanetbloemert@gmail.com,6000069441,"2021-02-22 12:59:37",NL,74.1700,"Start Fitness
Fitness
SF English","Asics Gel Cumulus 21 Womens Running Shoes - Green",7.4200,66.7500,0.0000,66.75000000,22021,22021,2,330931,1,55.63,55.6300
7655351,7655351,217076,6000934427,"Jeanet Bloemert",Jeanetbloemert@gmail.com,6000069441,"2021-02-22 12:59:37",NL,65.8300,"Start Fitness
Fitness
SF English","Mizuno Wave Rider 23 Womens Running Shoes - Grey",6.5800,59.2500,0.0000,59.25000000,22021,22021,2,334672,1,49.38,49.3800
