entity_id,"Order number","Credit No","Credit Date","GBP Net goods after discount","GBP VAT on Goods","GBP Gross goods after discount",country_id,"Store Credit Used",store_name
174633,600711637,600064376,2020-03-05,12.5000,2.50,15.0000,FI,0.0000,"Start Fitness
Fitness
SF English"
176198,2400658027,2400051316,2020-03-25,38.1100,9.15,47.2600,FI,0.0000,"Start Group
Start Group
Amazon"
