entity_id,"Order number","Credit No","Credit Date","GBP Net goods after discount","GBP VAT on Goods","GBP Gross goods after discount",country_id,"Store Credit Used",store_name
176714,2500298297,2500015018,2020-04-01,20.8200,4.17,24.9900,IE,0.0000,"Start Group
Start Group
eBay"
177157,600712790,600064966,2020-04-08,45.0000,9.00,54.0000,IE,0.0000,"Start Fitness
Fitness
SF English"
177312,1900270665,1900022111,2020-04-09,41.6600,8.34,50.0000,IE,0.0000,"Start Fitness
Fitness
Fitness Mobile"
177419,2400673452,2400051795,2020-04-13,20.7900,4.78,25.5700,IE,0.0000,"Start Group
Start Group
Amazon"
177508,2400666126,2400051837,2020-04-14,229.7400,52.84,282.5800,IE,0.0000,"Start Group
Start Group
Amazon"
177530,600716754,600065057,2020-04-14,40.8300,8.17,49.0000,IE,0.0000,"Start Fitness
Fitness
SF English"
177556,600723447,600065068,2020-04-15,3.3300,0.66,3.9900,IE,0.0000,"Start Fitness
Fitness
SF English"
177754,2400660675,2400051905,2020-04-17,58.0300,13.37,71.4000,IE,0.0000,"Start Group
Start Group
Amazon"
177845,600725699,600065152,2020-04-17,80.9300,16.18,97.1100,IE,0.0000,"Start Fitness
Fitness
SF English"
178026,1900273388,1900022240,2020-04-20,89.9300,17.98,107.9100,IE,0.0000,"Start Fitness
Fitness
Fitness Mobile"
178056,1900274377,1900022254,2020-04-20,51.7500,10.35,62.1000,IE,0.0000,"Start Fitness
Fitness
Fitness Mobile"
178104,600726607,600065198,2020-04-21,0.0000,0.00,0.0000,IE,0.0000,"Start Fitness
Fitness
SF English"
178107,1900271276,1900022259,2020-04-21,52.4200,10.49,62.9100,IE,0.0000,"Start Fitness
Fitness
Fitness Mobile"
178150,1900272424,1900022265,2020-04-21,67.4300,13.48,80.9100,IE,0.0000,"Start Fitness
Fitness
Fitness Mobile"
178188,600727650,600065223,2020-04-21,82.5000,16.50,99.0000,IE,0.0000,"Start Fitness
Fitness
SF English"
178293,2500312341,2500015423,2020-04-22,66.4200,13.28,79.7000,IE,0.0000,"Start Group
Start Group
eBay"
178295,2500302313,2500015424,2020-04-22,62.4200,12.48,74.9000,IE,0.0000,"Start Group
Start Group
eBay"
178298,600727694,600065248,2020-04-22,15.0000,3.00,18.0000,IE,0.0000,"Start Fitness
Fitness
SF English"
178300,600727694,600065249,2020-04-22,26.2400,5.26,31.5000,IE,0.0000,"Start Fitness
Fitness
SF English"
178521,600719975,600065315,2020-04-24,41.1700,8.24,49.4100,IE,0.0000,"Start Fitness
Fitness
SF English"
178540,2400671132,2400052121,2020-04-24,104.0400,23.93,127.9700,IE,0.0000,"Start Group
Start Group
Amazon"
178583,600720799,600065327,2020-04-24,73.2500,14.65,87.9000,IE,0.0000,"Start Fitness
Fitness
SF English"
178585,1900271318,1900022365,2020-04-24,93.2500,18.65,111.9000,IE,0.0000,"Start Fitness
Fitness
Fitness Mobile"
178882,2400672023,2400052207,2020-04-27,83.2900,19.16,102.4500,IE,0.0000,"Start Group
Start Group
Amazon"
178921,1900277427,1900022454,2020-04-27,10.0000,2.00,12.0000,IE,0.0000,"Start Fitness
Fitness
Fitness Mobile"
178943,600720832,600065443,2020-04-27,65.8300,13.17,79.0000,IE,0.0000,"Start Fitness
Fitness
SF English"
178984,2400671042,2400052235,2020-04-27,53.2900,12.26,65.5500,IE,0.0000,"Start Group
Start Group
Amazon"
179002,600722197,600065455,2020-04-27,56.2500,11.25,67.5000,IE,0.0000,"Start Fitness
Fitness
SF English"
179032,600722981,600065465,2020-04-28,52.4200,10.49,62.9100,IE,0.0000,"Start Fitness
Fitness
SF English"
179066,2400662203,2400052249,2020-04-28,69.9600,16.09,86.0500,IE,0.0000,"Start Group
Start Group
Amazon"
179256,1900278629,1900022540,2020-04-29,43.2500,8.65,51.9000,IE,0.0000,"Start Fitness
Fitness
Fitness Mobile"
