item_id,order_item_id,"Invoice ID","Order Number","Customer name",customer_email,"Credit Note No","Credit note Date",country_id,base_row_total_incl_tax,store_name,name,base_discount_amount,"Value less discount",tax_percent,"Net Discounted Amount","Return Date",month_year,value,product_id,customer_group_id,"net based on catalog vat","Net sales based on customer group"
7311936,7311936,207092,AMZ24000569846,"M2E Orders",m2eorders@startfitness.co.uk,24000042232,"2020-12-18 15:15:32",DE,40.2500,"Start Group
Start Group
Amazon","Puma Manilla GTX Mens Trainers - Green-8",,40.2500,16.0072,34.69612231,122020,122020,2,354856,1,33.54,33.5400
7372657,7372657,206475,AMZ24000575591,"M2E Orders",m2eorders@startfitness.co.uk,24000042056,"2020-12-15 11:15:51",DE,127.7100,"Start Group
Start Group
Amazon","Mizuno Wave Inspire 16 Womens Running Shoes - Black-7.5",,127.7100,16.0051,110.08998742,122020,122020,2,351724,1,106.43,106.4300
7465266,7465266,208519,24000571682,"M2E Orders",m2eorders@startfitness.co.uk,24000041706,"2020-12-31 11:06:49",DE,19.3500,"Start Group
Start Group
Amazon USA","Sub Sports Cold Mens Compression Long Tights - Black-L",,19.3500,16.0072,16.67999917,122020,122020,2,365143,1,16.13,16.1300
7342418,7342418,206347,AMZ24000572876,"M2E Orders",m2eorders@startfitness.co.uk,24000042030,"2020-12-14 16:48:05",DE,77.2700,"Start Group
Start Group
Amazon","adidas Varilite Soft Hood Mens Jacket - Green-M",,77.2700,16.0036,66.61000176,122020,122020,2,313780,1,64.39,64.3900
7419155,7419155,207429,AMZ24000579930,"M2E Orders",m2eorders@startfitness.co.uk,24000042312,"2020-12-21 10:24:13",DE,25.8000,"Start Group
Start Group
Amazon","Under Armour Vanish Seamless Mens Long Sleeve Training Top - Black-M",,25.8000,16.0072,22.23999890,122020,122020,2,302437,1,21.50,21.5000
7312214,7312214,206360,AMZ24000569872,"M2E Orders",m2eorders@startfitness.co.uk,24000042037,"2020-12-14 16:57:45",DE,28.6400,"Start Group
Start Group
Amazon","Zone3 Neoprene Swim Socks - Black-6 - 10",,28.6400,15.9986,24.68995315,122020,122020,2,328363,1,23.87,23.8700
7374872,7374872,206351,AMZ24000575743,"M2E Orders",m2eorders@startfitness.co.uk,24000042033,"2020-12-14 16:50:46",DE,127.7100,"Start Group
Start Group
Amazon","adidas Ultra Boost 4.0 Womens Running Shoes - Red-7",,127.7100,16.0051,110.08998742,122020,122020,2,310370,1,106.43,106.4300
7466243,7466243,207434,24000571966,"M2E Orders",m2eorders@startfitness.co.uk,24000041667,"2020-12-21 10:26:11",DE,38.7000,"Start Group
Start Group
Amazon USA","Salming Runergy Womens Running Shoes - White-5.5",,38.7000,16.0072,33.35999834,122020,122020,2,372199,1,32.25,32.2500
7344805,7344805,207345,EBY24000571821,"M2E Orders",m2eorders@startfitness.co.uk,24000042151,"2020-12-19 15:18:15",DE,22.3200,"Start Group
Start Group
eBay","Puma PowerWarm Womens Running Tights - Black",,22.3200,20.0000,18.60000000,122020,122020,2,199565,1,18.60,18.6000
7420498,7420498,206310,AMZ24000580035,"M2E Orders",m2eorders@startfitness.co.uk,24000042001,"2020-12-14 16:12:52",DE,49.9200,"Start Group
Start Group
Amazon","Asics Icon Mens Running Jacket - Yellow-L",,49.9200,16.0121,43.02999429,122020,122020,2,335572,1,41.60,41.6000
7314175,7314175,206307,AMZ24000570112,"M2E Orders",m2eorders@startfitness.co.uk,24000041998,"2020-12-14 16:09:55",DE,80.3900,"Start Group
Start Group
Amazon","Reebok Crossfit Nano 9.0 Mens Training Shoes - White-8",,80.3900,16.0041,69.29927477,122020,122020,2,349475,1,66.99,66.9900
7377451,7377451,206330,AMZ24000575967,"M2E Orders",m2eorders@startfitness.co.uk,24000042016,"2020-12-14 16:32:11",DE,148.3400,"Start Group
Start Group
Amazon","Asics Gel Nimbus 22 Womens Running Shoes - Pink-7.5",,148.3400,15.9994,127.87997179,122020,122020,2,374404,1,123.62,123.6200
7467307,7467307,207908,6000889748,,kerstin.boecker@gmx.de,6000062527,"2020-12-23 10:01:46",DE,72.4000,"Start Fitness
Fitness
SF English","adidas Box Hog 3 Mens Boxing Shoes - Black",,72.4000,16.0000,62.41379310,122020,122020,2,334195,0,60.33,60.3300
7347132,7347132,206507,AMZ24000573227,"M2E Orders",m2eorders@startfitness.co.uk,24000042076,"2020-12-15 12:45:01",DE,90.3000,"Start Group
Start Group
Amazon","adidas Pulse Boost HD Winter Mens Running Shoes - Black-9",,90.3000,16.0072,77.83999614,122020,122020,2,342355,1,75.25,75.2500
7420545,7420545,207639,AMZ24000580047,"M2E Orders",m2eorders@startfitness.co.uk,24000042343,"2020-12-22 12:09:41",DE,49.9200,"Start Group
Start Group
Amazon","Asics Icon Mens Running Jacket - Yellow-L",,49.9200,16.0121,43.02999429,122020,122020,2,335572,1,41.60,41.6000
7314376,7314376,205916,AMZ24000570130,"M2E Orders",m2eorders@startfitness.co.uk,24000041930,"2020-12-11 12:06:24",DE,113.8500,"Start Group
Start Group
Amazon","adidas Power Perfect lll Weightlifting Shoes - Black-8",,113.8500,16.0000,98.14655172,122020,122020,2,237506,1,94.88,94.8800
7377470,7377470,206371,AMZ24000575972,"M2E Orders",m2eorders@startfitness.co.uk,24000042044,"2020-12-14 17:19:28",DE,141.9000,"Start Group
Start Group
Amazon","Asics Gel Kayano 26 Mens Running Shoes - Black-10.5",,141.9000,15.9977,122.33001172,122020,122020,2,332990,1,118.25,118.2500
7469703,7469703,207647,24000572998,"M2E Orders",m2eorders@startfitness.co.uk,24000041679,"2020-12-22 12:16:19",DE,83.8400,"Start Group
Start Group
Amazon USA","Mizuno Wave Paradox 5 Womens Running Shoes - Grey-6.5",,83.8400,16.0002,72.27573746,122020,122020,2,335055,1,69.87,69.8700
7347313,7347313,206357,AMZ24000573245,"M2E Orders",m2eorders@startfitness.co.uk,24000042036,"2020-12-14 16:54:13",DE,18.0600,"Start Group
Start Group
Amazon","Puma Pro Training II Large Holdall - Black",,18.0600,15.9923,15.56999904,122020,122020,2,353238,1,15.05,15.0500
7421872,7421872,206366,AMZ24000580158,"M2E Orders",m2eorders@startfitness.co.uk,24000042041,"2020-12-14 17:02:05",DE,82.1000,"Start Group
Start Group
Amazon","adidas Terrex Speed LD Womens Trail Running Shoes - Orange-5",,82.1000,15.9932,70.78001124,122020,122020,2,343824,1,68.42,68.4200
7179244,7179244,206302,2400765708,"Max Turek",h4j64bpspgyr4h9@marketplace.amazon.de,24000041995,"2020-12-14 15:42:05",DE,80.3900,"Start Group
Start Group
Amazon","Reebok Crossfit Nano 9.0 Womens Training Shoes - Black-8",,80.3900,16.0041,69.29927477,122020,122020,2,335834,0,66.99,66.9900
7348547,7348547,206334,AMZ24000573355,"M2E Orders",m2eorders@startfitness.co.uk,24000042018,"2020-12-14 16:34:25",DE,140.6100,"Start Group
Start Group
Amazon","adidas My Shelter Rain Mens Waterproof Jacket - Yellow-L",,140.6100,15.9957,121.22001074,122020,122020,2,375349,1,117.18,117.1800
7425510,7425510,206997,AMZ24000580618,"M2E Orders",m2eorders@startfitness.co.uk,24000042206,"2020-12-17 17:16:46",DE,37.7200,"Start Group
Start Group
Amazon","Puma evoStripe Mens Training Hoody - Green-L",,37.7200,15.9902,32.51998876,122020,122020,2,355422,1,31.43,31.4300
7315869,7315869,206462,AMZ24000570245,"M2E Orders",m2eorders@startfitness.co.uk,24000042052,"2020-12-15 10:57:59",DE,17.2500,"Start Group
Start Group
Amazon","Sub Sports Dual 2.0 Mens Compression Running Tights - Blue-L",,17.2500,16.0072,14.86976670,122020,122020,2,368145,1,14.38,14.3800
7378488,7378488,206306,AMZ24000576067,"M2E Orders",m2eorders@startfitness.co.uk,24000041997,"2020-12-14 16:08:56",DE,38.5700,"Start Group
Start Group
Amazon","HUUB Neoprene Swimming Skull Cap - Black-L",,38.5700,16.0000,33.25000000,122020,122020,2,357070,1,32.14,32.1400
7470228,7470228,207074,24000573128,"M2E Orders",m2eorders@startfitness.co.uk,24000041659,"2020-12-18 13:15:55",DE,12.9000,"Start Group
Start Group
Amazon USA","Sub Sports Cold Thermal Fitted Long Sleeve Funnel Neck Womens Running Top - Black-L",,12.9000,15.9975,11.12092933,122020,122020,2,387651,1,10.75,10.7500
7183486,7183486,204910,600797291,"Juan C. Fries",jcf@start-fitness.i-mailing.de,6000060578,"2020-12-03 09:50:49",DE,29.9000,"Start Fitness
Fitness
SF English","Reebok Crossfit Hybrid Mens Training Shorts - Black",,29.9000,20.0000,24.91666667,122020,122020,2,355494,1,24.92,24.9200
7348790,7348790,206325,AMZ24000573384,"M2E Orders",m2eorders@startfitness.co.uk,24000042013,"2020-12-14 16:25:36",DE,50.3100,"Start Group
Start Group
Amazon","Salomon Agile 12 Set Hydration Backpack - Black",,50.3100,16.0018,43.37001667,122020,122020,2,169099,1,41.93,41.9300
7425936,7425936,206316,AMZ24000580673,"M2E Orders",m2eorders@startfitness.co.uk,24000042007,"2020-12-14 16:19:10",DE,148.3400,"Start Group
Start Group
Amazon","Asics Gel Nimbus 22 Womens Running Shoes - Pink-6.5",,148.3400,15.9994,127.87997179,122020,122020,2,374402,1,123.62,123.6200
7315879,7315879,206356,AMZ24000570247,"M2E Orders",m2eorders@startfitness.co.uk,24000042035,"2020-12-14 16:53:17",DE,17.2500,"Start Group
Start Group
Amazon","Regatta Questra Stretch Softshell Mens Short Walking Trousers - Blue-42",,17.2500,16.0072,14.86976670,122020,122020,2,346924,1,14.38,14.3800
7379894,7379894,205584,AMZ24000576189,"M2E Orders",m2eorders@startfitness.co.uk,24000041881,"2020-12-09 12:31:39",DE,19.3500,"Start Group
Start Group
Amazon","Sub Sports Core 2 In 1 Mens Training Shorts - Black -S",,19.3500,16.0072,16.67999917,122020,122020,2,363303,1,16.13,16.1300
7470952,7470952,207635,24000573304,"M2E Orders",m2eorders@startfitness.co.uk,24000041678,"2020-12-22 12:06:56",DE,37.4100,"Start Group
Start Group
Amazon USA","Under Armour HeatGear Rush Run Womens Running Tights - Black-M",,37.4100,16.0000,32.25000000,122020,122020,2,350236,1,31.18,31.1800
7183488,7183488,204910,600797291,"Juan C. Fries",jcf@start-fitness.i-mailing.de,6000060578,"2020-12-03 09:50:49",DE,22.0000,"Start Fitness
Fitness
SF English","Reebok Crossfit Speed Mens Training Shorts - Orange",,22.0000,20.0000,18.33333333,122020,122020,2,324763,1,18.33,18.3300
7348910,7348910,206315,AMZ24000573393,"M2E Orders",m2eorders@startfitness.co.uk,24000042006,"2020-12-14 16:18:27",DE,76.1100,"Start Group
Start Group
Amazon","Vibram FiveFingers Trek Ascent Womens Trail Running Shoes - Black-7",,76.1100,16.0037,65.60997623,122020,122020,2,363699,1,63.43,63.4300
7427731,7427731,206340,AMZ24000580838,"M2E Orders",m2eorders@startfitness.co.uk,24000042024,"2020-12-14 16:40:21",DE,45.1500,"Start Group
Start Group
Amazon","Reebok TrainFlex 2.0 Mens Training Shoes - Black-9.5",,45.1500,16.0072,38.91999807,122020,122020,2,304959,1,37.63,37.6300
7315921,7315921,206498,AMZ24000570253,"M2E Orders",m2eorders@startfitness.co.uk,24000042068,"2020-12-15 12:34:06",DE,33.3500,"Start Group
Start Group
Amazon","adidas ClimaProof 2.5L Waterproof Mens Track Rain Pants - Black-XL",,33.3500,16.0000,28.75000000,122020,122020,2,247188,1,27.79,27.7900
7381780,7381780,206821,AMZ24000576355,"M2E Orders",m2eorders@startfitness.co.uk,24000042177,"2020-12-17 10:06:17",DE,101.9100,"Start Group
Start Group
Amazon","adidas Pulse Boost HD Mens Running Shoes - Grey-11.5",,101.9100,16.0046,87.84996457,122020,122020,2,336344,1,84.93,84.9300
7470953,7470953,208041,24000573306,"M2E Orders",m2eorders@startfitness.co.uk,24000041689,"2020-12-23 15:47:16",DE,167.6300,"Start Group
Start Group
Amazon USA","Brand-X Ascend Dropper Seatpost 170mm - Black-30.9",,167.6300,15.9989,144.50999104,122020,122020,2,360728,1,139.69,139.6900
7191742,7191742,208525,2400766811,"Dr. Ahmet Örnek",19zq8dwvmgz4v4y@marketplace.amazon.de,24000042440,"2020-12-31 11:17:51",DE,52.7400,"Start Group
Start Group
Amazon","adidas Adizero Rio Shotput 2 Field Event Spikes - Red-15",,52.7400,16.0031,45.46430225,122020,122020,2,298295,0,43.95,43.9500
7350185,7350185,206329,AMZ24000573524,"M2E Orders",m2eorders@startfitness.co.uk,24000042015,"2020-12-14 16:31:04",DE,32.2500,"Start Group
Start Group
Amazon","adidas Supernova Half Zip Womens Long Sleeve Running Top - Blue-XXS",,32.2500,16.0072,27.79999862,122020,122020,2,232150,1,26.88,26.8800
7317356,7317356,206623,AMZ24000570398,"M2E Orders",m2eorders@startfitness.co.uk,24000042128,"2020-12-16 10:39:44",DE,28.7500,"Start Group
Start Group
Amazon","Salming Speed S1 Mens Running Shoes - Blue-11.5",,28.7500,16.0072,24.78294451,122020,122020,2,231344,1,23.96,23.9600
7382630,7382630,206339,AMZ24000576436,"M2E Orders",m2eorders@startfitness.co.uk,24000042023,"2020-12-14 16:39:33",DE,8.3800,"Start Group
Start Group
Amazon","Mizuno Reflective Mens Running Gilet - Black-L",,8.3800,16.0665,7.21999888,122020,122020,2,223699,1,6.98,6.9800
7476600,7476600,205464,24000574982,"M2E Orders",m2eorders@startfitness.co.uk,24000041609,"2020-12-08 08:42:03",DE,66.8200,"Start Group
Start Group
Amazon USA","Under Armour Sports Face Mask - Grey-L-XL",,66.8200,16.0069,57.60002207,122020,122020,2,385667,1,55.68,55.6800
7283943,7283943,204734,2400775406,"Volker Dietrich",zsf4xdqm7dkr68d@marketplace.amazon.de,24000041787,"2020-12-01 12:37:04",DE,46.0000,"Start Group
Start Group
Amazon","Saucony Fastwitch 8 Womens Running Shoes - Orange-5",,46.0000,16.0072,39.65271121,122020,122020,2,200364,0,38.33,38.3300
7350472,7350472,206491,AMZ24000573558,"M2E Orders",m2eorders@startfitness.co.uk,24000042062,"2020-12-15 11:57:01",DE,114.8100,"Start Group
Start Group
Amazon","Mizuno Wave Horizon 4 Womens Running Shoes - Black-4",,114.8100,16.0048,98.97004262,122020,122020,2,354783,1,95.68,95.6800
7429156,7429156,207407,AMZ24000580977,"M2E Orders",m2eorders@startfitness.co.uk,24000042307,"2020-12-21 10:01:49",DE,93.1100,"Start Group
Start Group
Amazon","Mizuno Wave Rider 23 Mens Running Shoes - Black-14",,93.1100,15.9960,80.27000931,122020,122020,2,366809,1,77.59,77.5900
7317646,7317646,208526,AMZ24000570429,"M2E Orders",m2eorders@startfitness.co.uk,24000042441,"2020-12-31 11:20:27",DE,112.7100,"Start Group
Start Group
Amazon","adidas Solar Boost 19 Womens Running Shoes - Blue-9",,112.7100,16.0029,97.16136407,122020,122020,2,346242,1,93.93,93.9300
7384373,7384373,207750,AMZ24000576601,"M2E Orders",m2eorders@startfitness.co.uk,24000042355,"2020-12-22 13:58:05",DE,96.6200,"Start Group
Start Group
Amazon","adidas Powerlift 4.0 Womens Weightlifting Shoes - Pink-6.5",,96.6200,16.0043,83.29001597,122020,122020,2,335680,1,80.52,80.5200
7476949,7476949,205346,EBY24000580339,"M2E Orders",m2eorders@startfitness.co.uk,24000041989,"2020-12-07 12:03:12",DE,31.4100,"Start Group
Start Group
eBay","adidas AlphaSkin Sport+ 3 Stripe Mens Long Training Tights - White",,31.4100,20.0000,26.17500000,122020,122020,2,367052,1,26.18,26.1800
7300023,7300023,205924,AMZ24000567901,"M2E Orders",m2eorders@startfitness.co.uk,24000041932,"2020-12-11 12:43:00",DE,68.8800,"Start Group
Start Group
Amazon","adidas Varilite Soft Hood Mens Jacket - Green-M",,68.8800,16.0036,59.37746760,122020,122020,2,313780,1,57.40,57.4000
7351152,7351152,205014,AMZ24000573636,"M2E Orders",m2eorders@startfitness.co.uk,24000041833,"2020-12-04 09:44:25",DE,17.9300,"Start Group
Start Group
Amazon","Lezyne LED Femto USB Drive Rear Bike Light",,17.9300,15.9767,15.46000188,122020,122020,2,375999,1,14.94,14.9400
7433914,7433914,206337,AMZ24000581423,"M2E Orders",m2eorders@startfitness.co.uk,24000042021,"2020-12-14 16:37:39",DE,50.3100,"Start Group
Start Group
Amazon","Puma Manilla GTX Mens Trainers - Green-8",,50.3100,16.0018,43.37001667,122020,122020,2,354856,1,41.93,41.9300
7317959,7317959,205013,AMZ24000570448,"M2E Orders",m2eorders@startfitness.co.uk,24000041832,"2020-12-04 09:42:06",DE,31.0500,"Start Group
Start Group
Amazon","adidas 3 Stripe ClimaWarm Mens Training Pants - Black-L",,31.0500,15.9840,26.77093392,122020,122020,2,343836,1,25.88,25.8800
7385768,7385768,205070,AMZ24000576735,"M2E Orders",m2eorders@startfitness.co.uk,24000041838,"2020-12-04 12:41:22",DE,51.6000,"Start Group
Start Group
Amazon","Asics Icon Mens Running Jacket - Yellow-M",,51.6000,16.0072,44.47999779,122020,122020,2,335571,1,43.00,43.0000
7479407,7479407,207428,24000575685,"M2E Orders",m2eorders@startfitness.co.uk,24000041666,"2020-12-21 10:23:13",DE,51.6000,"Start Group
Start Group
Amazon USA","Asics Icon Mens Running Jacket - Yellow-M",,51.6000,16.0072,44.47999779,122020,122020,2,335571,1,43.00,43.0000
7300032,7300032,206646,AMZ24000567908,"M2E Orders",m2eorders@startfitness.co.uk,24000042132,"2020-12-16 11:23:54",DE,57.3900,"Start Group
Start Group
Amazon","adidas Sprintstar Womens Running Spikes - Black-5.5",,57.3900,16.0029,49.47290111,122020,122020,2,334598,1,47.83,47.8300
7351888,7351888,206369,EBY24000572430,"M2E Orders",m2eorders@startfitness.co.uk,24000042060,"2020-12-14 17:09:38",DE,22.3200,"Start Group
Start Group
eBay","Puma PowerWarm Womens Running Tights - Black",,22.3200,20.0000,18.60000000,122020,122020,2,199565,1,18.60,18.6000
7434512,7434512,206514,AMZ24000581483,"M2E Orders",m2eorders@startfitness.co.uk,24000042083,"2020-12-15 12:52:14",DE,77.2700,"Start Group
Start Group
Amazon","adidas Speedex 18 Boxing Shoes - Red-5.5",,77.2700,16.0036,66.61000176,122020,122020,2,340204,1,64.39,64.3900
7318037,7318037,205016,AMZ24000570453,"M2E Orders",m2eorders@startfitness.co.uk,24000041835,"2020-12-04 09:47:38",DE,14.9500,"Start Group
Start Group
Amazon","adidas Classic Badge Of Sport Backpack - Navy",,14.9500,15.9751,12.89069809,122020,122020,2,337089,1,12.46,12.4600
7386811,7386811,207057,AMZ24000576818,"M2E Orders",m2eorders@startfitness.co.uk,24000042227,"2020-12-18 12:33:37",DE,25.6700,"Start Group
Start Group
Amazon","adidas ClimaCool Mens Workout Training Pants - Black-XXL",,25.6700,15.9964,22.12999714,122020,122020,2,367413,1,21.39,21.3900
7300044,7300044,207076,AMZ24000567920,"M2E Orders",m2eorders@startfitness.co.uk,24000042230,"2020-12-18 13:34:31",DE,86.1300,"Start Group
Start Group
Amazon","adidas Powerlift 4.0 Mens Weightlifting Shoes - Black-11",,86.1300,16.0043,74.24724773,122020,122020,2,349308,1,71.78,71.7800
7352103,7352103,208247,EBY24000572443,"M2E Orders",m2eorders@startfitness.co.uk,24000042251,"2020-12-29 09:21:28",DE,8.9700,"Start Group
Start Group
eBay","Reebok Crossfit Printed Crew Training Socks - Black",,8.9700,20.0000,7.47500000,122020,122020,2,322333,1,7.48,7.4800
7434799,7434799,206888,AMZ24000581519,"M2E Orders",m2eorders@startfitness.co.uk,24000042182,"2020-12-17 12:35:19",DE,57.9200,"Start Group
Start Group
Amazon","Under Armour Storm Launch 2.0 Mens Running Jacket - Black-M",,57.9200,16.0024,49.93000145,122020,122020,2,354300,1,48.27,48.2700
7318496,7318496,205303,EBY24000569764,"M2E Orders",m2eorders@startfitness.co.uk,24000041961,"2020-12-07 10:20:51",DE,50.8000,"Start Group
Start Group
eBay","adidas Response Warm Mens Cycling Bib Tights - Black",,50.8000,20.0000,42.33333333,122020,122020,2,321334,1,42.33,42.3300
7390142,7390142,207018,AMZ24000577181,"M2E Orders",m2eorders@startfitness.co.uk,24000042212,"2020-12-18 09:41:00",DE,12.9000,"Start Group
Start Group
Amazon","Sub Sports Cold Thermal Womens Long Running Tights - Black-XL",,12.9000,16.0072,11.11999945,122020,122020,2,365187,1,10.75,10.7500
7495060,7495060,207650,24000579837,"M2E Orders",m2eorders@startfitness.co.uk,24000041680,"2020-12-22 12:17:55",DE,55.6400,"Start Group
Start Group
Amazon USA","Scott Sport Trail Mens Cycling Shoes - Grey-EU45",,55.6400,15.9892,47.96998341,122020,122020,2,377124,1,46.37,46.3700
7300056,7300056,204732,AMZ24000567931,"M2E Orders",m2eorders@startfitness.co.uk,24000041786,"2020-12-01 12:21:27",DE,136.8400,"Start Group
Start Group
Amazon","Five Ten Hellcat Pro MTB Cycling Shoes - Black-10.5",,136.8400,15.9979,117.96765286,122020,122020,2,318596,1,114.03,114.0300
7352908,7352908,206494,AMZ24000573797,"M2E Orders",m2eorders@startfitness.co.uk,24000042065,"2020-12-15 12:08:01",DE,46.4400,"Start Group
Start Group
Amazon","adidas Believe This Camouflage Jacquard Womens Long Training Tights - Black-M",,46.4400,16.0130,40.02999664,122020,122020,2,345003,1,38.70,38.7000
7437775,7437775,208522,AMZ24000581889,"M2E Orders",m2eorders@startfitness.co.uk,24000042438,"2020-12-31 11:12:15",DE,25.4800,"Start Group
Start Group
Amazon","Under Armour Liner 2.0 Running Gloves - Black-M",,25.4800,15.9763,21.97000594,122020,122020,2,311583,1,21.23,21.2300
7318603,7318603,206616,AMZ24000570500,"M2E Orders",m2eorders@startfitness.co.uk,24000042125,"2020-12-16 10:29:00",DE,128.6900,"Start Group
Start Group
Amazon","Inov8 Terraultra G 260 Mens Trail Running Shoes - Green-9",,128.6900,15.9997,110.93994209,122020,122020,2,352028,1,107.24,107.2400
7395335,7395335,206373,AMZ24000577681,"M2E Orders",m2eorders@startfitness.co.uk,24000042046,"2020-12-14 17:24:21",DE,12.9000,"Start Group
Start Group
Amazon","Sub Sports Dual 2.0 Womens Long Sleeve Compression Top - Black-XS",,12.9000,16.0072,11.11999945,122020,122020,2,368280,1,10.75,10.7500
7498218,7498218,206286,AMZ24000584112,"M2E Orders",m2eorders@startfitness.co.uk,24000041991,"2020-12-14 13:50:48",DE,10.3200,"Start Group
Start Group
Amazon","TCA Thermal Warm-Up Funnel Neck Womens Long Sleeve Running Top - Blue-XS",,10.3200,15.9551,8.89999664,122020,122020,2,246529,1,8.60,8.6000
7300126,7300126,206520,AMZ24000567955,"M2E Orders",m2eorders@startfitness.co.uk,24000042087,"2020-12-15 13:39:40",DE,27.6000,"Start Group
Start Group
Amazon","Under Armour Streaker Womens Long Sleeve Running Top - Black-XL",,27.6000,15.9985,23.79341112,122020,122020,2,307414,1,23.00,23.0000
7353836,7353836,206495,AMZ24000573882,"M2E Orders",m2eorders@startfitness.co.uk,24000042066,"2020-12-15 12:08:52",DE,90.1700,"Start Group
Start Group
Amazon","Brooks Ricochet LE Mens Running Shoes - Black-9",,90.1700,16.0041,77.73001127,122020,122020,2,313356,1,75.14,75.1400
7438522,7438522,206776,AMZ24000581971,"M2E Orders",m2eorders@startfitness.co.uk,24000042142,"2020-12-16 17:27:30",DE,166.4000,"Start Group
Start Group
Amazon","Asics Gel Kayano 27 Mens Running Shoes - Black-12",,166.4000,15.9986,143.45000716,122020,122020,2,371012,1,138.67,138.6700
7322601,7322601,206485,AMZ24000570908,"M2E Orders",m2eorders@startfitness.co.uk,24000042060,"2020-12-15 11:40:02",DE,80.5000,"Start Group
Start Group
Amazon","Brooks Glycerin 16 Womens Running Shoes - Pink-3.5",,80.5000,16.0072,69.39224462,122020,122020,2,294764,1,67.08,67.0800
7395336,7395336,207643,AMZ24000577681,"M2E Orders",m2eorders@startfitness.co.uk,24000042344,"2020-12-22 12:11:32",DE,12.9000,"Start Group
Start Group
Amazon","Sub Sports Dual All Season Womens Long Sleeve Compression Top - Black-XS",,12.9000,16.0072,11.11999945,122020,122020,2,365078,1,10.75,10.7500
7498639,7498639,205842,AMZ24000584170,"M2E Orders",m2eorders@startfitness.co.uk,24000041911,"2020-12-11 09:03:54",DE,9.0300,"Start Group
Start Group
Amazon","Ohmme Voyager Mens Yoga Pants - Beige-S",,9.0300,16.0451,7.78145738,122020,122020,2,348002,1,7.53,7.5300
7300136,7300136,206654,AMZ24000567963,"M2E Orders",m2eorders@startfitness.co.uk,24000042133,"2020-12-16 11:29:56",DE,11.5000,"Start Group
Start Group
Amazon","Sub Sports Dual 2.0 Womens Long Sleeve Compression Top - Black-L",,11.5000,16.0072,9.91317780,122020,122020,2,368282,1,9.58,9.5800
7354639,7354639,205162,AMZ24000573952,"M2E Orders",m2eorders@startfitness.co.uk,24000041844,"2020-12-05 10:24:07",DE,101.9100,"Start Group
Start Group
Amazon","Brooks Levitate 2 LE Mens Running Shoes - Grey-7",,101.9100,16.0046,87.84996457,122020,122020,2,313336,1,84.93,84.9300
7439434,7439434,206996,AMZ24000582078,"M2E Orders",m2eorders@startfitness.co.uk,24000042205,"2020-12-17 17:15:14",DE,70.9500,"Start Group
Start Group
Amazon","adidas Terrex Tracerocker Mens Trail Running Shoes - Blue-8",,70.9500,16.0072,61.15999697,122020,122020,2,315300,1,59.13,59.1300
7323849,7323849,206516,AMZ24000571009,"M2E Orders",m2eorders@startfitness.co.uk,24000042084,"2020-12-15 13:14:38",DE,96.6100,"Start Group
Start Group
Amazon","Salomon Advanced Skin 12 Set Backpack - Black-M-L",,96.6100,16.0047,83.28110844,122020,122020,2,291521,1,80.51,80.5100
7395704,7395704,206344,AMZ24000577705,"M2E Orders",m2eorders@startfitness.co.uk,24000042028,"2020-12-14 16:44:41",DE,81.1400,"Start Group
Start Group
Amazon","adidas Terrex Tracerocker GTX Mens Trail Running Shoes - Black-9.5",,81.1400,15.9971,69.95002461,122020,122020,2,254434,1,67.62,67.6200
7498640,7498640,205842,AMZ24000584170,"M2E Orders",m2eorders@startfitness.co.uk,24000041911,"2020-12-11 09:03:54",DE,9.0300,"Start Group
Start Group
Amazon","Ohmme Dawn Long Sleeve Mens Yoga Top - Grey-S",,9.0300,16.0451,7.78145738,122020,122020,2,347945,1,7.53,7.5300
7325747,7325747,204830,AMZ24000571198,"M2E Orders",m2eorders@startfitness.co.uk,24000041799,"2020-12-02 13:07:46",DE,79.3600,"Start Group
Start Group
Amazon","Merrell Moab 2.0 GTX Mens Walking Shoes - Brown-8",,79.3600,16.0042,68.41131614,122020,122020,2,349941,1,66.13,66.1300
7396031,7396031,206775,AMZ24000577739,"M2E Orders",m2eorders@startfitness.co.uk,24000042141,"2020-12-16 17:26:23",DE,127.5800,"Start Group
Start Group
Amazon","adidas Power Perfect III Mens Weightlifting Shoes - Blue-9.5",,127.5800,16.0029,109.98000912,122020,122020,2,335667,1,106.32,106.3200
7498641,7498641,205842,AMZ24000584170,"M2E Orders",m2eorders@startfitness.co.uk,24000041911,"2020-12-11 09:03:54",DE,9.0200,"Start Group
Start Group
Amazon","Ohmme Triangulum Short Sleeve Mens Yoga Top - Blue-S",,9.0200,16.0451,7.77284004,122020,122020,2,347647,1,7.52,7.5200
7300166,7300166,206670,AMZ24000567985,"M2E Orders",m2eorders@startfitness.co.uk,24000042135,"2020-12-16 12:10:30",DE,67.8500,"Start Group
Start Group
Amazon","Under Armour Qualifier Storm Packable Mens Running Jacket - Yellow-XL",,67.8500,16.0037,58.48951370,122020,122020,2,321130,1,56.54,56.5400
7355943,7355943,205401,AMZ24000574110,"M2E Orders",m2eorders@startfitness.co.uk,24000041865,"2020-12-07 15:11:10",DE,64.5000,"Start Group
Start Group
Amazon","Craghoppers Campellio Mens Downlike Jacket - Red-S",,64.5000,16.0072,55.59999724,122020,122020,2,375860,1,53.75,53.7500
7439511,7439511,206320,AMZ24000582087,"M2E Orders",m2eorders@startfitness.co.uk,24000042010,"2020-12-14 16:21:41",DE,150.0900,"Start Group
Start Group
Amazon","adidas Adizero Pro Mens Running Shoes - Pink-7",,150.0900,15.9981,129.39005035,122020,122020,2,370189,1,125.08,125.0800
7328064,7328064,207005,EBY24000570511,"M2E Orders",m2eorders@startfitness.co.uk,24000042117,"2020-12-18 08:50:17",DE,22.8000,"Start Group
Start Group
eBay","Asics Essentials Woven Womens Running Jacket - Yellow",,22.8000,20.0000,19.00000000,122020,122020,2,196020,1,19.00,19.0000
7396395,7396395,206039,AMZ24000577774,"M2E Orders",m2eorders@startfitness.co.uk,24000041940,"2020-12-12 10:34:14",DE,7.0900,"Start Group
Start Group
Amazon","Muc-Off Tyre And Cassette Brush",,7.0900,16.0393,6.10999894,122020,122020,2,343954,1,5.91,5.9100
7498642,7498642,205842,AMZ24000584170,"M2E Orders",m2eorders@startfitness.co.uk,24000041911,"2020-12-11 09:03:54",DE,12.9100,"Start Group
Start Group
Amazon","Ohmme Astral Short Sleeve Mens Yoga Top - Grey-S",,12.9100,16.0451,11.12498503,122020,122020,2,348007,1,10.76,10.7600
7300167,7300167,205062,AMZ24000567986,"M2E Orders",m2eorders@startfitness.co.uk,24000041836,"2020-12-04 12:17:06",DE,17.2500,"Start Group
Start Group
Amazon","Sub Sports Cold Mens Compression Short Tights - Black-XXL",,17.2500,16.0072,14.86976670,122020,122020,2,365162,1,14.38,14.3800
7356525,7356525,204907,EBY24000572782,"M2E Orders",m2eorders@startfitness.co.uk,24000041904,"2020-12-03 09:40:02",DE,54.9000,"Start Group
Start Group
eBay","Puma Newcastle United Third 2020/21 Mens Football Shirt",,54.9000,20.0000,45.75000000,122020,122020,2,375147,1,45.75,45.7500
7439542,7439542,207462,AMZ24000582089,"M2E Orders",m2eorders@startfitness.co.uk,24000042318,"2020-12-21 11:16:08",DE,28.3800,"Start Group
Start Group
Amazon","Under Armour Unstoppable Move Light Womens Joggers - Black-M",,28.3800,15.9787,24.47001044,122020,122020,2,366896,1,23.65,23.6500
7328333,7328333,206364,AMZ24000571464,"M2E Orders",m2eorders@startfitness.co.uk,24000042040,"2020-12-14 17:01:00",DE,11.5000,"Start Group
Start Group
Amazon","Sub Sports Dual 2.0 Womens Long Sleeve Compression Top - Orange-XL",,11.5000,16.0072,9.91317780,122020,122020,2,358224,1,9.58,9.5800
7397807,7397807,206313,AMZ24000577930,"M2E Orders",m2eorders@startfitness.co.uk,24000042004,"2020-12-14 16:15:28",DE,63.2100,"Start Group
Start Group
Amazon","adidas Z.N.E Mens Running Jacket - Blue-XL",,63.2100,16.0029,54.49001706,122020,122020,2,326551,1,52.68,52.6800
7498643,7498643,205842,AMZ24000584170,"M2E Orders",m2eorders@startfitness.co.uk,24000041911,"2020-12-11 09:03:54",DE,12.9000,"Start Group
Start Group
Amazon","Ohmme Triangulum Short Sleeve Mens Yoga Top - Black-S",,12.9000,16.0451,11.11636769,122020,122020,2,347633,1,10.75,10.7500
7300193,7300193,206980,EBY24000567275,"M2E Orders",m2eorders@startfitness.co.uk,24000042112,"2020-12-17 15:52:22",DE,25.7900,"Start Group
Start Group
eBay","Asics Loose Strappy Womens Running Vest Tank Top - White",,25.7900,20.0000,21.49166667,122020,122020,2,323201,1,21.49,21.4900
7356764,7356764,208517,AMZ24000574192,"M2E Orders",m2eorders@startfitness.co.uk,24000042436,"2020-12-31 11:02:49",DE,12.9000,"Start Group
Start Group
Amazon","Under Armour Patterson Backpack - Blue",,12.9000,16.0072,11.11999945,122020,122020,2,349933,1,10.75,10.7500
7441303,7441303,206318,AMZ24000582257,"M2E Orders",m2eorders@startfitness.co.uk,24000042008,"2020-12-14 16:20:03",DE,114.8100,"Start Group
Start Group
Amazon","Reebok Nano X Mens Training Shoes - Black-9",,114.8100,16.0048,98.97004262,122020,122020,2,368522,1,95.68,95.6800
7331198,7331198,206499,AMZ24000571721,"M2E Orders",m2eorders@startfitness.co.uk,24000042069,"2020-12-15 12:35:01",DE,22.8900,"Start Group
Start Group
Amazon","adidas ClimaCool Mens Workout Training Pants - Black-M",,22.8900,15.9964,19.73337104,122020,122020,2,321694,1,19.08,19.0800
7401232,7401232,206348,AMZ24000578265,"M2E Orders",m2eorders@startfitness.co.uk,24000042031,"2020-12-14 16:48:49",DE,96.6200,"Start Group
Start Group
Amazon","adidas Box Hog 3 Mens Boxing Shoes - Black-10",,96.6200,16.0043,83.29001597,122020,122020,2,334204,1,80.52,80.5200
7498644,7498644,205842,AMZ24000584170,"M2E Orders",m2eorders@startfitness.co.uk,24000041911,"2020-12-11 09:03:54",DE,9.0300,"Start Group
Start Group
Amazon","Ohmme Vajra II Mens Yoga Vest - Black-S",,9.0300,16.0451,7.78145738,122020,122020,2,347669,1,7.53,7.5300
7300613,7300613,205298,EBY24000567499,"M2E Orders",m2eorders@startfitness.co.uk,24000041956,"2020-12-07 10:14:04",DE,54.3600,"Start Group
Start Group
eBay","Reebok Ridgerider GTX 5.0 Mens Walking Shoes - Black",,54.3600,20.0000,45.30000000,122020,122020,2,352386,1,45.30,45.3000
7357181,7357181,207004,AMZ24000574237,"M2E Orders",m2eorders@startfitness.co.uk,24000042207,"2020-12-18 08:48:28",DE,83.7200,"Start Group
Start Group
Amazon","Reebok Lifter PR Mens Weightlifting Shoes - White-10.5",,83.7200,16.0039,72.16998739,122020,122020,2,299890,1,69.77,69.7700
7331875,7331875,206505,AMZ24000571771,"M2E Orders",m2eorders@startfitness.co.uk,24000042074,"2020-12-15 12:43:56",DE,161.1400,"Start Group
Start Group
Amazon","Northwave Raptor Arctic GTX MTB Mens Winter Cycling Boots - Black-EU41",,161.1400,16.0000,138.91379310,122020,122020,2,306628,1,134.28,134.2800
7401999,7401999,208524,AMZ24000578352,"M2E Orders",m2eorders@startfitness.co.uk,24000042439,"2020-12-31 11:16:16",DE,90.3000,"Start Group
Start Group
Amazon","adidas Pulse Boost HD Winter Mens Running Shoes - Black-10.5",,90.3000,16.0072,77.83999614,122020,122020,2,342358,1,75.25,75.2500
7498645,7498645,205842,AMZ24000584170,"M2E Orders",m2eorders@startfitness.co.uk,24000041911,"2020-12-11 09:03:54",DE,9.0300,"Start Group
Start Group
Amazon","Ohmme Triangulum Short Sleeve Mens Yoga Top - Red-XS",,9.0300,16.0451,7.78145738,122020,122020,2,347639,1,7.53,7.5300
7301428,7301428,206535,AMZ24000568135,"M2E Orders",m2eorders@startfitness.co.uk,24000042099,"2020-12-15 14:30:00",DE,28.7500,"Start Group
Start Group
Amazon","adidas Supernova Mens Short Running Tights - Black-XL",,28.7500,16.0072,24.78294451,122020,122020,2,304675,1,23.96,23.9600
7357885,7357885,207022,AMZ24000574313,"M2E Orders",m2eorders@startfitness.co.uk,24000042216,"2020-12-18 09:47:16",DE,32.2500,"Start Group
Start Group
Amazon","adidas Freelift Prime Mens Training Hoody - Grey-L",,32.2500,16.0072,27.79999862,122020,122020,2,337716,1,26.88,26.8800
7442276,7442276,207231,AMZ24000582385,"M2E Orders",m2eorders@startfitness.co.uk,24000042277,"2020-12-19 11:42:15",DE,25.8000,"Start Group
Start Group
Amazon","Asics Icon Half Zip Long Sleeve Mens Running Top - Navy-M",,25.8000,16.0072,22.23999890,122020,122020,2,323017,1,21.50,21.5000
7332226,7332226,205500,AMZ24000571830,"M2E Orders",m2eorders@startfitness.co.uk,24000041870,"2020-12-08 14:41:51",DE,111.4400,"Start Group
Start Group
Amazon","adidas Terrex Agravic Flow GTX Mens Trail Running Shoes - Red-9",,111.4400,15.9985,96.07020780,122020,122020,2,353757,1,92.87,92.8700
7404787,7404787,206322,AMZ24000578598,"M2E Orders",m2eorders@startfitness.co.uk,24000042012,"2020-12-14 16:23:30",DE,12.9000,"Start Group
Start Group
Amazon","Sub Sports Dual Compression Short Sleeve Mens Base Layer Top - Black-L",,12.9000,16.0072,11.11999945,122020,122020,2,365019,1,10.75,10.7500
7500209,7500209,206291,EBY24000581539,"M2E Orders",m2eorders@startfitness.co.uk,24000042039,"2020-12-14 14:01:33",DE,84.0200,"Start Group
Start Group
eBay","adidas Box Hog 3 Mens Boxing Shoes - Black",,84.0200,20.0000,70.01666667,122020,122020,2,334195,1,70.02,70.0200
7302309,7302309,206503,AMZ24000568373,"M2E Orders",m2eorders@startfitness.co.uk,24000042072,"2020-12-15 12:43:01",DE,90.8500,"Start Group
Start Group
Amazon","adidas Solar Boost ST 19 Mens Running Shoes - Black-8",,90.8500,16.0046,78.31585989,122020,122020,2,372987,1,75.71,75.7100
7359460,7359460,206774,AMZ24000574453,"M2E Orders",m2eorders@startfitness.co.uk,24000042140,"2020-12-16 17:14:47",DE,58.0500,"Start Group
Start Group
Amazon","Under Armour Qualifier Storm Packable Mens Running Jacket - Blue-M",,58.0500,16.0072,50.03999752,122020,122020,2,339305,1,48.38,48.3800
7333549,7333549,206362,AMZ24000571970,"M2E Orders",m2eorders@startfitness.co.uk,24000042039,"2020-12-14 16:59:58",DE,83.8500,"Start Group
Start Group
Amazon","Mizuno Wave Mujin 6 Womens Trail Running Shoes - Green-7",,83.8500,16.0072,72.27999641,122020,122020,2,350873,1,69.88,69.8800
7406997,7406997,207652,AMZ24000578817,"M2E Orders",m2eorders@startfitness.co.uk,24000042346,"2020-12-22 12:19:07",DE,64.3700,"Start Group
Start Group
Amazon","adidas Sprintstar Womens Running Spikes - Black-7.5",,64.3700,16.0029,55.48999206,122020,122020,2,334602,1,53.64,53.6400
7505273,7505273,206282,AMZ24000585016,"M2E Orders",m2eorders@startfitness.co.uk,24000041988,"2020-12-14 13:08:50",DE,12.9000,"Start Group
Start Group
Amazon","Sub Sports Dual All Season Womens Long Sleeve Compression Top - Black-XL",,12.9000,16.0072,11.11999945,122020,122020,2,365083,1,10.75,10.7500
7302694,7302694,206536,AMZ24000568486,"M2E Orders",m2eorders@startfitness.co.uk,24000042100,"2020-12-15 14:31:14",DE,69.0000,"Start Group
Start Group
Amazon","Saucony Triumph ISO 5 Womens Running Shoes - White-6",,69.0000,16.0072,59.47906682,122020,122020,2,310441,1,57.50,57.5000
7359691,7359691,206493,AMZ24000574478,"M2E Orders",m2eorders@startfitness.co.uk,24000042064,"2020-12-15 12:05:33",DE,51.6000,"Start Group
Start Group
Amazon","Salming Elements Womens Trail Running Shoes - Pink-7",,51.6000,16.0072,44.47999779,122020,122020,2,373701,1,43.00,43.0000
7443479,7443479,206772,AMZ24000582519,"M2E Orders",m2eorders@startfitness.co.uk,24000042138,"2020-12-16 17:07:00",DE,165.6800,"Start Group
Start Group
Amazon","adidas Ultra Boost WINTER.RDY Mens Running Shoes - Black-7",,165.6800,15.9980,142.83004879,122020,122020,2,381671,1,138.07,138.0700
7333677,7333677,206043,AMZ24000571984,"M2E Orders",m2eorders@startfitness.co.uk,24000041941,"2020-12-12 10:36:58",DE,38.7000,"Start Group
Start Group
Amazon","adidas Supernova Mens Long Running Tights - Black-M",,38.7000,16.0072,33.35999834,122020,122020,2,221946,1,32.25,32.2500
7407553,7407553,206342,AMZ24000578882,"M2E Orders",m2eorders@startfitness.co.uk,24000042026,"2020-12-14 16:42:10",DE,89.0100,"Start Group
Start Group
Amazon","adidas Ultra Boost 4.0 Mens Running Shoes - Black-3.5",,89.0100,16.0042,76.72998047,122020,122020,2,298610,1,74.18,74.1800
7506300,7506300,206290,EBY24000581887,"M2E Orders",m2eorders@startfitness.co.uk,24000042038,"2020-12-14 14:00:32",DE,84.0200,"Start Group
Start Group
eBay","adidas Box Hog 3 Mens Boxing Shoes - Black",,84.0200,20.0000,70.01666667,122020,122020,2,334195,1,70.02,70.0200
7302738,7302738,206309,AMZ24000568528,"M2E Orders",m2eorders@startfitness.co.uk,24000042000,"2020-12-14 16:11:43",DE,137.8900,"Start Group
Start Group
Amazon","Reebok Legacy Lifter Mens Weightlifting Shoes - Black-11.5",,137.8900,15.9967,118.87407142,122020,122020,2,336479,1,114.91,114.9100
7361262,7361262,206464,AMZ24000574605,"M2E Orders",m2eorders@startfitness.co.uk,24000042053,"2020-12-15 10:59:08",DE,51.6000,"Start Group
Start Group
Amazon","adidas ClimaWarm Mens Training Pants - Blue-XL",,51.6000,16.0072,44.47999779,122020,122020,2,342698,1,43.00,43.0000
7444149,7444149,207431,AMZ24000582568,"M2E Orders",m2eorders@startfitness.co.uk,24000042313,"2020-12-21 10:25:17",DE,96.6200,"Start Group
Start Group
Amazon","adidas Box Hog 3 Mens Boxing Shoes - Black-8",,96.6200,16.0043,83.29001597,122020,122020,2,334200,1,80.52,80.5200
7334526,7334526,206435,EBY24000571066,"M2E Orders",m2eorders@startfitness.co.uk,24000042064,"2020-12-15 10:06:58",DE,28.0400,"Start Group
Start Group
eBay","2XU BSR Active Long Sleeve Mens Running Top - Black",,28.0400,20.0000,23.36666667,122020,122020,2,340282,1,23.37,23.3700
7407601,7407601,206470,AMZ24000578884,"M2E Orders",m2eorders@startfitness.co.uk,24000042055,"2020-12-15 11:02:37",DE,25.8000,"Start Group
Start Group
Amazon","adidas Pure X Womens Running Jacket - Purple-L",,25.8000,16.0072,22.23999890,122020,122020,2,179453,1,21.50,21.5000
7510876,7510876,206767,AMZ24000585748,"M2E Orders",m2eorders@startfitness.co.uk,24000042137,"2020-12-16 16:27:36",DE,12.9000,"Start Group
Start Group
Amazon","Sub Sports Cold Thermal Fitted Long Sleeve Mock Womens Running Top - Blue-XS",,12.9000,16.0072,11.11999945,122020,122020,2,358291,1,10.75,10.7500
7302744,7302744,207075,AMZ24000568534,"M2E Orders",m2eorders@startfitness.co.uk,24000042229,"2020-12-18 13:33:52",DE,51.7500,"Start Group
Start Group
Amazon","Reebok Ridgerider GTX 5.0 Mens Walking Shoes - Black-9.5",,51.7500,16.0072,44.60930011,122020,122020,2,352394,1,43.13,43.1300
7364111,7364111,207463,AMZ24000574869,"M2E Orders",m2eorders@startfitness.co.uk,24000042319,"2020-12-21 11:17:11",DE,96.6200,"Start Group
Start Group
Amazon","adidas Box Hog 3 Mens Boxing Shoes - Black-12",,96.6200,16.0043,83.29001597,122020,122020,2,334208,1,80.52,80.5200
7445598,7445598,204759,AMZ24000582722,"M2E Orders",m2eorders@startfitness.co.uk,24000041796,"2020-12-02 08:26:06",DE,10.3200,"Start Group
Start Group
Amazon","adidas Team GB Fleece Scarf - Red",,10.3200,15.9551,8.89999664,122020,122020,2,339846,1,8.60,8.6000
7517065,7517065,206769,EBY24000582404,"M2E Orders",m2eorders@startfitness.co.uk,24000042093,"2020-12-16 16:44:12",DE,100.8400,"Start Group
Start Group
eBay","Mizuno Wave Horizon 3 Mens Running Shoes - Navy",,100.8400,20.0000,84.03333333,122020,122020,2,335024,1,84.03,84.0300
7304150,7304150,207006,AMZ24000568867,"M2E Orders",m2eorders@startfitness.co.uk,24000042208,"2020-12-18 08:51:21",DE,52.7800,"Start Group
Start Group
Amazon","Asics Patriot 11 Womens Running Shoes - Blue-8",,52.7800,16.0071,45.49721526,122020,122020,2,350682,1,43.98,43.9800
7364772,7364772,206492,AMZ24000574932,"M2E Orders",m2eorders@startfitness.co.uk,24000042063,"2020-12-15 12:04:38",DE,127.7100,"Start Group
Start Group
Amazon","adidas Ultra Boost 4.0 Womens Running Shoes - Red-8.5",,127.7100,16.0051,110.08998742,122020,122020,2,310373,1,106.43,106.4300
7446351,7446351,206773,AMZ24000582786,"M2E Orders",m2eorders@startfitness.co.uk,24000042139,"2020-12-16 17:10:48",DE,90.3000,"Start Group
Start Group
Amazon","adidas Pulse Boost HD Winter Mens Running Shoes - Black-9.5",,90.3000,16.0072,77.83999614,122020,122020,2,342356,1,75.25,75.2500
7448749,7448749,207656,AMZ24000583078,"M2E Orders",m2eorders@startfitness.co.uk,24000042348,"2020-12-22 12:21:02",DE,101.9100,"Start Group
Start Group
Amazon","Brooks Ricochet LE Womens Running Shoes - Black-7",,101.9100,16.0046,87.84996457,122020,122020,2,313408,1,84.93,84.9300
7336606,7336606,206621,AMZ24000572270,"M2E Orders",m2eorders@startfitness.co.uk,24000042127,"2020-12-16 10:33:29",DE,108.3600,"Start Group
Start Group
Amazon","Asics Gel Cumulus 21 Womens Running Shoes - Green-7.5",,108.3600,16.0047,93.41000839,122020,122020,2,330941,1,90.30,90.3000
7411706,7411706,206338,AMZ24000579287,"M2E Orders",m2eorders@startfitness.co.uk,24000042022,"2020-12-14 16:38:30",DE,77.4000,"Start Group
Start Group
Amazon","Vibram FiveFingers V-Train Mens Training Shoes - Grey-11",,77.4000,16.0072,66.71999669,122020,122020,2,328723,1,64.50,64.5000
7517301,7517301,206531,EBY24000582417,"M2E Orders",m2eorders@startfitness.co.uk,24000042068,"2020-12-15 14:00:01",DE,88.6100,"Start Group
Start Group
eBay","adidas Adizero Adios 5 Boost Womens Running Shoes - Black",,88.6100,20.0000,73.84166667,122020,122020,2,345488,1,73.84,73.8400
7305686,7305686,204923,AMZ24000569169,"M2E Orders",m2eorders@startfitness.co.uk,24000041808,"2020-12-03 11:48:35",DE,43.4900,"Start Group
Start Group
Amazon","Altura Nightvision 4 Long Sleeve Womens Cycling Jersey - Blue-XL",,43.4900,16.0043,37.48998960,122020,122020,2,354592,1,36.24,36.2400
7365351,7365351,206349,AMZ24000574999,"M2E Orders",m2eorders@startfitness.co.uk,24000042032,"2020-12-14 16:49:54",DE,108.3600,"Start Group
Start Group
Amazon","Asics Gel Cumulus 21 Womens Running Shoes - Green-7",,108.3600,16.0047,93.41000839,122020,122020,2,330940,1,90.30,90.3000
7307129,7307129,206655,AMZ24000569384,"M2E Orders",m2eorders@startfitness.co.uk,24000042134,"2020-12-16 11:30:46",DE,9.2000,"Start Group
Start Group
Amazon","TCA Thermal Warm-Up Funnel Neck Womens Long Sleeve Running Top - Blue-XS",,9.2000,15.9551,7.93410553,122020,122020,2,246529,1,7.67,7.6700
7365352,7365352,206346,AMZ24000575000,"M2E Orders",m2eorders@startfitness.co.uk,24000042029,"2020-12-14 16:46:48",DE,108.3600,"Start Group
Start Group
Amazon","Asics Gel Cumulus 21 Womens Running Shoes - Green-7",,108.3600,16.0047,93.41000839,122020,122020,2,330940,1,90.30,90.3000
7338137,7338137,207003,EBY24000571331,"M2E Orders",m2eorders@startfitness.co.uk,24000042116,"2020-12-18 08:46:09",DE,8.9700,"Start Group
Start Group
eBay","Sub Sports Core Touch Screen Winter Running Gloves - Black",,8.9700,20.0000,7.47500000,122020,122020,2,363272,1,7.48,7.4800
7412521,7412521,206336,AMZ24000579334,"M2E Orders",m2eorders@startfitness.co.uk,24000042020,"2020-12-14 16:36:50",DE,25.8000,"Start Group
Start Group
Amazon","Salming enRoute Womens Running Shoes - Black-7.5",,25.8000,16.0072,22.23999890,122020,122020,2,365817,1,21.50,21.5000
7520044,7520044,207653,AMZ24000586982,"M2E Orders",m2eorders@startfitness.co.uk,24000042347,"2020-12-22 12:20:05",DE,105.0500,"Start Group
Start Group
Amazon","adidas Adizero Adios 4 Boost Mens Running Shoes - Black-6",,105.0500,16.0004,90.56003255,122020,122020,2,309790,1,87.54,87.5400
7308357,7308357,206618,AMZ24000569517,"M2E Orders",m2eorders@startfitness.co.uk,24000042126,"2020-12-16 10:31:20",DE,65.4300,"Start Group
Start Group
Amazon","Asics Icon Mens Running Jacket - Yellow-M",,65.4300,15.9924,56.40886817,122020,122020,2,335571,1,54.53,54.5300
7365666,7365666,206335,AMZ24000575032,"M2E Orders",m2eorders@startfitness.co.uk,24000042019,"2020-12-14 16:35:51",DE,32.1200,"Start Group
Start Group
Amazon","Zone3 Neoprene Swim Cap - Orange-L",,32.1200,15.9986,27.68998936,122020,122020,2,328360,1,26.77,26.7700
7452585,7452585,205120,EBY24000578666,"M2E Orders",m2eorders@startfitness.co.uk,24000041942,"2020-12-04 15:57:56",DE,17.8400,"Start Group
Start Group
eBay","Under Armour Storm Liner Running Gloves - Green",,17.8400,20.0000,14.86666667,122020,122020,2,346189,1,14.87,14.8700
7338412,7338412,204833,AMZ24000572455,"M2E Orders",m2eorders@startfitness.co.uk,24000041800,"2020-12-02 13:45:37",DE,125.0000,"Start Group
Start Group
Amazon","adidas Terrex Agravic Flow GTX Mens Trail Running Shoes - Red-9",,125.0000,15.9985,107.76001414,122020,122020,2,353757,1,104.17,104.1700
7415008,7415008,206308,AMZ24000579563,"M2E Orders",m2eorders@startfitness.co.uk,24000041999,"2020-12-14 16:10:47",DE,139.1900,"Start Group
Start Group
Amazon","Five Ten Freerider Pro Womens MTB Cycling Shoes - Black-6.5",,139.1900,16.0013,119.99003459,122020,122020,2,354066,1,115.99,115.9900
7366401,7366401,206341,AMZ24000575104,"M2E Orders",m2eorders@startfitness.co.uk,24000042025,"2020-12-14 16:41:19",DE,89.0100,"Start Group
Start Group
Amazon","adidas SL20 Womens Running Shoes - Orange-8.5",,89.0100,16.0042,76.72998047,122020,122020,2,354003,1,74.18,74.1800
7453683,7453683,207436,AMZ24000583737,"M2E Orders",m2eorders@startfitness.co.uk,24000042315,"2020-12-21 10:27:02",DE,51.6000,"Start Group
Start Group
Amazon","Asics Icon Mens Running Jacket - Yellow-XL",,51.6000,16.0072,44.47999779,122020,122020,2,335573,1,43.00,43.0000
7338912,7338912,206044,AMZ24000572503,"M2E Orders",m2eorders@startfitness.co.uk,24000041942,"2020-12-12 10:38:23",DE,70.9500,"Start Group
Start Group
Amazon","Asics Lite Show 2 Winter Womens Long Running Tights - Black-S",,70.9500,16.0072,61.15999697,122020,122020,2,335909,1,59.13,59.1300
7415356,7415356,207036,AMZ24000579606,"M2E Orders",m2eorders@startfitness.co.uk,24000042224,"2020-12-18 11:43:56",DE,83.2100,"Start Group
Start Group
Amazon","adidas Pulse Boost HD Winter Mens Running Shoes - Black-8.5",,83.2100,16.0045,71.72997599,122020,122020,2,342354,1,69.34,69.3400
7309936,7309936,206606,AMZ24000569669,"M2E Orders",m2eorders@startfitness.co.uk,24000042124,"2020-12-16 10:19:09",DE,69.0000,"Start Group
Start Group
Amazon","Saucony Triumph ISO 5 Womens Running Shoes - White-6.5",,69.0000,16.0072,59.47906682,122020,122020,2,310442,1,57.50,57.5000
7369741,7369741,208544,EBY24000573686,"M2E Orders",m2eorders@startfitness.co.uk,24000042295,"2020-12-31 11:52:07",DE,33.6400,"Start Group
Start Group
eBay","Syncros RR2.0 Stem - Black",,33.6400,20.0000,28.03333333,122020,122020,2,287187,1,28.03,28.0300
7454681,7454681,206771,24000569066,"M2E Orders",m2eorders@startfitness.co.uk,24000041653,"2020-12-16 17:05:45",DE,14.0600,"Start Group
Start Group
Amazon USA","Fila Morro Bay Womens Sliders - White-7",,14.0600,16.0066,12.12000007,122020,122020,2,353364,1,11.72,11.7200
7339410,7339410,205161,AMZ24000572553,"M2E Orders",m2eorders@startfitness.co.uk,24000041843,"2020-12-05 10:21:42",DE,10.3200,"Start Group
Start Group
Amazon","TCA SpaceKnit Premium Womens Long Training Tights - Pink-S",,10.3200,15.9551,8.89999664,122020,122020,2,248616,1,8.60,8.6000
7417217,7417217,206478,AMZ24000579802,"M2E Orders",m2eorders@startfitness.co.uk,24000042057,"2020-12-15 11:18:43",DE,101.9100,"Start Group
Start Group
Amazon","Asics GT 2000 7 Mens Running Shoes - Blue-8.5",,101.9100,16.0046,87.84996457,122020,122020,2,332027,1,84.93,84.9300
7309946,7309946,206361,AMZ24000569671,"M2E Orders",m2eorders@startfitness.co.uk,24000042038,"2020-12-14 16:59:03",DE,17.2500,"Start Group
Start Group
Amazon","Under Armour MK1 Mens Training Shorts - Grey-S",,17.2500,16.0072,14.86976670,122020,122020,2,306494,1,14.38,14.3800
7371716,7371716,206314,AMZ24000575522,"M2E Orders",m2eorders@startfitness.co.uk,24000042005,"2020-12-14 16:16:11",DE,12.9000,"Start Group
Start Group
Amazon","Regatta Tafton Honeycomb Womens Fleece - Red-L",,12.9000,16.0072,11.11999945,122020,122020,2,351440,1,10.75,10.7500
7461362,7461362,206998,24000570638,"M2E Orders",m2eorders@startfitness.co.uk,24000041656,"2020-12-17 17:18:39",DE,109.5200,"Start Group
Start Group
Amazon USA","Five Ten Freerider Mens MTB Mens Cycling Shoes - Brown-10.5",,109.5200,16.0047,94.40996787,122020,122020,2,369352,1,91.27,91.2700
7340538,7340538,206496,AMZ24000572680,"M2E Orders",m2eorders@startfitness.co.uk,24000042067,"2020-12-15 12:09:44",DE,25.8000,"Start Group
Start Group
Amazon","Salming enRoute Womens Running Shoes - Black-7",,25.8000,16.0072,22.23999890,122020,122020,2,365816,1,21.50,21.5000
7418064,7418064,206305,AMZ24000579854,"M2E Orders",m2eorders@startfitness.co.uk,24000041996,"2020-12-14 16:07:56",DE,230.9000,"Start Group
Start Group
Amazon","2XU P:1 Propel Womens Wetsuit - Black-M",,230.9000,16.0010,199.05000819,122020,122020,2,357219,1,192.42,192.4200
7310689,7310689,205160,AMZ24000569750,"M2E Orders",m2eorders@startfitness.co.uk,24000041842,"2020-12-05 10:19:47",DE,69.0000,"Start Group
Start Group
Amazon","Saucony Triumph ISO 5 Womens Running Shoes - White-8.5",,69.0000,16.0072,59.47906682,122020,122020,2,310446,1,57.50,57.5000
7372350,7372350,206483,AMZ24000575574,"M2E Orders",m2eorders@startfitness.co.uk,24000042059,"2020-12-15 11:26:19",DE,64.5000,"Start Group
Start Group
Amazon","adidas Supernova Glide Boost 7 Womens Running Shoes - Pink-5.5",,64.5000,16.0072,55.59999724,122020,122020,2,325982,1,53.75,53.7500
7462838,7462838,208523,24000571024,"M2E Orders",m2eorders@startfitness.co.uk,24000041707,"2020-12-31 11:12:17",DE,21.8000,"Start Group
Start Group
Amazon USA","Puma Pro Training II Large Holdall - Black",,21.8000,16.0192,18.78999338,122020,122020,2,353238,1,18.17,18.1700
7341486,7341486,207008,EBY24000571583,"M2E Orders",m2eorders@startfitness.co.uk,24000042118,"2020-12-18 09:07:49",DE,13.4600,"Start Group
Start Group
eBay","Asics Onitsuka Tiger Graphic Mens Sweatshirt - Blue",,13.4600,20.0000,11.21666667,122020,122020,2,214698,1,11.22,11.2200
7418271,7418271,206372,AMZ24000579863,"M2E Orders",m2eorders@startfitness.co.uk,24000042045,"2020-12-14 17:21:19",DE,51.6000,"Start Group
Start Group
Amazon","Asics Winter Womens Long Running Tights - Black-L",,51.6000,16.0072,44.47999779,122020,122020,2,194739,1,43.00,43.0000
7428891,7428891,206467,AMZ24000580946,"M2E Orders",m2eorders@startfitness.co.uk,24000042054,"2020-12-15 11:00:34",DE,16.7700,"Start Group
Start Group
Amazon","adidas Condivo 18 Junior Training Pants - Grey-13-14 Years",,16.7700,15.9751,14.46000047,122020,122020,5,364924,1,16.77,16.7700
7442007,7442007,204719,AMZ24000582344,"M2E Orders",m2eorders@startfitness.co.uk,24000041782,"2020-12-01 08:54:59",DE,51.5900,"Start Group
Start Group
Amazon","Abus Macator Cycling Helmet - Blue-52-58cm",,51.5900,16.0108,44.46999762,122020,122020,5,369940,1,51.59,51.5900
7335095,7335095,205177,6000860543,,smeehsen@gmail.com,6000060748,"2020-12-05 11:30:43",DE,52.2000,"Start Fitness
Fitness
SF English","Scott Vivo Plus MTB Cycling Helmet - White",5.2200,46.9800,16.0000,40.50000000,122020,122020,5,360575,0,46.98,46.9800
7410513,7410513,206312,AMZ24000579195,"M2E Orders",m2eorders@startfitness.co.uk,24000042003,"2020-12-14 16:14:33",DE,87.0700,"Start Group
Start Group
Amazon","Bell Catalyst MIPS MTB Cycling Helmet - Red-55-59cm",,87.0700,16.0005,75.06002129,122020,122020,5,353830,1,87.07,87.0700
7450140,7450140,206625,AMZ24000583278,"M2E Orders",m2eorders@startfitness.co.uk,24000042130,"2020-12-16 10:43:07",DE,45.1500,"Start Group
Start Group
Amazon","Asics GT 1000 9 GS Junior Running Shoes - Blue-4.5",,45.1500,16.0072,38.91999807,122020,122020,5,350595,1,45.15,45.1500
7309253,7309253,204817,AMZ24000569610,"M2E Orders",m2eorders@startfitness.co.uk,24000041798,"2020-12-02 12:35:57",DE,46.0000,"Start Group
Start Group
Amazon","Bell Daily Commuter Womens Cycling Helmet - Grey",,46.0000,16.0072,39.65271121,122020,122020,5,353827,1,46.00,46.0000
7494576,7494576,205761,24000579719,"M2E Orders",m2eorders@startfitness.co.uk,24000041631,"2020-12-10 12:19:36",DE,115.9700,"Start Group
Start Group
Amazon USA","Bell Sanction MTB / BMX Full Face Helmet - Red-55-57 cm",,115.9700,16.0000,99.97413793,122020,122020,10,386649,1,96.64,96.6400
7443474,7443474,206321,AMZ24000582518,"M2E Orders",m2eorders@startfitness.co.uk,24000042011,"2020-12-14 16:22:41",DE,55.5200,"Start Group
Start Group
Amazon","Giro Quarter FS BMX Cycling Helmet - Black-55-59cm",,55.5200,16.0050,47.86000603,122020,122020,10,386774,1,46.27,46.2700
