entity_id,"Order number","Credit No","Credit Date","GBP Net goods after discount","GBP VAT on Goods","GBP Gross goods after discount",country_id,"Store Credit Used",store_name
203982,6000868707,6000060008,2020-11-20,11.3900,2.02,13.4100,PL,,"Start Fitness
Fitness
SF English"
