entity_id,"Order number","Credit No","Credit Date","GBP Net goods after discount","GBP VAT on Goods","GBP Gross goods after discount",country_id,"Store Credit Used",store_name
202939,2500394187,2500019679,2020-10-27,62.4100,12.4800,74.8900,PT,,"Start Group
Start Group
eBay"
200463,1900340205,1900027888,2020-10-06,29.1700,5.8300,35.0000,PT,,"Start Fitness
Fitness
Fitness Mobile"
200580,1900342032,1900027923,2020-10-07,148.3300,29.6700,178.0000,PT,,"Start Fitness
Fitness
Fitness Mobile"
