item_id,order_item_id,"Invoice ID","Order Number","Customer name",customer_email,"Credit Note No","Credit note Date",country_id,base_row_total_incl_tax,store_name,name,base_discount_amount,"Value less discount",tax_percent,"Net Discounted Amount","Return Date",month_year,value,product_id,customer_group_id,"net based on catalog vat","Net sales based on customer group"
6143147,6143147,171460,2400640778,"Liard Carole",zl298qz2mysnp83@marketplace.amazon.fr,2400049686,"2020-02-04 13:36:33",FR,79.7000,"Start Group
Start Group
Amazon","Mizuno Wave Ultima 11 Womens Running Shoes - Red-4.5",,79.7000,20.0000,66.41666667,22020,22020,2,333311,0,66.42,66.4200
6164869,6164869,171865,2400643453,"M. NOBLE Georges",3zxcbqy4pbhbxjb@marketplace.amazon.fr,2400049802,"2020-02-06 14:39:21",FR,99.7000,"Start Group
Start Group
Amazon","Asics Gel Fujirado Mens Trail Running Shoes - Grey-8",,99.7000,20.0021,83.08187940,22020,22020,2,313227,0,83.08,83.0800
6152807,6152807,172975,2400642010,"Rémion didier",n01hdp6csysys0z@marketplace.amazon.fr,2400050168,"2020-02-18 09:22:35",FR,32.3500,"Start Group
Start Group
Amazon","Asics Core Womens Running Jacket- Pink-S",,32.3500,20.0066,26.95685071,22020,22020,2,196105,0,26.96,26.9600
6221040,6221040,173586,600707477,"Kevin itua",ituake@outlook.fr,600064142,"2020-02-25 04:00:02",FR,112.0000,"Start Fitness
Fitness
SF English","Asics Gel Nimbus 21 Lite Show Mens Running Shoes - Black",,112.0000,20.0000,93.33333333,22020,22020,2,340382,0,93.33,93.3300
6155684,6155684,171463,2400642379,"Baud Patrick",mgdc1xz9cv71v94@marketplace.amazon.fr,2400049689,"2020-02-04 13:45:24",FR,90.5900,"Start Group
Start Group
Amazon","adidas Powerlift 3.1 Weightlifting Shoes Stars and Stripes Limited Edition - White-9.5",,90.5900,20.0047,75.48871003,22020,22020,2,296343,0,75.49,75.4900
6135764,6135764,172134,2400640070,"1 impasse des tilleuls",gm51gbx5c6g4d3q@marketplace.amazon.fr,2400049872,"2020-02-08 15:37:28",FR,88.6900,"Start Group
Start Group
Amazon","Asics Gel Cumulus 20 Womens Running Shoes - Blue-7",,88.6900,19.9976,73.90981153,22020,22020,2,318382,0,73.91,73.9100
6176091,6176091,172621,2400644757,"Besegher Julie",v8tklgg65pj72vn@marketplace.amazon.fr,2400050062,"2020-02-13 12:49:15",FR,32.3500,"Start Group
Start Group
Amazon","adidas Believe This Regular Rise Womens 7/8 Training Tights - Blue-XS",,32.3500,20.0066,26.95685071,22020,22020,2,293011,0,26.96,26.9600
6187362,6187362,172978,2400646126,"weiss muriel",33v1mwc0v5cs2b4@marketplace.amazon.fr,2400050171,"2020-02-18 09:30:51",FR,17.3600,"Start Group
Start Group
Amazon","Craghoppers NosiLife Convertible Womens Walking Trousers - Brown-XL",,17.3600,20.0370,14.46220749,22020,22020,2,330124,0,14.47,14.4700
6206045,6206045,173676,2400648610,"Mr Springinsfeld Laurent",zmz3rrf9kk70hhg@marketplace.amazon.fr,2400050396,"2020-02-25 14:50:06",FR,32.3500,"Start Group
Start Group
Amazon","adidas Essentials 3 Stripe Mens Joggers - Black-M",,32.3500,20.0066,26.95685071,22020,22020,2,344911,0,26.96,26.9600
6243970,6243970,174014,2400653464,"BOITEUX YOHAN",8s5t9pt1n77xpgs@marketplace.amazon.fr,2400050554,"2020-02-27 11:38:43",FR,69.7000,"Start Group
Start Group
Amazon","adidas Powerlift 4.0 Mens Weightlifting Shoes - Green-9",,69.7000,20.0000,58.08333333,22020,22020,2,316928,0,58.08,58.0800
6200655,6200655,173679,2400647937,"Bonaric Melanie",qmj1jvys6wgndpb@marketplace.amazon.fr,2400050399,"2020-02-25 14:57:17",FR,85.7000,"Start Group
Start Group
Amazon","Merrell Moab 2 Mid GTX Mens Walking Boots - Navy-9.5",,85.7000,19.9975,71.41815454,22020,22020,2,339938,0,71.42,71.4200
6242584,6242584,174055,2400653228,"mong andreas",wlyvb38hwtrbx2v@marketplace.amazon.fr,2400050578,"2020-02-27 14:11:47",FR,65.7000,"Start Group
Start Group
Amazon","adidas Speedex 16.1 Boxing Shoes - Red-8",,65.7000,19.9967,54.75150567,22020,22020,2,316704,0,54.75,54.7500
6141242,6141242,172278,2400640544,"Gilles Sabban",8w2zjvqfbb5cvb5@marketplace.amazon.fr,2400049922,"2020-02-11 09:32:18",FR,65.6000,"Start Group
Start Group
Amazon","Asics Gel Sonoma 4 GTX Mens Trail Running Shoes - Blue-8.5",,65.6000,19.9935,54.66962794,22020,22020,2,334035,0,54.67,54.6700
6113113,6113113,172652,2400637343,"LASSABE GHISLAINE",rp6gsy5dwx737p2@marketplace.amazon.fr,2400050082,"2020-02-14 08:10:27",FR,110.6000,"Start Group
Start Group
Amazon","adidas Adizero Triple Jump / Pole Vault Field Event Spikes - White-10",,110.6000,20.0039,92.16367135,22020,22020,2,314507,0,92.17,92.1700
6187858,6187858,173255,2400646211,"Colas Eddy",pf3rcw9y17gt3f8@marketplace.amazon.fr,2400050261,"2020-02-20 07:55:27",FR,69.7000,"Start Group
Start Group
Amazon","adidas Powerlift 4.0 Mens Weightlifting Shoes - Grey-12.5",,69.7000,20.0000,58.08333333,22020,22020,2,316969,0,58.08,58.0800
6150208,6150208,171610,2400641665,"gorbulak uygur",5yk1j6758cmrvxc@marketplace.amazon.fr,2400049746,"2020-02-05 10:56:49",FR,79.7000,"Start Group
Start Group
Amazon","Asics Gel Kinsei 6 Womens Running Shoes - Black-3",,79.7000,20.0000,66.41666667,22020,22020,2,164122,0,66.42,66.4200
6162312,6162312,172325,2400643170,"RAULET alexandre",w8n6b4809btmxy8@marketplace.amazon.fr,2400049967,"2020-02-11 11:09:02",FR,36.3500,"Start Group
Start Group
Amazon","adidas AlphaSkin Sport + 3 Stripe Mens Long Training Tights - Black-S",,36.3500,20.0118,30.28868828,22020,22020,2,320200,0,30.29,30.2900
6168682,6168682,173259,2400643874,"Raigneau stephanie",swv80m3y41mrb12@marketplace.amazon.fr,2400050264,"2020-02-20 08:02:50",FR,79.7000,"Start Group
Start Group
Amazon","Asics Gel Kinsei 6 Womens Running Shoes - Black-3",,79.7000,20.0000,66.41666667,22020,22020,2,164122,0,66.42,66.4200
6167031,6167031,173682,2400643690,"Thomas Raphaël",t9bqxvftqfnsgm4@marketplace.amazon.fr,2400050402,"2020-02-25 15:02:13",FR,69.7000,"Start Group
Start Group
Amazon","adidas Crazy Power RK Mens Weightlifting Shoes - Blue-6 UK",,69.7000,20.0000,58.08333333,22020,22020,2,317634,0,58.08,58.0800
6226703,6226703,174106,2400651162,"GICQUEL STEPHANE",kcrcdrbzzv7mvpv@marketplace.amazon.fr,2400050590,"2020-02-28 10:46:55",FR,73.6000,"Start Group
Start Group
Amazon","adidas Sprintstar Womens Running Spikes - Black-4.5",,73.6000,20.0029,61.33185115,22020,22020,2,334596,0,61.33,61.3300
6128370,6128370,171323,2400639193,"jeannin elsa",fkk8d79vhdj4075@marketplace.amazon.fr,2400049651,"2020-02-03 12:33:29",FR,116.3600,"Start Group
Start Group
Amazon","Orca 226 Perform Aero Race Short Sleeve Mens Tri Suit - Black-L",,116.3600,19.9963,96.96965656,22020,22020,2,323720,0,96.97,96.9700
6161836,6161836,171861,2400643117,"defrance marc",6fk0g23k203tvz0@marketplace.amazon.fr,2400049798,"2020-02-06 14:30:44",FR,22.3600,"Start Group
Start Group
Amazon","Asics Tech Mens Joggers - Black-XL",,22.3600,20.0000,18.63333333,22020,22020,2,217042,0,18.63,18.6300
6156947,6156947,172466,2400642528,"LEFEVRE Myrèse",q06qg0ybgpthlgr@marketplace.amazon.fr,2400050003,"2020-02-12 12:11:17",FR,88.6900,"Start Group
Start Group
Amazon","Brooks Ghost 11 NARROW FIT Womens Running Shoes - Pink-5.5",,88.6900,19.9976,73.90981153,22020,22020,2,333559,0,73.91,73.9100
6196909,6196909,172970,2400647422,"Romain Batlle",n6kpt71f1tp857c@marketplace.amazon.fr,2400050165,"2020-02-18 09:14:25",FR,25.3600,"Start Group
Start Group
Amazon","DBlade Denim Multipocket Mens Work Wear Jeans - Denim-XL",,25.3600,20.0000,21.13333333,22020,22020,2,311293,0,21.13,21.1300
6230844,6230844,173509,2400651679,"ROGER fabrice",4sddnd59j8zztx9@marketplace.amazon.fr,2400050351,"2020-02-22 12:08:57",FR,110.6000,"Start Group
Start Group
Amazon","Asics Gel Nimbus 21 Mens Running Shoes - Black-9.5",,110.6000,20.0039,92.16367135,22020,22020,2,315018,0,92.17,92.1700
6202876,6202876,173685,2400648187,"Charlès Ronan",qplr78h0pb9qm0p@marketplace.amazon.fr,2400050405,"2020-02-25 15:07:40",FR,89.6900,"Start Group
Start Group
Amazon","Asics Gel FujiTrabuco 7 GTX Womens Trail Running Shoes - Blue-7",,89.6900,20.0024,74.74017186,22020,22020,2,334051,0,74.74,74.7400
6053523,6053523,171459,2400630476,"Celine Lescure",gw3rtz885zqyytd@marketplace.amazon.fr,2400049685,"2020-02-04 13:34:59",FR,105.7000,"Start Group
Start Group
Amazon","Castelli Estremo Cycling Gloves - Black-L",,105.7000,20.0000,88.08333333,22020,22020,2,341123,0,88.08,88.0800
6120792,6120792,171864,2400638313,"Carl Olga",0403gp23sq9q01w@marketplace.amazon.fr,2400049801,"2020-02-06 14:36:33",FR,90.5900,"Start Group
Start Group
Amazon","Reebok Crossfit Nano 9.0 Mens Training Shoes - Black-8.5",,90.5900,20.0047,75.48871003,22020,22020,2,342105,0,75.49,75.4900
6188361,6188361,172469,2400646268,"Tellier violaine",8t75jyt9w1mh11h@marketplace.amazon.fr,2400050006,"2020-02-12 12:15:21",FR,93.7000,"Start Group
Start Group
Amazon","Asics Gel Cumulus 21 Mens Running Shoes - Grey-10",,93.7000,20.0046,78.08034025,22020,22020,2,327954,0,78.08,78.0800
6185107,6185107,172974,2400645890,"THIERRY PALLANCHER",bpjck6pbn7b4gpq@marketplace.amazon.fr,2400050167,"2020-02-18 09:18:49",FR,17.3600,"Start Group
Start Group
Amazon","Under Armour Original 6 Inch Mens Boxer Jock - Black-S",,17.3600,20.0370,14.46220749,22020,22020,2,182863,0,14.47,14.4700
6183118,6183118,173541,2500291565,"Henrika Paulauskaite",jeanjacques.emanuelli@9online.fr,2500014470,"2020-02-24 11:31:48",FR,86.9900,"Start Group
Start Group
eBay","adidas Adizero Adios 4 Boost Mens Running Shoes - Blue",,86.9900,20.0000,72.49166667,22020,22020,2,309716,0,72.49,72.4900
6219900,6219900,173937,2400650303,"evelyne cabot",5mzfkfqyr2r6vxq@marketplace.amazon.fr,2400050512,"2020-02-27 07:46:09",FR,32.3500,"Start Group
Start Group
Amazon","adidas Essentials 3 Stripe Mens Joggers - Grey-L",,32.3500,20.0066,26.95685071,22020,22020,2,344917,0,26.96,26.9600
6123974,6123974,171462,2400638666,"CONDEMESE CLAUDE",76czc41bl6nr4yk@marketplace.amazon.fr,2400049688,"2020-02-04 13:40:54",FR,82.3600,"Start Group
Start Group
Amazon","Garmin Forerunner 25 GPS Running Watch - Black",,82.3600,20.0052,68.63035935,22020,22020,2,149012,0,68.63,68.6300
6168606,6168606,171983,2400643868,"cardoso carmen",0c0q40zg9r33w08@marketplace.amazon.fr,2400049838,"2020-02-07 11:32:04",FR,58.6000,"Start Group
Start Group
Amazon","Asics Gel Sonoma 4 Mens Trail Running Shoes - Black-9.5",,58.6000,20.0110,48.82885735,22020,22020,2,336012,0,48.83,48.8300
6186802,6186802,172583,2400646076,"lebourgeois audrey",3wysy5nls42vcny@marketplace.amazon.fr,2400050039,"2020-02-13 11:07:46",FR,30.7000,"Start Group
Start Group
Amazon","Salming Speed 3 Womens Running Shoes - Blue-5",,30.7000,20.0070,25.58184106,22020,22020,2,229300,0,25.58,25.5800
6204707,6204707,172977,2400648416,"BORTOT ISABELLE",cpvgz2hjr7xd1s9@marketplace.amazon.fr,2400050170,"2020-02-18 09:29:19",FR,90.5900,"Start Group
Start Group
Amazon","Reebok Crossfit Nano 9.0 Mens Training Shoes - Black-8",,90.5900,20.0047,75.48871003,22020,22020,2,342104,0,75.49,75.4900
6167835,6167835,173670,2400643790,"Marchand Ilana",5466fc26dhshk85@marketplace.amazon.fr,2400050392,"2020-02-25 13:59:26",FR,32.3500,"Start Group
Start Group
Amazon","SKINS DNAmic Seamless Square Womens 7/8 Compression Training Tights - Black-XS",,32.3500,20.0066,26.95685071,22020,22020,2,291027,0,26.96,26.9600
6122269,6122269,174008,2400638479,"DE OLIVEIRA DAS NEVES DORA",3lcthsycpd5t6n7@marketplace.amazon.fr,2400050553,"2020-02-27 11:24:31",FR,22.3600,"Start Group
Start Group
Amazon","Asics Tech Mens Joggers - Black-M",,22.3600,20.0000,18.63333333,22020,22020,2,217040,0,18.63,18.6300
6117543,6117543,171466,2400637869,"MABIT Christina",20vh21pdbqb5jxz@marketplace.amazon.fr,2400049692,"2020-02-04 13:53:59",FR,27.3500,"Start Group
Start Group
Amazon","Muc-Off Bike Care Essential Kit",,27.3500,19.9922,22.79314822,22020,22020,2,343959,0,22.79,22.7900
6104802,6104802,172196,2400636226,"cebelieu christophe",1hfmdqv7zb8ltnn@marketplace.amazon.fr,2400049885,"2020-02-10 13:46:42",FR,40.6900,"Start Group
Start Group
Amazon","Reebok Workout TR 2.0 Mens Training Shoes – Black-6.5",,40.6900,20.0053,33.90683578,22020,22020,2,287078,0,33.91,33.9100
5933234,5933234,172640,2400611356,"Besson Benjamin",7rxzm7hlxtbwd0q@marketplace.amazon.fr,2400050070,"2020-02-13 16:59:09",FR,29.8100,"Start Group
Start Group
Amazon","Reebok Crossfit Marble Melange Short Sleeve Mens Training Top - Navy-M",,29.8100,19.9928,24.84315726,22020,22020,2,340127,0,24.84,24.8400
6222780,6222780,173106,2400650675,"Mahmoud SEDJAR",g3jbjpgjpqry2n9@marketplace.amazon.fr,2400050221,"2020-02-19 10:09:42",FR,80.6100,"Start Group
Start Group
Amazon","Reebok Crossfit Nano 9.0 Mens Training Shoes - Grey-8.5",,80.6100,20.0027,67.17348860,22020,22020,2,335815,0,67.18,67.1800
6202339,6202339,173678,2400648105,"Lemai-Ducrocq Daniel",4phc0tcpp62nwzx@marketplace.amazon.fr,2400050398,"2020-02-25 14:56:07",FR,80.6100,"Start Group
Start Group
Amazon","Reebok Crossfit Nano 9.0 Mens Training Shoes - Blue-10",,80.6100,20.0027,67.17348860,22020,22020,2,335752,0,67.18,67.1800
6187769,6187769,174054,2400646189,"Jeff Dempsey",v288cwqvtsfy8zb@marketplace.amazon.fr,2400050577,"2020-02-27 14:06:11",FR,130.6000,"Start Group
Start Group
Amazon","Reebok Legacy Lifter Mens Weightlifting Shoes - Black-8.5",,130.6000,20.0049,108.82888949,22020,22020,2,336473,0,108.83,108.8300
6160997,6160997,172324,2400642993,"BOUHELIER CHRISTIAN",d4dlms22g048s83@marketplace.amazon.fr,2400049966,"2020-02-11 11:07:31",FR,85.6000,"Start Group
Start Group
Amazon","adidas Powerlift 4.0 Mens Weightlifting Shoes - Black-6.5",,85.6000,19.9950,71.33630568,22020,22020,2,316942,0,71.33,71.3300
6181056,6181056,172676,2400645402,"IGLESIAS Frédéric",9sthbctpgp64mc3@marketplace.amazon.fr,2400050091,"2020-02-14 10:30:43",FR,36.3500,"Start Group
Start Group
Amazon","adidas ClimaProof 2.5L Waterproof Mens Track Rain Pants - Black-XL",,36.3500,20.0118,30.28868828,22020,22020,2,247188,0,30.29,30.2900
6171830,6171830,173258,2400644258,"ROBLOT STEPHANIE",rrwp1yqlqlvt65w@marketplace.amazon.fr,2400050263,"2020-02-20 08:00:27",FR,12.3600,"Start Group
Start Group
Amazon","TCA Atomic Short Sleeve Womens Running Top - White-L",,12.3600,20.0000,10.30000000,22020,22020,2,248113,0,10.30,10.3000
6209088,6209088,173681,2400648929,"DELGRANGE Nicole",738d5h42r3btx7s@marketplace.amazon.fr,2400050401,"2020-02-25 15:00:56",FR,25.3600,"Start Group
Start Group
Amazon","Speedo Vivienne Clipback Womens Swimsuit - Black-32",,25.3600,20.0000,21.13333333,22020,22020,2,336138,0,21.13,21.1300
6216631,6216631,174105,2400649849,"GUYARD François",x4pcw1fqf0r8m65@marketplace.amazon.fr,2400050589,"2020-02-28 10:45:13",FR,80.6100,"Start Group
Start Group
Amazon","Asics Gel Cumulus 19 Womens Running Shoes - Black-5.5",,80.6100,20.0027,67.17348860,22020,22020,2,318841,0,67.18,67.1800
6156402,6156402,171469,2400642464,"Dolores BENDER",zd3b7nfdj8scbjv@marketplace.amazon.fr,2400049695,"2020-02-04 13:58:08",FR,72.7100,"Start Group
Start Group
Amazon","Asics Noosa FF 2 Womens Running Shoes - Pink-5",,72.7100,19.9971,60.59313100,22020,22020,2,252903,0,60.59,60.5900
6147535,6147535,171859,2400641360,"Hélène Martin",3ltp96drj7c8y1k@marketplace.amazon.fr,2400049797,"2020-02-06 14:26:54",FR,89.6900,"Start Group
Start Group
Amazon","Mizuno Wave Rider 22 Mens Running Shoes - Blue-6.5",,89.6900,20.0024,74.74017186,22020,22020,2,333272,0,74.74,74.7400
6158922,6158922,172424,2400642747,"TREUIL Nadine",jlydbf94jzj2whs@marketplace.amazon.fr,2400049981,"2020-02-12 10:01:38",FR,12.3600,"Start Group
Start Group
Amazon","Mizuno Reflective Mens Running Gilet - Black-L",,12.3600,20.0000,10.30000000,22020,22020,2,223699,0,10.30,10.3000
6115309,6115309,172763,2500287236,"Ried Charni",gamerfalo@yahoo.fr,2500014371,"2020-02-14 13:46:20",FR,22.3600,"Start Group
Start Group
eBay","Asics Graphic Mens Training Hoody - Blue",,22.3600,20.0000,18.63333333,22020,22020,2,207328,0,18.63,18.6300
6214910,6214910,173508,2400649613,"Adechola waliou",wt7pgc7b05swvz7@marketplace.amazon.fr,2400050350,"2020-02-22 12:06:19",FR,50.7000,"Start Group
Start Group
Amazon","adidas X 15.1 Soft Ground Mens Football Boots - White-6.5",,50.7000,20.0042,42.24852130,22020,22020,2,174077,0,42.25,42.2500
6185626,6185626,173684,2400645964,"Rmida jaoued",5htsfdxjp2gm71b@marketplace.amazon.fr,2400050404,"2020-02-25 15:06:13",FR,55.7000,"Start Group
Start Group
Amazon","Asics JB Elite III Mens Wrestling Shoes - Gold-10.5",,55.7000,19.9923,46.41964526,22020,22020,2,343182,0,46.42,46.4200
6233389,6233389,174127,2400651979,"Merioua Abderrahmen",2yxdbmp5yrl0mg6@marketplace.amazon.fr,2400050601,"2020-02-28 15:03:07",FR,100.6000,"Start Group
Start Group
Amazon","adidas Adizero Adios 4 Boost Mens Running Shoes - Black-8.5",,100.6000,20.0043,83.83032941,22020,22020,2,309795,0,83.83,83.8300
6135087,6135087,171456,2400640021,"dassonneville matthieu",zmb0vvdd4j571gs@marketplace.amazon.fr,2400049682,"2020-02-04 13:00:11",FR,27.3600,"Start Group
Start Group
Amazon","adidas Response Womens Long Running Tights - Black-S",,27.3600,19.9844,22.80296439,22020,22020,2,217942,0,22.80,22.8000
6128858,6128858,171863,2400639245,"Thierry Martin",2tvky5371zg4w3y@marketplace.amazon.fr,2400049800,"2020-02-06 14:34:54",FR,85.6000,"Start Group
Start Group
Amazon","adidas Powerlift 4.0 Weightlifting Shoes - Blue-8.5",,85.6000,19.9950,71.33630568,22020,22020,2,331616,0,71.33,71.3300
6178226,6178226,172468,2400645069,"schlauder jean-daniel",l5ltbhrvsz6w0pf@marketplace.amazon.fr,2400050005,"2020-02-12 12:14:10",FR,59.7000,"Start Group
Start Group
Amazon","adidas Havoc Mens Wrestling Shoes - White-10.5",,59.7000,20.0000,49.75000000,22020,22020,2,314234,0,49.75,49.7500
6201690,6201690,172973,2400648039,"robin jean-cyril",2gwv4mdc8bk58jx@marketplace.amazon.fr,2400050166,"2020-02-18 09:16:57",FR,75.6900,"Start Group
Start Group
Amazon","Saucony Koa TR Mens Trail Running Shoes - Black-7.5",,75.6900,19.9972,63.07647178,22020,22020,2,308810,0,63.08,63.0800
6206478,6206478,173540,2500293145,"josiane CLEAU",josiane.cleau@gmx.fr,2500014469,"2020-02-24 11:30:38",FR,69.7000,"Start Group
Start Group
eBay","Asics Gel Glorify 2 Womens Running Shoes - Black",,69.7000,20.0000,58.08333333,22020,22020,2,215674,0,58.08,58.0800
6236784,6236784,173936,2400652402,"Brigitte mondini",g291bxf1w8j913v@marketplace.amazon.fr,2400050511,"2020-02-27 07:18:37",FR,10.3500,"Start Group
Start Group
Amazon","Puma Performance Mesh Womens Golf Cap - White",,10.3500,20.0620,8.62054605,22020,22020,2,219427,0,8.63,8.6300
6113093,6113093,171461,2400637340,"AUBIN STEPHANE",hr56xhb5bxgpvjk@marketplace.amazon.fr,2400049687,"2020-02-04 13:38:32",FR,89.6900,"Start Group
Start Group
Amazon","Mizuno Wave Ultima 11 Womens Running Shoes - Blue-8.5",,89.6900,20.0024,74.74017186,22020,22020,2,317334,0,74.74,74.7400
6167832,6167832,171866,2400643789,"dinar karim",4s0prvz3bjkknc3@marketplace.amazon.fr,2400049803,"2020-02-06 14:40:44",FR,94.6000,"Start Group
Start Group
Amazon","adidas Adizero Boston Boost 8 Mens Running Shoes - Grey-9.5",,94.6000,20.0068,78.82886636,22020,22020,2,338242,0,78.83,78.8300
6185094,6185094,172582,2400645888,"Thierry BUISSON-DEBON",d4vx69btnj5f8h7@marketplace.amazon.fr,2400050038,"2020-02-13 11:03:46",FR,85.6000,"Start Group
Start Group
Amazon","adidas Powerlift 4.0 Mens Weightlifting Shoes - Black-7",,85.6000,19.9950,71.33630568,22020,22020,2,316943,0,71.33,71.3300
6196359,6196359,172976,2400647348,"LOGEREAU Isabelle",d827rglzn0t6t51@marketplace.amazon.fr,2400050169,"2020-02-18 09:25:14",FR,40.6900,"Start Group
Start Group
Amazon","More Mile Cheviot 4 Mens Trail Running Shoes - Grey-7.5",,40.6900,20.0053,33.90683578,22020,22020,2,233486,0,33.91,33.9100
6238453,6238453,173610,2400652644,"Sebastien DOMERGUE",brflf21s43s4lzj@marketplace.amazon.fr,2400050371,"2020-02-25 10:01:08",FR,65.7000,"Start Group
Start Group
Amazon","adidas Adizero Avanti Boost Running Spikes - Black-6",,65.7000,19.9967,54.75150567,22020,22020,2,314151,0,54.75,54.7500
6210045,6210045,173939,2400649087,"LAGZIRI MYRIAM",hs29t2dcmxm3cjp@marketplace.amazon.fr,2400050514,"2020-02-27 07:49:07",FR,67.2600,"Start Group
Start Group
Amazon","adidas Z.N.E Fast Release Mens Hoody - Grey-L",,67.2600,19.9936,56.05298949,22020,22020,2,320832,0,56.05,56.0500
6156630,6156630,171464,2400642492,"Julien Muraioli",4zdjgtqlctws39f@marketplace.amazon.fr,2400049690,"2020-02-04 13:48:46",FR,90.5900,"Start Group
Start Group
Amazon","Reebok Crossfit Nano 9.0 Womens Training Shoes - Black-6.5",,90.5900,20.0047,75.48871003,22020,22020,2,342163,0,75.49,75.4900
6200363,6200363,172148,2400647908,"Emmanuelle DEVAUX",lp8xl4swtw2d2hn@marketplace.amazon.fr,2400049875,"2020-02-10 09:39:24",FR,89.6900,"Start Group
Start Group
Amazon","adidas Adizero Boston Boost 7 Womens Running Shoes - Grey-5.5",,89.6900,20.0024,74.74017186,22020,22020,2,327374,0,74.74,74.7400
6140671,6140671,172628,2400640501,"weissenbach Francis",pn17r5h436wpd8z@marketplace.amazon.fr,2400050063,"2020-02-13 14:05:44",FR,100.6000,"Start Group
Start Group
Amazon","adidas Adizero Adios 4 Boost Mens Running Shoes - Blue-8.5",,100.6000,20.0043,83.83032941,22020,22020,2,339181,0,83.83,83.8300
6189712,6189712,172979,2400646429,"Mounier vehier",vpl8y9g43ckqs5j@marketplace.amazon.fr,2400050172,"2020-02-18 09:32:40",FR,49.7000,"Start Group
Start Group
Amazon","Shimano SH-WR84 Womens Road Cycling Shoes - Black-EU37",,49.7000,19.9957,41.41815082,22020,22020,2,320670,0,41.42,41.4200
6192777,6192777,173677,2400646837,"Pivion nicolas",k41fbbhy6n1f00y@marketplace.amazon.fr,2400050397,"2020-02-25 14:52:16",FR,25.3600,"Start Group
Start Group
Amazon","DBlade Denim Multipocket Mens Work Wear Jeans - Denim-M",,25.3600,20.0000,21.13333333,22020,22020,2,311291,0,21.13,21.1300
6218980,6218980,174015,2400650205,"di rené",g2twnr3tp9b95mw@marketplace.amazon.fr,2400050555,"2020-02-27 11:44:41",FR,89.6900,"Start Group
Start Group
Amazon","Asics Gel FujiTrabuco 7 GTX Womens Trail Running Shoes - Blue-6.5",,89.6900,20.0024,74.74017186,22020,22020,2,334050,0,74.74,74.7400
6200477,6200477,173257,2400647921,"BUCHE NELLY",nv28tq63351ys9z@marketplace.amazon.fr,2400050262,"2020-02-20 07:58:48",FR,24.8600,"Start Group
Start Group
Amazon","adidas Tiro15 Mens Track Pants - Black-S",,24.8600,20.0172,20.71369770,22020,22020,2,195613,0,20.72,20.7200
6148563,6148563,173680,2400641493,"BOULAKHRAS Moundji",0cx9swwzldbmgnk@marketplace.amazon.fr,2400050400,"2020-02-25 14:59:34",FR,65.7000,"Start Group
Start Group
Amazon","Merrell Moab 2 Ventilator Mens Walking Shoes - Grey-7.5",,65.7000,19.9967,54.75150567,22020,22020,2,331749,0,54.75,54.7500
6242583,6242583,174058,2400653227,"mong andreas",wlyvb38hwtrbx2v@marketplace.amazon.fr,2400050580,"2020-02-27 14:27:13",FR,65.7000,"Start Group
Start Group
Amazon","adidas Speedex 16.1 Boxing Shoes - Red-8",,65.7000,19.9967,54.75150567,22020,22020,2,316704,0,54.75,54.7500
6163887,6163887,171468,2400643354,"sedo vincent",g9q462wz6lhdcpv@marketplace.amazon.fr,2400049694,"2020-02-04 13:56:16",FR,25.3600,"Start Group
Start Group
Amazon","DBlade Denim Multipocket Mens Work Wear Jeans - Denim-M",,25.3600,20.0000,21.13333333,22020,22020,2,311291,0,21.13,21.1300
6144231,6144231,172323,2400640959,"Royet Nadine",clwp3lp7hm0yjrd@marketplace.amazon.fr,2400049965,"2020-02-11 11:05:53",FR,15.3500,"Start Group
Start Group
Amazon","TCA Pro Performance Womens Endurance Long Training Tights - Black-L",,15.3500,20.0000,12.79166667,22020,22020,2,246477,0,12.79,12.7900
6081301,6081301,171302,2400633529,"Ngambelo toussaint",jnpl0pd5zjq91s6@marketplace.amazon.fr,2400049643,"2020-02-03 10:12:23",FR,32.3500,"Start Group
Start Group
Amazon","adidas Essentials 3 Stripe Mens Joggers - Grey-L",,32.3500,20.0066,26.95685071,22020,22020,2,344917,0,26.96,26.9600
6144962,6144962,171785,2400641034,"launoy robert",9jhjp30y40w5tyb@marketplace.amazon.fr,2400049759,"2020-02-06 08:50:38",FR,65.7000,"Start Group
Start Group
Amazon","Merrell Moab 2 Ventilator Mens Walking Shoes - Brown-8.5",,65.7000,19.9967,54.75150567,22020,22020,2,331741,0,54.75,54.7500
6146110,6146110,172326,2400641200,"Hantat ilham",5dk9wmbyj5ccksh@marketplace.amazon.fr,2400049968,"2020-02-11 11:10:49",FR,45.7000,"Start Group
Start Group
Amazon","Scott Road Pro Womens Cycling Shoes - Black-EU37",,45.7000,19.9906,38.08631676,22020,22020,2,208904,0,38.08,38.0800
6177291,6177291,172738,2400644930,"Davranche Jocelyne",l3b2hmqycj1czpx@marketplace.amazon.fr,2400050122,"2020-02-14 12:19:42",FR,32.3500,"Start Group
Start Group
Amazon","Under Armour Vanish Womens Long Training Tights - Black-M",,32.3500,20.0066,26.95685071,22020,22020,2,350286,0,26.96,26.9600
6173809,6173809,173426,2400644494,"therese schiltz",ttyw1v2j2hnjlkt@marketplace.amazon.fr,2400050334,"2020-02-21 11:04:48",FR,12.3600,"Start Group
Start Group
Amazon","Mizuno Reflective Mens Running Gilet - Black-XL",,12.3600,20.0000,10.30000000,22020,22020,2,223700,0,10.30,10.3000
6216528,6216528,173683,2400649837,"pernelet alain",smq8n84yr1fdyrv@marketplace.amazon.fr,2400050403,"2020-02-25 15:04:40",FR,57.3600,"Start Group
Start Group
Amazon","TomTom Touch Cardio Fitness Tracker - Black",,57.3600,19.9925,47.80298769,22020,22020,2,188696,0,47.80,47.8000
6190764,6190764,174126,2400646585,"ILY MARIE LAURE",9s7k55pxpsxmdw2@marketplace.amazon.fr,2400050600,"2020-02-28 15:00:25",FR,85.7000,"Start Group
Start Group
Amazon","Asics GT 2000 7 Womens Running Shoes - White-6",,85.7000,19.9975,71.41815454,22020,22020,2,328641,0,71.42,71.4200
6151275,6151275,171455,2400641814,"Roumat Alexandre",cjsyy2mphsg6c9k@marketplace.amazon.fr,2400049681,"2020-02-04 12:58:31",FR,89.6900,"Start Group
Start Group
Amazon","Brooks Levitate 2 Mens Running Shoes - Blue-7.5",,89.6900,20.0024,74.74017186,22020,22020,2,312444,0,74.74,74.7400
6148541,6148541,172467,2400641491,"Mme SFREDDO Claudine",q9mddv5gjdfy10s@marketplace.amazon.fr,2400050004,"2020-02-12 12:13:08",FR,156.3500,"Start Group
Start Group
Amazon","Inov8 Thermoshell Pro Womens Running Jacket - Purple-S",,156.3500,20.0000,130.29166667,22020,22020,2,340528,0,130.29,130.2900
6196910,6196910,172970,2400647422,"Romain Batlle",n6kpt71f1tp857c@marketplace.amazon.fr,2400050165,"2020-02-18 09:14:25",FR,25.3500,"Start Group
Start Group
Amazon","DBlade Denim Multipocket Mens Work Wear Jeans - Denim-L",,25.3500,20.0000,21.12500000,22020,22020,2,311292,0,21.13,21.1300
6115348,6115348,173531,2500287237,"Ried Charni",gamerfalo@yahoo.fr,2500014465,"2020-02-24 09:29:40",FR,27.3500,"Start Group
Start Group
eBay","Asics Essential Mens Full Zip Hoody - Grey",,27.3500,20.0000,22.79166667,22020,22020,2,214227,0,22.79,22.7900
6201351,6201351,173705,2400648016,"AISSI SABRINA",gclz82zw73z8l4x@marketplace.amazon.fr,2400050416,"2020-02-25 16:27:41",FR,93.7000,"Start Group
Start Group
Amazon","Asics Gel Cumulus 21 Womens Running Shoes - Green-7",,93.7000,20.0046,78.08034025,22020,22020,2,330940,0,78.08,78.0800
6166808,6166808,172578,2400643654,"Erick Yesai Covarrubias Leos",q34v63l442z8hyr@marketplace.amazon.fr,2400050037,"2020-02-13 10:24:38",FR,67.3400,"Start Group
Start Group
Amazon","Giro Ember MIPS Womens Road Cycling Helmet - Pink-51-55cm",,67.3400,20.0000,56.11666667,22020,22020,5,309656,0,67.34,67.3400
6200135,6200135,173938,2400647881,"gaelle defour",3pd7qxf5wqwh8nm@marketplace.amazon.fr,2400050513,"2020-02-27 07:47:55",FR,25.7000,"Start Group
Start Group
Amazon","Regatta Gatlin Mid Junior Waterproof Walking Boots - Blue-10 J",,25.7000,20.0250,21.41220579,22020,22020,5,350557,0,25.70,25.7000
6056152,6056152,171467,2400630741,"Boucher Elodie",zxn19t5sbhhmvcx@marketplace.amazon.fr,2400049693,"2020-02-04 13:54:53",FR,17.3600,"Start Group
Start Group
Amazon","Nike Juventus Retro Short Sleeve Junior Football Top - Black-12-13 Years",,17.3600,20.0370,14.46220749,22020,22020,5,216993,0,17.36,17.3600
6178777,6178777,171291,2400645141,"SARTIGNY ISABELLE",h977d4b9446js51@marketplace.amazon.fr,2400049634,"2020-02-03 09:05:05",FR,40.6000,"Start Group
Start Group
Amazon","Asics Gel Cumulus 21 GS Junior Running Shoes - Pink-5",,40.6000,20.0000,33.83333333,22020,22020,5,330970,0,40.60,40.6000
6172539,6172539,172678,2400644348,"Joly virginie",q1296vz956861wf@marketplace.amazon.fr,2400050092,"2020-02-14 10:31:59",FR,17.3600,"Start Group
Start Group
Amazon","Under Armour HeatGear Junior Loose Tank Top - Pink-M",,17.3600,20.0370,14.46220749,22020,22020,5,198151,0,17.36,17.3600
6129222,6129222,171304,2400639293,"Diallo kalil",q4jrbrrz4fnyppf@marketplace.amazon.fr,2400049644,"2020-02-03 11:12:50",FR,17.3600,"Start Group
Start Group
Amazon","Nike Juventus Retro Short Sleeve Junior Football Top - Black-10-12 Years",,17.3600,20.0370,14.46220749,22020,22020,5,216992,0,17.36,17.3600
6035743,6035743,172674,2400628003,"Lemoine N/A",r1r9lh0p5wk7vwm@marketplace.amazon.fr,2400050090,"2020-02-14 10:28:36",FR,28.9100,"Start Group
Start Group
Amazon","Puma evoPower Vigor 3 Graphic Firm Ground Junior Football Boots - Yellow-3",,28.9100,20.0222,24.08721053,22020,22020,5,233113,0,28.91,28.9100
6142423,6142423,171862,2400640695,"Christian Nawrocki",457bhpnkffbs0dx@marketplace.amazon.fr,2400049799,"2020-02-06 14:32:36",FR,104.8600,"Start Group
Start Group
Amazon","Bell Sixer MIPS MTB Cycling Helmet - Grey-58-62cm",,104.8600,19.9959,87.38631903,22020,22020,5,313804,0,104.86,104.8600
