entity_id,"Order number","Credit No","Credit Date","GBP Net goods after discount","GBP VAT on Goods","GBP Gross goods after discount",country_id,"Store Credit Used",store_name
203482,6000857269,6000059705,2020-11-09,29.9100,7.18,37.0900,GR,,"Start Fitness
Fitness
SF English"
204324,6000857904,6000060227,2020-11-25,4.1700,1.00,5.1700,GR,,"Start Fitness
Fitness
SF English"
203491,6000857910,6000059712,2020-11-09,60.7600,14.58,75.3400,GR,,"Start Fitness
Fitness
SF English"
203552,6000859489,6000059744,2020-11-10,16.6700,0.00,16.6700,GR,,"Start Fitness
Fitness
SF English"
204261,6000872856,6000060215,2020-11-24,143.0100,33.96,176.9700,GR,,"Start Fitness
Fitness
SF English"
204710,6000880765,6000060482,2020-11-30,54.8300,0.00,54.8300,GR,,"Start Fitness
Fitness
SF English"
