entity_id,"Order number","Credit No","Credit Date","GBP Net goods after discount","GBP VAT on Goods","GBP Gross goods after discount",country_id,"Store Credit Used",store_name
204044,6000852429,6000060065,2020-11-21,83.2500,16.65,99.9000,PT,,"Start Fitness
Fitness
SF English"
204712,6000878391,6000060483,2020-11-30,15.8900,3.18,19.0700,PT,,"Start Fitness
Fitness
SF English"
