item_id,order_item_id,"Invoice ID","Order Number","Customer name",customer_email,"Credit Note No","Credit note Date",country_id,base_row_total_incl_tax,store_name,name,base_discount_amount,"Value less discount",tax_percent,"Net Discounted Amount","Return Date",month_year,value,product_id,customer_group_id,"net based on catalog vat","Net sales based on customer group"
7428084,7428084,212207,AMZ24000580872,"M2E Orders",m2eorders@startfitness.co.uk,24000042867,"2021-01-22 08:10:33",IT,8.3800,"Start Group
Start Group
Amazon","Mizuno Reflective Mens Running Gilet - Black-M",,8.3800,21.9796,6.87000121,22021,12021,2,223698,1,6.98,6.9800
7491591,7491591,212208,24000578826,"M2E Orders",m2eorders@startfitness.co.uk,24000041853,"2021-01-22 08:11:30",IT,12.9000,"Start Group
Start Group
Amazon USA","Under Armour Patterson Backpack - Grey",,12.9000,22.0435,10.57000168,22021,12021,2,349932,1,10.75,10.7500
7389520,7389520,212906,EBY24000574889,"M2E Orders",m2eorders@startfitness.co.uk,24000042694,"2021-01-26 09:22:17",IT,89.9000,"Start Group
Start Group
eBay","Shimano RC300 Road Cycling Shoes - Red",,89.9000,20.0000,74.91666667,22021,12021,2,379906,1,74.92,74.9200
7451197,7451197,212990,AMZ24000583420,"M2E Orders",m2eorders@startfitness.co.uk,24000042985,"2021-01-26 12:59:49",IT,50.3100,"Start Group
Start Group
Amazon","Brooks 3 ELMN8 Middle Distance Running Spikes - White-9.5",,50.3100,21.9932,41.24000354,22021,12021,2,197589,1,41.93,41.9300
7417224,7417224,208898,AMZ24000579804,"M2E Orders",m2eorders@startfitness.co.uk,24000042498,"2021-01-02 15:50:31",IT,5.1600,"Start Group
Start Group
Amazon","Muc-Off Glueless Patch Repair Kit - Black",,5.1600,22.0000,4.22950820,22021,12021,2,368748,1,4.30,4.3000
7519086,7519086,213106,AMZ24000586883,"M2E Orders",m2eorders@startfitness.co.uk,24000043028,"2021-01-27 10:58:25",IT,96.6200,"Start Group
Start Group
Amazon","adidas Powerlift 4.0 Mens Weightlifting Shoes - Black-6.5",,96.6200,21.9949,79.20003213,22021,12021,2,316942,1,80.52,80.5200
7539975,7539975,208908,AMZ24000588990,"M2E Orders",m2eorders@startfitness.co.uk,24000042502,"2021-01-04 08:28:23",IT,19.3400,"Start Group
Start Group
Amazon","Muc-Off Clean Protect And Lube Kit",,19.3400,22.0189,15.85000357,22021,12021,2,343958,1,16.12,16.1200
7614178,7614178,213213,EBY24000587116,"M2E Orders",m2eorders@startfitness.co.uk,24000042712,"2021-01-28 08:36:46",IT,35.0000,"Start Group
Start Group
eBay","adidas Own The Run Mens Long Running Tights - Black",,35.0000,20.0000,29.16666667,22021,12021,2,348396,1,29.17,29.1700
7551599,7551599,208909,EBY24000583972,"M2E Orders",m2eorders@startfitness.co.uk,24000042302,"2021-01-04 08:32:09",IT,54.4900,"Start Group
Start Group
eBay","Muc-Off Dirt Bucket With Filth Filter",,54.4900,20.0000,45.40833333,22021,12021,2,363491,1,45.41,45.4100
7509850,7509850,213214,EBY24000582068,"M2E Orders",m2eorders@startfitness.co.uk,24000042713,"2021-01-28 08:37:39",IT,10.0000,"Start Group
Start Group
eBay","Sub Sports Cold Thermal Mens Long Sleeve Fitted Top - Black",,10.0000,20.0000,8.33333333,22021,12021,2,387115,1,8.33,8.3300
7469434,7469434,213543,24000572940,"M2E Orders",m2eorders@startfitness.co.uk,24000041871,"2021-01-30 10:53:00",IT,108.3600,"Start Group
Start Group
Amazon USA","Mizuno Wave Rider 23 Mens Running Shoes - Grey-8.5",,108.3600,21.9995,88.82003615,22021,12021,2,366769,1,90.30,90.3000
7389840,7389840,209521,AMZ24000577167,"M2E Orders",m2eorders@startfitness.co.uk,24000042573,"2021-01-08 12:15:28",IT,23.2200,"Start Group
Start Group
Amazon","DBlade Denim Multipocket Mens Work Wear Jeans - Denim-XL",,23.2200,22.0179,19.02999478,22021,12021,2,311293,1,19.35,19.3500
7371905,7371905,209523,AMZ24000575537,"M2E Orders",m2eorders@startfitness.co.uk,24000042574,"2021-01-08 12:17:31",IT,23.2100,"Start Group
Start Group
Amazon","Muc-Off Cycling Luxury Chamois Cream 250ml",,23.2100,22.0294,19.02000665,22021,12021,2,355271,1,19.34,19.3400
7510450,7510450,209525,AMZ24000585691,"M2E Orders",m2eorders@startfitness.co.uk,24000042575,"2021-01-08 12:20:14",IT,12.9000,"Start Group
Start Group
Amazon","Under Armour Patterson Backpack - Grey",,12.9000,22.0435,10.57000168,22021,12021,2,349932,1,10.75,10.7500
7632339,7632339,209677,6000928672,,info@jumptraining.it,6000063810,"2021-01-08 16:32:51",IT,41.5800,"Start Fitness
Fitness
SF English","Reebok ThermoWarm DeltaPeak Mens Training Pants - Black",,41.5800,0.0000,41.58000000,22021,12021,2,380036,0,34.65,34.6500
7519200,7519200,209834,6000901462,"Giorgio Signori",signori44@yahoo.it,6000063914,"2021-01-09 15:15:36",IT,121.9000,"Start Fitness
Fitness
SF English","Reebok Wonder Woman Nano X Training Shoes - Blue",,121.9000,22.0000,99.91803279,22021,12021,2,385701,1,101.58,101.5800
7505967,7505967,210068,AMZ24000585092,"M2E Orders",m2eorders@startfitness.co.uk,24000042617,"2021-01-11 13:54:35",IT,25.8000,"Start Group
Start Group
Amazon","DBlade Softshell Mens Work Wear Jacket - Black-S",,25.8000,21.9858,21.15000271,22021,12021,2,311065,1,21.50,21.5000
7502113,7502113,210188,EBY24000581648,"M2E Orders",m2eorders@startfitness.co.uk,24000042474,"2021-01-12 14:53:27",IT,95.0000,"Start Group
Start Group
eBay","Hope AM Mountain Bike Stem 0 Deg OS - Purple",,95.0000,20.0000,79.16666667,22021,12021,2,174564,1,79.17,79.1700
7539461,7539461,210302,AMZ24000588968,"M2E Orders",m2eorders@startfitness.co.uk,24000042672,"2021-01-13 11:51:53",IT,12.9000,"Start Group
Start Group
Amazon","Under Armour Patterson Backpack - Blue",,12.9000,22.0435,10.57000168,22021,12021,2,349933,1,10.75,10.7500
7357238,7357238,210304,AMZ24000574245,"M2E Orders",m2eorders@startfitness.co.uk,24000042673,"2021-01-13 11:55:14",IT,7.6800,"Start Group
Start Group
Amazon","Muc-Off Wet Lube Bike Chain Lubricant 120ml - Black",,7.6800,21.9048,6.29999803,22021,12021,2,14610,1,6.40,6.4000
7542916,7542916,210307,AMZ24000589177,"M2E Orders",m2eorders@startfitness.co.uk,24000042674,"2021-01-13 12:30:11",IT,10.3200,"Start Group
Start Group
Amazon","Mizuno Reflective Mens Running Gilet - Black-S",,10.3200,21.9858,8.46000108,22021,12021,2,223697,1,8.60,8.6000
7453358,7453358,210455,AMZ24000583688,"M2E Orders",m2eorders@startfitness.co.uk,24000042680,"2021-01-14 11:45:44",IT,9.0300,"Start Group
Start Group
Amazon","DBlade Australian Canvas Mens Work Wear Pants - Khaki-XL",,9.0300,22.0270,7.40000164,22021,12021,2,311285,1,7.53,7.5300
7659128,7659128,210461,6000935412,"Rory James",jammysoutherner@hotmail.com,6000064390,"2021-01-14 12:57:42",IT,3.7400,"Start Fitness
Fitness
SF English","More Mile Winter Long Sleeve Mens Cycle Jersey - Black",0.7500,2.9900,0.0000,2.99000000,22021,12021,2,86419,0,2.49,2.4900
7495588,7495588,210706,AMZ24000583802,"M2E Orders",m2eorders@startfitness.co.uk,24000042717,"2021-01-15 13:43:19",IT,6.3200,"Start Group
Start Group
Amazon","Fox Base Water Bottle - Clear",,6.3200,22.0077,5.18000093,22021,12021,2,356266,1,5.27,5.2700
7367406,7367406,211038,AMZ24000575195,"M2E Orders",m2eorders@startfitness.co.uk,24000042719,"2021-01-16 17:16:33",IT,21.8000,"Start Group
Start Group
Amazon","Under Armour Sportstyle Graphic Mens Joggers - Blue-L",,21.8000,21.9922,17.86999497,22021,12021,2,364965,1,18.17,18.1700
7434206,7434206,211539,6000882475,"Elisabetta Puzone",residentialadv.ltduk@gmail.com,6000065246,"2021-01-19 15:22:43",IT,20.3300,"Start Fitness
Fitness
SF English","adidas 3 Stripes Backpack - Black",,20.3300,22.0000,16.66393443,22021,12021,2,357017,0,16.94,16.9400
7400424,7400424,211705,EBY24000575589,"M2E Orders",m2eorders@startfitness.co.uk,24000042615,"2021-01-20 09:19:07",IT,50.0000,"Start Group
Start Group
eBay","Brooks Adrenaline GTS 12 Mens Running Shoes - Grey",,50.0000,20.0000,41.66666667,22021,12021,2,384897,1,41.67,41.6700
7375318,7375318,211897,AMZ24000575785,"M2E Orders",m2eorders@startfitness.co.uk,24000042842,"2021-01-20 13:27:50",IT,19.3500,"Start Group
Start Group
Amazon","adidas WR Class Womens Wrestling Suit - Navy-XL",,19.3500,22.0050,15.86000574,22021,12021,2,316680,1,16.13,16.1300
7337706,7337706,212200,AMZ24000572387,"M2E Orders",m2eorders@startfitness.co.uk,24000042862,"2021-01-22 08:01:13",IT,83.8500,"Start Group
Start Group
Amazon","adidas AlphaBounce Instinct Clima Mens Running Shoes - Black-11",,83.8500,21.9991,68.73001522,22021,12021,2,329918,1,69.88,69.8800
7489081,7489081,212201,24000578323,"M2E Orders",m2eorders@startfitness.co.uk,24000041851,"2021-01-22 08:02:13",IT,18.0600,"Start Group
Start Group
Amazon USA","Muc-Off C3 Ceramic Dry Lube Bike Chain Lubricant 120ml",,18.0600,22.0000,14.80327869,22021,12021,2,13546,1,15.05,15.0500
7518933,7518933,212202,AMZ24000586875,"M2E Orders",m2eorders@startfitness.co.uk,24000042863,"2021-01-22 08:03:16",IT,63.8500,"Start Group
Start Group
Amazon","Muc-Off Dirt Bucket With Filth Filter",,63.8500,21.9908,52.34001253,22021,12021,2,363491,1,53.21,53.2100
7475935,7475935,212203,24000574812,"M2E Orders",m2eorders@startfitness.co.uk,24000041852,"2021-01-22 08:04:27",IT,25.6700,"Start Group
Start Group
Amazon USA","SiS GO Electrolyte Drink Powder 1.6kg-Lemon & Lime",,25.6700,22.0057,21.04000059,22021,12021,2,9684,1,21.39,21.3900
7345002,7345002,212204,AMZ24000573057,"M2E Orders",m2eorders@startfitness.co.uk,24000042864,"2021-01-22 08:06:54",IT,50.3100,"Start Group
Start Group
Amazon","Under Armour Guardian Backpack - Black",,50.3100,21.9932,41.24000354,22021,12021,2,350212,1,41.93,41.9300
7414180,7414180,212205,AMZ24000579493,"M2E Orders",m2eorders@startfitness.co.uk,24000042865,"2021-01-22 08:07:48",IT,12.9000,"Start Group
Start Group
Amazon","Under Armour Patterson Backpack - Blue",,12.9000,22.0435,10.57000168,22021,12021,2,349933,1,10.75,10.7500
7442852,7442852,212206,AMZ24000582469,"M2E Orders",m2eorders@startfitness.co.uk,24000042866,"2021-01-22 08:08:17",IT,23.2200,"Start Group
Start Group
Amazon","DBlade Denim Multipocket Mens Work Wear Jeans - Denim-XL",,23.2200,22.0179,19.02999478,22021,12021,2,311293,1,19.35,19.3500
7430203,7430203,209367,6000881626,,ambra.cosma@gcpitalia.it,6000063573,"2021-01-07 13:09:28",IT,30.5000,"Start Fitness
Fitness
SF English","Under Armour ColdGear Compression Junior Long Sleeve Mock Top - Black",,30.5000,22.0000,25.00000000,22021,12021,5,307366,0,30.50,30.5000
