item_id,order_item_id,"Invoice ID","Order Number","Customer name",customer_email,"Credit Note No","Credit note Date",country_id,base_row_total_incl_tax,store_name,name,base_discount_amount,"Value less discount",tax_percent,"Net Discounted Amount","Return Date",month_year,value,product_id,customer_group_id,"net based on catalog vat","Net sales based on customer group"
7663711,7663711,218351,EBY24000589763,"M2E Orders",m2eorders@startfitness.co.uk,24000043214,"2021-03-03 14:34:26",AT,11.2200,"Start Group
Start Group
eBay","More Mile Wind Womens Running Jacket - Blue",,11.2200,20.0000,9.35000000,42021,32021,2,162543,1,9.35,9.3500
7233071,7233071,219001,2400770508,"Ursula Zagler",vbynjfbnmm5xz2c@marketplace.amazon.de,24000043864,"2021-03-09 12:06:12",AT,48.8300,"Start Group
Start Group
Amazon","Salming Trail T4 Womens Running Shoes - Black-5.5",,48.8300,20.0044,40.69017469,42021,32021,2,366020,0,40.69,40.6900
7452303,7452303,220397,AMZ24000583562,"M2E Orders",m2eorders@startfitness.co.uk,24000044071,"2021-03-22 10:43:27",AT,20.0200,"Start Group
Start Group
Amazon","Sub Sports Cold Mens Compression Long Tights - Black-XL",,20.0200,20.0240,16.67999733,42021,32021,2,365144,1,16.68,16.6800
