item_id,order_item_id,"Invoice ID","Order Number","Customer name",customer_email,"Credit Note No","Credit note Date",country_id,base_row_total_incl_tax,store_name,name,base_discount_amount,"Value less discount",tax_percent,"Net Discounted Amount","Return Date",month_year,value,product_id,customer_group_id,"net based on catalog vat","Net sales based on customer group"
7149808,7149808,203395,1900342626,"Sergio Segura del Rio",tazmelilla@hotmail.com,6000059377,"2020-11-06 15:38:27",ES,45.0000,"Start Fitness
Fitness
Fitness Mobile","Scott Sport Trail Mens Cycling Shoes - Grey",,45.0000,20.0000,37.50000000,122020,112020,2,377120,0,37.50,37.5000
7301359,7301359,203705,AMZ24000568071,"M2E Orders",m2eorders@startfitness.co.uk,24000041610,"2020-11-14 13:45:42",ES,17.1300,"Start Group
Start Group
Amazon","Under Armour Sportstyle Graphic Mens Joggers - Blue-XL",,17.1300,19.9750,14.27797458,122020,112020,2,364966,1,14.28,14.2800
7302810,7302810,203250,AMZ24000568568,"M2E Orders",m2eorders@startfitness.co.uk,24000041552,"2020-11-03 11:40:28",ES,14.9400,"Start Group
Start Group
Amazon","Muc-Off Carbon Gripper",,14.9400,19.9714,12.45296796,122020,112020,2,345365,1,12.45,12.4500
7305709,7305709,203281,AMZ24000569177,"M2E Orders",m2eorders@startfitness.co.uk,24000041564,"2020-11-04 09:51:57",ES,17.1300,"Start Group
Start Group
Amazon","adidas AeroReady Womens Running Visor - Purple",,17.1300,19.9750,14.27797458,122020,112020,2,355944,1,14.28,14.2800
7333094,7333094,204711,AMZ24000571923,"M2E Orders",m2eorders@startfitness.co.uk,24000041779,"2020-11-30 15:58:10",ES,17.2500,"Start Group
Start Group
Amazon","Dare2B Fired Up II Mens Windshell Jacket - Grey-XL",,17.2500,20.0372,14.37054513,122020,112020,2,346868,1,14.38,14.3800
7333586,7333586,203588,AMZ24000571978,"M2E Orders",m2eorders@startfitness.co.uk,24000041597,"2020-11-11 13:49:47",ES,19.2200,"Start Group
Start Group
Amazon","Under Armour Sportstyle Graphic Mens Joggers - Blue-S",,19.2200,20.0062,16.01583918,122020,112020,2,364963,1,16.02,16.0200
7333587,7333587,203588,AMZ24000571978,"M2E Orders",m2eorders@startfitness.co.uk,24000041597,"2020-11-11 13:49:47",ES,19.3500,"Start Group
Start Group
Amazon","Reebok Quik Cotton Mens Sweatshirt - Grey-S",,19.3500,20.0062,16.12416692,122020,112020,2,291626,1,16.13,16.1300
7334376,7334376,203585,6000860374,,98pablodm@gmail.com,6000059766,"2020-11-11 12:41:01",ES,56.5600,"Start Fitness
Fitness
SF English","adidas Adizero Shotput Field Event Spikes - Black",5.6600,50.9000,21.0000,42.06611570,122020,112020,2,240802,0,42.42,42.4200
7334378,7334378,203585,6000860374,,98pablodm@gmail.com,6000059766,"2020-11-11 12:41:01",ES,66.7300,"Start Fitness
Fitness
SF English","adidas Adizero Long Jump Field Event Spikes - Black",6.6700,60.0600,21.0000,49.63636364,122020,112020,2,240383,0,50.05,50.0500
7334380,7334380,203585,6000860374,,98pablodm@gmail.com,6000059766,"2020-11-11 12:41:01",ES,67.8600,"Start Fitness
Fitness
SF English","adidas Adizero Prime Accelerator Running Spikes - Black",6.7900,61.0700,21.0000,50.47107438,122020,112020,2,240370,0,50.89,50.8900
7334382,7334382,203585,6000860374,,98pablodm@gmail.com,6000059766,"2020-11-11 12:41:01",ES,6.7900,"Start Fitness
Fitness
SF English","Fitness Mad Padded Weightlifting Straps",0.6700,6.1200,21.0000,5.05785124,122020,112020,2,249698,0,5.10,5.1000
7334383,7334383,203585,6000860374,,98pablodm@gmail.com,6000059766,"2020-11-11 12:41:01",ES,89.3500,"Start Fitness
Fitness
SF English","adidas Adizero Prime Finesse Running Spikes - White",8.9400,80.4100,21.0000,66.45454545,122020,112020,2,314261,0,67.01,67.0100
7336354,7336354,204587,AMZ24000572243,"M2E Orders",m2eorders@startfitness.co.uk,24000041759,"2020-11-28 13:11:20",ES,108.3600,"Start Group
Start Group
Amazon","Asics Gel Cumulus 21 Womens Running Shoes - Green-5",,108.3600,20.0000,90.30000000,122020,112020,2,330936,1,90.30,90.3000
7348701,7348701,203724,AMZ24000573374,"M2E Orders",m2eorders@startfitness.co.uk,24000041617,"2020-11-16 09:38:54",ES,12.7700,"Start Group
Start Group
Amazon","adidas AdiZero Womens Running Vest Tank Top - White-M",,12.7700,20.0188,10.63999973,122020,112020,2,231009,1,10.64,10.6400
7360493,7360493,203853,AMZ24000574544,"M2E Orders",m2eorders@startfitness.co.uk,24000041629,"2020-11-18 14:23:27",ES,8.3700,"Start Group
Start Group
Amazon","Elite Fly MTB 550ml Water Bottle - Black",,8.3700,20.0861,6.96999903,122020,112020,2,374132,1,6.98,6.9800
7368910,7368910,203970,AMZ24000575291,"M2E Orders",m2eorders@startfitness.co.uk,24000041647,"2020-11-19 17:12:35",ES,4.8400,"Start Group
Start Group
Amazon","SiS 800ml Sports Bottle - Yellow",,4.8400,20.0993,4.02999851,122020,112020,2,143797,1,4.03,4.0300
7380096,7380096,204193,EBY24000574324,"M2E Orders",m2eorders@startfitness.co.uk,24000041738,"2020-11-23 08:58:00",ES,20.1900,"Start Group
Start Group
eBay","DBlade Denim Multipocket Mens Work Wear Jeans - Denim",,20.1900,20.0000,16.82500000,122020,112020,2,311289,1,16.83,16.8300
7382475,7382475,204216,AMZ24000576426,"M2E Orders",m2eorders@startfitness.co.uk,24000041666,"2020-11-23 12:17:45",ES,76.1100,"Start Group
Start Group
Amazon","adidas Predator 18.1 Soft Ground Mens Football Boots - White-6.5",,76.1100,20.0095,63.41997925,122020,112020,2,250488,1,63.43,63.4300
7400225,7400225,204358,AMZ24000578190,"M2E Orders",m2eorders@startfitness.co.uk,24000041714,"2020-11-25 14:16:02",ES,76.1100,"Start Group
Start Group
Amazon","Saucony Triumph ISO 5 Womens Running Shoes - Grey-6 UK",,76.1100,20.0095,63.41997925,122020,112020,2,310453,1,63.43,63.4300
