item_id,order_item_id,"Invoice ID","Order Number","Customer name",customer_email,"Credit Note No","Credit note Date",country_id,base_row_total_incl_tax,store_name,name,base_discount_amount,"Value less discount",tax_percent,"Net Discounted Amount","Return Date",month_year,value,product_id,customer_group_id,"net based on catalog vat","Net sales based on customer group"
7393988,7393988,208530,AMZ24000577564,"M2E Orders",m2eorders@startfitness.co.uk,24000042445,"2020-12-31 11:25:39",IT,12.9000,"Start Group
Start Group
Amazon","Sub Sports Dual All Season Womens Long Sleeve Compression Top - Black-XS",,12.9000,22.0435,10.57000168,122020,122020,2,365078,1,10.75,10.7500
7396619,7396619,207258,AMZ24000577797,"M2E Orders",m2eorders@startfitness.co.uk,24000042290,"2020-12-19 12:30:04",IT,19.3500,"Start Group
Start Group
Amazon","Under Armour HeatGear Racer Womens Training Vest Tank Top - Purple-XS",,19.3500,22.0050,15.86000574,122020,122020,2,375290,1,16.13,16.1300
7415717,7415717,208514,AMZ24000579654,"M2E Orders",m2eorders@startfitness.co.uk,24000042434,"2020-12-31 10:57:12",IT,12.9000,"Start Group
Start Group
Amazon","Under Armour Patterson Backpack - Blue",,12.9000,22.0435,10.57000168,122020,122020,2,349933,1,10.75,10.7500
7424661,7424661,207270,AMZ24000580503,"M2E Orders",m2eorders@startfitness.co.uk,24000042291,"2020-12-19 12:43:36",IT,8.3800,"Start Group
Start Group
Amazon","Mizuno Reflective Mens Running Gilet - Black-M",,8.3800,21.9796,6.87000121,122020,122020,2,223698,1,6.98,6.9800
7241228,7241228,206558,2400771579,"eleonora martin",jvcnkf45jcd7dkk@marketplace.amazon.it,24000042117,"2020-12-15 15:43:27",IT,38.4000,"Start Group
Start Group
Amazon","Under Armour ColdGear Half Zip Womens Long Sleeve Running Top - Black-M",,38.4000,22.0113,31.47249476,122020,122020,2,341862,0,32.00,32.0000
7425966,7425966,208531,AMZ24000580682,"M2E Orders",m2eorders@startfitness.co.uk,24000042446,"2020-12-31 11:26:42",IT,21.8000,"Start Group
Start Group
Amazon","adidas All Me 3 Stripe Womens Sports Bra - Black-S",,21.8000,21.9922,17.86999497,122020,122020,2,319565,1,18.17,18.1700
7301330,7301330,205003,AMZ24000568046,"M2E Orders",m2eorders@startfitness.co.uk,24000041828,"2020-12-04 08:38:37",IT,63.2500,"Start Group
Start Group
Amazon","Reebok Crossfit Nano 2.0 Mens Training Shoes - Orange-11.5",,63.2500,21.9911,51.84804465,122020,122020,2,332226,1,52.71,52.7100
7429250,7429250,207275,AMZ24000580983,"M2E Orders",m2eorders@startfitness.co.uk,24000042293,"2020-12-19 12:45:18",IT,25.8000,"Start Group
Start Group
Amazon","DBlade Softshell Mens Work Wear Jacket - Black-XL",,25.8000,21.9858,21.15000271,122020,122020,2,311068,1,21.50,21.5000
7429373,7429373,207280,AMZ24000581000,"M2E Orders",m2eorders@startfitness.co.uk,24000042294,"2020-12-19 12:52:59",IT,14.0600,"Start Group
Start Group
Amazon","Fila Morro Bay Womens Sliders - Black-6",,14.0600,22.0486,11.52000105,122020,122020,2,353370,1,11.72,11.7200
7321610,7321610,207441,AMZ24000570812,"M2E Orders",m2eorders@startfitness.co.uk,24000042317,"2020-12-21 10:34:15",IT,7.4700,"Start Group
Start Group
Amazon","Mizuno Reflective Mens Running Gilet - Black-M",,7.4700,21.9796,6.12397483,122020,122020,2,223698,1,6.23,6.2300
7432459,7432459,207272,AMZ24000581303,"M2E Orders",m2eorders@startfitness.co.uk,24000042292,"2020-12-19 12:44:17",IT,8.3800,"Start Group
Start Group
Amazon","Mizuno Reflective Mens Running Gilet - Black-M",,8.3800,21.9796,6.87000121,122020,122020,2,223698,1,6.98,6.9800
7323850,7323850,206554,AMZ24000571010,"M2E Orders",m2eorders@startfitness.co.uk,24000042115,"2020-12-15 15:35:00",IT,8.0500,"Start Group
Start Group
Amazon","DBlade Australian Canvas Mens Work Wear Pants - Khaki-L",,8.0500,22.0270,6.59690069,122020,122020,2,311284,1,6.71,6.7100
7454030,7454030,205085,24000568860,"M2E Orders",m2eorders@startfitness.co.uk,24000041578,"2020-12-04 13:43:39",IT,12.9000,"Start Group
Start Group
Amazon USA","adidas oklahoma City Thunder Serge Ibaka Basketball Jersey - Orange-XS",,12.9000,22.0435,10.57000168,122020,122020,2,240312,1,10.75,10.7500
7332477,7332477,206256,AMZ24000571851,"M2E Orders",m2eorders@startfitness.co.uk,24000041983,"2020-12-14 12:11:11",IT,79.3500,"Start Group
Start Group
Amazon","Merrell Moab 2.0 GTX Mens Walking Shoes - Brown-12.5",,79.3500,21.9984,65.04183661,122020,122020,2,349949,1,66.13,66.1300
7477339,7477339,205409,24000575194,"M2E Orders",m2eorders@startfitness.co.uk,24000041606,"2020-12-07 16:11:56",IT,8.3800,"Start Group
Start Group
Amazon USA","Mizuno Reflective Mens Running Gilet - Black-M",,8.3800,21.9796,6.87000121,122020,122020,2,223698,1,6.98,6.9800
7332603,7332603,206908,AMZ24000571865,"M2E Orders",m2eorders@startfitness.co.uk,24000042188,"2020-12-17 13:23:23",IT,17.1300,"Start Group
Start Group
Amazon","Under Armour Sportstyle Graphic Mens Joggers - Blue-XL",,17.1300,22.0317,14.03733620,122020,122020,2,364966,1,14.28,14.2800
7482450,7482450,205810,24000576597,"M2E Orders",m2eorders@startfitness.co.uk,24000041635,"2020-12-10 16:18:33",IT,77.4000,"Start Group
Start Group
Amazon USA","Saucony Triumph ISO 5 Womens Running Shoes - White-5",,77.4000,22.0050,63.44002295,122020,122020,2,310439,1,64.50,64.5000
7334725,7334725,206258,AMZ24000572091,"M2E Orders",m2eorders@startfitness.co.uk,24000041985,"2020-12-14 12:23:06",IT,15.4800,"Start Group
Start Group
Amazon","Under Armour HeatGear Compression Mens Short Sleeve Top - Blue-S",,15.4800,21.9858,12.69000162,122020,122020,2,354520,1,12.90,12.9000
7513413,7513413,207786,6000900237,,troisio.giuseppe@gmail.com,6000062488,"2020-12-22 15:07:45",IT,20.2300,"Start Fitness
Fitness
SF English","Ronhill Nightrunner Running Gloves - Pink",,20.2300,22.0000,16.58196721,122020,122020,2,380333,0,16.86,16.8600
7347984,7347984,206257,AMZ24000573306,"M2E Orders",m2eorders@startfitness.co.uk,24000041984,"2020-12-14 12:12:07",IT,51.4700,"Start Group
Start Group
Amazon","adidas Sprintstar Womens Running Spikes - White-4.5",,51.4700,21.9957,42.19001162,122020,122020,2,314653,1,42.89,42.8900
7541099,7541099,207658,AMZ24000589073,"M2E Orders",m2eorders@startfitness.co.uk,24000042349,"2020-12-22 12:25:48",IT,19.3400,"Start Group
Start Group
Amazon","Muc-Off Clean Protect And Lube Kit",,19.3400,22.0189,15.85000357,122020,122020,2,343958,1,16.12,16.1200
7352827,7352827,206086,AMZ24000573792,"M2E Orders",m2eorders@startfitness.co.uk,24000041944,"2020-12-12 12:34:30",IT,89.0100,"Start Group
Start Group
Amazon","Under Armour HOVR Infinite Womens Running Shoes - Grey-7.5",,89.0100,21.9984,72.95997325,122020,122020,2,331469,1,74.18,74.1800
7541927,7541927,207660,AMZ24000589133,"M2E Orders",m2eorders@startfitness.co.uk,24000042350,"2020-12-22 12:26:57",IT,19.3400,"Start Group
Start Group
Amazon","Muc-Off Clean Protect And Lube Kit",,19.3400,22.0189,15.85000357,122020,122020,2,343958,1,16.12,16.1200
7543171,7543171,207606,AMZ24000589190,"M2E Orders",m2eorders@startfitness.co.uk,24000042337,"2020-12-22 11:17:10",IT,19.3400,"Start Group
Start Group
Amazon","Muc-Off Clean Protect And Lube Kit",,19.3400,22.0189,15.85000357,122020,122020,2,343958,1,16.12,16.1200
7355578,7355578,206906,AMZ24000574056,"M2E Orders",m2eorders@startfitness.co.uk,24000042186,"2020-12-17 13:20:39",IT,127.7100,"Start Group
Start Group
Amazon","Asics Gel Cumulus 22 Womens Running Shoes - Black-8.5",,127.7100,22.0004,104.67998466,122020,122020,2,371483,1,106.43,106.4300
7543359,7543359,207607,AMZ24000589205,"M2E Orders",m2eorders@startfitness.co.uk,24000042338,"2020-12-22 11:17:13",IT,19.3400,"Start Group
Start Group
Amazon","Muc-Off Clean Protect And Lube Kit",,19.3400,22.0189,15.85000357,122020,122020,2,343958,1,16.12,16.1200
7358151,7358151,205935,AMZ24000574334,"M2E Orders",m2eorders@startfitness.co.uk,24000041935,"2020-12-11 14:12:19",IT,25.8000,"Start Group
Start Group
Amazon","DBlade Softshell Mens Work Wear Jacket - Black-XXL",,25.8000,21.9858,21.15000271,122020,122020,2,311069,1,21.50,21.5000
7544683,7544683,207662,AMZ24000589309,"M2E Orders",m2eorders@startfitness.co.uk,24000042351,"2020-12-22 12:27:46",IT,19.3400,"Start Group
Start Group
Amazon","Muc-Off Clean Protect And Lube Kit",,19.3400,22.0189,15.85000357,122020,122020,2,343958,1,16.12,16.1200
7358173,7358173,206904,AMZ24000574337,"M2E Orders",m2eorders@startfitness.co.uk,24000042184,"2020-12-17 13:06:16",IT,57.9200,"Start Group
Start Group
Amazon","adidas Havoc Mens Wrestling Shoes - White-11.5",,57.9200,21.9882,47.48000216,122020,122020,2,314236,1,48.27,48.2700
7545623,7545623,207665,AMZ24000589372,"M2E Orders",m2eorders@startfitness.co.uk,24000042352,"2020-12-22 12:29:04",IT,19.3400,"Start Group
Start Group
Amazon","Muc-Off Clean Protect And Lube Kit",,19.3400,22.0189,15.85000357,122020,122020,2,343958,1,16.12,16.1200
7359126,7359126,206879,AMZ24000574411,"M2E Orders",m2eorders@startfitness.co.uk,24000042178,"2020-12-17 12:11:17",IT,37.4100,"Start Group
Start Group
Amazon","Under Armour Unstoppable Double Knit Mens Joggers - Black-L",,37.4100,22.0157,30.65998884,122020,122020,2,344672,1,31.18,31.1800
7546430,7546430,207799,AMZ24000589438,"M2E Orders",m2eorders@startfitness.co.uk,24000042359,"2020-12-22 15:52:59",IT,19.3400,"Start Group
Start Group
Amazon","Muc-Off Clean Protect And Lube Kit",,19.3400,22.0189,15.85000357,122020,122020,2,343958,1,16.12,16.1200
7363290,7363290,208528,AMZ24000574790,"M2E Orders",m2eorders@startfitness.co.uk,24000042443,"2020-12-31 11:25:13",IT,15.4800,"Start Group
Start Group
Amazon","Under Armour HeatGear Compression Mens Short Sleeve Top - Red-M",,15.4800,21.9858,12.69000162,122020,122020,2,364947,1,12.90,12.9000
7367778,7367778,206880,AMZ24000575226,"M2E Orders",m2eorders@startfitness.co.uk,24000042179,"2020-12-17 12:12:09",IT,51.4700,"Start Group
Start Group
Amazon","Merrell Jungle Moc Mens Shoes - Black-9",,51.4700,22.0000,42.18852459,122020,122020,2,341329,1,42.89,42.8900
7370719,7370719,205084,AMZ24000575423,"M2E Orders",m2eorders@startfitness.co.uk,24000041840,"2020-12-04 13:41:33",IT,96.6200,"Start Group
Start Group
Amazon","adidas Powerlift 4.0 Mens Weightlifting Shoes - White-8",,96.6200,21.9949,79.20003213,122020,122020,2,316893,1,80.52,80.5200
7371937,7371937,208527,AMZ24000575538,"M2E Orders",m2eorders@startfitness.co.uk,24000042442,"2020-12-31 11:24:42",IT,25.8000,"Start Group
Start Group
Amazon","DBlade Softshell Mens Work Wear Jacket - Black-XXL",,25.8000,21.9858,21.15000271,122020,122020,2,311069,1,21.50,21.5000
7376137,7376137,206881,AMZ24000575857,"M2E Orders",m2eorders@startfitness.co.uk,24000042180,"2020-12-17 12:13:23",IT,89.0100,"Start Group
Start Group
Amazon","Asics GT 1000 9 Mens Running Shoes - Blue-8.5",,89.0100,21.9984,72.95997325,122020,122020,2,348624,1,74.18,74.1800
7377781,7377781,206905,AMZ24000575999,"M2E Orders",m2eorders@startfitness.co.uk,24000042185,"2020-12-17 13:11:57",IT,101.9100,"Start Group
Start Group
Amazon","Mizuno WaveKnit R2 Mens Running Shoes - Black-10.5",,101.9100,22.0041,83.52997973,122020,122020,2,324470,1,84.93,84.9300
7381844,7381844,207112,AMZ24000576360,"M2E Orders",m2eorders@startfitness.co.uk,24000042238,"2020-12-18 16:43:45",IT,16.7700,"Start Group
Start Group
Amazon","Fitness Mad Pair of Wrist / Ankle Weights 1kg",,16.7700,21.9636,13.75000410,122020,122020,2,82775,1,13.98,13.9800
7382418,7382418,206907,AMZ24000576411,"M2E Orders",m2eorders@startfitness.co.uk,24000042187,"2020-12-17 13:22:12",IT,38.5700,"Start Group
Start Group
Amazon","adidas Tiro 19 Mens Football Training Pants - Black -XL",,38.5700,22.0183,31.61001260,122020,122020,2,324193,1,32.14,32.1400
7392592,7392592,208529,AMZ24000577417,"M2E Orders",m2eorders@startfitness.co.uk,24000042444,"2020-12-31 11:25:37",IT,12.9000,"Start Group
Start Group
Amazon","Asics Stef Mens Running Gilet - Yellow-S",,12.9000,22.0435,10.57000168,122020,122020,2,174381,1,10.75,10.7500
7392701,7392701,207900,AMZ24000577430,"M2E Orders",m2eorders@startfitness.co.uk,24000042396,"2020-12-23 09:38:31",IT,16.7600,"Start Group
Start Group
Amazon","Muc-Off Tubeless Rim Tape - 35mm",,16.7600,21.9796,13.74000243,122020,122020,2,364100,1,13.97,13.9700
7393052,7393052,207025,AMZ24000577472,"M2E Orders",m2eorders@startfitness.co.uk,24000042219,"2020-12-18 10:10:54",IT,19.2200,"Start Group
Start Group
Amazon","Under Armour HeatGear Compression Mens Short Sleeve Top - White-M",,19.2200,22.0317,15.75000594,122020,122020,2,126602,1,16.02,16.0200
7393374,7393374,207026,AMZ24000577508,"M2E Orders",m2eorders@startfitness.co.uk,24000042220,"2020-12-18 10:11:57",IT,16.7600,"Start Group
Start Group
Amazon","Muc-Off Tubeless Rim Tape - 35mm",,16.7600,21.9796,13.74000243,122020,122020,2,364100,1,13.97,13.9700
7314499,7314499,205650,AMZ24000570143,"M2E Orders",m2eorders@startfitness.co.uk,24000041883,"2020-12-09 13:37:30",IT,33.3500,"Start Group
Start Group
Amazon","Under Armour Charged Bandit 3 Junior Running Shoes - Black-5",,33.3500,22.0157,27.33254819,122020,122020,5,366726,1,33.35,33.3500
7530290,7530290,207093,AMZ24000588190,"M2E Orders",m2eorders@startfitness.co.uk,24000042233,"2020-12-18 15:16:37",IT,28.4700,"Start Group
Start Group
Amazon","adidas Real Madrid Home 2015/16 Junior Football Shirt - White-13-14 Years",,28.4700,21.9794,23.34000659,122020,122020,5,141779,1,28.47,28.4700
7350410,7350410,206825,6000863970,"Piergiorgio Liuti",liutip@alice.it,6000061839,"2020-12-17 10:55:36",IT,39.6900,"Start Fitness
Fitness
SF English","Under Armour Charged Bandit 3 Junior Running Shoes - Black",,39.6900,22.0000,32.53278689,122020,122020,5,366723,0,39.69,39.6900
7379895,7379895,206899,AMZ24000576190,"M2E Orders",m2eorders@startfitness.co.uk,24000042183,"2020-12-17 12:43:02",IT,38.5700,"Start Group
Start Group
Amazon","Asics GT 1000 9 GS Junior Running Shoes - Blue-3.5",,38.5700,22.0183,31.61001260,122020,122020,5,350593,1,38.57,38.5700
