item_id,order_item_id,"Invoice ID","Order Number","Customer name",customer_email,"Credit Note No","Credit note Date",country_id,base_row_total_incl_tax,store_name,name,base_discount_amount,"Value less discount",tax_percent,"Net Discounted Amount","Return Date",month_year,value,product_id,customer_group_id,"net based on catalog vat","Net sales based on customer group"
7728380,7728380,218877,6000953481,"Thomas Crone",crone_t@hotmail.com,6000070704,"2021-03-08 08:56:44",SE,307.5000,"Start Fitness
Fitness
SF English","Fox Transfer Factory Dropper Seatpost 2021 - Kashima",15.3800,292.1200,0.0000,292.12000000,42021,32021,2,368827,1,243.43,243.4300
7728382,7728382,218877,6000953481,"Thomas Crone",crone_t@hotmail.com,6000070704,"2021-03-08 08:56:44",SE,1082.5000,"Start Fitness
Fitness
SF English","Fox 38 Float Factory 29 GRIP2 44mm Offset BOOST Tapered Suspension Fork 2021 - Black",54.1200,1028.3800,0.0000,1028.38000000,42021,32021,2,369929,1,856.98,856.9800
7542004,7542004,219804,AMZ24000589138,"M2E Orders",m2eorders@startfitness.co.uk,24000044034,"2021-03-17 09:56:02",SE,70.9500,"Start Group
Start Group
Amazon","Asics Lite Show 2 Winter Womens Long Running Tights - Black-XS",,70.9500,20.0101,59.12002406,42021,32021,2,335908,1,59.13,59.1300
7911946,7911946,220570,6000996235,"Maria Thermaenius",maja.thermaenius@gmail.com,6000071905,"2021-03-24 09:24:36",SE,37.5000,"Start Fitness
Fitness
SF English","Salming Elements Womens Trail Running Shoes - Pink",,37.5000,0.0000,37.50000000,42021,32021,2,373688,0,31.25,31.2500
7839258,7839258,221152,6000979476,"Martin Jacobsson",mkrsmnhmd@outlook.coom,6000072377,"2021-03-27 14:14:31",SE,99.1700,"Start Fitness
Fitness
SF English","Mizuno Wave Inspire 17 Womens Running Shoes - Purple",,99.1700,0.0000,99.17000000,42021,32021,2,389324,0,82.64,82.6400
