item_id,order_item_id,"Invoice ID","Order Number","Customer name",customer_email,"Credit Note No","Credit note Date",country_id,base_row_total_incl_tax,store_name,name,base_discount_amount,"Value less discount",tax_percent,"Net Discounted Amount","Return Date",month_year,value,product_id,customer_group_id,"net based on catalog vat","Net sales based on customer group"
7782641,7782641,221384,EBY24000598088,"M2E Orders",m2eorders@startfitness.co.uk,24000043539,"2021-03-30 15:46:34",PT,39.6700,"Start Group
Start Group
eBay","Orca 226 Kompress Race Winter Mens Tri Suit - Black",,39.6700,0.0000,39.67000000,42021,32021,2,317749,1,33.06,33.0600
