item_id,order_item_id,"Invoice ID","Order Number","Customer name",customer_email,"Credit Note No","Credit note Date",country_id,base_row_total_incl_tax,store_name,name,base_discount_amount,"Value less discount",tax_percent,"Net Discounted Amount","Return Date",month_year,value,product_id,customer_group_id,"net based on catalog vat","Net sales based on customer group"
6114729,6114729,175758,600695631,"AFOI  IOANNIDOI OE",pkonstadulas@gmail.com,600064678,"2020-03-19 16:48:52",GR,82.5000,"Start Fitness
Fitness
SF English","adidas Ultra Boost 4.0 Womens Running Shoes - Black",12.3700,70.1300,0.0000,70.13000000,42020,32020,2,310387,4,58.44,70.1300
6120218,6120218,175785,600696276,"AFOI  IOANNIDOI OE",pkonstadulas@gmail.com,600064695,"2020-03-20 08:54:20",GR,41.5800,"Start Fitness
Fitness
SF English","adidas Distancestar Womens Running Spikes - Black",6.2300,35.3500,0.0000,35.35000000,42020,32020,2,312351,4,29.46,35.3500
6144754,6144754,175877,600699029,"AFOI  IOANNIDOI OE",pkonstadulas@gmail.com,600064729,"2020-03-20 14:16:05",GR,90.8300,"Start Fitness
Fitness
SF English","adidas Ultra Boost 4.0 Mens Running Shoes - Blue",13.6300,77.2000,0.0000,77.20000000,42020,32020,2,310301,4,64.33,77.2000
6066170,6066170,175761,600690320,"AFOI  IOANNIDOI OE",pkonstadulas@gmail.com,600064681,"2020-03-19 16:53:07",GR,37.5000,"Start Fitness
Fitness
SF English","Asics JB Elite III Mens Wrestling Shoes - Gold",5.6300,31.8700,0.0000,31.87000000,42020,32020,2,343170,4,26.56,31.8700
6139948,6139948,175788,600698542,"AFOI  IOANNIDOI OE",pkonstadulas@gmail.com,600064698,"2020-03-20 08:57:46",GR,115.8300,"Start Fitness
Fitness
SF English","adidas Adipower 2 Weightlifting Shoes - Black",17.3800,98.4500,0.0000,98.45000000,42020,32020,2,331574,4,82.04,98.4500
6259260,6259260,174348,600711434,"ALEKSANDROS TSIOSTAS",alex82ts@gmail.com,600064323,"2020-03-03 15:20:42",GR,20.8300,"Start Fitness
Fitness
SF English","Under Armour HeatGear Womens Long Running Tights - Black",3.1300,17.7000,0.0000,17.70000000,42020,32020,2,248486,4,14.75,17.7000
6174265,6174265,175765,600702278,"AFOI  IOANNIDOI OE",pkonstadulas@gmail.com,600064685,"2020-03-19 16:59:44",GR,58.2500,"Start Fitness
Fitness
SF English","Saucony Triumph ISO 5 Mens Running Shoes - Grey",8.7400,49.5100,0.0000,49.51000000,42020,32020,2,342980,4,41.26,49.5100
6219429,6219429,175791,600707265,"AFOI  IOANNIDOI OE",pkonstadulas@gmail.com,600064701,"2020-03-20 09:03:44",GR,12.5000,"Start Fitness
Fitness
SF English","More Mile Vibe Mens Full Zip Fleece Hoody - Grey",1.8800,10.6200,0.0000,10.62000000,42020,32020,2,238171,4,8.85,10.6200
6189860,6189860,175768,600703971,"AFOI  IOANNIDOI OE",pkonstadulas@gmail.com,600064687,"2020-03-19 17:05:01",GR,93.2500,"Start Fitness
Fitness
SF English","adidas Ultra Boost 19 Mens Running Shoes - White",13.9800,79.2700,0.0000,79.27000000,42020,32020,2,339198,4,66.06,79.2700
6162685,6162685,175795,600701009,"AFOI  IOANNIDOI OE",pkonstadulas@gmail.com,600064704,"2020-03-20 09:08:48",GR,82.5000,"Start Fitness
Fitness
SF English","adidas Ultra Boost 4.0 Womens Running Shoes - Pink",12.3700,70.1300,0.0000,70.13000000,42020,32020,2,292010,4,58.44,70.1300
6245169,6245169,175061,1900264876,"Areti Miliakou",areti1980@gmail.com,1900021730,"2020-03-12 12:37:42",GR,99.9000,"Start Fitness
Fitness
Fitness Mobile","adidas Adizero High Jump Field Event Spikes - White",,99.9000,20.0000,83.25000000,42020,32020,2,314532,0,83.25,83.2500
6206891,6206891,175755,600705878,"ALEKSANDROS TSIOSTAS",alex82ts@gmail.com,600064675,"2020-03-19 16:45:22",GR,57.5000,"Start Fitness
Fitness
SF English","Saucony Fastwitch 9 Mens Running Shoes - White",8.6300,48.8700,0.0000,48.87000000,42020,32020,2,319126,4,40.73,48.8700
6192118,6192118,175771,600704251,"AFOI  IOANNIDOI OE",pkonstadulas@gmail.com,600064690,"2020-03-19 17:09:53",GR,62.5000,"Start Fitness
Fitness
SF English","Asics Gel Cumulus 21 Winterized Womens Running Shoes - Beige",9.3800,53.1200,0.0000,53.12000000,42020,32020,2,341461,4,44.27,53.1200
6152168,6152168,175873,600699883,"AFOI  IOANNIDOI OE",pkonstadulas@gmail.com,600064725,"2020-03-20 14:12:35",GR,115.7500,"Start Fitness
Fitness
SF English","Asics Gel Kayano 26 Womens Running Shoes - Black",17.3600,98.3900,0.0000,98.39000000,42020,32020,2,333095,4,81.99,98.3900
6154433,6154433,175757,600700162,"AFOI  IOANNIDOI OE",pkonstadulas@gmail.com,600064677,"2020-03-19 16:48:07",GR,83.2500,"Start Fitness
Fitness
SF English","adidas Adizero Triple Jump / Pole Vault Field Event Spikes - White",12.4900,70.7600,0.0000,70.76000000,42020,32020,2,314494,4,58.97,70.7600
6219427,6219427,175774,600707265,"AFOI  IOANNIDOI OE",pkonstadulas@gmail.com,600064693,"2020-03-19 17:14:29",GR,13.3300,"Start Fitness
Fitness
SF English","Under Armour Streaker 2.0 Mens Running Vest - White",2.0000,11.3300,0.0000,11.33000000,42020,32020,2,331174,4,9.44,11.3300
6144726,6144726,175876,600699029,"AFOI  IOANNIDOI OE",pkonstadulas@gmail.com,600064728,"2020-03-20 14:14:56",GR,93.3300,"Start Fitness
Fitness
SF English","Asics Gel Nimbus 21 Lite Show Mens Running Shoes - Black",14.0000,79.3300,0.0000,79.33000000,42020,32020,2,340382,4,66.11,79.3300
6131095,6131095,175760,600697471,"AFOI  IOANNIDOI OE",pkonstadulas@gmail.com,600064680,"2020-03-19 16:51:32",GR,108.2500,"Start Fitness
Fitness
SF English","Asics Gel Nimbus 22 Womens Running Shoes - Black",16.2400,92.0100,0.0000,92.01000000,42020,32020,2,346142,4,76.68,92.0100
6133426,6133426,175787,600697742,"AFOI  IOANNIDOI OE",pkonstadulas@gmail.com,600064697,"2020-03-20 08:56:03",GR,33.3300,"Start Fitness
Fitness
SF English","Under Armour Speedfoam Intake 2 Womens Running Shoes - Black",5.0000,28.3300,0.0000,28.33000000,42020,32020,2,342310,4,23.61,28.3300
6322474,6322474,176456,2500305676,"Fines Athanasios",finesr6@hotmail.com,2500014937,"2020-03-28 08:56:06",GR,399.9000,"Start Group
Start Group
eBay","Hyperice HyperVolt Vibration Massage Device",,399.9000,20.0000,333.25000000,42020,32020,2,310560,0,333.25,333.2500
6259258,6259258,174348,600711434,"ALEKSANDROS TSIOSTAS",alex82ts@gmail.com,600064323,"2020-03-03 15:20:42",GR,18.3300,"Start Fitness
Fitness
SF English","Under Armour Microthread Streaker Mens Running Vest - Blue",2.7400,15.5900,0.0000,15.59000000,42020,32020,2,302265,4,12.99,15.5900
6101969,6101969,175764,600694117,"AFOI  IOANNIDOI OE",pkonstadulas@gmail.com,600064684,"2020-03-19 16:57:57",GR,90.0000,"Start Fitness
Fitness
SF English","Asics Gel Nimbus 21 Mens Running Shoes - Black",13.5000,76.5000,0.0000,76.50000000,42020,32020,2,315043,4,63.75,76.5000
6136239,6136239,175790,600698098,"AFOI  IOANNIDOI OE",pkonstadulas@gmail.com,600064700,"2020-03-20 08:59:57",GR,108.2500,"Start Fitness
Fitness
SF English","Asics Gel Nimbus 22 Womens Running Shoes - Pink",16.2400,92.0100,0.0000,92.01000000,42020,32020,2,343986,4,76.68,92.0100
6168949,6168949,175793,600701701,"AFOI  IOANNIDOI OE",pkonstadulas@gmail.com,600064703,"2020-03-20 09:06:57",GR,49.1700,"Start Fitness
Fitness
SF English","Under Armour HOVR Velociti 2 Womens Running Shoes - Black",7.3700,41.8000,0.0000,41.80000000,42020,32020,2,347287,4,34.83,41.8000
6222781,6222781,174834,2400650676,"Efthymios Pachos",db1q1xqdwrzy4hn@marketplace.amazon.de,2400050883,"2020-03-09 14:09:15",GR,50.7000,"Start Group
Start Group
Amazon","Merrell Jungle Moc Mens Shoes - Black-14",,50.7000,20.0042,42.24852130,42020,32020,2,341338,0,42.25,42.2500
6194361,6194361,175767,1900260524,"AFOI  IOANNIDOI OE",pkonstadulas@gmail.com,1900021880,"2020-03-19 17:02:36",GR,41.6700,"Start Fitness
Fitness
Fitness Mobile","Under Armour HOVR Sonic 2 Womens Running Shoes - Black",6.2500,35.4200,0.0000,35.42000000,42020,32020,2,347310,4,29.52,35.4200
6187156,6187156,175754,600703681,"ALEKSANDROS TSIOSTAS",alex82ts@gmail.com,600064674,"2020-03-19 16:44:01",GR,45.8300,"Start Fitness
Fitness
SF English","adidas Z.N.E Mens Running Jacket - Blue",6.8800,38.9500,0.0000,38.95000000,42020,32020,2,326546,4,32.46,38.9500
6207063,6207063,175770,600705902,"AFOI  IOANNIDOI OE",pkonstadulas@gmail.com,600064689,"2020-03-19 17:07:31",GR,90.0000,"Start Fitness
Fitness
SF English","Asics Gel Kayano 26 Womens Running Shoes - Purple",13.5000,76.5000,0.0000,76.50000000,42020,32020,2,333071,4,63.75,76.5000
6152162,6152162,175872,600699883,"AFOI  IOANNIDOI OE",pkonstadulas@gmail.com,600064724,"2020-03-20 14:11:45",GR,24.1700,"Start Fitness
Fitness
SF English","adidas Condivo 18 Mens Training Pants - Navy",3.6300,20.5400,0.0000,20.54000000,42020,32020,2,324199,4,17.12,20.5400
6219263,6219263,175756,600707255,"ALEKSANDROS TSIOSTAS",alex82ts@gmail.com,600064676,"2020-03-19 16:45:49",GR,24.1700,"Start Fitness
Fitness
SF English","Under Armour Storm Launch Mens Training Pants - Grey",3.6300,20.5400,0.0000,20.54000000,42020,32020,2,350251,4,17.12,20.5400
6187218,6187218,175773,600703685,"AFOI  IOANNIDOI OE",pkonstadulas@gmail.com,600064692,"2020-03-19 17:13:05",GR,49.1700,"Start Fitness
Fitness
SF English","adidas Adizero Shotput Field Event Spikes - Black",7.3800,41.7900,0.0000,41.79000000,42020,32020,2,240802,4,34.83,41.7900
6144732,6144732,175875,600699029,"AFOI  IOANNIDOI OE",pkonstadulas@gmail.com,600064727,"2020-03-20 14:14:15",GR,93.2500,"Start Fitness
Fitness
SF English","adidas Ultra Boost 19 Womens Running Shoes - Grey",13.9800,79.2700,0.0000,79.27000000,42020,32020,2,338971,4,66.06,79.2700
6072894,6072894,175759,600691026,"AFOI  IOANNIDOI OE",pkonstadulas@gmail.com,600064679,"2020-03-19 16:49:49",GR,90.0000,"Start Fitness
Fitness
SF English","Asics Gel Nimbus 21 Mens Running Shoes - Black",13.5000,76.5000,0.0000,76.50000000,42020,32020,2,323619,4,63.75,76.5000
6133420,6133420,175786,600697742,"AFOI  IOANNIDOI OE",pkonstadulas@gmail.com,600064696,"2020-03-20 08:55:19",GR,74.1700,"Start Fitness
Fitness
SF English","Merrell Moab 2 Mid Gore-Tex Mens Walking Boots - Green",11.1300,63.0400,0.0000,63.04000000,42020,32020,2,234381,4,52.53,63.0400
6144746,6144746,175878,600699029,"AFOI  IOANNIDOI OE",pkonstadulas@gmail.com,600064730,"2020-03-20 14:17:01",GR,52.4200,"Start Fitness
Fitness
SF English","adidas Terrex Tracerocker GTX Mens Trail Running Shoes - Black",7.8600,44.5600,0.0000,44.56000000,42020,32020,2,254426,4,37.13,44.5600
6259256,6259256,174348,600711434,"ALEKSANDROS TSIOSTAS",alex82ts@gmail.com,600064323,"2020-03-03 15:20:42",GR,32.5000,"Start Fitness
Fitness
SF English","adidas Tango Future Mens Joggers - Black",4.8800,27.6200,0.0000,27.62000000,42020,32020,2,224614,4,23.02,27.6200
6087432,6087432,175763,600692525,"AFOI  IOANNIDOI OE",pkonstadulas@gmail.com,600064683,"2020-03-19 16:56:38",GR,54.1700,"Start Fitness
Fitness
SF English","adidas AlphaBounce Instinct Mens Running Shoes - Black",8.1200,46.0500,0.0000,46.05000000,42020,32020,2,319084,4,38.38,46.0500
6136259,6136259,175789,600698098,"AFOI  IOANNIDOI OE",pkonstadulas@gmail.com,600064699,"2020-03-20 08:59:16",GR,108.2500,"Start Fitness
Fitness
SF English","Asics Gel Kayano 26 Womens Running Shoes - Grey",16.2400,92.0100,0.0000,92.01000000,42020,32020,2,347189,4,76.68,92.0100
6259367,6259367,174351,600711446,"AFOI  IOANNIDOI OE",pkonstadulas@gmail.com,600064324,"2020-03-03 15:58:57",GR,37.5000,"Start Fitness
Fitness
SF English","Saucony Showdown 4 Mens Sprint Running Spikes - Yellow",5.6300,31.8700,0.0000,31.87000000,42020,32020,2,244981,4,26.56,31.8700
6174245,6174245,175766,600702278,"AFOI  IOANNIDOI OE",pkonstadulas@gmail.com,600064686,"2020-03-19 17:00:28",GR,89.9200,"Start Fitness
Fitness
SF English","Asics Gel Noosa Tri 12 Womens Running Shoes - Black",13.4800,76.4400,0.0000,76.44000000,42020,32020,2,346243,4,63.70,76.4400
6219425,6219425,175792,600707265,"AFOI  IOANNIDOI OE",pkonstadulas@gmail.com,600064702,"2020-03-20 09:04:36",GR,14.1700,"Start Fitness
Fitness
SF English","Asics Knit Mens Track Pants - Black",2.1200,12.0500,0.0000,12.05000000,42020,32020,2,207209,4,10.04,12.0500
6295487,6295487,175647,600715072,"Despina Koultouki",lamniadiver@yahoo.gr,600064636,"2020-03-18 16:31:56",GR,25.0000,"Start Fitness
Fitness
SF English","Asics Windbreaker Mens Running Jacket - Blue",2.5000,22.5000,20.0000,18.75000000,42020,32020,2,214356,1,18.75,18.7500
6197593,6197593,175769,600704869,"AFOI  IOANNIDOI OE",pkonstadulas@gmail.com,600064688,"2020-03-19 17:06:28",GR,38.2500,"Start Fitness
Fitness
SF English","adidas Havoc Mens Wrestling Shoes - Black",5.7400,32.5100,0.0000,32.51000000,42020,32020,2,222967,4,27.09,32.5100
6152160,6152160,175871,600699883,"AFOI  IOANNIDOI OE",pkonstadulas@gmail.com,600064723,"2020-03-20 14:06:38",GR,49.1700,"Start Fitness
Fitness
SF English","Under Armour Recovery Mens Track Pants - Black",7.3700,41.8000,0.0000,41.80000000,42020,32020,2,316371,4,34.83,41.8000
6219257,6219257,175756,600707255,"ALEKSANDROS TSIOSTAS",alex82ts@gmail.com,600064676,"2020-03-19 16:45:49",GR,20.8300,"Start Fitness
Fitness
SF English","2XU Fitness Mid Rise Colour Block Womens Long Compression Tights - Black",3.1200,17.7100,0.0000,17.71000000,42020,32020,2,307785,4,14.76,17.7100
6098166,6098166,175772,600693722,"AFOI  IOANNIDOI OE",pkonstadulas@gmail.com,600064691,"2020-03-19 17:11:26",GR,58.2500,"Start Fitness
Fitness
SF English","Asics GT 2000 6 Womens Running Shoes - Black",8.7300,49.5200,0.0000,49.52000000,42020,32020,2,241140,4,41.27,49.5200
6152170,6152170,175874,600699883,"AFOI  IOANNIDOI OE",pkonstadulas@gmail.com,600064726,"2020-03-20 14:13:13",GR,49.1700,"Start Fitness
Fitness
SF English","Under Armour HOVR Velociti 2 Womens Running Shoes - Grey",7.3700,41.8000,0.0000,41.80000000,42020,32020,2,338610,4,34.83,41.8000
