item_id,order_item_id,"Invoice ID","Order Number","Customer name",customer_email,"Credit Note No","Credit note Date",country_id,base_row_total_incl_tax,store_name,name,base_discount_amount,"Value less discount",tax_percent,"Net Discounted Amount","Return Date",month_year,value,product_id,customer_group_id,"net based on catalog vat","Net sales based on customer group"
7408724,7408724,209080,6000876866,"Carlos Lourenço Ferrão e ferrão",carlos.lourenco.santos1982@gmail.com,6000063343,"2021-01-05 13:57:53",PT,78.5200,"Start Fitness
Fitness
SF English","adidas Adizero Javelin Field Event Spikes - White",,78.5200,20.0000,65.43333333,22021,12021,2,314566,1,65.43,65.4300
7388167,7388167,210182,AMZ24000576972,"M2E Orders",m2eorders@startfitness.co.uk,24000042664,"2021-01-12 14:10:28",PT,183.8900,"Start Group
Start Group
Amazon","Orca S7 Fullsleeve Mens Wetsuit - Black-8",,183.8900,20.0013,153.24000657,22021,12021,2,323700,1,153.24,153.2400
7639928,7639928,210246,6000930576,"joaquim esteves",joaquimesteves.eng@gmail.com,6000064207,"2021-01-13 07:59:29",PT,4.6800,"Start Fitness
Fitness
SF English","Regatta Pincha Womens Long Training Tights - Pink",0.4700,4.2100,0.0000,4.21000000,22021,12021,2,343495,1,3.51,3.5100
7639951,7639951,210246,6000930576,"joaquim esteves",joaquimesteves.eng@gmail.com,6000064207,"2021-01-13 07:59:29",PT,7.4800,"Start Fitness
Fitness
SF English","TCA Natural Performance Womens Long Running Tights - Green",0.7400,6.7400,0.0000,6.74000000,22021,12021,2,245891,1,5.62,5.6200
7565683,7565683,212878,6000912637,"Oliveira Vitória",miguinhas-2@hotmail.com,6000066291,"2021-01-25 16:59:24",PT,89.7200,"Start Fitness
Fitness
SF English","adidas Adizero Padded Womens Winter Jacket - Black",,89.7200,20.0000,74.76666667,22021,12021,2,233834,1,74.77,74.7700
7416486,7416486,213080,6000878614,"Anabela Lopes",belinha.lopes@sapo.pt,6000066448,"2021-01-27 10:01:24",PT,79.0000,"Start Fitness
Fitness
SF English","adidas Adizero Prime Finesse Running Spikes - White",,79.0000,20.0000,65.83333333,22021,12021,2,314261,0,65.83,65.8300
7710738,7710738,213387,6000949243,"Isabel Geraldes",belicas_isabel@hotmail.com,6000066700,"2021-01-28 17:38:04",PT,91.6700,"Start Fitness
Fitness
SF English","Asics Gel Nimbus 21 Womens Running Shoes - Blue",,91.6700,0.0000,91.67000000,22021,12021,2,330903,1,76.39,76.3900
7710740,7710740,213387,6000949243,"Isabel Geraldes",belicas_isabel@hotmail.com,6000066700,"2021-01-28 17:38:04",PT,107.5000,"Start Fitness
Fitness
SF English","Asics Gel Nimbus 22 Mens Running Shoes - Blue",,107.5000,0.0000,107.50000000,22021,12021,2,371106,1,89.58,89.5800
