item_id,order_item_id,"Invoice ID","Order Number","Customer name",customer_email,"Credit Note No","Credit note Date",country_id,base_row_total_incl_tax,store_name,name,base_discount_amount,"Value less discount",tax_percent,"Net Discounted Amount","Return Date",month_year,value,product_id,customer_group_id,"net based on catalog vat","Net sales based on customer group"
7073356,7073356,196662,6000852188,"michael taggart",michaeltaggart@startfitness.co.uk,6000059426,"2020-09-30 13:03:38",ES,1.3000,"Start Fitness
Fitness
SF English","High 5 Energy Gel Aqua Caffeine ",,1.3000,0.0000,1.30000000,102020,92020,5,313519,1,1.30,1.3000
