"Invoice Entity ID",status,"Customer Number","Order number","Invoice Number","Invoice date",customer_group_id,customer_taxvat,"GBP Net goods after discount","GBP VAT on Goods","GBP Gross goods after discount",country_id,"Store Credit Used",store_name
2615157,complete,59844,6000853525,6000625662,2020-11-01,4,EE100921377,305.2400,0.00,305.2400,EE,,"Start Fitness
Fitness
SF English"
2615394,complete,510618,6000853773,6000625899,2020-11-02,4,105626664,93.9200,0.00,93.9200,GR,,"Start Fitness
Fitness
SF English"
2615408,complete,223163,6000853785,6000625913,2020-11-02,4,FR59538438706,57.9300,0.00,57.9300,FR,,"Start Fitness
Fitness
SF English"
2616571,complete,968133,6000853867,6000625964,2020-11-02,4,"801199530 ",867.4000,0.00,867.4000,GR,,"Start Fitness
Fitness
SF English"
2617378,complete,441920,6000853898,6000625995,2020-11-02,4,EL801101345,108.9400,0.00,108.9400,GR,,"Start Fitness
Fitness
SF English"
2619215,complete,968133,6000854184,6000626254,2020-11-03,4,"801199530 ",304.4100,0.00,304.4100,GR,,"Start Fitness
Fitness
SF English"
2619250,complete,441920,6000854198,6000626267,2020-11-03,4,EL801101345,315.0700,0.00,315.0700,GR,,"Start Fitness
Fitness
SF English"
2619398,complete,106286,6000854246,6000626311,2020-11-03,4,"IE 6831761N",105.8500,0.00,105.8500,IE,,"Start Fitness
Fitness
SF English"
2619948,complete,141671,6000854407,6000626466,2020-11-04,4,RO29278278,469.6900,0.00,469.6900,RO,,"Start Fitness
Fitness
SF English"
2620195,complete,441920,6000854532,6000626589,2020-11-04,4,EL801101345,67.2200,0.00,67.2200,GR,,"Start Fitness
Fitness
SF English"
2620511,complete,968133,6000854641,6000626697,2020-11-04,4,"801199530 ",485.0200,0.00,485.0200,GR,,"Start Fitness
Fitness
SF English"
2621078,complete,965028,6000854894,6000626943,2020-11-05,4,EL801019699,311.4000,0.00,311.4000,GR,,"Start Fitness
Fitness
SF English"
2621143,complete,240194,6000854925,6000626973,2020-11-05,4,SI26550083,74.1700,0.00,74.1700,SI,,"Start Fitness
Fitness
SF English"
2622504,complete,968133,6000855660,6000627674,2020-11-06,4,"801199530 ",625.6600,0.00,625.6600,GR,,"Start Fitness
Fitness
SF English"
2622679,complete,441920,6000855726,6000627736,2020-11-06,4,EL801101345,177.6500,0.00,177.6500,GR,,"Start Fitness
Fitness
SF English"
2627210,complete,962426,6000858275,6000630167,2020-11-08,4,PT237278855,113.0200,0.00,113.0200,PT,,"Start Fitness
Fitness
SF English"
2627437,complete,55713,6000858376,6000630273,2020-11-09,4,HU21742105,97.4200,0.00,97.4200,HU,,"Start Fitness
Fitness
SF English"
2627740,complete,968133,6000858543,6000630424,2020-11-09,4,"801199530 ",1050.1400,0.00,1050.1400,GR,,"Start Fitness
Fitness
SF English"
2627855,complete,441920,6000858617,6000630498,2020-11-09,4,EL801101345,307.9900,0.00,307.9900,GR,,"Start Fitness
Fitness
SF English"
2629244,complete,1734,6000859379,6000631225,2020-11-10,4,CZ27263720,44.2500,0.00,44.2500,CZ,,"Start Fitness
Fitness
SF English"
2629334,complete,965028,6000859438,6000631279,2020-11-10,4,EL801019699,374.0800,0.00,374.0800,GR,,"Start Fitness
Fitness
SF English"
2629430,complete,968133,6000859489,6000631330,2020-11-10,4,"801199530 ",396.0000,0.00,396.0000,GR,,"Start Fitness
Fitness
SF English"
2631036,complete,968133,6000860400,6000632190,2020-11-11,4,"801199530 ",276.6800,0.00,276.6800,GR,,"Start Fitness
Fitness
SF English"
2632725,complete,968133,6000861351,6000633109,2020-11-12,4,"801199530 ",493.5000,0.00,493.5000,GR,,"Start Fitness
Fitness
SF English"
2632808,complete,441920,6000861401,6000633151,2020-11-12,4,EL801101345,189.1000,0.00,189.1000,GR,,"Start Fitness
Fitness
SF English"
2634280,complete,968133,6000862209,6000633926,2020-11-13,4,"801199530 ",550.0700,0.00,550.0700,GR,,"Start Fitness
Fitness
SF English"
2634344,complete,441920,6000862253,6000633965,2020-11-13,4,EL801101345,292.9500,0.00,292.9500,GR,,"Start Fitness
Fitness
SF English"
2635914,complete,562609,6000863189,6000634859,2020-11-14,4,EL166609165,119.0200,0.00,119.0200,GR,,"Start Fitness
Fitness
SF English"
2636677,complete,251772,6000863614,6000635271,2020-11-14,4,PT509560636,132.9200,0.00,132.9200,PT,,"Start Fitness
Fitness
SF English"
2637393,complete,120972,6000863993,6000635628,2020-11-15,4,EL068883724,236.9900,0.00,236.9900,GR,,"Start Fitness
Fitness
SF English"
2639750,complete,968133,6000865323,6000636908,2020-11-16,4,"801199530 ",792.3800,0.00,792.3800,GR,,"Start Fitness
Fitness
SF English"
2639797,complete,209241,6000865356,6000636937,2020-11-16,4,LT100002911118,79.3700,0.00,79.3700,LT,,"Start Fitness
Fitness
SF English"
2639862,complete,441920,6000865392,6000636975,2020-11-16,4,EL801101345,376.1400,0.00,376.1400,GR,,"Start Fitness
Fitness
SF English"
2640031,complete,965028,6000865494,6000637068,2020-11-16,4,EL801019699,329.0400,0.00,329.0400,GR,,"Start Fitness
Fitness
SF English"
2640459,complete,619597,6000865758,6000637320,2020-11-16,4,RO38589990,103.4300,0.00,103.4300,RO,,"Start Fitness
Fitness
SF English"
2640713,complete,94473,6000865925,6000637476,2020-11-16,4,"SI 73321796",165.6800,0.00,165.6800,SI,,"Start Fitness
Fitness
SF English"
2641430,complete,968133,6000866340,6000637857,2020-11-17,4,"801199530 ",471.6600,0.00,471.6600,GR,,"Start Fitness
Fitness
SF English"
2641521,complete,223163,6000866406,6000637916,2020-11-17,4,FR59538438706,36.9300,0.00,36.9300,FR,,"Start Fitness
Fitness
SF English"
2641576,complete,441920,6000866444,6000637955,2020-11-17,4,EL801101345,70.6300,0.00,70.6300,GR,,"Start Fitness
Fitness
SF English"
2641597,complete,562609,6000866462,6000637971,2020-11-17,4,EL166609165,182.5100,0.00,182.5100,GR,,"Start Fitness
Fitness
SF English"
2641602,complete,965028,6000866464,6000637975,2020-11-17,4,EL801019699,312.1200,0.00,312.1200,GR,,"Start Fitness
Fitness
SF English"
2642952,complete,968133,6000867238,6000638718,2020-11-18,4,"801199530 ",363.2400,0.00,363.2400,GR,,"Start Fitness
Fitness
SF English"
2642989,complete,562609,6000867265,6000638742,2020-11-18,4,EL166609165,101.6300,0.00,101.6300,GR,,"Start Fitness
Fitness
SF English"
2643147,complete,510618,6000867360,6000638834,2020-11-18,4,105626664,157.3200,0.00,157.3200,GR,,"Start Fitness
Fitness
SF English"
2644507,complete,968133,6000868158,6000639614,2020-11-19,4,"801199530 ",278.1100,0.00,278.1100,GR,,"Start Fitness
Fitness
SF English"
2644589,complete,441920,6000868217,6000639667,2020-11-19,4,EL801101345,227.9500,0.00,227.9500,GR,,"Start Fitness
Fitness
SF English"
2644646,complete,510618,6000868261,6000639709,2020-11-19,4,105626664,85.3400,0.00,85.3400,GR,,"Start Fitness
Fitness
SF English"
2646175,complete,968133,6000869214,6000640591,2020-11-20,4,"801199530 ",964.0700,0.00,964.0700,GR,,"Start Fitness
Fitness
SF English"
2646322,complete,441920,6000869315,6000640691,2020-11-20,4,EL801101345,240.6700,0.00,240.6700,GR,,"Start Fitness
Fitness
SF English"
2647166,complete,257855,6000869831,6000641189,2020-11-20,4,ESB83186411,18.5000,0.00,18.5000,ES,,"Start Fitness
Fitness
SF English"
2647528,complete,750728,6000870010,6000641364,2020-11-21,4,FR07532270394,2335.9400,0.00,2335.9400,FR,,"Start Fitness
Fitness
SF English"
2649467,complete,59844,6000871142,6000642448,2020-11-22,4,EE100921377,331.4700,0.00,331.4700,EE,,"Start Fitness
Fitness
SF English"
2652315,complete,441920,6000872842,6000644068,2020-11-23,4,EL801101345,302.7200,0.00,302.7200,GR,,"Start Fitness
Fitness
SF English"
2652316,complete,968133,6000872781,6000644069,2020-11-23,4,"801199530 ",1472.9600,0.00,1472.9600,GR,,"Start Fitness
Fitness
SF English"
2652341,complete,510618,6000872860,6000644085,2020-11-23,4,105626664,114.2600,0.00,114.2600,GR,,"Start Fitness
Fitness
SF English"
2652384,complete,562609,6000872886,6000644111,2020-11-23,4,EL166609165,75.3300,0.00,75.3300,GR,,"Start Fitness
Fitness
SF English"
2652625,complete,158586,6000873039,6000644252,2020-11-23,4,PT511022875,402.6900,0.00,402.6900,PT,,"Start Fitness
Fitness
SF English"
2652906,complete,209241,6000873190,6000644397,2020-11-23,4,LT100002911118,142.8500,0.00,142.8500,LT,,"Start Fitness
Fitness
SF English"
2653734,complete,59844,6000873690,6000644870,2020-11-24,4,EE100921377,425.6800,0.00,425.6800,EE,,"Start Fitness
Fitness
SF English"
2653736,complete,59844,6000873692,6000644872,2020-11-24,4,EE100921377,353.3200,0.00,353.3200,EE,,"Start Fitness
Fitness
SF English"
2654207,complete,968133,6000873987,6000645138,2020-11-24,4,"801199530 ",642.5200,0.00,642.5200,GR,,"Start Fitness
Fitness
SF English"
2654238,complete,240194,6000874000,6000645151,2020-11-24,4,SI26550083,88.6100,0.00,88.6100,SI,,"Start Fitness
Fitness
SF English"
2654576,complete,53837,6000874201,6000645343,2020-11-24,4,EL051617257,217.3500,0.00,217.3500,GR,,"Start Fitness
Fitness
SF English"
2655389,complete,962426,6000874641,6000645773,2020-11-24,4,PT237278855,128.2600,0.00,128.2600,PT,,"Start Fitness
Fitness
SF English"
2655730,complete,172822,6000874795,6000645920,2020-11-25,4,EL094128622,153.2400,0.00,153.2400,GR,,"Start Fitness
Fitness
SF English"
2656078,complete,968133,6000874998,6000646119,2020-11-25,4,"801199530 ",482.7800,0.00,482.7800,GR,,"Start Fitness
Fitness
SF English"
2656255,complete,441920,6000875110,6000646229,2020-11-25,4,EL801101345,196.2500,0.00,196.2500,GR,,"Start Fitness
Fitness
SF English"
2657396,complete,59844,6000875758,6000646843,2020-11-26,4,EE100921377,403.8100,0.00,403.8100,EE,,"Start Fitness
Fitness
SF English"
2657963,complete,968133,6000876106,6000647171,2020-11-26,4,"801199530 ",640.4200,0.00,640.4200,GR,,"Start Fitness
Fitness
SF English"
2658033,complete,968133,6000876143,6000647208,2020-11-26,4,"801199530 ",167.3300,0.00,167.3300,GR,,"Start Fitness
Fitness
SF English"
2658131,complete,441920,6000876198,6000647263,2020-11-26,4,EL801101345,509.1500,0.00,509.1500,GR,,"Start Fitness
Fitness
SF English"
2658151,complete,510618,6000876212,6000647276,2020-11-26,4,105626664,218.5100,0.00,218.5100,GR,,"Start Fitness
Fitness
SF English"
2658511,complete,59844,6000876432,6000647483,2020-11-26,4,EE100921377,421.4900,0.00,421.4900,EE,,"Start Fitness
Fitness
SF English"
2659517,complete,59844,6000876946,6000647972,2020-11-27,4,EE100921377,403.8100,0.00,403.8100,EE,,"Start Fitness
Fitness
SF English"
2659519,complete,59844,6000876948,6000647974,2020-11-27,4,EE100921377,403.8100,0.00,403.8100,EE,,"Start Fitness
Fitness
SF English"
2659867,complete,59844,6000877164,6000648181,2020-11-27,4,EE100921377,420.3000,0.00,420.3000,EE,,"Start Fitness
Fitness
SF English"
2660727,complete,968133,6000877765,6000648763,2020-11-27,4,"801199530 ",982.8500,0.00,982.8500,GR,,"Start Fitness
Fitness
SF English"
2660813,complete,562609,6000877821,6000648818,2020-11-27,4,EL166609165,460.6800,0.00,460.6800,GR,,"Start Fitness
Fitness
SF English"
2661027,complete,441920,6000877967,6000648960,2020-11-27,4,EL801101345,672.5000,0.00,672.5000,GR,,"Start Fitness
Fitness
SF English"
2661547,complete,99,6000878308,6000649281,2020-11-27,4,MT2144-3736,187.9200,0.00,187.9200,MT,,"Start Fitness
Fitness
SF English"
2661666,complete,209241,6000878370,6000649341,2020-11-27,4,LT100002911118,133.4000,0.00,133.4000,LT,,"Start Fitness
Fitness
SF English"
2663283,complete,822569,6000879444,6000650364,2020-11-27,4,EL998531366,149.5600,0.00,149.5600,GR,,"Start Fitness
Fitness
SF English"
2663927,complete,965028,6000876007,6000650691,2020-11-28,4,EL801019699,329.9700,0.00,329.9700,GR,,"Start Fitness
Fitness
SF English"
2664796,complete,562609,6000880289,6000651170,2020-11-28,4,EL166609165,209.6800,0.00,209.6800,GR,,"Start Fitness
Fitness
SF English"
2665653,complete,441920,6000880765,6000651631,2020-11-28,4,EL801101345,1351.9800,0.00,1351.9800,GR,,"Start Fitness
Fitness
SF English"
2666978,complete,510618,6000881543,6000652376,2020-11-29,4,105626664,629.5900,0.00,629.5900,GR,,"Start Fitness
Fitness
SF English"
2667809,complete,968133,6000882043,6000652858,2020-11-29,4,"801199530 ",1723.1600,0.00,1723.1600,GR,,"Start Fitness
Fitness
SF English"
2668339,complete,441920,6000882345,6000653152,2020-11-29,4,EL801101345,383.4400,0.00,383.4400,GR,,"Start Fitness
Fitness
SF English"
2669501,complete,209241,6000882956,6000653747,2020-11-30,4,LT100002911118,448.9100,0.00,448.9100,LT,,"Start Fitness
Fitness
SF English"
2669795,complete,968133,6000883108,6000653890,2020-11-30,4,"801199530 ",836.1900,0.00,836.1900,GR,,"Start Fitness
Fitness
SF English"
2669896,complete,441920,6000883182,6000653951,2020-11-30,4,EL801101345,443.9900,0.00,443.9900,GR,,"Start Fitness
Fitness
SF English"
2670068,complete,510618,6000883274,6000654038,2020-11-30,4,105626664,171.9500,0.00,171.9500,GR,,"Start Fitness
Fitness
SF English"
