"Invoice Entity ID",status,"Customer Number","Order number","Invoice Number","Invoice date",customer_group_id,customer_taxvat,"GBP Net goods after discount","GBP VAT on Goods","GBP Gross goods after discount",country_id,"Store Credit Used",store_name
2194261,complete,223163,600711034,600678265,2020-03-02,4,FR59538438706,73.2600,0.00,73.2600,FR,0.0000,"Start Fitness
Fitness
SF English"
2194282,complete,592282,800039428,800037398,2020-03-02,4,BG202103047,121.9000,0.00,121.9000,BG,0.0000,"More Mile
More Mile
MM English"
2194352,complete,209241,600711070,600678298,2020-03-02,4,LT100002911118,84.8600,0.00,84.8600,LT,0.0000,"Start Fitness
Fitness
SF English"
2194468,complete,48749,600711093,600678321,2020-03-02,4,SE556560759401,1249.1700,0.00,1249.1700,SE,0.0000,"Start Fitness
Fitness
SF English"
2195387,complete,209118,600711320,600678526,2020-03-03,4,SK2022770387,74.9200,0.00,74.9200,SK,0.0000,"Start Fitness
Fitness
SF English"
2195491,complete,1734,600711347,600678551,2020-03-03,4,,82.4200,0.00,82.4200,DE,0.0000,"Start Fitness
Fitness
SF English"
2195705,complete,968133,600711422,600678623,2020-03-03,4,"801199530 ",1701.0000,0.00,1701.0000,GR,0.0000,"Start Fitness
Fitness
SF English"
2195724,complete,562609,600711428,600678628,2020-03-03,4,EL166609165,169.1500,0.00,169.1500,GR,0.0000,"Start Fitness
Fitness
SF English"
2195754,closed,510618,600711434,600678633,2020-03-03,4,105626664,60.9100,0.00,60.9100,GR,0.0000,"Start Fitness
Fitness
SF English"
2195783,complete,441920,600711446,600678644,2020-03-03,4,EL801101345,1605.8800,0.00,1605.8800,GR,0.0000,"Start Fitness
Fitness
SF English"
2195915,complete,510618,600711491,600678687,2020-03-03,4,105626664,92.0000,0.00,92.0000,GR,76.7000,"Start Fitness
Fitness
SF English"
2195946,complete,965028,600711496,600678694,2020-03-03,4,EL801019699,259.0900,0.00,259.0900,GR,0.0000,"Start Fitness
Fitness
SF English"
2196901,complete,968133,600711716,600678895,2020-03-04,4,"801199530 ",590.9400,0.00,590.9400,GR,0.0000,"Start Fitness
Fitness
SF English"
2196944,complete,562609,600711734,600678911,2020-03-04,4,EL166609165,168.4400,0.00,168.4400,GR,0.0000,"Start Fitness
Fitness
SF English"
2196986,complete,441920,1900266320,1900240444,2020-03-04,4,EL801101345,745.4000,0.00,745.4000,GR,0.0000,"Start Fitness
Fitness
Fitness Mobile"
2197734,complete,223163,600711911,600679073,2020-03-05,4,FR59538438706,43.9300,0.00,43.9300,FR,0.0000,"Start Fitness
Fitness
SF English"
2197826,complete,965028,600711508,600679091,2020-03-05,4,EL801019699,213.1700,0.00,213.1700,GR,0.0000,"Start Fitness
Fitness
SF English"
2198019,complete,968133,600711999,600679157,2020-03-05,4,"801199530 ",346.4700,0.00,346.4700,GR,0.0000,"Start Fitness
Fitness
SF English"
2198048,complete,510618,600712004,600679162,2020-03-05,4,105626664,53.8400,0.00,53.8400,GR,0.0000,"Start Fitness
Fitness
SF English"
2198103,complete,441920,600712020,600679177,2020-03-05,4,EL801101345,937.1300,0.00,937.1300,GR,0.0000,"Start Fitness
Fitness
SF English"
2199089,complete,1734,600712234,600679375,2020-03-06,4,CZ27263720,82.4200,0.00,82.4200,DE,29.9200,"Start Fitness
Fitness
SF English"
2199106,complete,223163,600712241,600679379,2020-03-06,4,FR59538438706,57.9300,0.00,57.9300,FR,0.0000,"Start Fitness
Fitness
SF English"
2199148,complete,968133,600712256,600679391,2020-03-06,4,"801199530 ",588.4000,0.00,588.4000,GR,0.0000,"Start Fitness
Fitness
SF English"
2199192,complete,562609,600712271,600679406,2020-03-06,4,EL166609165,183.3200,0.00,183.3200,GR,0.0000,"Start Fitness
Fitness
SF English"
2199237,complete,441920,600712285,600679419,2020-03-06,4,EL801101345,390.9200,0.00,390.9200,GR,0.0000,"Start Fitness
Fitness
SF English"
2202663,complete,592282,800039476,800037442,2020-03-09,4,BG202103047,125.9800,0.00,125.9800,BG,0.0000,"More Mile
More Mile
MM English"
2202799,complete,562609,600713073,600680133,2020-03-09,4,EL166609165,123.1700,0.00,123.1700,GR,0.0000,"Start Fitness
Fitness
SF English"
2202800,complete,968133,600713074,600680134,2020-03-09,4,"801199530 ",559.6700,0.00,559.6700,GR,0.0000,"Start Fitness
Fitness
SF English"
2202820,complete,441920,600713080,600680139,2020-03-09,4,EL801101345,1707.7300,0.00,1707.7300,GR,0.0000,"Start Fitness
Fitness
SF English"
2203860,complete,968133,600713338,600680367,2020-03-10,4,"801199530 ",353.0000,0.00,353.0000,GR,0.0000,"Start Fitness
Fitness
SF English"
2203950,complete,441920,600713371,600680399,2020-03-10,4,EL801101345,1045.1500,0.00,1045.1500,GR,0.0000,"Start Fitness
Fitness
SF English"
2204981,complete,968133,600713616,600680619,2020-03-11,4,"801199530 ",744.3500,0.00,744.3500,GR,0.0000,"Start Fitness
Fitness
SF English"
2205041,complete,441920,600713639,600680640,2020-03-11,4,EL801101345,326.9800,0.00,326.9800,GR,0.0000,"Start Fitness
Fitness
SF English"
2206069,complete,441920,600713868,600680837,2020-03-12,4,EL801101345,682.9000,0.00,682.9000,GR,0.0000,"Start Fitness
Fitness
SF English"
2206798,complete,965028,600714014,600680968,2020-03-13,4,EL801019699,189.0100,0.00,189.0100,GR,0.0000,"Start Fitness
Fitness
SF English"
2206968,complete,968133,600714086,600681031,2020-03-13,4,"801199530 ",560.5500,0.00,560.5500,GR,0.0000,"Start Fitness
Fitness
SF English"
2207043,complete,441920,600714116,600681058,2020-03-13,4,EL801101345,501.6700,0.00,501.6700,GR,0.0000,"Start Fitness
Fitness
SF English"
2209628,complete,968133,600714704,600681595,2020-03-16,4,"801199530 ",569.0300,0.00,569.0300,GR,0.0000,"Start Fitness
Fitness
SF English"
2209728,complete,441920,600714739,600681627,2020-03-16,4,EL801101345,836.5300,0.00,836.5300,GR,0.0000,"Start Fitness
Fitness
SF English"
2210207,complete,592282,800039532,800037494,2020-03-17,4,BG202103047,95.3400,0.00,95.3400,BG,0.0000,"More Mile
More Mile
MM English"
2210337,complete,968133,600714912,600681764,2020-03-17,4,"801199530 ",224.6600,0.00,224.6600,GR,0.0000,"Start Fitness
Fitness
SF English"
2210407,complete,441920,600714943,600681794,2020-03-17,4,EL801101345,449.4800,0.00,449.4800,GR,0.0000,"Start Fitness
Fitness
SF English"
2211133,complete,441920,600715161,600681998,2020-03-18,4,EL801101345,304.6800,0.00,304.6800,GR,0.0000,"Start Fitness
Fitness
SF English"
2211849,complete,441920,600715390,600682202,2020-03-19,4,EL801101345,390.4800,0.00,390.4800,GR,0.0000,"Start Fitness
Fitness
SF English"
2212057,complete,241908,600715441,600682254,2020-03-19,4,MT17126413,131.4100,0.00,131.4100,MT,0.0000,"Start Fitness
Fitness
SF English"
2212768,complete,968133,600715586,600682384,2020-03-20,4,"801199530 ",231.9400,0.00,231.9400,GR,0.0000,"Start Fitness
Fitness
SF English"
2216192,complete,968133,600716310,600683023,2020-03-23,4,"801199530 ",331.8400,0.00,331.8400,GR,0.0000,"Start Fitness
Fitness
SF English"
2216272,complete,441920,600716322,600683036,2020-03-23,4,EL801101345,1039.0300,0.00,1039.0300,GR,1142.0300,"Start Fitness
Fitness
SF English"
2217630,complete,441920,600716571,600683248,2020-03-24,4,EL801101345,391.2600,0.00,391.2600,GR,444.4300,"Start Fitness
Fitness
SF English"
2219161,complete,441920,600716857,600683508,2020-03-25,4,EL801101345,321.2400,0.00,321.2400,GR,361.9500,"Start Fitness
Fitness
SF English"
2220279,complete,75561,600717032,600683661,2020-03-26,4,EL52499873,567.2300,0.00,567.2300,GR,0.0000,"Start Fitness
Fitness
SF English"
2220644,complete,968133,600717109,600683732,2020-03-26,4,"801199530 ",449.2400,0.00,449.2400,GR,0.0000,"Start Fitness
Fitness
SF English"
2220772,complete,441920,600717130,600683750,2020-03-26,4,EL801101345,552.2600,0.00,552.2600,GR,47.5000,"Start Fitness
Fitness
SF English"
2220823,complete,510618,600717140,600683760,2020-03-26,4,105626664,28.3300,0.00,28.3300,GR,44.1200,"Start Fitness
Fitness
SF English"
2221691,complete,98795,600717286,600683893,2020-03-27,4,EL999820149,88.3200,0.00,88.3200,GR,0.0000,"Start Fitness
Fitness
SF English"
2222301,complete,441920,600717411,600684005,2020-03-27,4,EL801101345,585.6700,0.00,585.6700,GR,0.0000,"Start Fitness
Fitness
SF English"
2223449,complete,658299,1900270731,1900244261,2020-03-28,4,131449137,55.8300,0.00,55.8300,BG,0.0000,"Start Fitness
Fitness
Fitness Mobile"
2227071,complete,592282,800039585,800037547,2020-03-30,4,BG202103047,105.3300,0.00,105.3300,BG,0.0000,"More Mile
More Mile
MM English"
2227296,complete,968133,600718321,600684797,2020-03-30,4,"801199530 ",483.7600,0.00,483.7600,GR,0.0000,"Start Fitness
Fitness
SF English"
2227379,complete,441920,600718335,600684811,2020-03-30,4,EL801101345,1280.7100,0.00,1280.7100,GR,0.0000,"Start Fitness
Fitness
SF English"
2229295,complete,441920,600718737,600685176,2020-03-31,4,EL801101345,351.3200,0.00,351.3200,GR,0.0000,"Start Fitness
Fitness
SF English"
