"Invoice Entity ID",status,"payment method",po_number,"Order number","Invoice Number","Invoice date","GBP Net goods after discount","GBP VAT on Goods","GBP Gross goods after discount",country_id,"Store Credit Used",store_name
2194155,complete,purchaseorder,reorderauto,3300002747,3300002711,2020-03-02,0.0000,0.00,0.0000,GB,0.0000,"Start Group
Start Group
Trade orders"
2194159,complete,purchaseorder,reorderauto,3300002751,3300002715,2020-03-02,0.0000,0.00,0.0000,GB,0.0000,"Start Group
Start Group
Trade orders"
2194158,complete,purchaseorder,reorderauto,3300002750,3300002714,2020-03-02,0.0000,0.00,0.0000,GB,0.0000,"Start Group
Start Group
Trade orders"
2194157,complete,purchaseorder,reorderauto,3300002749,3300002713,2020-03-02,0.0000,0.00,0.0000,GB,0.0000,"Start Group
Start Group
Trade orders"
2194156,complete,purchaseorder,reorderauto,3300002748,3300002712,2020-03-02,0.0000,0.00,0.0000,GB,0.0000,"Start Group
Start Group
Trade orders"
2195996,complete,purchaseorder,"£2000 Halfords LoC | £300 payment",600710033,600678706,2020-03-03,1916.6700,383.33,2300.0000,GB,0.0000,"Start Fitness
Fitness
SF English"
2195480,complete,purchaseorder,43Y52924BY011312R,600711346,600678547,2020-03-03,63.0000,12.60,75.6000,GB,58.5000,"Start Fitness
Fitness
SF English"
2195392,complete,purchaseorder,reorderauto,3300002753,3300002717,2020-03-03,0.0000,0.00,0.0000,GB,0.0000,"Start Group
Start Group
Trade orders"
2195391,complete,purchaseorder,reorderauto,3300002752,3300002716,2020-03-03,0.0000,0.00,0.0000,GB,0.0000,"Start Group
Start Group
Trade orders"
2196582,complete,purchaseorder,reorderauto,3300002754,3300002718,2020-03-04,0.0000,0.00,0.0000,GB,0.0000,"Start Group
Start Group
Trade orders"
2196779,complete,purchaseorder,week36,3300002758,3300002722,2020-03-04,1360.2100,272.04,1632.2500,GB,0.0000,"Start Group
Start Group
Trade orders"
2196766,complete,purchaseorder,week36,3300002757,3300002721,2020-03-04,145.2000,19.64,164.8400,GB,0.0000,"Start Group
Start Group
Trade orders"
2196757,complete,purchaseorder,week36,3300002756,3300002720,2020-03-04,188.4000,37.68,226.0800,GB,0.0000,"Start Group
Start Group
Trade orders"
2196748,complete,purchaseorder,week36,3300002755,3300002719,2020-03-04,166.5000,33.30,199.8000,GB,0.0000,"Start Group
Start Group
Trade orders"
2196802,complete,purchaseorder,week36,3300002759,3300002723,2020-03-04,1065.9100,213.18,1279.0900,GB,0.0000,"Start Group
Start Group
Trade orders"
2198155,complete,purchaseorder,"Halfords £350 | £50 PayPal",600712031,600679191,2020-03-05,333.3300,66.67,400.0000,GB,0.0000,"Start Fitness
Fitness
SF English"
2197716,complete,purchaseorder,reorderauto,3300002760,3300002724,2020-03-05,0.0000,0.00,0.0000,GB,0.0000,"Start Group
Start Group
Trade orders"
2198863,complete,purchaseorder,reorderauto,3300002764,3300002728,2020-03-06,0.0000,0.00,0.0000,GB,0.0000,"Start Group
Start Group
Trade orders"
2198862,complete,purchaseorder,reorderauto,3300002763,3300002727,2020-03-06,0.0000,0.00,0.0000,GB,0.0000,"Start Group
Start Group
Trade orders"
2198861,complete,purchaseorder,reorderauto,3300002762,3300002726,2020-03-06,0.0000,0.00,0.0000,GB,0.0000,"Start Group
Start Group
Trade orders"
2198984,complete,purchaseorder,Week36Specials,3300002766,3300002730,2020-03-06,909.0000,181.80,1090.8000,GB,0.0000,"Start Group
Start Group
Trade orders"
2198860,complete,purchaseorder,reorderauto,3300002761,3300002725,2020-03-06,0.0000,0.00,0.0000,GB,0.0000,"Start Group
Start Group
Trade orders"
2198938,complete,purchaseorder,"PlanetX Order 06.03.20",3300002765,3300002729,2020-03-06,583.2000,116.64,699.8400,GB,0.0000,"Start Group
Start Group
Trade orders"
2199827,complete,purchaseorder,reorderauto,3300002767,3300002731,2020-03-07,0.0000,0.00,0.0000,GB,0.0000,"Start Group
Start Group
Trade orders"
2202373,complete,purchaseorder,reorderauto,3300002768,3300002732,2020-03-09,0.0000,0.00,0.0000,GB,0.0000,"Start Group
Start Group
Trade orders"
2202377,complete,purchaseorder,reorderauto,3300002772,3300002736,2020-03-09,0.0000,0.00,0.0000,GB,0.0000,"Start Group
Start Group
Trade orders"
2202376,complete,purchaseorder,reorderauto,3300002771,3300002735,2020-03-09,0.0000,0.00,0.0000,GB,0.0000,"Start Group
Start Group
Trade orders"
2202375,complete,purchaseorder,reorderauto,3300002770,3300002734,2020-03-09,0.0000,0.00,0.0000,GB,0.0000,"Start Group
Start Group
Trade orders"
2202374,complete,purchaseorder,reorderauto,3300002769,3300002733,2020-03-09,0.0000,0.00,0.0000,GB,0.0000,"Start Group
Start Group
Trade orders"
2204098,complete,purchaseorder,10032020,3300002775,3300002739,2020-03-10,1684.8000,336.96,2021.7600,GB,0.0000,"Start Group
Start Group
Trade orders"
2203582,complete,purchaseorder,reorderauto,3300002774,3300002738,2020-03-10,0.0000,0.00,0.0000,GB,0.0000,"Start Group
Start Group
Trade orders"
2203581,complete,purchaseorder,reorderauto,3300002773,3300002737,2020-03-10,0.0000,0.00,0.0000,GB,0.0000,"Start Group
Start Group
Trade orders"
2204676,complete,purchaseorder,reorderauto,3300002776,3300002740,2020-03-11,0.0000,0.00,0.0000,GB,0.0000,"Start Group
Start Group
Trade orders"
2204973,complete,purchaseorder,week37,3300002779,3300002743,2020-03-11,725.0000,145.00,870.0000,GB,0.0000,"Start Group
Start Group
Trade orders"
2205161,complete,purchaseorder,"Cyclescheme £1000 | £61.39 Card",600713686,600680679,2020-03-11,890.3200,171.07,1061.3900,GB,0.0000,"Start Fitness
Fitness
SF English"
2204917,complete,purchaseorder,week37,3300002778,3300002742,2020-03-11,357.7000,71.54,429.2400,GB,0.0000,"Start Group
Start Group
Trade orders"
2205133,complete,purchaseorder,"Cyclescheme £1000",600713668,600680667,2020-03-11,824.0800,164.82,988.9000,GB,0.0000,"Start Fitness
Fitness
SF English"
2204865,complete,purchaseorder,week37,3300002777,3300002741,2020-03-11,1702.2100,340.44,2042.6500,GB,0.0000,"Start Group
Start Group
Trade orders"
2205006,complete,purchaseorder,week37,3300002781,3300002745,2020-03-11,76.5000,15.30,91.8000,GB,0.0000,"Start Group
Start Group
Trade orders"
2204768,complete,purchaseorder,7CY15692RB0243119,600713562,600680568,2020-03-11,29.1700,5.83,35.0000,GB,32.9900,"Start Fitness
Fitness
SF English"
2204992,complete,purchaseorder,week37,3300002780,3300002744,2020-03-11,489.0000,97.80,586.8000,GB,0.0000,"Start Group
Start Group
Trade orders"
2206100,complete,purchaseorder,SpecialsWeek37,3300002784,3300002748,2020-03-12,659.4000,131.88,791.2800,GB,0.0000,"Start Group
Start Group
Trade orders"
2205758,complete,purchaseorder,reorderauto,3300002783,3300002747,2020-03-12,0.0000,0.00,0.0000,GB,0.0000,"Start Group
Start Group
Trade orders"
2205757,complete,purchaseorder,reorderauto,3300002782,3300002746,2020-03-12,0.0000,0.00,0.0000,GB,0.0000,"Start Group
Start Group
Trade orders"
2205858,complete,purchaseorder,"Cyclescheme | Full amount ",600701037,600680781,2020-03-12,889.6700,172.13,1061.8000,GB,0.0000,"Start Fitness
Fitness
SF English"
2206722,complete,purchaseorder,reorderauto,3300002785,3300002749,2020-03-13,0.0000,0.00,0.0000,GB,0.0000,"Start Group
Start Group
Trade orders"
2207613,complete,purchaseorder,reorderauto,3300002787,3300002751,2020-03-14,0.0000,0.00,0.0000,GB,0.0000,"Start Group
Start Group
Trade orders"
2207612,complete,purchaseorder,reorderauto,3300002786,3300002750,2020-03-14,0.0000,0.00,0.0000,GB,0.0000,"Start Group
Start Group
Trade orders"
2209446,complete,purchaseorder,reorderauto,3300002789,3300002753,2020-03-16,0.0000,0.00,0.0000,GB,0.0000,"Start Group
Start Group
Trade orders"
2209445,complete,purchaseorder,reorderauto,3300002788,3300002752,2020-03-16,0.0000,0.00,0.0000,GB,0.0000,"Start Group
Start Group
Trade orders"
2209744,complete,purchaseorder,Week38Specials,3300002792,3300002756,2020-03-16,1427.6000,284.12,1711.7200,GB,0.0000,"Start Group
Start Group
Trade orders"
2209448,complete,purchaseorder,reorderauto,3300002791,3300002755,2020-03-16,0.0000,0.00,0.0000,GB,0.0000,"Start Group
Start Group
Trade orders"
2209447,complete,purchaseorder,reorderauto,3300002790,3300002754,2020-03-16,0.0000,0.00,0.0000,GB,0.0000,"Start Group
Start Group
Trade orders"
2210193,complete,purchaseorder,reorderauto,3300002794,3300002757,2020-03-17,0.0000,0.00,0.0000,GB,0.0000,"Start Group
Start Group
Trade orders"
2210287,complete,purchaseorder,",,,,,,,,,,,,,,,",600714886,600681746,2020-03-17,1633.6400,326.73,1960.3700,GB,0.0000,"Start Fitness
Fitness
SF English"
2210228,complete,purchaseorder,"PlanetX Order 17.03.20",3300002796,3300002758,2020-03-17,1101.6000,220.32,1321.9200,GB,0.0000,"Start Group
Start Group
Trade orders"
2210215,closed,purchaseorder,"PlanetX Order 17.03.20",600714863,600681722,2020-03-17,1101.6000,220.32,1321.9200,GB,0.0000,"Start Fitness
Fitness
SF English"
2210885,complete,purchaseorder,reorderauto,3300002797,3300002759,2020-03-18,0.0000,0.00,0.0000,GB,0.0000,"Start Group
Start Group
Trade orders"
2210976,complete,purchaseorder,week38,3300002801,3300002763,2020-03-18,615.7000,123.14,738.8400,GB,0.0000,"Start Group
Start Group
Trade orders"
2210961,complete,purchaseorder,week38,3300002800,3300002762,2020-03-18,1259.5000,251.90,1511.4000,GB,0.0000,"Start Group
Start Group
Trade orders"
2210934,complete,purchaseorder,"C2W Payment £790.90",600711942,600681930,2020-03-18,659.0800,131.82,790.9000,GB,0.0000,"Start Fitness
Fitness
SF English"
2210951,complete,purchaseorder,week38,3300002799,3300002761,2020-03-18,594.2000,118.84,713.0400,GB,0.0000,"Start Group
Start Group
Trade orders"
2210886,complete,purchaseorder,reorderauto,3300002798,3300002760,2020-03-18,0.0000,0.00,0.0000,GB,0.0000,"Start Group
Start Group
Trade orders"
2210996,complete,purchaseorder,week38,3300002802,3300002764,2020-03-18,270.3000,54.06,324.3600,GB,0.0000,"Start Group
Start Group
Trade orders"
2211710,complete,purchaseorder,"Cyclescheme £1000 | £719.00 Cash",600715323,600682159,2020-03-19,1432.5000,286.50,1719.0000,GB,0.0000,"Start Fitness
Fitness
SF English"
2211570,complete,purchaseorder,reorderauto,3300002804,3300002766,2020-03-19,0.0000,0.00,0.0000,GB,0.0000,"Start Group
Start Group
Trade orders"
2211569,complete,purchaseorder,reorderauto,3300002803,3300002765,2020-03-19,0.0000,0.00,0.0000,GB,0.0000,"Start Group
Start Group
Trade orders"
2211950,complete,purchaseorder,"£3440 Cyclescheme + payment",600708350,600682230,2020-03-19,3061.6700,612.33,3674.0000,GB,0.0000,"Start Fitness
Fitness
SF English"
2212460,complete,purchaseorder,reorderauto,3300002805,3300002767,2020-03-20,0.0000,0.00,0.0000,GB,0.0000,"Start Group
Start Group
Trade orders"
2212705,complete,purchaseorder,"Halfords £1000 | £109.75 Paypal",600715362,600682366,2020-03-20,924.7900,184.96,1109.7500,GB,0.0000,"Start Fitness
Fitness
SF English"
2213410,complete,purchaseorder,reorderauto,3300002807,3300002769,2020-03-21,0.0000,0.00,0.0000,GB,0.0000,"Start Group
Start Group
Trade orders"
2213409,complete,purchaseorder,reorderauto,3300002806,3300002768,2020-03-21,0.0000,0.00,0.0000,GB,0.0000,"Start Group
Start Group
Trade orders"
2217844,complete,purchaseorder,"Cyclescheme full amount ",600716580,600683295,2020-03-24,1374.1700,274.83,1649.0000,GB,0.0000,"Start Fitness
Fitness
SF English"
2217139,complete,purchaseorder,reorderauto,3300002810,3300002772,2020-03-24,0.0000,0.00,0.0000,GB,0.0000,"Start Group
Start Group
Trade orders"
2217138,complete,purchaseorder,reorderauto,3300002809,3300002771,2020-03-24,0.0000,0.00,0.0000,GB,0.0000,"Start Group
Start Group
Trade orders"
2217744,complete,purchaseorder,"PayPal payment | Transaction ID: 8T0324700X958333V",600716598,600683275,2020-03-24,688.4900,137.70,826.1900,GB,0.0000,"Start Fitness
Fitness
SF English"
2217137,complete,purchaseorder,reorderauto,3300002808,3300002770,2020-03-24,0.0000,0.00,0.0000,GB,0.0000,"Start Group
Start Group
Trade orders"
2219372,complete,purchaseorder,"Cyclescheme £1000 + PayPal £1199",600716875,600683532,2020-03-25,1832.5000,366.50,2199.0000,GB,0.0000,"Start Fitness
Fitness
SF English"
2219101,complete,purchaseorder,"Cyclescheme | Full amount ",600716826,600683498,2020-03-25,832.1700,166.43,998.6000,GB,0.0000,"Start Fitness
Fitness
SF English"
2219353,complete,purchaseorder,"Halfords £1000 | PayPal £349",600716802,600683523,2020-03-25,1124.1700,224.83,1349.0000,GB,0.0000,"Start Fitness
Fitness
SF English"
2220185,complete,purchaseorder,reorderauto,3300002811,3300002773,2020-03-26,0.0000,0.00,0.0000,GB,0.0000,"Start Group
Start Group
Trade orders"
2222041,complete,purchaseorder,"Cyclescheme | Full amount ",600717352,600683954,2020-03-27,1332.5000,266.50,1599.0000,GB,0.0000,"Start Fitness
Fitness
SF English"
2221842,complete,purchaseorder,"Cyclescheme | Full amount ",600717302,600683908,2020-03-27,815.8100,163.16,978.9700,GB,0.0000,"Start Fitness
Fitness
SF English"
2223290,complete,purchaseorder,reorderauto,3300002812,3300002774,2020-03-28,0.0000,0.00,0.0000,GB,0.0000,"Start Group
Start Group
Trade orders"
2223291,complete,purchaseorder,reorderauto,3300002813,3300002775,2020-03-28,0.0000,0.00,0.0000,GB,0.0000,"Start Group
Start Group
Trade orders"
2229401,bike_order,purchaseorder,"Cyclescheme £3000 | £900 store credit 600718495 ",600718761,600685199,2020-03-31,3249.1700,649.83,3899.0000,GB,900.0000,"Start Fitness
Fitness
SF English"
2228623,complete,purchaseorder,reorderauto,3300002814,3300002776,2020-03-31,0.0000,0.00,0.0000,GB,0.0000,"Start Group
Start Group
Trade orders"
