"Invoice Entity ID",status,"payment method",po_number,"Order number","Invoice Number","Invoice date","GBP Net goods after discount","GBP VAT on Goods","GBP Gross goods after discount",country_id,"Store Credit Used",store_name
2230496,complete,purchaseorder,reorderauto,3300002815,3300002777,2020-04-01,0.0000,0.00,0.0000,GB,0.0000,"Start Group
Start Group
Trade orders"
2232659,complete,purchaseorder,"Cyclescheme £1000 | £1299 PayPal",600719006,600685716,2020-04-02,1915.8300,383.17,2299.0000,GB,0.0000,"Start Fitness
Fitness
SF English"
2237565,complete,purchaseorder,"Cyclescheme £2000 | £1500 PayPal",600719845,600686401,2020-04-04,2916.6700,583.33,3500.0000,GB,0.0000,"Start Fitness
Fitness
SF English"
2246474,complete,purchaseorder,reorderauto,3300002816,3300002778,2020-04-08,0.0000,0.00,0.0000,GB,0.0000,"Start Group
Start Group
Trade orders"
2249253,complete,purchaseorder,"£900 Cyclescheme voucher | £299 PayPal payment",600722004,600688195,2020-04-09,999.1700,199.83,1199.0000,GB,0.0000,"Start Fitness
Fitness
SF English"
2248548,complete,purchaseorder,reorderauto,3300002817,3300002779,2020-04-09,0.0000,0.00,0.0000,GB,0.0000,"Start Group
Start Group
Trade orders"
2251718,complete,purchaseorder,69477012SH4905845,600722497,600688626,2020-04-10,59.1200,11.83,70.9500,GB,55.9500,"Start Fitness
Fitness
SF English"
2250649,complete,purchaseorder,reorderauto,3300002818,3300002780,2020-04-10,0.0000,0.00,0.0000,GB,0.0000,"Start Group
Start Group
Trade orders"
2260898,complete,purchaseorder,Cyclescheme,600716873,600690109,2020-04-14,2107.4200,421.48,2528.9000,GB,0.0000,"Start Fitness
Fitness
SF English"
2263929,complete,purchaseorder,,600724766,600690713,2020-04-15,916.6600,183.33,1099.9900,GB,0.0000,"Start Fitness
Fitness
SF English"
2267825,complete,purchaseorder,,600725311,600691503,2020-04-17,824.9500,164.99,989.9400,GB,0.0000,"Start Fitness
Fitness
SF English"
2270336,complete,purchaseorder,,600726207,600692035,2020-04-18,790.8300,158.17,949.0000,GB,0.0000,"Start Fitness
Fitness
SF English"
2270398,complete,purchaseorder,,600726257,600692053,2020-04-18,916.6600,183.33,1099.9900,GB,0.0000,"Start Fitness
Fitness
SF English"
2270234,complete,purchaseorder,,600726214,600692012,2020-04-18,1187.5000,237.50,1425.0000,GB,0.0000,"Start Fitness
Fitness
SF English"
2275031,complete,purchaseorder,,600723020,600692979,2020-04-20,11.2500,2.25,13.5000,GB,0.0000,"Start Fitness
Fitness
SF English"
2277038,complete,purchaseorder,"Cycle Solutions £999",600727120,600693382,2020-04-21,832.5000,166.50,999.0000,GB,0.0000,"Start Fitness
Fitness
SF English"
2277440,bike_order,purchaseorder,"Cyclescheme £3000",600727818,600693477,2020-04-21,2499.1700,499.83,2999.0000,GB,0.0000,"Start Fitness
Fitness
SF English"
2278570,complete,purchaseorder,reorderauto,3300002819,3300002781,2020-04-22,0.0000,0.00,0.0000,GB,0.0000,"Start Group
Start Group
Trade orders"
2280988,bike_order,purchaseorder,"Cyclescheme | Full amount ",600721695,600694174,2020-04-23,577.5000,115.50,693.0000,GB,0.0000,"Start Fitness
Fitness
SF English"
2281924,bike_order,purchaseorder,"GCI £1325 | £66.25 Adyen",600725022,600694448,2020-04-23,1104.1700,220.83,1325.0000,GB,0.0000,"Start Fitness
Fitness
SF English"
2284280,bike_order,purchaseorder,"Cyclescheme £988",600729456,600694993,2020-04-24,828.1700,159.83,988.0000,GB,0.0000,"Start Fitness
Fitness
SF English"
2282974,complete,purchaseorder,reorderauto,3300002820,3300002782,2020-04-24,0.0000,0.00,0.0000,GB,0.0000,"Start Group
Start Group
Trade orders"
2293961,complete,purchaseorder,1UV73665LH8130504,600731699,600697031,2020-04-28,90.0000,18.00,108.0000,GB,95.0000,"Start Fitness
Fitness
SF English"
2293317,bike_order,purchaseorder,"Cyclescheme £1454.00",600731492,600696845,2020-04-28,1181.5800,236.32,1417.9000,GB,0.0000,"Start Fitness
Fitness
SF English"
2295866,bike_order,purchaseorder,"Cyclescheme £2000 | £849.00 Adyen",600732108,600697440,2020-04-29,2374.1700,474.83,2849.0000,GB,0.0000,"Start Fitness
Fitness
SF English"
2298421,bike_order,purchaseorder,"Gary M",3400000883,3400000876,2020-04-30,374.1700,74.83,449.0000,GB,0.0000,"Start Group
Start Group
Wholesale Transfers"
2297898,pick_note_printed,purchaseorder,,600731913,600697848,2020-04-30,1137.3200,220.46,1357.7800,GB,0.0000,"Start Fitness
Fitness
SF English"
2297858,pick_note_printed,purchaseorder,,600732553,600697834,2020-04-30,916.6600,183.33,1099.9900,GB,0.0000,"Start Fitness
Fitness
SF English"
2297475,complete,purchaseorder,reorderauto,3300002821,3300002783,2020-04-30,0.0000,0.00,0.0000,GB,0.0000,"Start Group
Start Group
Trade orders"
