"Invoice Entity ID",status,"payment method",po_number,"Order number","Invoice Number","Invoice date","GBP Net goods after discount","GBP VAT on Goods","GBP Gross goods after discount",country_id,"Store Credit Used",store_name
2824461,complete,purchaseorder,"Vivup £1028.95",6000979883,6000743952,2021-03-03,186.3000,37.26,223.5600,GB,,"Start Fitness
Fitness
SF English"
2833720,complete,purchaseorder,"Cyclescheme £4000",6000985137,6000748916,2021-03-09,3332.2500,666.45,3998.7000,GB,,"Start Fitness
Fitness
SF English"
2833354,complete,purchaseorder,"Cyclescheme £4799",6000984128,6000748714,2021-03-09,1607.1700,321.44,1928.6100,GB,,"Start Fitness
Fitness
SF English"
2834959,complete,purchaseorder,"09.03.21 MM ",24000566772,24000566276,2021-03-10,638.8500,127.77,766.6200,GB,,"Start Group
Start Group
Trade orders"
2835382,complete,purchaseorder,"Cyclescheme £2634 SOTPay £72.41",6000985855,6000749771,2021-03-10,755.3100,151.06,906.3700,GB,,"Start Fitness
Fitness
SF English"
2836274,complete,purchaseorder,"090321 B FTW",24000566773,24000566277,2021-03-11,772.2600,154.45,926.7100,GB,,"Start Group
Start Group
Trade orders"
2836628,complete,purchaseorder,"110321 Branded App",24000566774,24000566278,2021-03-11,834.6800,166.94,1001.6200,GB,,"Start Group
Start Group
Trade orders"
2841647,complete,purchaseorder,P0C-H6R-STA-CAM-34Y,6000989587,6000753073,2021-03-15,20.9300,4.19,25.1200,GB,,"Start Fitness
Fitness
SF English"
2843517,complete,purchaseorder,"Cyclescheme £2500 SOTPay £207.50",6000990561,6000754058,2021-03-16,755.6100,151.12,906.7300,GB,,"Start Fitness
Fitness
SF English"
2844554,complete,purchaseorder,17.03.21,24000566776,24000566280,2021-03-17,454.6400,90.93,545.5700,GB,,"Start Group
Start Group
Trade orders"
2844754,complete,purchaseorder,"Cyclescheme £1000",6000991365,6000754732,2021-03-17,831.8300,166.37,998.2000,GB,,"Start Fitness
Fitness
SF English"
2845666,closed,purchaseorder,"Gary Test",24000566778,24000566282,2021-03-18,110.0700,2.01,112.0800,GB,,"Start Group
Start Group
Trade orders"
2846073,complete,purchaseorder,"Halfords £1000 SOTPay £799",6000991254,6000755424,2021-03-18,418.3800,83.68,502.0600,GB,,"Start Fitness
Fitness
SF English"
2851809,bike_order,purchaseorder,"Cyclescheme £3000 £1529 SOTPay",6000992023,6000758408,2021-03-22,3746.0800,749.22,4495.3000,GB,,"Start Fitness
Fitness
SF English"
2855646,complete,purchaseorder,"25.03.21 Durham",24000566779,24000566283,2021-03-25,1108.5800,221.72,1330.3000,GB,,"Start Group
Start Group
Trade orders"
2865557,wholesale_order,purchaseorder,"31.03.21 Mens FTW",24000566783,24000566287,2021-03-31,647.9000,129.58,777.4800,GB,,"Start Group
Start Group
Trade orders"
2865329,wholesale_order,purchaseorder,"31.03.21 Branded Accs",24000566781,24000566285,2021-03-31,356.0600,44.33,400.3900,GB,,"Start Group
Start Group
Trade orders"
2865463,wholesale_order,purchaseorder,"31.03.21 Wmns FTW",24000566782,24000566286,2021-03-31,1175.0400,235.01,1410.0500,GB,,"Start Group
Start Group
Trade orders"
2865271,wholesale_order,purchaseorder,"31.03.21 Specials",24000566780,24000566284,2021-03-31,113.8400,22.77,136.6100,GB,,"Start Group
Start Group
Trade orders"
