"Invoice Entity ID","Order number","Invoice Number","Invoice date","GBP Net goods after discount","GBP VAT on Goods","GBP Gross goods after discount",country_id,"Store Credit Used",store_name
2730004,6000919724,6000688576,2021-01-01,131.5800,0.00,131.5800,HU,,"Start Fitness
Fitness
SF English"
2731472,EBY24000586242,24000585584,2021-01-02,96.2200,0.00,96.2200,HU,,"Start Group
Start Group
eBay"
2732590,6000921619,6000690371,2021-01-02,65.9600,0.00,65.9600,HU,,"Start Fitness
Fitness
SF English"
2733668,EBY24000586635,24000585977,2021-01-03,33.3300,6.67,40.0000,HU,,"Start Group
Start Group
eBay"
2734487,6000922916,6000691613,2021-01-03,88.7100,0.00,88.7100,HU,,"Start Fitness
Fitness
SF English"
2735455,6000923541,6000692219,2021-01-04,157.9900,0.00,157.9900,HU,,"Start Fitness
Fitness
SF English"
2737100,6000924712,6000693315,2021-01-04,29.9200,0.00,29.9200,HU,,"Start Fitness
Fitness
SF English"
2748025,EBY24000588895,24000588233,2021-01-11,15.0000,3.00,18.0000,HU,,"Start Group
Start Group
eBay"
2748886,6000932809,6000701006,2021-01-11,57.5000,0.00,57.5000,HU,,"Start Fitness
Fitness
SF English"
2749337,EBY24000589061,24000588399,2021-01-12,31.6200,0.00,31.6200,HU,,"Start Group
Start Group
eBay"
2749750,EBY24000589114,24000588452,2021-01-12,58.3300,11.67,70.0000,HU,,"Start Group
Start Group
eBay"
2751316,6000934372,6000702473,2021-01-13,83.2500,0.00,83.2500,HU,,"Start Fitness
Fitness
SF English"
2751613,EBY24000589363,24000588700,2021-01-13,58.2500,11.65,69.9000,HU,,"Start Group
Start Group
eBay"
2755697,6000938549,6000705167,2021-01-16,338.7900,0.00,338.7900,HU,,"Start Fitness
Fitness
SF English"
2759559,6000940859,6000707337,2021-01-18,18.3300,0.00,18.3300,HU,,"Start Fitness
Fitness
SF English"
2759561,6000940862,6000707339,2021-01-18,18.3300,0.00,18.3300,HU,,"Start Fitness
Fitness
SF English"
2759565,6000940864,6000707342,2021-01-18,18.3300,0.00,18.3300,HU,,"Start Fitness
Fitness
SF English"
2759581,6000940877,6000707355,2021-01-18,18.3300,0.00,18.3300,HU,,"Start Fitness
Fitness
SF English"
2759594,6000940890,6000707365,2021-01-18,18.3300,0.00,18.3300,HU,,"Start Fitness
Fitness
SF English"
2759609,6000940906,6000707379,2021-01-18,18.3300,0.00,18.3300,HU,,"Start Fitness
Fitness
SF English"
2759622,6000940915,6000707388,2021-01-18,18.3300,0.00,18.3300,HU,,"Start Fitness
Fitness
SF English"
2759623,6000940916,6000707389,2021-01-18,18.3300,0.00,18.3300,HU,,"Start Fitness
Fitness
SF English"
2759991,6000941169,6000707642,2021-01-18,18.3300,0.00,18.3300,HU,,"Start Fitness
Fitness
SF English"
2770911,6000948088,6000714197,2021-01-25,17.7800,0.00,17.7800,HU,,"Start Fitness
Fitness
SF English"
2771100,6000948178,6000714319,2021-01-25,113.1400,0.00,113.1400,HU,,"Start Fitness
Fitness
SF English"
2772489,6000949081,6000715132,2021-01-26,80.9300,0.00,80.9300,HU,,"Start Fitness
Fitness
SF English"
2777218,6000952034,6000717929,2021-01-29,57.5000,0.00,57.5000,HU,,"Start Fitness
Fitness
SF English"
2777422,6000952162,6000718049,2021-01-29,110.0000,0.00,110.0000,HU,,"Start Fitness
Fitness
SF English"
2779873,6000953657,6000719457,2021-01-31,31.4400,0.00,31.4400,HU,,"Start Fitness
Fitness
SF English"
