item_id,order_item_id,"Invoice ID","Order Number","Customer name",customer_email,"Invoice No","Invoice Date",country_id,base_row_total_incl_tax,store_name,name,base_discount_amount,"Value less discount",tax_percent,"Net Discounted Amount","Return Date",month_year,value,product_id,customer_group_id,"net based on catalog vat","New tax"
6219096,6219096,2179654,2500293978,"Jesper Kaalund",jeskaalund@gmail.com,2500293174,"2020-02-17 11:57:47",DK,8.9900,"Start Group
Start Group
eBay","DBlade Canvas Multipocket Mens Work Wear Pants - Khaki",,8.9900,20.0000,7.49166667,22020,22020,2,311287,0,7.49,7.49
6239514,6239514,2187658,600709491,"Peter Soelver",petersoelver@gmail.com,600676866,"2020-02-25 12:10:51",DK,74.9000,"Start Fitness
Fitness
SF English","Asics Noosa FF 2 Mens Running Shoes - Black",,74.9000,20.0000,62.41666667,22020,22020,2,252559,0,62.42,62.42
6230854,6230854,2184252,2400651681,"Embassy Montaño",8xpl9p47rmvp30k@marketplace.amazon.de,2400651111,"2020-02-22 09:53:25",DK,43.7500,"Start Group
Start Group
Amazon","Jelly Belly Sport Beans-Assorted",,43.7500,25.0765,34.97859310,22020,22020,2,45211,0,36.46,36.46
6241409,6241409,2188392,2500295597,"Anders Brix-Hansen",rubutz_mr_x@hotmail.com,2500294793,"2020-02-26 02:06:28",DK,34.2500,"Start Group
Start Group
eBay","Under Armour Launch SW 7 Inch Mens Running Shorts - Blue",,34.2500,20.0000,28.54166667,22020,22020,2,331159,0,28.54,28.54
6234767,6234767,2185727,2400652163,"Lars Pedersen",6ckqydmnh9j0cnk@marketplace.amazon.co.uk,2400651593,"2020-02-23 17:04:25",DK,13.5300,"Start Group
Start Group
Amazon","Ohmme Vajra II Mens Yoga Vest - Black-L",,13.5300,25.0462,10.82000093,22020,22020,2,347671,0,11.28,11.28
6182576,6182576,2165388,2400645590,"Alex Grave",r5jlrfrm1yqdhff@marketplace.amazon.co.uk,2400645022,"2020-02-02 22:45:49",DK,16.5600,"Start Group
Start Group
Amazon","Ronhill Classic Running Gloves - Yellow-S",,16.5600,24.9811,13.25000340,22020,22020,2,108461,0,13.80,13.80
6212954,6212954,2177232,2500293545,"Brian Andersen",ba101079@gmail.com,2500292741,"2020-02-14 23:46:26",DK,7.9900,"Start Group
Start Group
eBay","Asics Zona Mens Training Shorts - Blue",,7.9900,20.0000,6.65833333,22020,22020,2,214676,0,6.66,6.66
6176966,6176966,2163217,600702563,"Sandie Johansen",sandie_n_j@hotmail.com,600670635,"2020-02-01 14:09:02",DK,30.0000,"Start Fitness
Fitness
SF English","adidas Xpulsor Sport Sunglasses - White",3.0000,27.0000,20.0000,22.50000000,22020,22020,2,350425,0,22.50,22.50
6176967,6176967,2163217,600702563,"Sandie Johansen",sandie_n_j@hotmail.com,600670635,"2020-02-01 14:09:02",DK,7.0000,"Start Fitness
Fitness
SF English","2XU Run Visor - Black",0.7000,6.3000,20.0000,5.25000000,22020,22020,2,331546,0,5.25,5.25
6176968,6176968,2163217,600702563,"Sandie Johansen",sandie_n_j@hotmail.com,600670635,"2020-02-01 14:09:02",DK,49.0000,"Start Fitness
Fitness
SF English","Salomon Grid Full Zip Long Sleeve Mens Running Top - Blue",4.9000,44.1000,20.0000,36.75000000,22020,22020,2,309113,0,36.75,36.75
6176970,6176970,2163217,600702563,"Sandie Johansen",sandie_n_j@hotmail.com,600670635,"2020-02-01 14:09:02",DK,10.0000,"Start Fitness
Fitness
SF English","Asics Essential Mens Running Vest - Green",1.0000,9.0000,20.0000,7.50000000,22020,22020,2,295689,0,7.50,7.50
6176972,6176972,2163217,600702563,"Sandie Johansen",sandie_n_j@hotmail.com,600670635,"2020-02-01 14:09:02",DK,14.0000,"Start Fitness
Fitness
SF English","Puma PR Power Cool Graphic Mens Running Vest - Blue",1.4000,12.6000,20.0000,10.50000000,22020,22020,2,294550,0,10.50,10.50
6176974,6176974,2163217,600702563,"Sandie Johansen",sandie_n_j@hotmail.com,600670635,"2020-02-01 14:09:02",DK,25.0000,"Start Fitness
Fitness
SF English","Puma Evostripe Ultimate Full Zip Mens Running Hoody - Blue",2.5000,22.5000,20.0000,18.75000000,22020,22020,2,220002,0,18.75,18.75
6176976,6176976,2163217,600702563,"Sandie Johansen",sandie_n_j@hotmail.com,600670635,"2020-02-01 14:09:02",DK,35.0000,"Start Fitness
Fitness
SF English","Orca Core Mens Tri Shorts - Red",3.5000,31.5000,20.0000,26.25000000,22020,22020,2,305666,0,26.25,26.25
6176978,6176978,2163217,600702563,"Sandie Johansen",sandie_n_j@hotmail.com,600670635,"2020-02-01 14:09:02",DK,20.0000,"Start Fitness
Fitness
SF English","Puma Ignite Womens Short Running Tights - Black",2.0000,18.0000,20.0000,15.00000000,22020,22020,2,320996,0,15.00,15.00
6222314,6222314,2180886,2400650618,"Rasmus Froberg",z96zj09dhhtx1m3@marketplace.amazon.de,2400650048,"2020-02-18 15:30:19",DK,84.6600,"Start Group
Start Group
Amazon","Reebok Crossfit Nano 9.0 Mens Training Shoes - Grey-9.5",,84.6600,24.9967,67.72978807,22020,22020,2,335817,0,70.55,70.55
6210204,6210204,2176270,600706284,"Kasper Tomsen",meinl.cym2@gmail.com,600673991,"2020-02-13 21:55:05",DK,59.0000,"Start Fitness
Fitness
SF English","adidas Powerlift 4.0 Mens Weightlifting Shoes - Green",,59.0000,20.0000,49.16666667,22020,22020,2,316921,0,49.17,49.17
6191938,6191938,2168994,2400646753,"Ismat Hassan",gwmtv0tsmchtzf3@marketplace.amazon.co.uk,2400646183,"2020-02-06 13:02:34",DK,15.6300,"Start Group
Start Group
Amazon","Shock Absorber Active Multi Womens Sports Support Bra - Red-32-C",,15.6300,25.0400,12.50000000,22020,22020,2,193720,0,13.03,13.03
6226547,6226547,2182586,600708134,"Andreas Nors Rebstrup",andreas.rebstrup@gmail.com,600675640,"2020-02-20 12:48:41",DK,59.9000,"Start Fitness
Fitness
SF English","adidas Distancestar Mens Running Spikes - Black",,59.9000,20.0000,49.91666667,22020,22020,2,346497,0,49.92,49.92
6226549,6226549,2182586,600708134,"Andreas Nors Rebstrup",andreas.rebstrup@gmail.com,600675640,"2020-02-20 12:48:41",DK,35.0000,"Start Fitness
Fitness
SF English","adidas Adizero Ambition 3 Running Spikes - Blue",,35.0000,20.0000,29.16666667,22020,22020,2,159730,0,29.17,29.17
6214934,6214934,2177966,600706840,"Oliver Linnet",oliverlinnet@yahoo.dk,600674482,"2020-02-15 18:39:02",DK,75.0000,"Start Fitness
Fitness
SF English","Saucony Freedom ISO Mens Running Shoes - Green",,75.0000,20.0000,62.50000000,22020,22020,2,215252,0,62.50,62.50
6204784,6204784,2174117,2400648432,"Mette Lolk",zwv6h9c52yxrbdx@marketplace.amazon.co.uk,2400647862,"2020-02-11 15:43:33",DK,80.2100,"Start Group
Start Group
Amazon","Inov8 Roclite 315 Womens Trail Running Shoes - Purple-6.5",,80.2100,24.9961,64.17000210,22020,22020,2,315919,0,66.84,66.84
6185725,6185725,2166592,2500291713,"Kristupas Petrauskas",kristupaaasss@gmail.com,2500290909,"2020-02-04 00:02:52",DK,4.9400,"Start Group
Start Group
eBay","More Mile Endurance Running Socks - Blue",,4.9400,20.0000,4.11666667,22020,22020,2,211312,0,4.12,4.12
6207386,6207386,2175083,2400648715,"Heidi Sønderkær",49pthcxfjmzxl7q@marketplace.amazon.de,2400648145,"2020-02-12 16:12:57",DK,79.5100,"Start Group
Start Group
Amazon","Reebok Crossfit Nano 8 Flexweave Womens Training Shoes - Purple-7",,79.5100,25.0035,63.60621903,22020,22020,2,327570,0,66.26,66.26
6207389,6207389,2175086,2400648718,"Jens Jensen",gr9zmgyg6m3366m@marketplace.amazon.de,2400648148,"2020-02-12 16:13:03",DK,105.6700,"Start Group
Start Group
Amazon","Reebok Crossfit Nano 9.0 Mens Training Shoes - Grey-11",,105.6700,25.0053,84.53241583,22020,22020,2,351058,0,88.06,88.06
6226609,6226609,2182612,600708148,"Marie Gorritzen",mgorritzen@live.dk,600675654,"2020-02-20 13:14:03",DK,59.0000,"Start Fitness
Fitness
SF English","adidas Powerlift 4.0 Mens Weightlifting Shoes - Green",,59.0000,20.0000,49.16666667,22020,22020,2,316921,0,49.17,49.17
6190861,6190861,2168536,600704102,"Rikke Alfang Jensen",miaalfang@gmail.com,600672045,"2020-02-05 21:09:04",DK,59.0000,"Start Fitness
Fitness
SF English","adidas Solar Drive Boost Womens Running Shoes - White",,59.0000,20.0000,49.16666667,22020,22020,2,310169,0,49.17,49.17
6190863,6190863,2168536,600704102,"Rikke Alfang Jensen",miaalfang@gmail.com,600672045,"2020-02-05 21:09:04",DK,44.9000,"Start Fitness
Fitness
SF English","adidas Duramo 9 Womens Running Shoes - Grey",,44.9000,20.0000,37.41666667,22020,22020,2,344727,0,37.42,37.42
6215000,6215000,2177994,2400649626,"Lasse Møller",l7vnxlr44yg3rgy@marketplace.amazon.co.uk,2400649056,"2020-02-15 18:59:42",DK,111.3500,"Start Group
Start Group
Amazon","Asics Gel Foundation 13 WIDE FIT (2E) Mens Running Shoes - Blue-9",,111.3500,25.0000,89.08000000,22020,22020,2,296837,0,92.79,92.79
6210283,6210283,2176307,2400649116,"Jeppe Vørre",yv2b8n98mzsjt54@marketplace.amazon.de,2400648546,"2020-02-13 22:35:27",DK,98.4300,"Start Group
Start Group
Amazon","Asics GT 2000 7 Mens Running Shoes - Black-11",,98.4300,25.0000,78.74400000,22020,22020,2,327969,0,82.03,82.03
6238565,6238565,2187240,2400652676,"Lena/Bo Thaysen",v8xsmxkzgk6kh5h@marketplace.amazon.co.uk,2400652106,"2020-02-24 21:54:43",DK,20.8300,"Start Group
Start Group
Amazon","Asics Tech Mens Joggers - Black-M",,20.8300,25.0300,16.66000160,22020,22020,2,217040,0,17.36,17.36
6176513,6176513,2163017,2500291179,"Morten Juul",carp@stofanet.dk,2500290381,"2020-02-01 11:25:27",DK,20.2500,"Start Group
Start Group
eBay","Under Armour Shadow 4.0 Mens Cap - Black",,20.2500,20.0000,16.87500000,22020,22020,2,231814,0,16.88,16.88
6206776,6206776,2174876,1900261673,"Mathias Olsen",mathias.ao@live.dk,1900236474,"2020-02-12 12:21:09",DK,89.0000,"Start Fitness
Fitness
Fitness Mobile","adidas Adizero Prime SP Running Spikes - Black",,89.0000,20.0000,74.16666667,22020,22020,2,308375,0,74.17,74.17
6211728,6211728,2176813,600706471,"Birgitte Bahat",alabaster@live.dk,600674160,"2020-02-14 14:58:01",DK,99.9000,"Start Fitness
Fitness
SF English","Asics Gel Nimbus 21 Womens Running Shoes - Blue",,99.9000,20.0000,83.25000000,22020,22020,2,327077,0,83.25,83.25
6193970,6193970,2169777,600704465,"Mads Peter",mpgrann@hotmail.com,600672382,"2020-02-07 10:07:04",DK,21.9000,"Start Fitness
Fitness
SF English","Santa Cruz Parallel Mens Short Sleeve Top - Black",,21.9000,20.0000,18.25000000,22020,22020,2,338702,0,18.25,18.25
6193972,6193972,2169777,600704465,"Mads Peter",mpgrann@hotmail.com,600672382,"2020-02-07 10:07:04",DK,21.9000,"Start Fitness
Fitness
SF English","Santa Cruz Warden Mens Short Sleeve Top - Black",,21.9000,20.0000,18.25000000,22020,22020,2,338715,0,18.25,18.25
6226099,6226099,2182400,2400651093,"Daniel Jørgensen",2w5nglrsvd0xlx5@marketplace.amazon.co.uk,2400650523,"2020-02-20 09:03:24",DK,8.3300,"Start Group
Start Group
Amazon","TCA Natural Performance Womens Sports Bra - Grey",,8.3300,25.0751,6.65999867,22020,22020,2,246057,0,6.94,6.94
6193343,6193343,2169549,600704413,"Patrik Schneidgen",patrikschneidgen@gmail.com,600672333,"2020-02-06 22:45:02",DK,39.0000,"Start Fitness
Fitness
SF English","Brooks 3 ELMN8 Middle Distance Running Spikes - White",3.9000,35.1000,20.0000,29.25000000,22020,22020,2,197577,0,29.25,29.25
6193345,6193345,2169549,600704413,"Patrik Schneidgen",patrikschneidgen@gmail.com,600672333,"2020-02-06 22:45:02",DK,40.0000,"Start Fitness
Fitness
SF English","Puma Speed Ignite Netfit Mens Running Shoes - Black",4.0000,36.0000,20.0000,30.00000000,22020,22020,2,234435,0,30.00,30.00
6193347,6193347,2169549,600704413,"Patrik Schneidgen",patrikschneidgen@gmail.com,600672333,"2020-02-06 22:45:02",DK,40.0000,"Start Fitness
Fitness
SF English","Puma Ignite Power Cool Mens Running Shoes - Blue",4.0000,36.0000,20.0000,30.00000000,22020,22020,2,134975,0,30.00,30.00
6238111,6238111,2187020,2500295340,"Jens Sommerlund",jens@wsom.dk,2500294536,"2020-02-24 19:10:42",DK,33.6000,"Start Group
Start Group
eBay","Reebok Crossfit Mens Training Gloves - Black",,33.6000,20.0000,28.00000000,22020,22020,2,302900,0,28.00,28.00
6220574,6220574,2180234,2400650409,"Kristian Krøier",3bycl0s5nvxttj2@marketplace.amazon.de,2400649839,"2020-02-17 21:01:18",DK,99.4800,"Start Group
Start Group
Amazon","Mizuno Wave Inspire 15 Womens Running Shoes - White-6.5",,99.4800,25.0056,79.58043480,22020,22020,2,331890,0,82.90,82.90
6218157,6218157,2179273,1900262664,"Anne Lind Toustrup",altoustrup@gmail.com,1900237352,"2020-02-16 21:44:03",DK,99.9000,"Start Fitness
Fitness
Fitness Mobile","adidas Adizero High Jump Field Event Spikes - White",,99.9000,20.0000,83.25000000,22020,22020,2,314532,0,83.25,83.25
6218159,6218159,2179273,1900262664,"Anne Lind Toustrup",altoustrup@gmail.com,1900237352,"2020-02-16 21:44:03",DK,70.0000,"Start Fitness
Fitness
Fitness Mobile","adidas Adizero Prime Finesse Running Spikes - White",,70.0000,20.0000,58.33333333,22020,22020,2,333923,0,58.33,58.33
6177232,6177232,2163297,2500291224,"Ole Stagaard",st@gaard.at,2500290423,"2020-02-01 15:07:32",DK,15.8900,"Start Group
Start Group
eBay","Under Armour Tech Short Sleeve Mens Running Top - Black",,15.8900,20.0000,13.24166667,22020,22020,2,126390,0,13.24,13.24
6189887,6189887,2168100,2400646448,"Thue Ehlers Jensen",0hvcs4qbrf55ml3@marketplace.amazon.de,2400645878,"2020-02-05 14:04:56",DK,76.7000,"Start Group
Start Group
Amazon","Under Armour Tech Short Sleeve Mens Running Top - Black-XL",,76.7000,24.9855,61.36711859,22020,22020,2,126394,0,63.92,63.92
6228543,6228543,2183382,600708353,"Per Have",per_have_nielsen@hotmail.com,600675828,"2020-02-21 10:49:04",DK,59.0000,"Start Fitness
Fitness
SF English","adidas Crazy Power RK Mens Weightlifting Shoes - Blue",5.9000,53.1000,20.0000,44.25000000,22020,22020,2,237475,0,44.25,44.25
6220607,6220607,2180253,600707436,"Mathias Olsen",mathias.ao@live.dk,600675016,"2020-02-17 21:18:14",DK,60.0000,"Start Fitness
Fitness
SF English","adidas Adizero Prime Finesse Running Spikes - Black",6.0000,54.0000,20.0000,45.00000000,22020,22020,2,334102,0,45.00,45.00
6184208,6184208,2165957,2400645746,"Aylin Jones",y6yjnld6r70sp2y@marketplace.amazon.co.uk,2400645178,"2020-02-03 14:51:46",DK,20.8400,"Start Group
Start Group
Amazon","Asics Essential Womens Long Running Tights - Black-M",,20.8400,25.0150,16.66999960,22020,22020,2,216560,0,17.37,17.37
6213738,6213738,2177572,2400649492,"Nikolaj Nielsen",cf0fcl7ky806wkm@marketplace.amazon.de,2400648922,"2020-02-15 13:14:35",DK,73.2200,"Start Group
Start Group
Amazon","adidas Powerlift 4.0 Mens Weightlifting Shoes - Green-13.5",,73.2200,25.0076,58.57243880,22020,22020,2,333598,0,61.02,61.02
6214458,6214458,2177814,2400649564,"Daniel Meyer",cz21s0h9yn40tv6@marketplace.amazon.de,2400648994,"2020-02-15 16:29:29",DK,38.1900,"Start Group
Start Group
Amazon","2XU Fitness Mid Rise Print Womens Long Compression Tights - Blue-S",,38.1900,25.0073,30.55021587,22020,22020,2,338462,0,31.83,31.83
6245735,6245735,2190207,2400653722,"Roc Colomer",456s4cndzrjywmr@marketplace.amazon.co.uk,2400653151,"2020-02-27 21:58:44",DK,109.3500,"Start Group
Start Group
Amazon","Brand-X Ascend Dropper Seatpost 120mm - Black-30.9",,109.3500,25.0000,87.48000000,22020,22020,2,201346,0,91.13,91.13
6240478,6240478,2188025,1900264504,"Laura Kristensen",laurakk03@gmail.com,1900238891,"2020-02-25 18:30:05",DK,50.0000,"Start Fitness
Fitness
Fitness Mobile","Saucony Guide ISO 2 Womens Running Shoes - Black",5.0000,45.0000,20.0000,37.50000000,22020,22020,2,330706,0,37.50,37.50
6250992,6250992,2192381,2500296395,"mette moerup",mette2@mail.dk,2500295588,"2020-02-29 21:20:36",DK,19.9900,"Start Group
Start Group
eBay","Reebok Crossfit Chase Womens Short Training Tights - Orange",,19.9900,20.0000,16.65833333,22020,22020,2,316479,0,16.66,16.66
6238178,6238178,2187060,600709332,"Carsten Dahl",carstendahl67@gmail.com,600676729,"2020-02-24 19:49:02",DK,84.0000,"Start Fitness
Fitness
SF English","Brooks Adrenaline GTS 19 Mens Running Shoes - Yellow",,84.0000,20.0000,70.00000000,22020,22020,2,326921,0,70.00,70.00
6176113,6176113,2162848,2400644761,"Nethe Bune",ym0kptvl98p8kkj@marketplace.amazon.de,2400644194,"2020-02-01 08:07:31",DK,98.4300,"Start Group
Start Group
Amazon","Asics Gel Cumulus 21 Womens Running Shoes - Purple-6",,98.4300,25.0000,78.74400000,22020,22020,2,330950,0,82.03,82.03
6212619,6212619,2177118,2500293525,"Torben Petersen",torbenwad@mail.dk,2500292721,"2020-02-14 20:59:27",DK,7.9900,"Start Group
Start Group
eBay","Regatta Standout Unisex Arid Waterproof Breathable Jacket - Yellow",,7.9900,20.0000,6.65833333,22020,22020,2,336545,0,6.66,6.66
6212629,6212629,2177121,2500293526,"Torben Petersen",torbenwad@mail.dk,2500292722,"2020-02-14 21:05:28",DK,10.6000,"Start Group
Start Group
eBay","Regatta Standout Unisex Arid Waterproof Breathable Jacket - Navy",,10.6000,20.0000,8.83333333,22020,22020,2,336553,0,8.83,8.83
6176142,6176142,2162864,1900258858,"Frederik Bendtsen ",frederikbendtsen@gmail.com,1900234076,"2020-02-01 08:32:02",DK,99.0000,"Start Fitness
Fitness
Fitness Mobile","Reebok Legacy Lifter Mens Weightlifting Shoes - Black",9.9000,89.1000,20.0000,74.25000000,22020,22020,2,306115,0,74.25,74.25
6228632,6228632,2183429,2500294634,"Brian Andersen",ba101079@gmail.com,2500293830,"2020-02-21 11:43:27",DK,7.9900,"Start Group
Start Group
eBay","More Mile More-Tech Square-Cut Mens Running Shorts - Blue",,7.9900,20.0000,6.65833333,22020,22020,2,120469,0,6.66,6.66
6248767,6248767,2191426,600710455,"mai-britt fennefoss nielsen",mfn@aabc.dk,600677737,"2020-02-29 08:02:39",DK,59.9000,"Start Fitness
Fitness
SF English","Asics Gel Pulse 11 Winterized Womens Running Shoes - Beige",,59.9000,20.0000,49.91666667,22020,22020,2,341475,0,49.92,49.92
6248769,6248769,2191426,600710455,"mai-britt fennefoss nielsen",mfn@aabc.dk,600677737,"2020-02-29 08:02:39",DK,59.9000,"Start Fitness
Fitness
SF English","Asics Gel Pulse 11 Lite Show Womens Running Shoes - Grey",,59.9000,20.0000,49.91666667,22020,22020,2,340435,0,49.92,49.92
6230620,6230620,2184162,600708602,"Brian Malmberg",brianmalmberg@hotmail.com,600676054,"2020-02-22 07:53:03",DK,59.9000,"Start Fitness
Fitness
SF English","Asics GT 1000 8 Mens Running Shoes - Blue",5.9900,53.9100,20.0000,44.92500000,22020,22020,2,333042,0,44.93,44.93
6230622,6230622,2184162,600708602,"Brian Malmberg",brianmalmberg@hotmail.com,600676054,"2020-02-22 07:53:03",DK,5.0000,"Start Fitness
Fitness
SF English","Asics Zona Mens Training Shorts - Blue",0.5000,4.5000,20.0000,3.75000000,22020,22020,2,214676,0,3.75,3.75
6223290,6223290,2181277,1900262977,"Ditte Jessen",dittejessen12@hotmail.com,1900237699,"2020-02-18 21:52:41",DK,18.0000,"Start Fitness
Fitness
Fitness Mobile","Under Armour Rival Fleece Graphic LC Womens Sweatshirt - Purple",1.8000,16.2000,20.0000,13.50000000,22020,22020,2,343248,0,13.50,13.50
6227519,6227519,2182964,2400651264,"Kathrine Christoffersen",9wwbjw89p4f4psg@marketplace.amazon.de,2400650694,"2020-02-20 19:41:21",DK,58.5000,"Start Group
Start Group
Amazon","adidas AlphaBounce Instinct Mens Running Shoes - Blue-8",,58.5000,25.0095,46.79644347,22020,22020,2,317113,0,48.75,48.75
6240619,6240619,2188069,600709604,"Aske Søby",aske_soeby@hotmail.com,600676971,"2020-02-25 19:22:03",DK,54.0000,"Start Fitness
Fitness
SF English","Saucony Guide ISO 2 Womens Running Shoes - Pink",5.4000,48.6000,20.0000,40.50000000,22020,22020,2,342964,0,40.50,40.50
6240621,6240621,2188069,600709604,"Aske Søby",aske_soeby@hotmail.com,600676971,"2020-02-25 19:22:03",DK,59.9000,"Start Fitness
Fitness
SF English","Saucony Guide ISO 2 Mens Running Shoes - Grey",5.9900,53.9100,20.0000,44.92500000,22020,22020,2,342996,0,44.93,44.93
6200002,6200002,2172318,2500292701,"Klaus Bajlum",klaus.bajlum@gmail.com,2500291897,"2020-02-09 19:34:50",DK,94.9900,"Start Group
Start Group
eBay","Brooks Glycerin 16 Mens Running Shoes - Black",,94.9900,20.0000,79.15833333,22020,22020,2,294603,0,79.16,79.16
6231314,6231314,2184430,2400651750,"Inge Sundby",7knjs1zbs3q8kd3@marketplace.amazon.de,2400651180,"2020-02-22 13:00:59",DK,58.5000,"Start Group
Start Group
Amazon","adidas AlphaBounce Instinct Mens Running Shoes - Blue-8",,58.5000,25.0095,46.79644347,22020,22020,2,317113,0,48.75,48.75
6192417,6192417,2169156,2400646801,"stephan sembt",hgj9z8dwwvw8bvv@marketplace.amazon.de,2400646231,"2020-02-06 16:12:13",DK,69.0000,"Start Group
Start Group
Amazon","Merrell Moab 2 Ventilator Mens Walking Shoes - Grey-8",,69.0000,25.0000,55.20000000,22020,22020,2,335245,0,57.50,57.50
6251152,6251152,2192441,2500296410,"christoffer service",mercedesrenovering@gmail.com,2500295603,"2020-02-29 22:00:48",DK,9.9500,"Start Group
Start Group
eBay","DBlade Australian Canvas Mens Work Wear Pants - Black",,9.9500,20.0000,8.29166667,22020,22020,2,311295,0,8.29,8.29
6243034,6243034,2189059,2500295711,"Jorgen Hansen",jorgen.heidi@hotmail.com,2500294907,"2020-02-26 19:30:56",DK,51.7500,"Start Group
Start Group
eBay","Asics 3 Pack Ped Running Socks ",,51.7500,20.0000,43.12500000,22020,22020,2,287882,0,43.13,43.13
6245373,6245373,2190032,2500295907,"sixten Poulsen",paw.r@privat.dk,2500295100,"2020-02-27 19:00:29",DK,4.4900,"Start Group
Start Group
eBay","StartLine 600ml Start Shaker Bottle - Black/Green",,4.4900,20.0000,3.74166667,22020,22020,2,155116,0,3.74,3.74
6200649,6200649,2172572,2500292749,"Jenny Clausen",jennyclausen0809@gmail.com,2500291945,"2020-02-09 22:29:30",DK,20.3500,"Start Group
Start Group
eBay","Under Armour Graphic Logo Short Sleeve Womens Training Top - Purple",,20.3500,20.0000,16.95833333,22020,22020,2,343273,0,16.96,16.96
6247179,6247179,2190749,2400653912,"Nicklas Jacobsen",8qzh46lwz4dhr0k@marketplace.amazon.de,2400653341,"2020-02-28 14:00:11",DK,10.3400,"Start Group
Start Group
Amazon","SiS Rego 700ml Protein Shaker - Clear",,10.3400,25.0000,8.27200000,22020,22020,2,82888,0,8.62,8.62
6177460,6177460,2163406,600702614,"Natacha Fagot",natacha.fagot@godmail.dk,600670680,"2020-02-01 16:20:23",DK,40.0000,"Start Fitness
Fitness
SF English","adidas Adizero Javelin Field Event Spikes - Blue",4.0000,36.0000,20.0000,30.00000000,22020,22020,2,218339,0,30.00,30.00
6186183,6186183,2166748,2500291749,"Jesper Køhler",jesper_kohler@hotmail.com,2500290945,"2020-02-04 09:00:35",DK,19.3000,"Start Group
Start Group
eBay","Muc-Off Essentials Case - Brown",,19.3000,20.0000,16.08333333,22020,22020,2,347630,0,16.08,16.08
6215985,6215985,2178426,600706921,"René Chlement Isaksen",rcisaksen@gmail.com,600674555,"2020-02-16 10:20:05",DK,69.0000,"Start Fitness
Fitness
SF English","Saucony Kinvara 10 Mens Running Shoes - Orange",,69.0000,20.0000,57.50000000,22020,22020,2,319030,0,57.50,57.50
6215987,6215987,2178426,600706921,"René Chlement Isaksen",rcisaksen@gmail.com,600674555,"2020-02-16 10:20:05",DK,79.0000,"Start Fitness
Fitness
SF English","Saucony Kinvara 10 Limited Edition Mens Running Shoes - White",,79.0000,20.0000,65.83333333,22020,22020,2,315402,0,65.83,65.83
6241439,6241439,2188409,600709658,"jesper langpap",jeslan@gmail.com,600677020,"2020-02-26 04:18:41",DK,27.9000,"Start Fitness
Fitness
SF English","Reebok Crossfit Games ActivChill Short Sleeve Mens Training Top - Grey",,27.9000,20.0000,23.25000000,22020,22020,2,343889,1,23.25,23.25
6241441,6241441,2188409,600709658,"jesper langpap",jeslan@gmail.com,600677020,"2020-02-26 04:18:41",DK,27.9000,"Start Fitness
Fitness
SF English","Reebok Crossfit Games ActivChill Short Sleeve Mens Training Top - Navy",,27.9000,20.0000,23.25000000,22020,22020,2,340130,1,23.25,23.25
6181991,6181991,2165175,600703097,"soren Kjergaard",skjergaard@hotmail.com,600671127,"2020-02-02 20:50:21",DK,69.0000,"Start Fitness
Fitness
SF English","Saucony Kinvara 10 Mens Running Shoes - Orange",6.9000,62.1000,20.0000,51.75000000,22020,22020,2,319030,1,51.75,51.75
6181993,6181993,2165175,600703097,"soren Kjergaard",skjergaard@hotmail.com,600671127,"2020-02-02 20:50:21",DK,59.9000,"Start Fitness
Fitness
SF English","Saucony Guide ISO 2 Mens Running Shoes - Grey",5.9900,53.9100,20.0000,44.92500000,22020,22020,2,342996,1,44.93,44.93
6190810,6190810,2168513,600704099,"Jonas  Bjerremand",jona813k@hotmail.com,600672043,"2020-02-05 20:53:03",DK,83.0000,"Start Fitness
Fitness
SF English","adidas Adizero Shotput Field Event Spikes - White",,83.0000,20.0000,69.16666667,22020,22020,2,314584,1,69.17,69.17
6190812,6190812,2168513,600704099,"Jonas  Bjerremand",jona813k@hotmail.com,600672043,"2020-02-05 20:53:03",DK,59.9000,"Start Fitness
Fitness
SF English","Asics GT 1000 8 Mens Running Shoes - Blue",,59.9000,20.0000,49.91666667,22020,22020,2,333042,1,49.92,49.92
6190814,6190814,2168513,600704099,"Jonas  Bjerremand",jona813k@hotmail.com,600672043,"2020-02-05 20:53:03",DK,5.9000,"Start Fitness
Fitness
SF English","Under Armour HeatGear (3 Pack) Low Cut Socks - Grey",,5.9000,20.0000,4.91666667,22020,22020,2,348258,1,4.92,4.92
6190816,6190816,2168513,600704099,"Jonas  Bjerremand",jona813k@hotmail.com,600672043,"2020-02-05 20:53:03",DK,10.0000,"Start Fitness
Fitness
SF English","More Mile London Mens Running Socks (5 Pack) - Multi",2.5000,7.5000,20.0000,6.25000000,22020,22020,2,146576,1,6.25,6.25
6190818,6190818,2168513,600704099,"Jonas  Bjerremand",jona813k@hotmail.com,600672043,"2020-02-05 20:53:03",DK,15.0000,"Start Fitness
Fitness
SF English","Ohmme Dharma Mens Yoga Pants - Grey",,15.0000,20.0000,12.50000000,22020,22020,2,346971,1,12.50,12.50
6190820,6190820,2168513,600704099,"Jonas  Bjerremand",jona813k@hotmail.com,600672043,"2020-02-05 20:53:03",DK,15.0000,"Start Fitness
Fitness
SF English","Under Armour MK1 7 Inch Mens Training Shorts - Blue",,15.0000,20.0000,12.50000000,22020,22020,2,350221,1,12.50,12.50
6213571,6213571,2177504,600706700,"jesper langpap",jeslan@gmail.com,600674358,"2020-02-15 12:00:36",DK,29.9000,"Start Fitness
Fitness
SF English","Reebok Crossfit Speed Mens Training Shorts - Black",,29.9000,20.0000,24.91666667,22020,22020,2,302959,1,24.92,24.92
6213573,6213573,2177504,600706700,"jesper langpap",jeslan@gmail.com,600674358,"2020-02-15 12:00:36",DK,27.9000,"Start Fitness
Fitness
SF English","Reebok Crossfit Games ActivChill Short Sleeve Mens Training Top - Grey",,27.9000,20.0000,23.25000000,22020,22020,2,343889,1,23.25,23.25
6213575,6213575,2177504,600706700,"jesper langpap",jeslan@gmail.com,600674358,"2020-02-15 12:00:36",DK,22.0000,"Start Fitness
Fitness
SF English","Reebok Crossfit Speed Mens Training Shorts - Orange",,22.0000,20.0000,18.33333333,22020,22020,2,324763,1,18.33,18.33
6213577,6213577,2177504,600706700,"jesper langpap",jeslan@gmail.com,600674358,"2020-02-15 12:00:36",DK,19.9000,"Start Fitness
Fitness
SF English","Reebok Crossfit Performance Blend Short Sleeve Mens Training Top - Blue",,19.9000,20.0000,16.58333333,22020,22020,2,322574,1,16.58,16.58
6204885,6204885,2174156,600705652,"Rene Suhr",mail@taggart.dk,600673446,"2020-02-11 16:29:56",DK,45.0000,"Start Fitness
Fitness
SF English","Under Armour SpeedFoam AMP 2.0 Mens Training Shoes - Black",,45.0000,20.0000,37.50000000,22020,22020,2,343044,1,37.50,37.50
6233013,6233013,2185059,600708845,"Claus Batiste",batistec@hotmail.com,600676277,"2020-02-22 22:54:02",DK,32.9000,"Start Fitness
Fitness
SF English","adidas Sub Split Mens Running Shorts - Black",3.2900,29.6100,20.0000,24.67500000,22020,22020,2,316417,1,24.68,24.68
6233015,6233015,2185059,600708845,"Claus Batiste",batistec@hotmail.com,600676277,"2020-02-22 22:54:02",DK,59.9000,"Start Fitness
Fitness
SF English","Saucony Guide ISO 2 Mens Running Shoes - Grey",5.9900,53.9100,20.0000,44.92500000,22020,22020,2,342996,1,44.93,44.93
6198502,6198502,2171731,1900260965,"Ole Middelhede",ole_middelhede@hotmail.com,1900235863,"2020-02-09 12:01:03",DK,20.0000,"Start Fitness
Fitness
Fitness Mobile","2XU Accererate Compression Mens Short Tights - Black",,20.0000,20.0000,16.66666667,22020,22020,2,341311,1,16.67,16.67
6198504,6198504,2171731,1900260965,"Ole Middelhede",ole_middelhede@hotmail.com,1900235863,"2020-02-09 12:01:03",DK,29.0000,"Start Fitness
Fitness
Fitness Mobile","2XU Accelerate Mens Long Compression Tights - Black",,29.0000,20.0000,24.16666667,22020,22020,2,341290,1,24.17,24.17
6198506,6198506,2171731,1900260965,"Ole Middelhede",ole_middelhede@hotmail.com,1900235863,"2020-02-09 12:01:03",DK,29.0000,"Start Fitness
Fitness
Fitness Mobile","2XU Elite Long Sleeve Mens Compression Top - Black",,29.0000,20.0000,24.16666667,22020,22020,2,341275,1,24.17,24.17
6198508,6198508,2171731,1900260965,"Ole Middelhede",ole_middelhede@hotmail.com,1900235863,"2020-02-09 12:01:03",DK,25.0000,"Start Fitness
Fitness
Fitness Mobile","2XU Elite Lite X Lock Compression Socks - White",,25.0000,20.0000,20.83333333,22020,22020,2,228942,1,20.83,20.83
6198510,6198510,2171731,1900260965,"Ole Middelhede",ole_middelhede@hotmail.com,1900235863,"2020-02-09 12:01:03",DK,8.0000,"Start Fitness
Fitness
Fitness Mobile","Sub Sports Cold Mens Compression Short Tights - Blue",,8.0000,20.0000,6.66666667,22020,22020,2,346862,1,6.67,6.67
6198512,6198512,2171731,1900260965,"Ole Middelhede",ole_middelhede@hotmail.com,1900235863,"2020-02-09 12:01:03",DK,25.0000,"Start Fitness
Fitness
Fitness Mobile","Ronhill Momentum Windchill Womens Running Jacket - Pink",,25.0000,20.0000,20.83333333,22020,22020,2,349865,1,20.83,20.83
6198514,6198514,2171731,1900260965,"Ole Middelhede",ole_middelhede@hotmail.com,1900235863,"2020-02-09 12:01:03",DK,23.8000,"Start Fitness
Fitness
Fitness Mobile","Under Armour ArmourVent Mesh Series 6 Inch Boxer Jock - Black",,23.8000,20.0000,19.83333333,22020,22020,2,320305,1,19.83,19.83
6198516,6198516,2171731,1900260965,"Ole Middelhede",ole_middelhede@hotmail.com,1900235863,"2020-02-09 12:01:03",DK,8.0000,"Start Fitness
Fitness
Fitness Mobile","Puma Performance + T Medium Quarter Training Socks - White",,8.0000,20.0000,6.66666667,22020,22020,2,229452,1,6.67,6.67
6198518,6198518,2171731,1900260965,"Ole Middelhede",ole_middelhede@hotmail.com,1900235863,"2020-02-09 12:01:03",DK,4.9000,"Start Fitness
Fitness
Fitness Mobile","More Mile R2R Compression Socks - Black",,4.9000,20.0000,4.08333333,22020,22020,2,176255,1,4.08,4.08
6216900,6216900,2178752,600707024,"Louise Malmqvist",louise.malmqvist@hotmail.com,600674651,"2020-02-16 15:22:03",DK,18.0000,"Start Fitness
Fitness
SF English","Under Armour HeatGear Compression Mens Long Sleeve Top - Black",,18.0000,20.0000,15.00000000,22020,22020,2,126615,1,15.00,15.00
6216902,6216902,2178752,600707024,"Louise Malmqvist",louise.malmqvist@hotmail.com,600674651,"2020-02-16 15:22:03",DK,36.0000,"Start Fitness
Fitness
SF English","Under Armour HeatGear Compression Mens Long Sleeve Top - Blue",,36.0000,20.0000,30.00000000,22020,22020,2,348080,1,30.00,30.00
6216904,6216904,2178752,600707024,"Louise Malmqvist",louise.malmqvist@hotmail.com,600674651,"2020-02-16 15:22:03",DK,3.9000,"Start Fitness
Fitness
SF English","Ultimate Performance Track Spike Pins",,3.9000,20.0000,3.25000000,22020,22020,2,345093,1,3.25,3.25
6216906,6216906,2178752,600707024,"Louise Malmqvist",louise.malmqvist@hotmail.com,600674651,"2020-02-16 15:22:03",DK,3.9000,"Start Fitness
Fitness
SF English","Replacement Running Spike Pins - Silver",,3.9000,20.0000,3.25000000,22020,22020,2,65690,1,3.25,3.25
6184158,6184158,2165942,600703362,"Martin  Brock",martinbrock@live.dk,600671361,"2020-02-03 14:39:02",DK,19.9000,"Start Fitness
Fitness
SF English","Under Armour Undeniable 4.0 Small Holdall - Green",1.0000,18.9000,20.0000,15.75000000,22020,22020,2,346214,1,15.75,15.75
6184159,6184159,2165942,600703362,"Martin  Brock",martinbrock@live.dk,600671361,"2020-02-03 14:39:02",DK,12.0000,"Start Fitness
Fitness
SF English","Under Armour Locker III Mens Sliders - Black",0.6000,11.4000,20.0000,9.50000000,22020,22020,2,348270,1,9.50,9.50
6184161,6184161,2165942,600703362,"Martin  Brock",martinbrock@live.dk,600671361,"2020-02-03 14:39:02",DK,18.0000,"Start Fitness
Fitness
SF English","Under Armour HeatGear Compression Mens Long Sleeve Top - Black",0.9000,17.1000,20.0000,14.25000000,22020,22020,2,126615,1,14.25,14.25
6184163,6184163,2165942,600703362,"Martin  Brock",martinbrock@live.dk,600671361,"2020-02-03 14:39:02",DK,10.0000,"Start Fitness
Fitness
SF English","Under Armour Patterson Backpack - Grey",0.5000,9.5000,20.0000,7.91666667,22020,22020,2,349932,1,7.92,7.92
6184164,6184164,2165942,600703362,"Martin  Brock",martinbrock@live.dk,600671361,"2020-02-03 14:39:02",DK,2.0000,"Start Fitness
Fitness
SF English","More Mile Arizona Hiking Socks ",0.1000,1.9000,20.0000,1.58333333,22020,22020,2,85092,1,1.58,1.58
6184166,6184166,2165942,600703362,"Martin  Brock",martinbrock@live.dk,600671361,"2020-02-03 14:39:02",DK,3.5000,"Start Fitness
Fitness
SF English","More Mile Cadeo Coolmax Twin Pack Running Socks - White",0.1700,3.3300,20.0000,2.77500000,22020,22020,2,85428,1,2.78,2.78
6184168,6184168,2165942,600703362,"Martin  Brock",martinbrock@live.dk,600671361,"2020-02-03 14:39:02",DK,5.0000,"Start Fitness
Fitness
SF English","More Mile Boltz Running Short Tights Mens Sprint Short - Purple",0.2500,4.7500,20.0000,3.95833333,22020,22020,2,87544,1,3.96,3.96
6197358,6197358,2171273,1900260841,"Pernille Hansen",pernillel@stofanet.dk,1900235759,"2020-02-08 20:51:04",DK,79.0000,"Start Fitness
Fitness
Fitness Mobile","Brooks Transcend 5 Womens Running Shoes - Black",7.9000,71.1000,20.0000,59.25000000,22020,22020,2,249225,1,59.25,59.25
6234532,6234532,2185643,600708973,"René Milter",rm@miltex.dk,600676395,"2020-02-23 15:51:44",DK,84.0000,"Start Fitness
Fitness
SF English","Brooks Adrenaline GTS 19 Mens Running Shoes - Yellow",,84.0000,20.0000,70.00000000,22020,22020,2,326921,1,70.00,70.00
6234534,6234534,2185643,600708973,"René Milter",rm@miltex.dk,600676395,"2020-02-23 15:51:44",DK,168.0000,"Start Fitness
Fitness
SF English","Brooks Adrenaline GTS 19 Mens Running Shoes - Navy",,168.0000,20.0000,140.00000000,22020,22020,2,310872,1,140.00,140.00
6234536,6234536,2185643,600708973,"René Milter",rm@miltex.dk,600676395,"2020-02-23 15:51:44",DK,98.9000,"Start Fitness
Fitness
SF English","Brooks Ravenna 11 Womens Running Shoes - Blue",,98.9000,20.0000,82.41666667,22020,22020,2,351139,1,82.42,82.42
6220206,6220206,2180063,600707382,"Michael Lauridsen",Michael@dudal.com,600674970,"2020-02-17 18:56:02",DK,107.9000,"Start Fitness
Fitness
SF English","Brooks Adrenaline GTS 20 Womens Running Shoes - Black",10.7900,97.1100,20.0000,80.92500000,22020,22020,2,344257,1,80.93,80.93
6240586,6240586,2188067,600709603,"Frank Lyng Andersen",franklyng@jubii.dk,600676970,"2020-02-25 19:19:03",DK,89.0000,"Start Fitness
Fitness
SF English","Mizuno Wave Duel Mens Running Shoes - Yellow",8.9000,80.1000,20.0000,66.75000000,22020,22020,2,334659,1,66.75,66.75
6240588,6240588,2188067,600709603,"Frank Lyng Andersen",franklyng@jubii.dk,600676970,"2020-02-25 19:19:03",DK,49.0000,"Start Fitness
Fitness
SF English","Under Armour Speedform Slingride Mens Running Shoes - Blue",4.9000,44.1000,20.0000,36.75000000,22020,22020,2,204815,1,36.75,36.75
6240590,6240590,2188067,600709603,"Frank Lyng Andersen",franklyng@jubii.dk,600676970,"2020-02-25 19:19:03",DK,15.0000,"Start Fitness
Fitness
SF English","Speedo Vintage Contrast Waistband 14 Inch Swim Shorts - Grey",1.5000,13.5000,20.0000,11.25000000,22020,22020,2,336367,1,11.25,11.25
6240592,6240592,2188067,600709603,"Frank Lyng Andersen",franklyng@jubii.dk,600676970,"2020-02-25 19:19:03",DK,45.0000,"Start Fitness
Fitness
SF English","SiS Go Gel Plus Caffeine (Box of 30)",4.5000,40.5000,0.0000,40.50000000,22020,22020,5,117394,1,40.50,40.50
6240594,6240594,2188067,600709603,"Frank Lyng Andersen",franklyng@jubii.dk,600676970,"2020-02-25 19:19:03",DK,107.9000,"Start Fitness
Fitness
SF English","Brooks Ghost 12 WIDE FIT Womens Running Shoes - Blue",10.7900,97.1100,20.0000,80.92500000,22020,22020,2,326716,1,80.93,80.93
6240596,6240596,2188067,600709603,"Frank Lyng Andersen",franklyng@jubii.dk,600676970,"2020-02-25 19:19:03",DK,18.9000,"Start Fitness
Fitness
SF English","Reebok Workout Ready Womens Sports Bra - Black",1.8900,17.0100,20.0000,14.17500000,22020,22020,2,353223,1,14.18,14.18
6240598,6240598,2188067,600709603,"Frank Lyng Andersen",franklyng@jubii.dk,600676970,"2020-02-25 19:19:03",DK,12.0000,"Start Fitness
Fitness
SF English","Ronhill Momentum Womens Sports Bra - Pink",1.2000,10.8000,20.0000,9.00000000,22020,22020,2,353477,1,9.00,9.00
6240600,6240600,2188067,600709603,"Frank Lyng Andersen",franklyng@jubii.dk,600676970,"2020-02-25 19:19:03",DK,69.0000,"Start Fitness
Fitness
SF English","2XU Hi Rise Womens Long Compression Tights - Black",6.9000,62.1000,20.0000,51.75000000,22020,22020,2,340297,1,51.75,51.75
6240602,6240602,2188067,600709603,"Frank Lyng Andersen",franklyng@jubii.dk,600676970,"2020-02-25 19:19:03",DK,10.0000,"Start Fitness
Fitness
SF English","adidas Logo Womens Training Vest Tank Top - Black",1.0000,9.0000,20.0000,7.50000000,22020,22020,2,339320,1,7.50,7.50
6240604,6240604,2188067,600709603,"Frank Lyng Andersen",franklyng@jubii.dk,600676970,"2020-02-25 19:19:03",DK,5.0000,"Start Fitness
Fitness
SF English","OgiYogi Zephyr Racerback Womens Training Vest Tank Top - Pink",0.5000,4.5000,20.0000,3.75000000,22020,22020,2,328131,1,3.75,3.75
6240606,6240606,2188067,600709603,"Frank Lyng Andersen",franklyng@jubii.dk,600676970,"2020-02-25 19:19:03",DK,30.0000,"Start Fitness
Fitness
SF English","2XU Perform 4.5 Inch Womens Tri Shorts - Black",3.0000,27.0000,20.0000,22.50000000,22020,22020,2,307559,1,22.50,22.50
6240608,6240608,2188067,600709603,"Frank Lyng Andersen",franklyng@jubii.dk,600676970,"2020-02-25 19:19:03",DK,3.0000,"Start Fitness
Fitness
SF English","adidas Functional France Short Sleeve Womens Running Top - White",0.3000,2.7000,20.0000,2.25000000,22020,22020,2,179592,1,2.25,2.25
6240610,6240610,2188067,600709603,"Frank Lyng Andersen",franklyng@jubii.dk,600676970,"2020-02-25 19:19:03",DK,5.0000,"Start Fitness
Fitness
SF English","Craft Active Extreme Short Sleeve Womens Baselayer Top - Black",0.5000,4.5000,20.0000,3.75000000,22020,22020,2,332147,1,3.75,3.75
6240612,6240612,2188067,600709603,"Frank Lyng Andersen",franklyng@jubii.dk,600676970,"2020-02-25 19:19:03",DK,5.0000,"Start Fitness
Fitness
SF English","Sub Sports SubAir Seamless Womens Short Tights - Grey",0.5000,4.5000,20.0000,3.75000000,22020,22020,2,326300,1,3.75,3.75
6178544,6178544,2163860,1900259110,"Davood Djalilian",djalilian@stofanet.dk,1900234300,"2020-02-01 22:19:04",DK,87.0000,"Start Fitness
Fitness
Fitness Mobile","Brooks Glycerin 16 Mens Running Shoes - Black",,87.0000,20.0000,72.50000000,22020,22020,2,294603,1,72.50,72.50
6227549,6227549,2182980,600708260,"Jeppe Garde",jeppegarde@gmail.com,600675755,"2020-02-20 19:59:45",DK,47.9000,"Start Fitness
Fitness
SF English","adidas adiZero XCS Mens Cross Country Running Spikes - Black",,47.9000,20.0000,39.91666667,22020,22020,2,336388,1,39.92,39.92
6235813,6235813,2186157,600709099,"Malte Dam Korsbjerg",maltedamkorsbjerg@gmail.com,600676510,"2020-02-23 21:37:03",DK,89.0000,"Start Fitness
Fitness
SF English","adidas Adizero Prime SP Running Spikes - Black",8.9000,80.1000,20.0000,66.75000000,22020,22020,2,308375,1,66.75,66.75
6189433,6189433,2167948,600703914,"Anne-Mette Hjarsaas",annemette_hjarsaas@hotmail.com,600671877,"2020-02-05 11:38:03",DK,95.0000,"Start Fitness
Fitness
SF English","Asics Gel Nimbus 21 Womens Running Shoes - Blue",,95.0000,20.0000,79.16666667,22020,22020,2,330903,1,79.17,79.17
6189435,6189435,2167948,600703914,"Anne-Mette Hjarsaas",annemette_hjarsaas@hotmail.com,600671877,"2020-02-05 11:38:03",DK,3.0000,"Start Fitness
Fitness
SF English","Craft Club T & F Short Sleeve Womens Running Top - Black",,3.0000,20.0000,2.50000000,22020,22020,2,175513,1,2.50,2.50
6248346,6248346,2191256,600710436,"Morten Iversen",moihpv@hotmail.com,600677720,"2020-02-28 22:11:03",DK,499.0000,"Start Fitness
Fitness
SF English","Cannondale Trail 4 1X 29 Mens Mountain Bike 2018 - Yellow",,499.0000,20.0000,415.83333333,22020,22020,2,328869,1,415.83,415.83
6248348,6248348,2191256,600710436,"Morten Iversen",moihpv@hotmail.com,600677720,"2020-02-28 22:11:03",DK,6.0000,"Start Fitness
Fitness
SF English","Craft Pro Cool Womens Mesh Boxer Shorts - White",0.6000,5.4000,20.0000,4.50000000,22020,22020,2,328470,1,4.50,4.50
6248350,6248350,2191256,600710436,"Morten Iversen",moihpv@hotmail.com,600677720,"2020-02-28 22:11:03",DK,10.0000,"Start Fitness
Fitness
SF English","Craft Performance Rain Womens Cycling Jacket - Black",1.0000,9.0000,20.0000,7.50000000,22020,22020,2,328442,1,7.50,7.50
6248352,6248352,2191256,600710436,"Morten Iversen",moihpv@hotmail.com,600677720,"2020-02-28 22:11:03",DK,2.0000,"Start Fitness
Fitness
SF English","Puma Performance + R Light Quarter Running Socks - White",0.2000,1.8000,20.0000,1.50000000,22020,22020,2,229428,1,1.50,1.50
6248354,6248354,2191256,600710436,"Morten Iversen",moihpv@hotmail.com,600677720,"2020-02-28 22:11:03",DK,2.0000,"Start Fitness
Fitness
SF English","Puma Performance + R Light Quarter Running Socks - Black",0.2000,1.8000,20.0000,1.50000000,22020,22020,2,229424,1,1.50,1.50
6248356,6248356,2191256,600710436,"Morten Iversen",moihpv@hotmail.com,600677720,"2020-02-28 22:11:03",DK,8.0000,"Start Fitness
Fitness
SF English","Craft Rain Bootie Cycling Overshoes - Black",0.8000,7.2000,20.0000,6.00000000,22020,22020,2,113833,1,6.00,6.00
6248358,6248358,2191256,600710436,"Morten Iversen",moihpv@hotmail.com,600677720,"2020-02-28 22:11:03",DK,18.0000,"Start Fitness
Fitness
SF English","GT Force MTB Cycling Helmet - Black",1.8000,16.2000,0.0000,16.20000000,22020,22020,5,135954,1,16.20,16.20
6248360,6248360,2191256,600710436,"Morten Iversen",moihpv@hotmail.com,600677720,"2020-02-28 22:11:03",DK,2.0000,"Start Fitness
Fitness
SF English","Best Group Hiking 600ml Water Bottle - Grey",0.2000,1.8000,20.0000,1.50000000,22020,22020,2,153499,1,1.50,1.50
