"Invoice Entity ID","Order number","Invoice Number","Invoice date","GBP Net goods after discount","GBP VAT on Goods","GBP Gross goods after discount",country_id,"Store Credit Used",store_name
2822109,6000978548,6000742695,2021-03-01,51.0500,0.00,51.0500,FR,,"Start Fitness
Fitness
SF English"
2823204,6000979149,6000743261,2021-03-02,24.0500,0.00,24.0500,FR,,"Start Fitness
Fitness
SF English"
2824353,6000979807,6000743874,2021-03-03,72.1000,0.00,72.1000,FR,,"Start Fitness
Fitness
SF English"
2824396,6000979837,6000743907,2021-03-03,47.9800,0.00,47.9800,FR,,"Start Fitness
Fitness
SF English"
2824668,6000980025,6000744078,2021-03-03,0.0000,0.00,0.0000,FR,,"Start Fitness
Fitness
SF English"
2825462,EBY24000602638,24000601938,2021-03-03,23.3200,4.67,27.9900,FR,,"Start Group
Start Group
eBay"
2826163,6000980944,6000744941,2021-03-04,142.2700,0.00,142.2700,FR,,"Start Fitness
Fitness
SF English"
2827939,6000981964,6000745916,2021-03-05,129.7800,0.00,129.7800,FR,,"Start Fitness
Fitness
SF English"
2828475,EBY24000603197,24000602497,2021-03-06,17.4900,3.50,20.9900,FR,,"Start Group
Start Group
eBay"
2829414,EBY24000603357,24000602657,2021-03-06,26.5000,5.30,31.8000,FR,,"Start Group
Start Group
eBay"
2829426,EBY24000603359,24000602659,2021-03-06,10.0000,2.00,12.0000,FR,,"Start Group
Start Group
eBay"
2830429,6000983296,6000747180,2021-03-07,68.3500,0.00,68.3500,FR,,"Start Fitness
Fitness
SF English"
2830855,6000983546,6000747408,2021-03-07,236.6300,0.00,236.6300,FR,,"Start Fitness
Fitness
SF English"
2831576,EBY24000603735,24000603035,2021-03-07,32.4100,6.48,38.8900,FR,,"Start Group
Start Group
eBay"
2833482,EBY24000604079,24000603379,2021-03-09,5.8300,1.17,7.0000,FR,,"Start Group
Start Group
eBay"
2833824,EBY24000604144,24000603444,2021-03-09,37.4200,7.48,44.9000,FR,,"Start Group
Start Group
eBay"
2834846,6000985727,6000749460,2021-03-10,40.4900,0.00,40.4900,FR,,"Start Fitness
Fitness
SF English"
2835109,EBY24000604392,24000603692,2021-03-10,32.4100,6.48,38.8900,FR,,"Start Group
Start Group
eBay"
2835885,EBY24000604530,24000603830,2021-03-10,8.2500,1.65,9.9000,FR,,"Start Group
Start Group
eBay"
2836112,EBY24000604575,24000603875,2021-03-11,79.1700,15.83,95.0000,FR,,"Start Group
Start Group
eBay"
2836887,6000986939,6000750593,2021-03-11,102.4200,0.00,102.4200,FR,,"Start Fitness
Fitness
SF English"
2837334,EBY24000604798,24000604098,2021-03-12,8.2200,1.65,9.8700,FR,,"Start Group
Start Group
eBay"
2837354,EBY24000604804,24000604104,2021-03-12,23.3200,4.67,27.9900,FR,,"Start Group
Start Group
eBay"
2837823,EBY24000604895,24000604195,2021-03-12,8.1300,0.00,8.1300,FR,,"Start Group
Start Group
eBay"
2837834,6000987473,6000751092,2021-03-12,211.4900,0.00,211.4900,FR,,"Start Fitness
Fitness
SF English"
2838179,EBY24000604950,24000604250,2021-03-12,19.0700,3.82,22.8900,FR,,"Start Group
Start Group
eBay"
2838899,6000988083,6000751665,2021-03-13,97.0900,0.00,97.0900,FR,,"Start Fitness
Fitness
SF English"
2839373,EBY24000605179,24000604479,2021-03-13,19.0700,3.82,22.8900,FR,,"Start Group
Start Group
eBay"
2840160,EBY24000605327,24000604627,2021-03-14,21.5000,4.30,25.8000,FR,,"Start Group
Start Group
eBay"
2840391,EBY24000605370,24000604670,2021-03-14,5.8300,1.17,7.0000,FR,,"Start Group
Start Group
eBay"
2843063,6000990358,6000753794,2021-03-16,9.6200,0.00,9.6200,FR,,"Start Fitness
Fitness
SF English"
2843147,EBY24000605867,24000605167,2021-03-16,15.7000,3.14,18.8400,FR,,"Start Group
Start Group
eBay"
2843883,6000990853,6000754253,2021-03-16,47.0100,0.00,47.0100,FR,,"Start Fitness
Fitness
SF English"
2844389,6000991130,6000754510,2021-03-17,81.7200,0.00,81.7200,FR,,"Start Fitness
Fitness
SF English"
2844445,6000991169,6000754548,2021-03-17,68.9100,0.00,68.9100,FR,,"Start Fitness
Fitness
SF English"
2844793,6000991400,6000754755,2021-03-17,0.9600,0.00,0.9600,FR,,"Start Fitness
Fitness
SF English"
2844856,6000991436,6000754784,2021-03-17,75.1900,0.00,75.1900,FR,,"Start Fitness
Fitness
SF English"
2844931,6000991480,6000754825,2021-03-17,43.1700,0.00,43.1700,FR,,"Start Fitness
Fitness
SF English"
2845182,EBY24000606209,24000605509,2021-03-17,16.6700,3.33,20.0000,FR,,"Start Group
Start Group
eBay"
2845567,6000991802,6000755138,2021-03-18,30.2800,0.00,30.2800,FR,,"Start Fitness
Fitness
SF English"
2845888,EBY24000606339,24000605639,2021-03-18,32.4100,6.48,38.8900,FR,,"Start Group
Start Group
eBay"
2845935,6000992036,6000755345,2021-03-18,23.0800,0.00,23.0800,FR,,"Start Fitness
Fitness
SF English"
2846297,EBY24000606410,24000605710,2021-03-18,35.8200,7.16,42.9800,FR,,"Start Group
Start Group
eBay"
2846883,6000992559,6000755830,2021-03-19,133.6300,0.00,133.6300,FR,,"Start Fitness
Fitness
SF English"
2847356,6000992817,6000756076,2021-03-19,25.9600,0.00,25.9600,FR,,"Start Fitness
Fitness
SF English"
2848832,6000993621,6000756825,2021-03-20,34.6000,0.00,34.6000,FR,,"Start Fitness
Fitness
SF English"
2848881,EBY24000606906,24000606203,2021-03-20,14.9800,3.00,17.9800,FR,,"Start Group
Start Group
eBay"
2850117,6000994326,6000757498,2021-03-21,59.7000,0.00,59.7000,FR,,"Start Fitness
Fitness
SF English"
2850361,6000994478,6000757630,2021-03-21,75.9400,0.00,75.9400,FR,,"Start Fitness
Fitness
SF English"
2850619,EBY24000607181,24000606478,2021-03-21,59.0700,11.82,70.8900,FR,,"Start Group
Start Group
eBay"
2851209,6000994923,6000758052,2021-03-22,16.3500,0.00,16.3500,FR,,"Start Fitness
Fitness
SF English"
2851611,EBY24000607339,24000606636,2021-03-22,5.8300,1.17,7.0000,FR,,"Start Group
Start Group
eBay"
2851770,EBY24000607367,24000606661,2021-03-22,70.0000,14.00,84.0000,FR,,"Start Group
Start Group
eBay"
2851865,6000995329,6000758431,2021-03-22,52.8800,0.00,52.8800,FR,,"Start Fitness
Fitness
SF English"
2852655,6000995706,6000758786,2021-03-23,57.5800,0.00,57.5800,FR,,"Start Fitness
Fitness
SF English"
2852663,EBY24000607548,24000606842,2021-03-23,33.2500,6.65,39.9000,FR,,"Start Group
Start Group
eBay"
2852896,6000995862,6000758936,2021-03-23,72.1000,0.00,72.1000,FR,,"Start Fitness
Fitness
SF English"
2853429,EBY24000607661,24000606955,2021-03-23,33.1700,6.63,39.8000,FR,,"Start Group
Start Group
eBay"
2853557,6000996248,6000759288,2021-03-23,115.2700,0.00,115.2700,FR,,"Start Fitness
Fitness
SF English"
2853779,6000996362,6000759401,2021-03-23,43.1700,0.00,43.1700,FR,,"Start Fitness
Fitness
SF English"
2853937,6000957247,6000759473,2021-03-23,268.6500,0.00,268.6500,FR,,"Start Fitness
Fitness
SF English"
2854059,6000996485,6000759513,2021-03-24,57.9300,0.00,57.9300,FR,,"Start Fitness
Fitness
SF English"
2854095,6000996507,6000759535,2021-03-24,86.4300,0.00,86.4300,FR,,"Start Fitness
Fitness
SF English"
2854247,6000996598,6000759620,2021-03-24,30.7700,0.00,30.7700,FR,,"Start Fitness
Fitness
SF English"
2854375,6000996681,6000759702,2021-03-24,133.6300,0.00,133.6300,FR,,"Start Fitness
Fitness
SF English"
2854479,6000996741,6000759756,2021-03-24,96.0300,0.00,96.0300,FR,,"Start Fitness
Fitness
SF English"
2854611,6000996815,6000759818,2021-03-24,43.2600,0.00,43.2600,FR,,"Start Fitness
Fitness
SF English"
2854628,6000996825,6000759827,2021-03-24,292.3600,0.00,292.3600,FR,,"Start Fitness
Fitness
SF English"
2855280,6000997176,6000760150,2021-03-24,4665.8300,0.00,4665.8300,FR,,"Start Fitness
Fitness
SF English"
2855721,EBY24000608027,24000607321,2021-03-25,19.5700,3.91,23.4800,FR,,"Start Group
Start Group
eBay"
2855823,6000997438,6000760390,2021-03-25,48.0700,0.00,48.0700,FR,,"Start Fitness
Fitness
SF English"
2856109,6000997610,6000760550,2021-03-25,69.4800,0.00,69.4800,FR,,"Start Fitness
Fitness
SF English"
2856815,6000997946,6000760869,2021-03-25,126.3200,0.00,126.3200,FR,,"Start Fitness
Fitness
SF English"
2857603,EBY24000608382,24000607676,2021-03-26,15.1800,3.04,18.2200,FR,,"Start Group
Start Group
eBay"
2857980,6000998497,6000761386,2021-03-26,191.3100,0.00,191.3100,FR,,"Start Fitness
Fitness
SF English"
2859256,6000999101,6000761961,2021-03-27,33.6600,0.00,33.6600,FR,,"Start Fitness
Fitness
SF English"
2859260,6000999102,6000761963,2021-03-27,160.2600,0.00,160.2600,FR,,"Start Fitness
Fitness
SF English"
2859497,EBY24000608900,24000608194,2021-03-27,23.2100,0.00,23.2100,FR,,"Start Group
Start Group
eBay"
2860444,6000999627,6000762462,2021-03-28,51.0500,0.00,51.0500,FR,,"Start Fitness
Fitness
SF English"
2860815,6000999820,6000762642,2021-03-28,182.5600,0.00,182.5600,FR,,"Start Fitness
Fitness
SF English"
2860936,6000999877,6000762700,2021-03-28,95.1800,0.00,95.1800,FR,,"Start Fitness
Fitness
SF English"
2861864,6001000344,6000763141,2021-03-28,107.5800,0.00,107.5800,FR,,"Start Fitness
Fitness
SF English"
2862900,6001000853,6000763622,2021-03-29,64.8900,0.00,64.8900,FR,,"Start Fitness
Fitness
SF English"
2863132,EBY24000609810,24000609101,2021-03-29,8.3300,1.67,10.0000,FR,,"Start Group
Start Group
eBay"
2863387,6001001111,6000763869,2021-03-29,128.8300,0.00,128.8300,FR,,"Start Fitness
Fitness
SF English"
2863772,EBY24000609914,24000609205,2021-03-30,148.4300,0.00,148.4300,FR,,"Start Group
Start Group
eBay"
2864166,6001001492,6000764228,2021-03-30,12.4000,0.00,12.4000,FR,,"Start Fitness
Fitness
SF English"
2864376,6001001614,6000764346,2021-03-30,35.4800,0.00,35.4800,FR,,"Start Fitness
Fitness
SF English"
2864546,6001001704,6000764428,2021-03-30,38.4500,0.00,38.4500,FR,,"Start Fitness
Fitness
SF English"
2865452,6001002183,6000764878,2021-03-31,96.0300,0.00,96.0300,FR,,"Start Fitness
Fitness
SF English"
2865676,6001002323,6000765010,2021-03-31,21.5400,0.00,21.5400,FR,,"Start Fitness
Fitness
SF English"
