entity_id,store_id,base_grand_total,shipping_tax_amount,tax_amount,base_tax_amount,store_to_order_rate,base_shipping_tax_amount,base_discount_amount,base_to_order_rate,grand_total,shipping_amount,subtotal_incl_tax,base_subtotal_incl_tax,store_to_base_rate,base_shipping_amount,total_qty,base_to_global_rate,subtotal,base_subtotal,discount_amount,billing_address_id,is_used_for_refund,order_id,email_sent,can_void_flag,state,shipping_address_id,store_currency_code,transaction_id,order_currency_code,base_currency_code,global_currency_code,increment_id,created_at,updated_at,hidden_tax_amount,base_hidden_tax_amount,shipping_hidden_tax_amount,base_shipping_hidden_tax_amnt,shipping_incl_tax,base_shipping_incl_tax,base_total_refunded,base_customer_balance_amount,customer_balance_amount,base_gift_cards_amount,gift_cards_amount,gw_base_price,gw_price,gw_items_base_price,gw_items_price,gw_card_base_price,gw_card_price,gw_base_tax_amount,gw_tax_amount,gw_items_base_tax_amount,gw_items_tax_amount,gw_card_base_tax_amount,gw_card_tax_amount,base_reward_currency_amount,reward_currency_amount,reward_points_balance,discount_description,payment_fee_amount,base_payment_fee_amount,payment_installment_fee_amount,base_payment_installment_fee_amount,payment_fee_tax,base_payment_fee_tax,payment_percentage_fee,base_payment_percentage_fee
2231203,6,839.8900,0.0000,0.0000,0.0000,1.1217,0.0000,-102.8300,1.1217,942.1000,101.5600,955.8800,852.1800,1.0000,90.5400,28.0000,1.0000,955.8800,852.1800,-115.3400,4574839,,2288577,,,2,4574840,GBP,4525857472666330,EUR,GBP,GBP,600685518,"2020-04-01 13:23:06","2020-04-01 13:23:06",0.0000,0.0000,0.0000,,101.5600,90.5400,,0.0000,0.0000,0.0000,0.0000,,,,,,,,,,,,,,,,Panos15,0.0000,0.0000,0.0000,0.0000,0.0000,0.0000,0.0000,0.0000
2233092,6,198.1900,0.0000,0.0000,0.0000,1.1217,0.0000,-42.4800,1.1217,222.3100,31.6900,238.2700,212.4200,1.0000,28.2500,8.0000,1.0000,238.2700,212.4200,-47.6500,4578688,,2290504,,,2,4578689,GBP,88L74466VH981074A,EUR,GBP,GBP,600685804,"2020-04-02 11:47:09","2020-04-02 11:47:09",0.0000,0.0000,0.0000,,31.6900,28.2500,,,,,,,,,,,,,,,,,,,,,TOM20,0.0000,0.0000,0.0000,0.0000,0.0000,0.0000,0.0000,0.0000
2233280,6,640.2000,0.0000,0.0000,0.0000,1.1217,0.0000,-79.3400,1.1217,718.1300,73.6100,733.5100,653.9100,1.0000,65.6300,20.0000,1.0000,733.5100,653.9100,-88.9900,4579046,,2290683,,,2,4579047,GBP,4545858325684401,EUR,GBP,GBP,600685847,"2020-04-02 13:05:03","2020-04-02 13:05:03",0.0000,0.0000,0.0000,,73.6100,65.6300,,0.0000,0.0000,0.0000,0.0000,,,,,,,,,,,,,,,,Panos15,0.0000,0.0000,0.0000,0.0000,0.0000,0.0000,0.0000,0.0000
2235480,6,134.4600,0.0000,0.0000,0.0000,1.1217,0.0000,-29.6700,1.1217,150.8200,17.7100,166.3900,148.3400,1.0000,15.7900,6.0000,1.0000,166.3900,148.3400,-33.2800,4583612,,2292966,,,2,4583613,GBP,1NC348552N7951426,EUR,GBP,GBP,600686142,"2020-04-03 12:19:13","2020-04-03 12:19:13",0.0000,0.0000,0.0000,,17.7100,15.7900,,,,,,,,,,,,,,,,,,,,,TOM20,0.0000,0.0000,0.0000,0.0000,0.0000,0.0000,0.0000,0.0000
2235588,6,682.0000,0.0000,0.0000,0.0000,1.1217,0.0000,-77.4800,1.1217,764.9800,73.6100,778.2800,693.8500,1.0000,65.6300,24.0000,1.0000,778.2800,693.8500,-86.9100,4583826,,2293073,,,2,4583827,GBP,4545859194271106,EUR,GBP,GBP,600686167,"2020-04-03 13:12:04","2020-04-03 13:12:04",0.0000,0.0000,0.0000,,73.6100,65.6300,,0.0000,0.0000,0.0000,0.0000,,,,,,,,,,,,,,,,Panos15,0.0000,0.0000,0.0000,0.0000,0.0000,0.0000,0.0000,0.0000
2238752,6,1043.9100,0.0000,0.0000,0.0000,1.1217,0.0000,-135.1800,1.1217,1170.9600,115.5400,1207.0500,1076.0900,1.0000,103.0000,34.0000,1.0000,1207.0500,1076.0900,-151.6300,4590309,,2296315,,,2,4590310,GBP,4735860259877324,EUR,GBP,GBP,600686551,"2020-04-04 18:50:26","2020-04-04 18:50:26",0.0000,0.0000,0.0000,,115.5400,103.0000,,0.0000,0.0000,0.0000,0.0000,,,,,,,,,,,,,,,,Panos15,0.0000,0.0000,0.0000,0.0000,0.0000,0.0000,0.0000,0.0000
2242751,6,131.8900,0.0000,0.0000,0.0000,1.1217,0.0000,-20.4900,1.1217,147.9400,17.7100,153.2100,136.5900,1.0000,15.7900,6.0000,1.0000,153.2100,136.5900,-22.9800,4598525,,2300427,,,2,4598526,GBP,4645861721605433,EUR,GBP,GBP,600687001,"2020-04-06 11:30:15","2020-04-06 11:30:15",0.0000,0.0000,0.0000,,17.7100,15.7900,,0.0000,0.0000,0.0000,0.0000,,,,,,,,,,,,,,,,oxygen15,0.0000,0.0000,0.0000,0.0000,0.0000,0.0000,0.0000,0.0000
2242963,6,1166.6100,0.0000,0.0000,0.0000,1.1217,0.0000,-120.9500,1.1217,1308.5500,129.5100,1314.7100,1172.1000,1.0000,115.4600,36.0000,1.0000,1314.7100,1172.1000,-135.6700,4598973,,2300651,,,2,4598974,GBP,4745861772737134,EUR,GBP,GBP,600687040,"2020-04-06 12:56:34","2020-04-06 12:56:34",0.0000,0.0000,0.0000,,129.5100,115.4600,,0.0000,0.0000,0.0000,0.0000,,,,,,,,,,,,,,,,Panos15,0.0000,0.0000,0.0000,0.0000,0.0000,0.0000,0.0000,0.0000
2244905,6,136.0000,0.0000,0.0000,0.0000,1.1217,0.0000,-21.2100,1.1217,152.5500,17.7100,158.6400,141.4200,1.0000,15.7900,5.0000,1.0000,158.6400,141.4200,-23.8000,4603015,,2302672,,,2,4603016,GBP,4335862585458138,EUR,GBP,GBP,600687401,"2020-04-07 11:24:05","2020-04-07 11:24:05",0.0000,0.0000,0.0000,,17.7100,15.7900,,0.0000,0.0000,0.0000,0.0000,,,,,,,,,,,,,,,,oxygen15,0.0000,0.0000,0.0000,0.0000,0.0000,0.0000,0.0000,0.0000
2245191,6,535.1100,0.0000,0.0000,0.0000,1.1217,0.0000,-76.2400,1.1217,600.2200,59.6400,626.1000,558.1800,1.0000,53.1700,16.0000,1.0000,626.1000,558.1800,-85.5200,4603557,,2302943,,,2,4603558,GBP,4725862652595521,EUR,GBP,GBP,600687452,"2020-04-07 13:23:49","2020-04-07 13:23:49",0.0000,0.0000,0.0000,,59.6400,53.1700,,0.0000,0.0000,0.0000,0.0000,,,,,,,,,,,,,,,,Panos15,0.0000,0.0000,0.0000,0.0000,0.0000,0.0000,0.0000,0.0000
2245577,6,108.2100,0.0000,0.0000,0.0000,1.0000,0.0000,-10.8300,1.0000,108.2100,10.7900,108.2500,108.2500,1.0000,10.7900,2.0000,1.0000,108.2500,108.2500,-10.8300,4604393,,2303361,,,2,4604394,GBP,1725862765196387,GBP,GBP,GBP,600687530,"2020-04-07 16:23:03","2020-04-07 16:23:03",0.0000,0.0000,0.0000,,10.7900,10.7900,,0.0000,0.0000,0.0000,0.0000,,,,,,,,,,,,,,,,VIPA10,0.0000,0.0000,0.0000,0.0000,0.0000,0.0000,0.0000,0.0000
2247082,6,390.6500,0.0000,0.0000,0.0000,1.1217,0.0000,-87.4800,1.1217,438.1800,45.6600,490.6500,437.4200,1.0000,40.7100,12.0000,1.0000,490.6500,437.4200,-98.1300,4607532,,2304931,,,2,4607533,GBP,414516083B765510C,EUR,GBP,GBP,600687802,"2020-04-08 12:02:29","2020-04-08 12:02:29",0.0000,0.0000,0.0000,,45.6600,40.7100,,,,,,,,,,,,,,,,,,,,,TOM20,0.0000,0.0000,0.0000,0.0000,0.0000,0.0000,0.0000,0.0000
2247233,6,443.9000,0.0000,0.0000,0.0000,1.1217,0.0000,-68.9500,1.1217,497.9200,59.6400,515.6200,459.6800,1.0000,53.1700,16.0000,1.0000,515.6200,459.6800,-77.3400,4607832,,2305081,,,2,4607833,GBP,4625863518249775,EUR,GBP,GBP,600687844,"2020-04-08 13:23:55","2020-04-08 13:23:55",0.0000,0.0000,0.0000,,59.6400,53.1700,,0.0000,0.0000,0.0000,0.0000,,,,,,,,,,,,,,,,Panos15,0.0000,0.0000,0.0000,0.0000,0.0000,0.0000,0.0000,0.0000
2249322,6,226.2600,0.0000,0.0000,0.0000,1.1217,0.0000,-49.5000,1.1217,253.7900,31.6900,277.6200,247.5100,1.0000,28.2500,8.0000,1.0000,277.6200,247.5100,-55.5200,4612145,,2307238,,,2,4612146,GBP,1835864378962368,EUR,GBP,GBP,600688209,"2020-04-09 13:13:04","2020-04-09 13:13:04",0.0000,0.0000,0.0000,,31.6900,28.2500,,0.0000,0.0000,0.0000,0.0000,,,,,,,,,,,,,,,,PANOSSAUCONYUA20,0.0000,0.0000,0.0000,0.0000,0.0000,0.0000,0.0000,0.0000
2249344,6,666.6600,0.0000,0.0000,0.0000,1.1217,0.0000,-66.9800,1.1217,747.8100,73.6100,749.3300,668.0100,1.0000,65.6300,24.0000,1.0000,749.3300,668.0100,-75.1300,4612183,,2307257,,,2,4612184,GBP,1325864384616609,EUR,GBP,GBP,600688213,"2020-04-09 13:23:44","2020-04-09 13:23:44",0.0000,0.0000,0.0000,,73.6100,65.6300,,0.0000,0.0000,0.0000,0.0000,,,,,,,,,,,,,,,,Panos15,0.0000,0.0000,0.0000,0.0000,0.0000,0.0000,0.0000,0.0000
2250953,6,103.5500,0.0000,0.0000,0.0000,1.1217,0.0000,-15.4900,1.1217,116.1600,17.7100,115.8200,103.2500,1.0000,15.7900,4.0000,1.0000,115.8200,103.2500,-17.3700,4615558,,2308945,,,2,4615559,GBP,4545865110055127,EUR,GBP,GBP,600688475,"2020-04-10 09:32:05","2020-04-10 09:32:05",0.0000,0.0000,0.0000,,17.7100,15.7900,,0.0000,0.0000,0.0000,0.0000,,,,,,,,,,,,,,,,oxygen15,0.0000,0.0000,0.0000,0.0000,0.0000,0.0000,0.0000,0.0000
2251752,19,105.9700,0.0000,0.0000,0.0000,1.1217,0.0000,-10.5800,1.1217,118.8800,12.1100,118.6300,105.7600,1.0000,10.7900,9.0000,1.0000,118.6300,105.7600,-11.8600,4617205,,2309769,,0,2,4617206,GBP,68M48089BH051663U,EUR,GBP,GBP,1900248354,"2020-04-10 14:32:34","2020-04-22 10:07:57",0.0000,0.0000,0.0000,,12.1100,10.7900,,,,,,,,,,,,,,,,,,,,,"EXTRA10 - 10% Off",0.0000,0.0000,0.0000,0.0000,0.0000,0.0000,0.0000,0.0000
2258485,6,706.2800,0.0000,0.0000,0.0000,1.1217,0.0000,-157.0500,1.1217,792.2500,87.5900,880.8200,785.2500,1.0000,78.0800,34.0000,1.0000,880.8200,785.2500,-176.1600,4631149,,2316743,,,2,4631150,GBP,1PL95826F31074646,EUR,GBP,GBP,600689663,"2020-04-13 12:20:47","2020-04-13 12:20:47",0.0000,0.0000,0.0000,,87.5900,78.0800,,,,,,,,,,,,,,,,,,,,,TOM20,0.0000,0.0000,0.0000,0.0000,0.0000,0.0000,0.0000,0.0000
2258894,6,1230.4300,0.0000,0.0000,0.0000,1.1217,0.0000,-182.7900,1.1217,1380.1700,129.5100,1455.6900,1297.7600,1.0000,115.4600,40.0000,1.0000,1455.6900,1297.7600,-205.0300,4631967,,2317152,,,2,4631968,GBP,4845867887858508,EUR,GBP,GBP,600689765,"2020-04-13 14:42:04","2020-04-13 14:42:04",0.0000,0.0000,0.0000,,129.5100,115.4600,,0.0000,0.0000,0.0000,0.0000,,,,,,,,,,,,,,,,panos15,0.0000,0.0000,0.0000,0.0000,0.0000,0.0000,0.0000,0.0000
2260697,6,699.6200,0.0000,0.0000,0.0000,1.1217,0.0000,-155.3900,1.1217,784.7700,87.5900,871.4800,776.9300,1.0000,78.0800,24.0000,1.0000,871.4800,776.9300,-174.3000,4635719,,2319028,,,2,4635720,GBP,1825868570351017,EUR,GBP,GBP,600690069,"2020-04-14 09:39:04","2020-04-14 09:39:04",0.0000,0.0000,0.0000,,87.5900,78.0800,,0.0000,0.0000,0.0000,0.0000,,,,,,,,,,,,,,,,PANOSSAUCONYUA20,0.0000,0.0000,0.0000,0.0000,0.0000,0.0000,0.0000,0.0000
2261222,6,2531.0800,0.0000,0.0000,0.0000,1.1217,0.0000,-321.8400,1.1217,2839.0900,255.2800,2944.8100,2625.3400,1.0000,227.5800,80.0000,1.0000,2944.8100,2625.3400,-361.0000,4636831,,2319584,,,2,4636832,GBP,1535868692720322,EUR,GBP,GBP,600690205,"2020-04-14 13:03:08","2020-04-14 13:03:08",0.0000,0.0000,0.0000,,255.2800,227.5800,,0.0000,0.0000,0.0000,0.0000,,,,,,,,,,,,,,,,Panos15,0.0000,0.0000,0.0000,0.0000,0.0000,0.0000,0.0000,0.0000
2263491,6,450.3000,0.0000,0.0000,0.0000,1.1217,0.0000,-99.2800,1.1217,505.1000,59.6400,556.8200,496.4100,1.0000,53.1700,16.0000,1.0000,556.8200,496.4100,-111.3600,4641561,,2321951,,,2,4641562,GBP,7M711893AC1606625,EUR,GBP,GBP,600690607,"2020-04-15 12:10:43","2020-04-15 12:10:43",0.0000,0.0000,0.0000,,59.6400,53.1700,,,,,,,,,,,,,,,,,,,,,TOM20,0.0000,0.0000,0.0000,0.0000,0.0000,0.0000,0.0000,0.0000
2263517,6,628.8400,0.0000,0.0000,0.0000,1.1217,0.0000,-140.8000,1.1217,705.3600,73.6100,789.6900,704.0100,1.0000,65.6300,20.0000,1.0000,789.6900,704.0100,-157.9400,4641605,,2321973,,,2,4641606,GBP,1835869532355888,EUR,GBP,GBP,600690616,"2020-04-15 12:26:43","2020-04-15 12:26:43",0.0000,0.0000,0.0000,,73.6100,65.6300,,0.0000,0.0000,0.0000,0.0000,,,,,,,,,,,,,,,,PANOSSAUCONYUA20,0.0000,0.0000,0.0000,0.0000,0.0000,0.0000,0.0000,0.0000
2263603,6,1531.3900,0.0000,0.0000,0.0000,1.1217,0.0000,-170.6400,1.1217,1717.7300,143.4800,1765.6600,1574.1100,1.0000,127.9200,48.0000,1.0000,1765.6600,1574.1100,-191.4100,4641783,,2322062,,,2,4641784,GBP,1645869553087287,EUR,GBP,GBP,600690639,"2020-04-15 12:56:55","2020-04-15 12:56:55",0.0000,0.0000,0.0000,,143.4800,127.9200,,0.0000,0.0000,0.0000,0.0000,,,,,,,,,,,,,,,,Panos15,0.0000,0.0000,0.0000,0.0000,0.0000,0.0000,0.0000,0.0000
2266823,6,609.3300,0.0000,0.0000,0.0000,1.1217,0.0000,-63.4600,1.1217,683.4900,73.6100,681.0700,607.1600,1.0000,65.6300,24.0000,1.0000,681.0700,607.1600,-71.1900,4648521,,2325431,,,2,4648522,GBP,1635870667008674,EUR,GBP,GBP,600691301,"2020-04-16 19:56:17","2020-04-16 19:56:17",0.0000,0.0000,0.0000,,73.6100,65.6300,,0.0000,0.0000,0.0000,0.0000,,,,,,,,,,,,,,,,Panos15,0.0000,0.0000,0.0000,0.0000,0.0000,0.0000,0.0000,0.0000
2267881,6,352.6400,0.0000,0.0000,0.0000,1.1217,0.0000,-77.9800,1.1217,395.5500,45.6600,437.3600,389.9100,1.0000,40.7100,14.0000,1.0000,437.3600,389.9100,-87.4700,4650748,,2326548,,,2,4650749,GBP,1LE131422W4683253,EUR,GBP,GBP,600691527,"2020-04-17 12:00:50","2020-04-17 12:00:50",0.0000,0.0000,0.0000,,45.6600,40.7100,,,,,,,,,,,,,,,,,,,,,TOM20,0.0000,0.0000,0.0000,0.0000,0.0000,0.0000,0.0000,0.0000
2267944,6,269.8900,0.0000,0.0000,0.0000,1.1217,0.0000,-31.6100,1.1217,302.7400,31.6900,306.5100,273.2500,1.0000,28.2500,8.0000,1.0000,306.5100,273.2500,-35.4600,4650856,,2326602,,,2,4650857,GBP,4525871266580110,EUR,GBP,GBP,600691540,"2020-04-17 12:33:03","2020-04-17 12:33:03",0.0000,0.0000,0.0000,,31.6900,28.2500,,0.0000,0.0000,0.0000,0.0000,,,,,,,,,,,,,,,,Panos15,0.0000,0.0000,0.0000,0.0000,0.0000,0.0000,0.0000,0.0000
2268156,6,117.7200,0.0000,0.0000,0.0000,1.1217,0.0000,-17.9900,1.1217,132.0500,17.7100,134.5200,119.9200,1.0000,15.7900,4.0000,1.0000,134.5200,119.9200,-20.1800,4651314,,2326831,,,2,4651315,GBP,4355871326004577,EUR,GBP,GBP,600691604,"2020-04-17 14:11:03","2020-04-17 14:11:03",0.0000,0.0000,0.0000,,17.7100,15.7900,,0.0000,0.0000,0.0000,0.0000,,,,,,,,,,,,,,,,Panos15,0.0000,0.0000,0.0000,0.0000,0.0000,0.0000,0.0000,0.0000
2274406,6,706.2500,0.0000,0.0000,0.0000,1.1217,0.0000,-75.4100,1.1217,792.2100,87.5900,789.2100,703.5800,1.0000,78.0800,28.0000,1.0000,789.2100,703.5800,-84.5900,4664265,,2333311,,,2,4664266,GBP,4545873802928171,EUR,GBP,GBP,600692802,"2020-04-20 11:04:10","2020-04-20 11:04:10",0.0000,0.0000,0.0000,,87.5900,78.0800,,0.0000,0.0000,0.0000,0.0000,,,,,,,,,,,,,,,,Panos15,0.0000,0.0000,0.0000,0.0000,0.0000,0.0000,0.0000,0.0000
2274462,6,430.4300,0.0000,0.0000,0.0000,1.1217,0.0000,-94.3200,1.1217,482.8200,59.6400,528.9800,471.5800,1.0000,53.1700,16.0000,1.0000,528.9800,471.5800,-105.8000,4664359,,2333358,,,2,4664360,GBP,4535873816126400,EUR,GBP,GBP,600692814,"2020-04-20 11:28:20","2020-04-20 11:28:20",0.0000,0.0000,0.0000,,59.6400,53.1700,,0.0000,0.0000,0.0000,0.0000,,,,,,,,,,,,,,,,PANOSSAUCONYUA20,0.0000,0.0000,0.0000,0.0000,0.0000,0.0000,0.0000,0.0000
2274815,6,60.5700,0.0000,0.0000,0.0000,1.1217,0.0000,-22.3600,1.1217,67.9367,17.7100,167.2300,149.0900,1.0000,15.7900,4.0000,1.0000,167.2300,149.0900,-25.0800,4665143,,2333750,,,2,4665144,GBP,4845873914356292,EUR,GBP,GBP,600692920,"2020-04-20 14:05:05","2020-04-20 14:05:05",0.0000,0.0000,0.0000,,17.7100,15.7900,,81.9500,91.9233,0.0000,0.0000,,,,,,,,,,,,,,,,runholic15,0.0000,0.0000,0.0000,0.0000,0.0000,0.0000,0.0000,0.0000
2276852,6,86.1900,0.0000,0.0000,0.0000,1.1217,0.0000,-12.4200,1.1217,96.6900,17.7100,92.9200,82.8200,1.0000,15.7900,6.0000,1.0000,92.9200,82.8200,-13.9400,4669391,,2335874,,,2,4669392,GBP,4345874697148059,EUR,GBP,GBP,600693326,"2020-04-21 11:57:49","2020-04-21 11:57:49",0.0000,0.0000,0.0000,,17.7100,15.7900,,0.0000,0.0000,0.0000,0.0000,,,,,,,,,,,,,,,,oxygen15,0.0000,0.0000,0.0000,0.0000,0.0000,0.0000,0.0000,0.0000
2276873,6,565.6200,0.0000,0.0000,0.0000,1.1217,0.0000,-125.5200,1.1217,634.4500,73.6100,701.6400,625.5100,1.0000,65.6300,22.0000,1.0000,701.6400,625.5100,-140.8000,4669463,,2335910,,,2,4669464,GBP,6XS28654ER401073V,EUR,GBP,GBP,600693338,"2020-04-21 12:08:10","2020-04-21 12:08:10",0.0000,0.0000,0.0000,,73.6100,65.6300,,,,,,,,,,,,,,,,,,,,,"TOM20, tom20",0.0000,0.0000,0.0000,0.0000,0.0000,0.0000,0.0000,0.0000
2277161,6,413.8700,0.0000,0.0000,0.0000,1.1217,0.0000,-23.5000,1.1217,464.2400,45.6600,444.9400,396.6600,1.0000,40.7100,12.0000,1.0000,444.9400,396.6600,-26.3600,4670045,,2336201,,,2,4670046,GBP,1545874771473104,EUR,GBP,GBP,600693414,"2020-04-21 13:57:37","2020-04-21 13:57:37",0.0000,0.0000,0.0000,,45.6600,40.7100,,0.0000,0.0000,0.0000,0.0000,,,,,,,,,,,,,,,,Panos15,0.0000,0.0000,0.0000,0.0000,0.0000,0.0000,0.0000,0.0000
2277260,6,258.0500,0.0000,0.0000,0.0000,1.1217,0.0000,-57.4500,1.1217,289.4700,31.6900,322.2200,287.2500,1.0000,28.2500,8.0000,1.0000,322.2200,287.2500,-64.4400,4670249,,2336303,,,2,4670250,GBP,1625874798477511,EUR,GBP,GBP,600693440,"2020-04-21 14:39:05","2020-04-21 14:39:05",0.0000,0.0000,0.0000,,31.6900,28.2500,,0.0000,0.0000,0.0000,0.0000,,,,,,,,,,,,,,,,PANOSSAUCONYUA20,0.0000,0.0000,0.0000,0.0000,0.0000,0.0000,0.0000,0.0000
2277300,6,341.6100,0.0000,0.0000,0.0000,1.1217,0.0000,-53.1000,1.1217,383.1800,45.6600,397.0800,354.0000,1.0000,40.7100,12.0000,1.0000,397.0800,354.0000,-59.5600,4670287,,2336322,,,2,4670288,GBP,1335874803173197,EUR,GBP,GBP,600693448,"2020-04-21 14:58:40","2020-04-21 14:58:40",0.0000,0.0000,0.0000,,45.6600,40.7100,,0.0000,0.0000,0.0000,0.0000,,,,,,,,,,,,,,,,Panos15,0.0000,0.0000,0.0000,0.0000,0.0000,0.0000,0.0000,0.0000
2277710,6,229.1200,0.0000,0.0000,0.0000,1.1217,0.0000,0.0000,1.1217,257.0100,17.7100,239.3000,213.3300,1.0000,15.7900,6.0000,1.0000,239.3000,213.3300,0.0000,4671211,,2336784,,,2,4671212,GBP,431438985M023632V,EUR,GBP,GBP,600693523,"2020-04-21 17:59:50","2020-04-21 17:59:50",0.0000,0.0000,0.0000,,17.7100,15.7900,,,,,,,,,,,,,,,,,,,,,,0.0000,0.0000,0.0000,0.0000,0.0000,0.0000,0.0000,0.0000
2279070,6,112.2500,0.0000,0.0000,0.0000,1.1217,0.0000,-14.8200,1.1217,125.9300,31.6900,110.8700,98.8200,1.0000,28.2500,8.0000,1.0000,110.8700,98.8200,-16.6300,4674042,,2338200,,,2,4674043,GBP,4855875518918044,EUR,GBP,GBP,600693765,"2020-04-22 10:40:03","2020-04-22 10:40:03",0.0000,0.0000,0.0000,,31.6900,28.2500,,0.0000,0.0000,0.0000,0.0000,,,,,,,,,,,,,,,,oxygen15,0.0000,0.0000,0.0000,0.0000,0.0000,0.0000,0.0000,0.0000
2279264,6,278.9000,0.0000,0.0000,0.0000,1.1217,0.0000,-60.0600,1.1217,312.8300,45.6600,334.5500,298.2500,1.0000,40.7100,12.0000,1.0000,334.5500,298.2500,-67.3800,4674440,,2338399,,,2,4674441,GBP,92F2308685039772Y,EUR,GBP,GBP,600693815,"2020-04-22 12:06:59","2020-04-22 12:06:59",0.0000,0.0000,0.0000,,45.6600,40.7100,,,,,,,,,,,,,,,,,,,,,"TOM20, tom20",0.0000,0.0000,0.0000,0.0000,0.0000,0.0000,0.0000,0.0000
2279463,6,1011.1600,0.0000,0.0000,0.0000,1.1217,0.0000,-115.0000,1.1217,1134.2400,115.5400,1147.7000,1023.1600,1.0000,103.0000,44.0000,1.0000,1147.7000,1023.1600,-129.0000,4674834,,2338596,,,2,4674835,GBP,1545875618837559,EUR,GBP,GBP,600693859,"2020-04-22 13:28:18","2020-04-22 13:28:18",0.0000,0.0000,0.0000,,115.5400,103.0000,,0.0000,0.0000,0.0000,0.0000,,,,,,,,,,,,,,,,Panos15,0.0000,0.0000,0.0000,0.0000,0.0000,0.0000,0.0000,0.0000
2281592,6,189.5900,0.0000,0.0000,0.0000,1.1217,0.0000,-40.3300,1.1217,212.6600,31.6900,226.2100,201.6700,1.0000,28.2500,8.0000,1.0000,226.2100,201.6700,-45.2400,4679334,,2340846,,,2,4679335,GBP,1525876461951145,EUR,GBP,GBP,600694341,"2020-04-23 12:56:11","2020-04-23 12:56:11",0.0000,0.0000,0.0000,,31.6900,28.2500,,0.0000,0.0000,0.0000,0.0000,,,,,,,,,,,,,,,,PANOSSAUCONYUA20,0.0000,0.0000,0.0000,0.0000,0.0000,0.0000,0.0000,0.0000
2281746,6,612.5300,0.0000,0.0000,0.0000,1.1217,0.0000,-72.8500,1.1217,687.0800,73.6100,695.1900,619.7500,1.0000,65.6300,24.0000,1.0000,695.1900,619.7500,-81.7200,4679662,,2341010,,,2,4679663,GBP,1325876505662122,EUR,GBP,GBP,600694395,"2020-04-23 14:05:04","2020-04-23 14:05:04",0.0000,0.0000,0.0000,,73.6100,65.6300,,0.0000,0.0000,0.0000,0.0000,,,,,,,,,,,,,,,,Panos15,0.0000,0.0000,0.0000,0.0000,0.0000,0.0000,0.0000,0.0000
2282420,6,521.3800,0.0000,0.0000,0.0000,1.1217,0.0000,-82.6200,1.1217,584.8200,59.6400,617.8600,550.8300,1.0000,53.1700,16.0000,1.0000,617.8600,550.8300,-92.6800,4681073,,2341716,,,2,4681074,GBP,1355876708759140,EUR,GBP,GBP,600694553,"2020-04-23 19:43:03","2020-04-23 19:43:03",0.0000,0.0000,0.0000,,59.6400,53.1700,,0.0000,0.0000,0.0000,0.0000,,,,,,,,,,,,,,,,Panos15,0.0000,0.0000,0.0000,0.0000,0.0000,0.0000,0.0000,0.0000
2283489,6,67.3500,0.0000,0.0000,0.0000,1.1217,0.0000,-9.1000,1.1217,75.5500,17.7100,68.0500,60.6600,1.0000,15.7900,6.0000,1.0000,68.0500,60.6600,-10.2100,4683254,,2342807,,,2,4683255,GBP,4525877234511319,EUR,GBP,GBP,600694780,"2020-04-24 10:27:11","2020-04-24 10:27:11",0.0000,0.0000,0.0000,,17.7100,15.7900,,0.0000,0.0000,0.0000,0.0000,,,,,,,,,,,,,,,,oxygen15,0.0000,0.0000,0.0000,0.0000,0.0000,0.0000,0.0000,0.0000
2283643,6,484.0900,0.0000,0.0000,0.0000,1.1217,0.0000,-95.2500,1.1217,543.0100,59.6400,590.2100,526.1700,1.0000,53.1700,16.0000,1.0000,590.2100,526.1700,-106.8400,4683629,,2342995,,,2,4683630,GBP,8PG53256XL828813R,EUR,GBP,GBP,600694825,"2020-04-24 11:23:19","2020-04-24 11:23:19",0.0000,0.0000,0.0000,,59.6400,53.1700,,,,,,,,,,,,,,,,,,,,,TOM20,0.0000,0.0000,0.0000,0.0000,0.0000,0.0000,0.0000,0.0000
2283958,6,467.3600,0.0000,0.0000,0.0000,1.1217,0.0000,-61.4800,1.1217,524.2300,59.6400,533.5500,475.6700,1.0000,53.1700,16.0000,1.0000,533.5500,475.6700,-68.9600,4684257,,2343311,,,2,4684258,GBP,4745877351514777,EUR,GBP,GBP,600694906,"2020-04-24 13:34:06","2020-04-24 13:34:06",0.0000,0.0000,0.0000,,59.6400,53.1700,,0.0000,0.0000,0.0000,0.0000,,,,,,,,,,,,,,,,Panos15,0.0000,0.0000,0.0000,0.0000,0.0000,0.0000,0.0000,0.0000
2290629,6,170.7000,0.0000,0.0000,0.0000,1.1217,0.0000,-27.3400,1.1217,191.4800,17.7100,204.4400,182.2500,1.0000,15.7900,10.0000,1.0000,204.4400,182.2500,-30.6700,4698142,,2350255,,,2,4698143,GBP,4355879831392494,EUR,GBP,GBP,600696147,"2020-04-27 10:35:33","2020-04-27 10:35:33",0.0000,0.0000,0.0000,,17.7100,15.7900,,0.0000,0.0000,0.0000,0.0000,,,,,,,,,,,,,,,,oxygen15,0.0000,0.0000,0.0000,0.0000,0.0000,0.0000,0.0000,0.0000
2290838,6,689.2200,0.0000,0.0000,0.0000,1.1217,0.0000,-152.7800,1.1217,773.1100,87.5900,856.9000,763.9200,1.0000,78.0800,22.0000,1.0000,856.9000,763.9200,-171.3800,4698581,,2350475,,,2,4698582,GBP,4NP606484J303101T,EUR,GBP,GBP,600696206,"2020-04-27 11:40:18","2020-04-27 11:40:18",0.0000,0.0000,0.0000,,87.5900,78.0800,,,,,,,,,,,,,,,,,,,,,TOM20,0.0000,0.0000,0.0000,0.0000,0.0000,0.0000,0.0000,0.0000
2291059,6,1263.9700,0.0000,0.0000,0.0000,1.1217,0.0000,-191.8000,1.1217,1417.7900,143.4800,1489.4600,1327.8500,1.0000,127.9200,40.0000,1.0000,1489.4600,1327.8500,-215.1500,4698993,,2350681,,,2,4698994,GBP,4635879915971546,EUR,GBP,GBP,600696275,"2020-04-27 12:56:52","2020-04-27 12:56:52",0.0000,0.0000,0.0000,,143.4800,127.9200,,0.0000,0.0000,0.0000,0.0000,,,,,,,,,,,,,,,,Panos15,0.0000,0.0000,0.0000,0.0000,0.0000,0.0000,0.0000,0.0000
2293166,6,167.3000,0.0000,0.0000,0.0000,1.1217,0.0000,-26.7400,1.1217,187.6600,17.7100,199.9400,178.2500,1.0000,15.7900,6.0000,1.0000,199.9400,178.2500,-29.9900,4703489,,2352929,,,2,4703490,GBP,4325880700312990,EUR,GBP,GBP,600696792,"2020-04-28 10:36:05","2020-04-28 10:36:05",0.0000,0.0000,0.0000,,17.7100,15.7900,,0.0000,0.0000,0.0000,0.0000,,,,,,,,,,,,,,,,oxygen15,0.0000,0.0000,0.0000,0.0000,0.0000,0.0000,0.0000,0.0000
2293652,6,225.1000,0.0000,0.0000,0.0000,1.1217,0.0000,-34.7400,1.1217,252.4900,31.6900,259.7700,231.5900,1.0000,28.2500,8.0000,1.0000,259.7700,231.5900,-38.9700,4704523,,2353446,,,2,4704524,GBP,1555880826689575,EUR,GBP,GBP,600696943,"2020-04-28 14:06:03","2020-04-28 14:06:03",0.0000,0.0000,0.0000,,31.6900,28.2500,,0.0000,0.0000,0.0000,0.0000,,,,,,,,,,,,,,,,Panos15,0.0000,0.0000,0.0000,0.0000,0.0000,0.0000,0.0000,0.0000
2294116,6,270.6700,0.0000,0.0000,0.0000,1.1217,0.0000,0.0000,1.1217,303.6300,31.6900,271.9400,242.4200,1.0000,28.2500,12.0000,1.0000,271.9400,242.4200,0.0000,4705483,,2353926,,,2,4705484,GBP,1E728056B62330402,EUR,GBP,GBP,600697062,"2020-04-28 16:57:41","2020-04-28 16:57:41",0.0000,0.0000,0.0000,,31.6900,28.2500,,,,,,,,,,,,,,,,,,,,,,0.0000,0.0000,0.0000,0.0000,0.0000,0.0000,0.0000,0.0000
2295714,6,79.4600,0.0000,0.0000,0.0000,1.1217,0.0000,-11.2400,1.1217,89.1400,17.7100,84.0400,74.9100,1.0000,15.7900,6.0000,1.0000,84.0400,74.9100,-12.6100,4708718,,2355544,,,2,4708719,GBP,1845881608139193,EUR,GBP,GBP,600697393,"2020-04-29 12:00:17","2020-04-29 12:00:17",0.0000,0.0000,0.0000,,17.7100,15.7900,,0.0000,0.0000,0.0000,0.0000,,,,,,,,,,,,,,,,oxygen15,0.0000,0.0000,0.0000,0.0000,0.0000,0.0000,0.0000,0.0000
2295739,6,445.7000,0.0000,0.0000,0.0000,1.1217,0.0000,-98.1300,1.1217,499.9500,59.6400,550.3900,490.6600,1.0000,53.1700,16.0000,1.0000,550.3900,490.6600,-110.0800,4708878,,2355624,,,2,4708879,GBP,1M591218MH044794K,EUR,GBP,GBP,600697400,"2020-04-29 12:12:01","2020-04-29 12:12:01",0.0000,0.0000,0.0000,,59.6400,53.1700,,,,,,,,,,,,,,,,,,,,,TOM20,0.0000,0.0000,0.0000,0.0000,0.0000,0.0000,0.0000,0.0000
2298231,6,618.7600,0.0000,0.0000,0.0000,1.1217,0.0000,0.0000,1.1217,694.0500,59.6400,634.4100,565.5900,1.0000,53.1700,18.0000,1.0000,634.4100,565.5900,0.0000,4714058,,2358216,,,2,4714059,GBP,1F963354LW3624539,EUR,GBP,GBP,600697930,"2020-04-30 12:20:54","2020-04-30 12:20:54",0.0000,0.0000,0.0000,,59.6400,53.1700,,,,,,,,,,,,,,,,,,,,,,0.0000,0.0000,0.0000,0.0000,0.0000,0.0000,0.0000,0.0000
2298393,6,533.4000,0.0000,0.0000,0.0000,1.1217,0.0000,-68.7300,1.1217,598.3200,73.6100,601.8000,536.5000,1.0000,65.6300,20.0000,1.0000,601.8000,536.5000,-77.0900,4714386,,2358380,,,2,4714387,GBP,1535882529858924,EUR,GBP,GBP,600697974,"2020-04-30 13:26:30","2020-04-30 13:26:30",0.0000,0.0000,0.0000,,73.6100,65.6300,,0.0000,0.0000,0.0000,0.0000,,,,,,,,,,,,,,,,Panos15,0.0000,0.0000,0.0000,0.0000,0.0000,0.0000,0.0000,0.0000
2298400,6,204.1200,0.0000,0.0000,0.0000,1.1217,0.0000,-43.9700,1.1217,228.9600,31.6900,246.5900,219.8400,1.0000,28.2500,8.0000,1.0000,246.5900,219.8400,-49.3200,4714412,,2358393,,,2,4714413,GBP,1555882533373923,EUR,GBP,GBP,600697976,"2020-04-30 13:31:02","2020-04-30 13:31:02",0.0000,0.0000,0.0000,,31.6900,28.2500,,0.0000,0.0000,0.0000,0.0000,,,,,,,,,,,,,,,,PANOSSAUCONYUA20,0.0000,0.0000,0.0000,0.0000,0.0000,0.0000,0.0000,0.0000
2299406,6,176.9200,0.0000,0.0000,0.0000,1.1217,0.0000,-37.1700,1.1217,198.4600,31.6900,208.4600,185.8400,1.0000,28.2500,8.0000,1.0000,208.4600,185.8400,-41.6900,4716537,,2359456,,,2,4716538,GBP,4835882774813435,EUR,GBP,GBP,600698208,"2020-04-30 20:13:06","2020-04-30 20:13:06",0.0000,0.0000,0.0000,,31.6900,28.2500,,0.0000,0.0000,0.0000,0.0000,,,,,,,,,,,,,,,,PANOSSAUCONYUA20,0.0000,0.0000,0.0000,0.0000,0.0000,0.0000,0.0000,0.0000
