"Invoice Entity ID","Order number","Invoice Number","Invoice date","GBP Net goods after discount","GBP VAT on Goods","GBP Gross goods after discount",country_id,"Store Credit Used",store_name
2192766,1900265511,1900239743,2020-03-01,133.5000,26.70,160.2000,DK,0.0000,"Start Fitness
Fitness
Fitness Mobile"
2193210,600710839,600678084,2020-03-01,237.3300,47.47,284.8000,DK,0.0000,"Start Fitness
Fitness
SF English"
2193594,600710922,600678159,2020-03-01,93.2500,18.65,111.9000,DK,0.0000,"Start Fitness
Fitness
SF English"
2194581,600711139,600678361,2020-03-02,89.9300,17.98,107.9100,DK,0.0000,"Start Fitness
Fitness
SF English"
2195827,2500297071,2500296263,2020-03-03,35.5800,7.12,42.7000,DK,0.0000,"Start Group
Start Group
eBay"
2196608,2400656049,2400655477,2020-03-04,49.7900,12.45,62.2400,DK,0.0000,"Start Group
Start Group
Amazon"
2197445,2400656392,2400655820,2020-03-04,117.7800,29.45,147.2300,DK,0.0000,"Start Group
Start Group
Amazon"
2197686,2500297405,2500296597,2020-03-05,15.7500,3.15,18.9000,DK,0.0000,"Start Group
Start Group
eBay"
2198071,1900266508,1900240612,2020-03-05,108.2500,21.65,129.9000,DK,0.0000,"Start Fitness
Fitness
Fitness Mobile"
2198304,1900266549,1900240646,2020-03-05,61.6700,8.33,70.0000,DK,0.0000,"Start Fitness
Fitness
Fitness Mobile"
2199124,2500297684,2500296876,2020-03-06,34.3300,6.87,41.2000,DK,0.0000,"Start Group
Start Group
eBay"
2200138,600712504,600679609,2020-03-07,45.8300,9.17,55.0000,DK,0.0000,"Start Fitness
Fitness
SF English"
2200174,1900266893,1900240945,2020-03-07,58.8000,11.76,70.5600,DK,0.0000,"Start Fitness
Fitness
Fitness Mobile"
2200348,600712557,600679657,2020-03-07,71.5000,14.30,85.8000,DK,0.0000,"Start Fitness
Fitness
SF English"
2200437,2400657529,2400656957,2020-03-07,81.5800,20.40,101.9800,DK,0.0000,"Start Group
Start Group
Amazon"
2200533,1900266961,1900241005,2020-03-07,74.2500,14.85,89.1000,DK,0.0000,"Start Fitness
Fitness
Fitness Mobile"
2200760,2400657657,2400657085,2020-03-07,17.1000,4.28,21.3800,DK,0.0000,"Start Group
Start Group
Amazon"
2200947,1900267050,1900241083,2020-03-08,89.8500,17.97,107.8200,DK,0.0000,"Start Fitness
Fitness
Fitness Mobile"
2201133,1900267100,1900241132,2020-03-08,49.1700,9.83,59.0000,DK,0.0000,"Start Fitness
Fitness
Fitness Mobile"
2201150,1900267108,1900241138,2020-03-08,50.0000,3.00,53.0000,DK,0.0000,"Start Fitness
Fitness
Fitness Mobile"
2201385,2400657891,2400657319,2020-03-08,108.6100,27.15,135.7600,DK,0.0000,"Start Group
Start Group
Amazon"
2202941,600713118,600680173,2020-03-09,65.8300,13.17,79.0000,DK,0.0000,"Start Fitness
Fitness
SF English"
2203049,2500298481,2500297670,2020-03-09,6.6200,1.33,7.9500,DK,0.0000,"Start Group
Start Group
eBay"
2203261,2400658584,2400658012,2020-03-09,14.4600,3.62,18.0800,DK,0.0000,"Start Group
Start Group
Amazon"
2204114,600713426,600680451,2020-03-10,74.9200,14.98,89.9000,DK,0.0000,"Start Fitness
Fitness
SF English"
2204124,2500298685,2500297874,2020-03-10,28.3200,5.67,33.9900,DK,0.0000,"Start Group
Start Group
eBay"
2204153,600713434,600680458,2020-03-10,82.5000,16.50,99.0000,DK,0.0000,"Start Fitness
Fitness
SF English"
2204364,2500298746,2500297935,2020-03-10,9.1200,1.83,10.9500,DK,0.0000,"Start Group
Start Group
eBay"
2204510,2500298769,2500297958,2020-03-10,16.6600,3.33,19.9900,DK,0.0000,"Start Group
Start Group
eBay"
2205063,600713641,600680643,2020-03-11,83.9200,16.79,100.7100,DK,0.0000,"Start Fitness
Fitness
SF English"
2206041,2500299143,2500298332,2020-03-12,16.9600,3.39,20.3500,DK,0.0000,"Start Group
Start Group
eBay"
2206282,2400659672,2400659099,2020-03-12,71.6400,17.91,89.5500,DK,0.0000,"Start Group
Start Group
Amazon"
2206717,1900268152,1900242049,2020-03-13,71.2500,14.25,85.5000,DK,0.0000,"Start Fitness
Fitness
Fitness Mobile"
2207035,600714113,600681052,2020-03-13,51.5800,10.32,61.9000,DK,0.0000,"Start Fitness
Fitness
SF English"
2207961,2500299613,2500298802,2020-03-14,23.3200,4.67,27.9900,DK,0.0000,"Start Group
Start Group
eBay"
2208025,2500299637,2500298826,2020-03-14,19.1600,3.83,22.9900,DK,0.0000,"Start Group
Start Group
eBay"
2208452,1900268460,1900242319,2020-03-15,15.0000,3.00,18.0000,DK,0.0000,"Start Fitness
Fitness
Fitness Mobile"
2208472,600714427,600681347,2020-03-15,49.9200,9.98,59.9000,DK,0.0000,"Start Fitness
Fitness
SF English"
2210001,2400660825,2400660252,2020-03-16,17.3700,4.34,21.7100,DK,0.0000,"Start Group
Start Group
Amazon"
2210273,600714884,600681742,2020-03-17,38.3300,7.67,46.0000,DK,0.0000,"Start Fitness
Fitness
SF English"
2210460,600714961,600681810,2020-03-17,63.7500,12.75,76.5000,DK,0.0000,"Start Fitness
Fitness
SF English"
2210475,600714970,600681816,2020-03-17,111.5800,22.32,133.9000,DK,0.0000,"Start Fitness
Fitness
SF English"
2210682,1900268900,1900242697,2020-03-17,65.8300,13.17,79.0000,DK,0.0000,"Start Fitness
Fitness
Fitness Mobile"
2211407,2500300527,2500299716,2020-03-18,15.2900,3.06,18.3500,DK,0.0000,"Start Group
Start Group
eBay"
2211801,600715376,600682188,2020-03-19,164.8300,32.97,197.8000,DK,0.0000,"Start Fitness
Fitness
SF English"
2211815,600715378,600682190,2020-03-19,104.0300,20.81,124.8400,DK,0.0000,"Start Fitness
Fitness
SF English"
2212200,2400661454,2400660881,2020-03-19,37.4600,9.37,46.8300,DK,0.0000,"Start Group
Start Group
Amazon"
2212289,600715501,600682303,2020-03-19,62.5000,12.50,75.0000,DK,0.0000,"Start Fitness
Fitness
SF English"
2212996,600715654,600682447,2020-03-20,62.7700,12.56,75.3300,DK,0.0000,"Start Fitness
Fitness
SF English"
2213155,2500301174,2500300363,2020-03-20,13.5000,2.70,16.2000,DK,0.0000,"Start Group
Start Group
eBay"
2213491,2500301339,2500300528,2020-03-21,16.6700,3.33,20.0000,DK,0.0000,"Start Group
Start Group
eBay"
2214175,2500301601,2500300790,2020-03-21,5.8200,1.17,6.9900,DK,0.0000,"Start Group
Start Group
eBay"
2214612,600715962,600682717,2020-03-22,74.1700,14.83,89.0000,DK,0.0000,"Start Fitness
Fitness
SF English"
2214998,2500301936,2500301125,2020-03-22,13.3200,2.66,15.9800,DK,0.0000,"Start Group
Start Group
eBay"
2215203,1900269595,1900243285,2020-03-22,66.6700,13.33,80.0000,DK,0.0000,"Start Fitness
Fitness
Fitness Mobile"
2215309,600716107,600682843,2020-03-22,112.5000,22.50,135.0000,DK,0.0000,"Start Fitness
Fitness
SF English"
2215424,2500302123,2500301312,2020-03-22,29.1700,5.83,35.0000,DK,0.0000,"Start Group
Start Group
eBay"
2215674,2500302247,2500301436,2020-03-22,20.8300,4.17,25.0000,DK,0.0000,"Start Group
Start Group
eBay"
2215863,1900269700,1900243368,2020-03-23,44.9300,8.98,53.9100,DK,0.0000,"Start Fitness
Fitness
Fitness Mobile"
2216056,600716269,600682985,2020-03-23,9.8700,1.98,11.8500,DK,0.0000,"Start Fitness
Fitness
SF English"
2216057,600716270,600682986,2020-03-23,29.1700,5.83,35.0000,DK,0.0000,"Start Fitness
Fitness
SF English"
2216393,600716351,600683061,2020-03-23,157.4200,31.48,188.9000,DK,0.0000,"Start Fitness
Fitness
SF English"
2216529,600716375,600683081,2020-03-23,2240.8300,448.16,2688.9900,DK,0.0000,"Start Fitness
Fitness
SF English"
2217429,1900269893,1900243535,2020-03-24,59.2500,11.85,71.1000,DK,0.0000,"Start Fitness
Fitness
Fitness Mobile"
2217450,2500303068,2500302256,2020-03-24,50.0000,10.00,60.0000,DK,0.0000,"Start Group
Start Group
eBay"
2218667,2500303649,2500302837,2020-03-25,26.2600,5.25,31.5100,DK,0.0000,"Start Group
Start Group
eBay"
2219069,1900270109,1900243720,2020-03-25,49.9200,9.98,59.9000,DK,0.0000,"Start Fitness
Fitness
Fitness Mobile"
2219392,600716886,600683534,2020-03-25,125.0000,25.00,150.0000,DK,0.0000,"Start Fitness
Fitness
SF English"
2219878,1900270195,1900243798,2020-03-25,645.8300,129.17,775.0000,DK,0.0000,"Start Fitness
Fitness
Fitness Mobile"
2220611,600717102,600683725,2020-03-26,83.2500,16.65,99.9000,DK,0.0000,"Start Fitness
Fitness
SF English"
2220662,600717113,600683737,2020-03-26,209.8300,41.97,251.8000,DK,0.0000,"Start Fitness
Fitness
SF English"
2221298,1900270384,1900243960,2020-03-26,76.5000,15.30,91.8000,DK,0.0000,"Start Fitness
Fitness
Fitness Mobile"
2221444,2500304950,2500304135,2020-03-26,6.6600,1.33,7.9900,DK,0.0000,"Start Group
Start Group
eBay"
2221730,2500305090,2500304272,2020-03-27,33.3300,6.67,40.0000,DK,0.0000,"Start Group
Start Group
eBay"
2222893,600717518,600684103,2020-03-27,74.2500,14.85,89.1000,DK,0.0000,"Start Fitness
Fitness
SF English"
2223505,1900270743,1900244271,2020-03-28,35.0000,0.00,35.0000,DK,0.0000,"Start Fitness
Fitness
Fitness Mobile"
2223608,2500305903,2500305085,2020-03-28,83.3200,16.67,99.9900,DK,0.0000,"Start Group
Start Group
eBay"
2223739,600717648,600684212,2020-03-28,198.1700,39.63,237.8000,DK,0.0000,"Start Fitness
Fitness
SF English"
2223951,2400664198,2400663624,2020-03-28,104.0400,26.01,130.0500,DK,0.0000,"Start Group
Start Group
Amazon"
2224728,600717826,600684375,2020-03-28,89.9200,17.98,107.9000,DK,0.0000,"Start Fitness
Fitness
SF English"
2225088,600717870,600684403,2020-03-29,62.5000,12.50,75.0000,DK,0.0000,"Start Fitness
Fitness
SF English"
2225562,600717965,600684479,2020-03-29,2499.1700,499.83,2999.0000,DK,0.0000,"Start Fitness
Fitness
SF English"
2225821,1900271155,1900244636,2020-03-29,90.8300,18.17,109.0000,DK,0.0000,"Start Fitness
Fitness
Fitness Mobile"
2226182,2500306963,2500306136,2020-03-29,17.7100,3.54,21.2500,DK,0.0000,"Start Group
Start Group
eBay"
2227376,1900271440,1900244884,2020-03-30,49.9200,9.98,59.9000,DK,0.0000,"Start Fitness
Fitness
Fitness Mobile"
2228590,2500307950,2500307119,2020-03-31,11.1200,2.23,13.3500,DK,0.0000,"Start Group
Start Group
eBay"
2229030,600718654,600685101,2020-03-31,83.2500,16.65,99.9000,DK,0.0000,"Start Fitness
Fitness
SF English"
2229371,2500308270,2500307439,2020-03-31,22.4100,4.48,26.8900,DK,0.0000,"Start Group
Start Group
eBay"
2229602,2500308369,2500307538,2020-03-31,13.3200,2.66,15.9800,DK,0.0000,"Start Group
Start Group
eBay"
2229620,1900271790,1900245205,2020-03-31,1249.1700,249.83,1499.0000,DK,0.0000,"Start Fitness
Fitness
Fitness Mobile"
2229630,600718810,600685239,2020-03-31,74.9200,14.99,89.9100,DK,0.0000,"Start Fitness
Fitness
SF English"
2230212,2500308635,2500307804,2020-03-31,19.9100,3.98,23.8900,DK,0.0000,"Start Group
Start Group
eBay"
2230215,2500308637,2500307806,2020-03-31,21.6600,4.33,25.9900,DK,0.0000,"Start Group
Start Group
eBay"
