"Invoice Entity ID","Order number","Invoice Number","Invoice date","GBP Net goods after discount","GBP VAT on Goods","GBP Gross goods after discount",country_id,"Store Credit Used",store_name
2671992,AMZ24000582400,24000581357,2020-12-01,16.0700,3.37,19.4400,ES,,"Start Group
Start Group
Amazon"
2672042,AMZ24000582418,24000581375,2020-12-01,21.3900,4.28,25.6700,ES,,"Start Group
Start Group
Amazon"
2672103,AMZ24000582436,24000581393,2020-12-01,31.1700,6.24,37.4100,ES,,"Start Group
Start Group
Amazon"
2672133,AMZ24000582446,24000581403,2020-12-01,26.7700,5.35,32.1200,ES,,"Start Group
Start Group
Amazon"
2672219,AMZ24000582479,24000581436,2020-12-01,50.3100,0.00,50.3100,ES,,"Start Group
Start Group
Amazon"
2672376,AMZ24000582513,24000581470,2020-12-01,27.8200,5.56,33.3800,ES,,"Start Group
Start Group
Amazon"
2672427,AMZ24000582527,24000581484,2020-12-01,43.0000,8.60,51.6000,ES,,"Start Group
Start Group
Amazon"
2672510,AMZ24000582547,24000581504,2020-12-01,26.8700,5.38,32.2500,ES,,"Start Group
Start Group
Amazon"
2672620,AMZ24000582573,24000581530,2020-12-01,48.3700,9.68,58.0500,ES,,"Start Group
Start Group
Amazon"
2672621,AMZ24000582574,24000581531,2020-12-01,4.0300,0.81,4.8400,ES,,"Start Group
Start Group
Amazon"
2672656,AMZ24000582585,24000581542,2020-12-01,75.1400,15.03,90.1700,ES,,"Start Group
Start Group
Amazon"
2672709,AMZ24000582599,24000581556,2020-12-01,26.7700,5.35,32.1200,ES,,"Start Group
Start Group
Amazon"
2672790,AMZ24000582625,24000581582,2020-12-01,35.1300,7.03,42.1600,ES,,"Start Group
Start Group
Amazon"
2672813,AMZ24000582632,24000581589,2020-12-01,104.6700,20.94,125.6100,ES,,"Start Group
Start Group
Amazon"
2672833,AMZ24000582634,24000581591,2020-12-01,4.3000,0.90,5.2000,ES,,"Start Group
Start Group
Amazon"
2672886,AMZ24000582654,24000581611,2020-12-01,25.8000,0.00,25.8000,ES,,"Start Group
Start Group
Amazon"
2672898,AMZ24000582656,24000581613,2020-12-01,10.7500,2.15,12.9000,ES,,"Start Group
Start Group
Amazon"
2672951,AMZ24000582669,24000581626,2020-12-01,42.8900,8.58,51.4700,ES,,"Start Group
Start Group
Amazon"
2673050,AMZ24000582699,24000581656,2020-12-01,12.9000,2.58,15.4800,ES,,"Start Group
Start Group
Amazon"
2673085,AMZ24000582709,24000581666,2020-12-01,125.0800,26.27,151.3500,ES,,"Start Group
Start Group
Amazon"
2673257,EBY24000578187,24000577547,2020-12-01,29.0800,5.82,34.9000,ES,,"Start Group
Start Group
eBay"
2673312,AMZ24000582758,24000581715,2020-12-01,29.0700,5.82,34.8900,ES,,"Start Group
Start Group
Amazon"
2673338,AMZ24000582767,24000581724,2020-12-01,88.0000,17.60,105.6000,ES,,"Start Group
Start Group
Amazon"
2673808,AMZ24000582898,24000581855,2020-12-01,21.3900,4.28,25.6700,ES,,"Start Group
Start Group
Amazon"
2673875,AMZ24000582918,24000581875,2020-12-01,91.9100,18.38,110.2900,ES,,"Start Group
Start Group
Amazon"
2673914,AMZ24000582932,24000581889,2020-12-01,64.2800,12.86,77.1400,ES,,"Start Group
Start Group
Amazon"
2673921,AMZ24000582935,24000581892,2020-12-01,63.4200,12.69,76.1100,ES,,"Start Group
Start Group
Amazon"
2673932,AMZ24000582939,24000581896,2020-12-01,45.1500,0.00,45.1500,ES,,"Start Group
Start Group
Amazon"
2674124,6000885600,6000656228,2020-12-02,111.9200,20.42,132.3400,ES,,"Start Fitness
Fitness
SF English"
2674166,AMZ24000583005,24000581962,2020-12-02,9.2700,1.85,11.1200,ES,,"Start Group
Start Group
Amazon"
2674187,AMZ24000583009,24000581966,2020-12-02,21.5000,4.30,25.8000,ES,,"Start Group
Start Group
Amazon"
2674253,AMZ24000583029,24000581986,2020-12-02,14.9400,2.99,17.9300,ES,,"Start Group
Start Group
Amazon"
2674254,AMZ24000583030,24000581987,2020-12-02,91.3700,19.19,110.5600,ES,,"Start Group
Start Group
Amazon"
2674274,AMZ24000583037,24000581994,2020-12-02,4.0300,0.81,4.8400,ES,,"Start Group
Start Group
Amazon"
2674275,AMZ24000583038,24000581995,2020-12-02,23.6500,4.73,28.3800,ES,,"Start Group
Start Group
Amazon"
2674276,AMZ24000583039,24000581996,2020-12-02,43.0000,8.60,51.6000,ES,,"Start Group
Start Group
Amazon"
2674284,AMZ24000583042,24000581999,2020-12-02,21.5000,4.30,25.8000,ES,,"Start Group
Start Group
Amazon"
2674285,AMZ24000583043,24000582000,2020-12-02,12.9000,2.58,15.4800,ES,,"Start Group
Start Group
Amazon"
2674302,AMZ24000583046,24000582003,2020-12-02,16.1200,3.23,19.3500,ES,,"Start Group
Start Group
Amazon"
2674319,AMZ24000583050,24000582007,2020-12-02,10.7500,2.15,12.9000,ES,,"Start Group
Start Group
Amazon"
2674405,AMZ24000583079,24000582036,2020-12-02,29.9900,6.00,35.9900,ES,,"Start Group
Start Group
Amazon"
2674413,AMZ24000583082,24000582039,2020-12-02,45.1500,0.00,45.1500,ES,,"Start Group
Start Group
Amazon"
2674451,AMZ24000583096,24000582053,2020-12-02,63.4200,12.69,76.1100,ES,,"Start Group
Start Group
Amazon"
2674514,AMZ24000583115,24000582072,2020-12-02,9.5700,1.91,11.4800,ES,,"Start Group
Start Group
Amazon"
2674628,AMZ24000583157,24000582114,2020-12-02,4.3000,0.86,5.1600,ES,,"Start Group
Start Group
Amazon"
2674752,AMZ24000583200,24000582157,2020-12-02,10.7500,2.15,12.9000,ES,,"Start Group
Start Group
Amazon"
2674842,AMZ24000583231,24000582188,2020-12-02,10.7500,2.15,12.9000,ES,,"Start Group
Start Group
Amazon"
2674854,AMZ24000583237,24000582194,2020-12-02,24.9300,4.99,29.9200,ES,,"Start Group
Start Group
Amazon"
2674898,AMZ24000583250,24000582207,2020-12-02,4.3000,0.86,5.1600,ES,,"Start Group
Start Group
Amazon"
2675034,AMZ24000583290,24000582247,2020-12-02,25.8000,0.00,25.8000,ES,,"Start Group
Start Group
Amazon"
2675082,AMZ24000583312,24000582269,2020-12-02,106.6300,22.39,129.0200,ES,,"Start Group
Start Group
Amazon"
2675102,AMZ24000583317,24000582274,2020-12-02,84.9200,17.83,102.7500,ES,,"Start Group
Start Group
Amazon"
2675169,AMZ24000583341,24000582298,2020-12-02,55.3400,0.00,55.3400,ES,,"Start Group
Start Group
Amazon"
2675248,AMZ24000583364,24000582321,2020-12-02,33.3700,0.00,33.3700,ES,,"Start Group
Start Group
Amazon"
2675349,6000886230,6000656832,2020-12-02,111.9200,20.42,132.3400,ES,,"Start Fitness
Fitness
SF English"
2675360,AMZ24000583393,24000582350,2020-12-02,16.0200,3.36,19.3800,ES,,"Start Group
Start Group
Amazon"
2675432,AMZ24000583409,24000582366,2020-12-02,84.9200,16.99,101.9100,ES,,"Start Group
Start Group
Amazon"
2675450,AMZ24000583416,24000582373,2020-12-02,29.0200,5.80,34.8200,ES,,"Start Group
Start Group
Amazon"
2675523,AMZ24000583434,24000582391,2020-12-02,30.1000,6.02,36.1200,ES,,"Start Group
Start Group
Amazon"
2675707,AMZ24000583493,24000582450,2020-12-02,21.5000,4.30,25.8000,ES,,"Start Group
Start Group
Amazon"
2675738,AMZ24000583503,24000582460,2020-12-02,160.1700,32.03,192.2000,ES,,"Start Group
Start Group
Amazon"
2675851,AMZ24000583541,24000582498,2020-12-02,21.5000,4.30,25.8000,ES,,"Start Group
Start Group
Amazon"
2675949,AMZ24000583572,24000582529,2020-12-03,64.3900,12.88,77.2700,ES,,"Start Group
Start Group
Amazon"
2675987,AMZ24000583587,24000582544,2020-12-03,95.6700,20.09,115.7600,ES,,"Start Group
Start Group
Amazon"
2676130,6000886596,6000657170,2020-12-03,111.9200,20.42,132.3400,ES,,"Start Fitness
Fitness
SF English"
2676142,AMZ24000583632,24000582589,2020-12-03,73.9600,15.53,89.4900,ES,,"Start Group
Start Group
Amazon"
2676218,6000886635,6000657207,2020-12-03,73.8400,15.51,89.3500,ES,,"Start Fitness
Fitness
SF English"
2676289,AMZ24000583674,24000582631,2020-12-03,95.6700,20.09,115.7600,ES,,"Start Group
Start Group
Amazon"
2676380,AMZ24000583701,24000582658,2020-12-03,3.2200,0.65,3.8700,ES,,"Start Group
Start Group
Amazon"
2676472,AMZ24000583729,24000582686,2020-12-03,19.3500,3.87,23.2200,ES,,"Start Group
Start Group
Amazon"
2676504,AMZ24000583738,24000582695,2020-12-03,41.9200,8.39,50.3100,ES,,"Start Group
Start Group
Amazon"
2676536,AMZ24000583748,24000582705,2020-12-03,88.0000,17.60,105.6000,ES,,"Start Group
Start Group
Amazon"
2676579,AMZ24000583765,24000582722,2020-12-03,18.5400,3.71,22.2500,ES,,"Start Group
Start Group
Amazon"
2676597,AMZ24000583773,24000582730,2020-12-03,10.7500,2.15,12.9000,ES,,"Start Group
Start Group
Amazon"
2676614,AMZ24000583781,24000582738,2020-12-03,16.1200,3.23,19.3500,ES,,"Start Group
Start Group
Amazon"
2676656,24000568864,24000567491,2020-12-03,49.9700,10.00,59.9700,ES,,"Start Group
Start Group
Amazon USA"
2676930,24000569068,24000567593,2020-12-03,64.3900,12.88,77.2700,ES,,"Start Group
Start Group
Amazon USA"
2676991,24000569104,24000567611,2020-12-03,21.5000,4.30,25.8000,ES,,"Start Group
Start Group
Amazon USA"
2676992,24000569106,24000567612,2020-12-03,75.1400,15.03,90.1700,ES,,"Start Group
Start Group
Amazon USA"
2677015,24000569120,24000567619,2020-12-03,23.6500,4.73,28.3800,ES,,"Start Group
Start Group
Amazon USA"
2677179,6000887123,6000657685,2020-12-03,63.2400,12.44,75.6800,ES,,"Start Fitness
Fitness
SF English"
2677189,24000569208,24000567663,2020-12-03,106.4200,21.29,127.7100,ES,,"Start Group
Start Group
Amazon USA"
2677235,24000569238,24000567678,2020-12-03,23.5400,4.71,28.2500,ES,,"Start Group
Start Group
Amazon USA"
2677290,24000569268,24000567693,2020-12-03,6.4400,1.30,7.7400,ES,,"Start Group
Start Group
Amazon USA"
2677332,24000569292,24000567705,2020-12-03,63.4200,12.69,76.1100,ES,,"Start Group
Start Group
Amazon USA"
2677344,24000569302,24000567710,2020-12-03,18.1700,3.63,21.8000,ES,,"Start Group
Start Group
Amazon USA"
2677419,24000569344,24000567731,2020-12-03,29.0200,5.81,34.8300,ES,,"Start Group
Start Group
Amazon USA"
2677773,24000569560,24000567839,2020-12-03,32.1400,6.43,38.5700,ES,,"Start Group
Start Group
Amazon USA"
2677779,24000569564,24000567841,2020-12-03,23.6500,4.73,28.3800,ES,,"Start Group
Start Group
Amazon USA"
2677901,24000569644,24000567881,2020-12-03,9.5700,1.91,11.4800,ES,,"Start Group
Start Group
Amazon USA"
2677935,24000569664,24000567891,2020-12-03,50.3100,0.00,50.3100,ES,,"Start Group
Start Group
Amazon USA"
2677965,24000569688,24000567903,2020-12-03,95.6700,19.14,114.8100,ES,,"Start Group
Start Group
Amazon USA"
2678075,24000569758,24000567938,2020-12-04,4.3000,0.86,5.1600,ES,,"Start Group
Start Group
Amazon USA"
2678107,24000569796,24000567957,2020-12-04,8.5900,1.72,10.3100,ES,,"Start Group
Start Group
Amazon USA"
2678147,24000569834,24000567976,2020-12-04,81.5900,16.32,97.9100,ES,,"Start Group
Start Group
Amazon USA"
2678149,24000569836,24000567977,2020-12-04,15.0500,3.01,18.0600,ES,,"Start Group
Start Group
Amazon USA"
2678181,24000569854,24000567986,2020-12-04,10.7500,2.15,12.9000,ES,,"Start Group
Start Group
Amazon USA"
2678213,24000569876,24000567997,2020-12-04,16.1200,3.22,19.3400,ES,,"Start Group
Start Group
Amazon USA"
2678284,6000887686,6000658218,2020-12-04,99.9200,20.98,120.9000,ES,,"Start Fitness
Fitness
SF English"
2678393,24000569962,24000568040,2020-12-04,43.0000,8.60,51.6000,ES,,"Start Group
Start Group
Amazon USA"
2678410,24000569970,24000568044,2020-12-04,32.2400,6.45,38.6900,ES,,"Start Group
Start Group
Amazon USA"
2678423,24000569978,24000568048,2020-12-04,13.8700,2.77,16.6400,ES,,"Start Group
Start Group
Amazon USA"
2678503,24000570016,24000568067,2020-12-04,16.1200,3.23,19.3500,ES,,"Start Group
Start Group
Amazon USA"
2678566,6000887854,6000658382,2020-12-04,27.3600,5.00,32.3600,ES,,"Start Fitness
Fitness
SF English"
2678737,24000570146,24000568132,2020-12-04,16.0700,3.21,19.2800,ES,,"Start Group
Start Group
Amazon USA"
2678860,24000570216,24000568167,2020-12-04,21.3900,4.28,25.6700,ES,,"Start Group
Start Group
Amazon USA"
2679001,24000570288,24000568203,2020-12-04,43.0000,9.03,52.0300,ES,,"Start Group
Start Group
Amazon USA"
2679002,24000570290,24000568204,2020-12-04,13.8700,2.77,16.6400,ES,,"Start Group
Start Group
Amazon USA"
2679013,24000570294,24000568206,2020-12-04,12.6800,2.54,15.2200,ES,,"Start Group
Start Group
Amazon USA"
2679040,24000570320,24000568219,2020-12-04,10.7500,2.15,12.9000,ES,,"Start Group
Start Group
Amazon USA"
2679059,24000570334,24000568226,2020-12-04,80.5200,16.10,96.6200,ES,,"Start Group
Start Group
Amazon USA"
2679089,24000570358,24000568238,2020-12-04,12.9000,2.58,15.4800,ES,,"Start Group
Start Group
Amazon USA"
2679090,24000570360,24000568239,2020-12-04,7.5200,1.51,9.0300,ES,,"Start Group
Start Group
Amazon USA"
2679104,24000570370,24000568244,2020-12-04,10.7500,2.15,12.9000,ES,,"Start Group
Start Group
Amazon USA"
2679135,24000570396,24000568257,2020-12-04,26.8700,5.38,32.2500,ES,,"Start Group
Start Group
Amazon USA"
2679255,24000570462,24000568290,2020-12-04,118.2500,23.65,141.9000,ES,,"Start Group
Start Group
Amazon USA"
2679256,24000570464,24000568291,2020-12-04,13.8700,2.77,16.6400,ES,,"Start Group
Start Group
Amazon USA"
2679342,24000570526,24000568322,2020-12-04,84.9200,16.99,101.9100,ES,,"Start Group
Start Group
Amazon USA"
2679400,6000888322,6000658817,2020-12-04,79.4600,16.69,96.1500,ES,,"Start Fitness
Fitness
SF English"
2679431,24000570574,24000568346,2020-12-04,13.8700,2.77,16.6400,ES,,"Start Group
Start Group
Amazon USA"
2679432,24000570576,24000568347,2020-12-04,32.1400,6.43,38.5700,ES,,"Start Group
Start Group
Amazon USA"
2679476,24000570620,24000568369,2020-12-04,21.5000,4.30,25.8000,ES,,"Start Group
Start Group
Amazon USA"
2679477,24000570622,24000568370,2020-12-04,25.8000,5.16,30.9600,ES,,"Start Group
Start Group
Amazon USA"
2679507,24000570640,24000568379,2020-12-04,7.4200,1.48,8.9000,ES,,"Start Group
Start Group
Amazon USA"
2679516,24000570646,24000568382,2020-12-04,7.4200,1.48,8.9000,ES,,"Start Group
Start Group
Amazon USA"
2679517,24000570648,24000568383,2020-12-04,77.1400,0.00,77.1400,ES,,"Start Group
Start Group
Amazon USA"
2679550,24000570658,24000568388,2020-12-04,11.7200,2.34,14.0600,ES,,"Start Group
Start Group
Amazon USA"
2679561,24000570666,24000568392,2020-12-04,10.7500,2.15,12.9000,ES,,"Start Group
Start Group
Amazon USA"
2679568,EBY24000579321,24000578681,2020-12-04,12.5000,2.50,15.0000,ES,,"Start Group
Start Group
eBay"
2679572,24000570672,24000568395,2020-12-04,63.4200,12.69,76.1100,ES,,"Start Group
Start Group
Amazon USA"
2679615,24000570702,24000568410,2020-12-04,13.8700,2.77,16.6400,ES,,"Start Group
Start Group
Amazon USA"
2679616,24000570704,24000568411,2020-12-04,73.9600,14.79,88.7500,ES,,"Start Group
Start Group
Amazon USA"
2679633,24000570718,24000568418,2020-12-04,16.0200,3.20,19.2200,ES,,"Start Group
Start Group
Amazon USA"
2679634,24000570720,24000568419,2020-12-04,4.2500,0.85,5.1000,ES,,"Start Group
Start Group
Amazon USA"
2679650,24000570726,24000568422,2020-12-04,23.2200,0.00,23.2200,ES,,"Start Group
Start Group
Amazon USA"
2679672,24000570738,24000568428,2020-12-04,9.6600,1.95,11.6100,ES,,"Start Group
Start Group
Amazon USA"
2679673,24000570740,24000568429,2020-12-04,5.3700,1.08,6.4500,ES,,"Start Group
Start Group
Amazon USA"
2679680,24000570750,24000568434,2020-12-04,43.0000,8.60,51.6000,ES,,"Start Group
Start Group
Amazon USA"
2679694,24000570754,24000568436,2020-12-04,34.1800,6.84,41.0200,ES,,"Start Group
Start Group
Amazon USA"
2679704,24000570762,24000568440,2020-12-04,59.1200,11.83,70.9500,ES,,"Start Group
Start Group
Amazon USA"
2679791,24000570808,24000568463,2020-12-04,13.8700,2.77,16.6400,ES,,"Start Group
Start Group
Amazon USA"
2679792,24000570810,24000568464,2020-12-04,9.0300,0.00,9.0300,ES,,"Start Group
Start Group
Amazon USA"
2679822,24000570832,24000568475,2020-12-04,10.7500,2.15,12.9000,ES,,"Start Group
Start Group
Amazon USA"
2679851,24000570848,24000568483,2020-12-04,4.3000,0.86,5.1600,ES,,"Start Group
Start Group
Amazon USA"
2679879,24000570872,24000568495,2020-12-04,7.4200,1.48,8.9000,ES,,"Start Group
Start Group
Amazon USA"
2679950,24000570908,24000568513,2020-12-04,13.8700,2.77,16.6400,ES,,"Start Group
Start Group
Amazon USA"
2680024,24000570940,24000568529,2020-12-04,4.3000,0.86,5.1600,ES,,"Start Group
Start Group
Amazon USA"
2680092,24000570994,24000568556,2020-12-04,4.0300,0.81,4.8400,ES,,"Start Group
Start Group
Amazon USA"
2680097,24000571002,24000568560,2020-12-04,21.3900,4.28,25.6700,ES,,"Start Group
Start Group
Amazon USA"
2680122,24000571018,24000568568,2020-12-04,3.2200,0.65,3.8700,ES,,"Start Group
Start Group
Amazon USA"
2680134,24000571026,24000568572,2020-12-04,51.4700,0.00,51.4700,ES,,"Start Group
Start Group
Amazon USA"
2680137,24000571030,24000568574,2020-12-04,10.7500,2.15,12.9000,ES,,"Start Group
Start Group
Amazon USA"
2680138,24000571032,24000568575,2020-12-04,10.7500,2.15,12.9000,ES,,"Start Group
Start Group
Amazon USA"
2680140,24000571036,24000568577,2020-12-04,2.1500,0.43,2.5800,ES,,"Start Group
Start Group
Amazon USA"
2680151,24000571042,24000568580,2020-12-04,10.7500,2.15,12.9000,ES,,"Start Group
Start Group
Amazon USA"
2680171,24000571058,24000568588,2020-12-05,10.7500,2.15,12.9000,ES,,"Start Group
Start Group
Amazon USA"
2680172,24000571060,24000568589,2020-12-05,53.6400,10.73,64.3700,ES,,"Start Group
Start Group
Amazon USA"
2680173,24000571062,24000568590,2020-12-05,32.1400,6.43,38.5700,ES,,"Start Group
Start Group
Amazon USA"
2680188,24000571078,24000568598,2020-12-05,12.6800,2.54,15.2200,ES,,"Start Group
Start Group
Amazon USA"
2680338,24000571182,24000568650,2020-12-05,7.4200,1.48,8.9000,ES,,"Start Group
Start Group
Amazon USA"
2680362,24000571196,24000568657,2020-12-05,64.5000,12.90,77.4000,ES,,"Start Group
Start Group
Amazon USA"
2680375,24000571202,24000568660,2020-12-05,12.9700,2.60,15.5700,ES,,"Start Group
Start Group
Amazon USA"
2680394,24000571214,24000568666,2020-12-05,9.0300,0.00,9.0300,ES,,"Start Group
Start Group
Amazon USA"
2680447,24000571242,24000568680,2020-12-05,55.6700,11.14,66.8100,ES,,"Start Group
Start Group
Amazon USA"
2680547,24000571290,24000568704,2020-12-05,10.7500,2.15,12.9000,ES,,"Start Group
Start Group
Amazon USA"
2680576,24000571304,24000568711,2020-12-05,12.8400,2.57,15.4100,ES,,"Start Group
Start Group
Amazon USA"
2680602,24000571324,24000568721,2020-12-05,13.8700,2.77,16.6400,ES,,"Start Group
Start Group
Amazon USA"
2680803,6000889165,6000659617,2020-12-05,141.5900,29.73,171.3200,ES,,"Start Fitness
Fitness
SF English"
2680968,24000571542,24000568830,2020-12-05,10.7500,2.15,12.9000,ES,,"Start Group
Start Group
Amazon USA"
2680969,24000571544,24000568831,2020-12-05,6.9800,1.40,8.3800,ES,,"Start Group
Start Group
Amazon USA"
2680970,24000571546,24000568832,2020-12-05,5.3700,1.08,6.4500,ES,,"Start Group
Start Group
Amazon USA"
2680971,24000571548,24000568833,2020-12-05,16.1200,3.23,19.3500,ES,,"Start Group
Start Group
Amazon USA"
2680972,24000571550,24000568834,2020-12-05,26.7700,5.35,32.1200,ES,,"Start Group
Start Group
Amazon USA"
2680973,24000571552,24000568835,2020-12-05,43.0000,8.60,51.6000,ES,,"Start Group
Start Group
Amazon USA"
2680974,24000571554,24000568836,2020-12-05,22.5600,4.53,27.0900,ES,,"Start Group
Start Group
Amazon USA"
2680975,24000571556,24000568837,2020-12-05,15.8100,3.15,18.9600,ES,,"Start Group
Start Group
Amazon USA"
2680976,24000571558,24000568838,2020-12-05,23.5400,4.71,28.2500,ES,,"Start Group
Start Group
Amazon USA"
2680977,24000571560,24000568839,2020-12-05,8.0600,1.62,9.6800,ES,,"Start Group
Start Group
Amazon USA"
2680978,24000571562,24000568840,2020-12-05,5.3700,1.08,6.4500,ES,,"Start Group
Start Group
Amazon USA"
2680979,24000571564,24000568841,2020-12-05,12.9000,2.58,15.4800,ES,,"Start Group
Start Group
Amazon USA"
2681128,24000571638,24000568878,2020-12-05,4.3000,0.86,5.1600,ES,,"Start Group
Start Group
Amazon USA"
2681129,24000571640,24000568879,2020-12-05,32.1400,6.43,38.5700,ES,,"Start Group
Start Group
Amazon USA"
2681130,24000571642,24000568880,2020-12-05,21.0800,4.20,25.2800,ES,,"Start Group
Start Group
Amazon USA"
2681132,24000571644,24000568881,2020-12-05,16.0200,3.20,19.2200,ES,,"Start Group
Start Group
Amazon USA"
2681133,24000571646,24000568882,2020-12-05,10.7500,2.15,12.9000,ES,,"Start Group
Start Group
Amazon USA"
2681134,24000571648,24000568883,2020-12-05,10.7500,2.15,12.9000,ES,,"Start Group
Start Group
Amazon USA"
2681217,24000571690,24000568904,2020-12-05,13.8700,2.77,16.6400,ES,,"Start Group
Start Group
Amazon USA"
2681218,24000571692,24000568905,2020-12-05,91.2700,18.25,109.5200,ES,,"Start Group
Start Group
Amazon USA"
2681236,24000571708,24000568913,2020-12-05,80.5200,16.10,96.6200,ES,,"Start Group
Start Group
Amazon USA"
2681268,24000571736,24000568927,2020-12-05,43.0000,8.60,51.6000,ES,,"Start Group
Start Group
Amazon USA"
2681280,24000571748,24000568933,2020-12-05,13.9700,2.80,16.7700,ES,,"Start Group
Start Group
Amazon USA"
2681281,24000571750,24000568934,2020-12-05,6.3400,1.33,7.6700,ES,,"Start Group
Start Group
Amazon USA"
2681345,24000571794,24000568956,2020-12-05,10.7500,2.15,12.9000,ES,,"Start Group
Start Group
Amazon USA"
2681346,24000571796,24000568957,2020-12-05,4.3000,0.86,5.1600,ES,,"Start Group
Start Group
Amazon USA"
2681347,24000571798,24000568958,2020-12-05,24.1800,4.84,29.0200,ES,,"Start Group
Start Group
Amazon USA"
2681399,24000571818,24000568968,2020-12-05,13.9700,2.79,16.7600,ES,,"Start Group
Start Group
Amazon USA"
2681464,24000571858,24000568988,2020-12-05,23.6500,4.73,28.3800,ES,,"Start Group
Start Group
Amazon USA"
2681465,24000571860,24000568989,2020-12-05,8.6000,1.72,10.3200,ES,,"Start Group
Start Group
Amazon USA"
2681499,24000571884,24000569001,2020-12-05,12.9000,2.58,15.4800,ES,,"Start Group
Start Group
Amazon USA"
2681553,24000571924,24000569021,2020-12-05,127.9200,25.59,153.5100,ES,,"Start Group
Start Group
Amazon USA"
2681578,24000571944,24000569031,2020-12-05,43.0000,8.60,51.6000,ES,,"Start Group
Start Group
Amazon USA"
2681579,24000571946,24000569032,2020-12-05,10.7500,2.15,12.9000,ES,,"Start Group
Start Group
Amazon USA"
2681635,24000571988,24000569053,2020-12-05,80.6100,16.12,96.7300,ES,,"Start Group
Start Group
Amazon USA"
2681760,24000572064,24000569091,2020-12-05,10.7400,2.15,12.8900,ES,,"Start Group
Start Group
Amazon USA"
2681796,24000572086,24000569102,2020-12-05,43.0000,8.60,51.6000,ES,,"Start Group
Start Group
Amazon USA"
2681812,24000572098,24000569108,2020-12-05,8.6000,1.72,10.3200,ES,,"Start Group
Start Group
Amazon USA"
2681825,24000572112,24000569115,2020-12-05,23.5400,4.71,28.2500,ES,,"Start Group
Start Group
Amazon USA"
2681841,24000572126,24000569122,2020-12-05,10.7500,2.15,12.9000,ES,,"Start Group
Start Group
Amazon USA"
2681842,24000572128,24000569123,2020-12-05,10.7500,2.15,12.9000,ES,,"Start Group
Start Group
Amazon USA"
2681866,24000572144,24000569131,2020-12-05,30.1000,6.02,36.1200,ES,,"Start Group
Start Group
Amazon USA"
2681867,24000572146,24000569132,2020-12-05,4.3000,0.86,5.1600,ES,,"Start Group
Start Group
Amazon USA"
2681868,24000572148,24000569133,2020-12-05,13.8700,2.91,16.7800,ES,,"Start Group
Start Group
Amazon USA"
2681889,24000572162,24000569140,2020-12-05,10.7500,2.15,12.9000,ES,,"Start Group
Start Group
Amazon USA"
2681915,24000572180,24000569149,2020-12-05,10.7500,2.15,12.9000,ES,,"Start Group
Start Group
Amazon USA"
2681916,24000572182,24000569150,2020-12-05,8.6000,1.72,10.3200,ES,,"Start Group
Start Group
Amazon USA"
2681935,24000572202,24000569160,2020-12-05,10.7500,2.15,12.9000,ES,,"Start Group
Start Group
Amazon USA"
2681936,24000572204,24000569161,2020-12-05,10.7500,2.15,12.9000,ES,,"Start Group
Start Group
Amazon USA"
2681946,24000572210,24000569164,2020-12-05,10.7500,2.15,12.9000,ES,,"Start Group
Start Group
Amazon USA"
2681947,24000572212,24000569165,2020-12-05,10.7500,2.15,12.9000,ES,,"Start Group
Start Group
Amazon USA"
2681956,24000572220,24000569169,2020-12-05,10.7500,2.15,12.9000,ES,,"Start Group
Start Group
Amazon USA"
2681957,24000572222,24000569170,2020-12-05,12.6800,2.54,15.2200,ES,,"Start Group
Start Group
Amazon USA"
2681989,24000572232,24000569175,2020-12-05,10.7500,2.15,12.9000,ES,,"Start Group
Start Group
Amazon USA"
2681990,24000572234,24000569176,2020-12-05,34.4000,6.88,41.2800,ES,,"Start Group
Start Group
Amazon USA"
2681994,6000889716,6000660147,2020-12-05,148.6300,31.21,179.8400,ES,,"Start Fitness
Fitness
SF English"
2681999,24000572238,24000569178,2020-12-05,10.7500,2.15,12.9000,ES,,"Start Group
Start Group
Amazon USA"
2682000,24000572240,24000569179,2020-12-05,6.4400,1.29,7.7300,ES,,"Start Group
Start Group
Amazon USA"
2682033,24000572256,24000569187,2020-12-05,12.9000,2.58,15.4800,ES,,"Start Group
Start Group
Amazon USA"
2682034,24000572258,24000569188,2020-12-05,10.7500,2.15,12.9000,ES,,"Start Group
Start Group
Amazon USA"
2682035,24000572260,24000569189,2020-12-05,10.7500,2.15,12.9000,ES,,"Start Group
Start Group
Amazon USA"
2682049,24000572276,24000569197,2020-12-05,10.7500,2.15,12.9000,ES,,"Start Group
Start Group
Amazon USA"
2682051,24000572278,24000569198,2020-12-05,10.7500,2.15,12.9000,ES,,"Start Group
Start Group
Amazon USA"
2682068,24000572288,24000569203,2020-12-05,4.2500,0.85,5.1000,ES,,"Start Group
Start Group
Amazon USA"
2682086,24000572294,24000569206,2020-12-05,21.5000,4.30,25.8000,ES,,"Start Group
Start Group
Amazon USA"
2682087,24000572296,24000569207,2020-12-05,10.7500,2.15,12.9000,ES,,"Start Group
Start Group
Amazon USA"
2682088,24000572298,24000569208,2020-12-05,10.7500,2.15,12.9000,ES,,"Start Group
Start Group
Amazon USA"
2682089,24000572300,24000569209,2020-12-05,53.7500,10.75,64.5000,ES,,"Start Group
Start Group
Amazon USA"
2682098,24000572310,24000569214,2020-12-05,10.7500,2.15,12.9000,ES,,"Start Group
Start Group
Amazon USA"
2682099,24000572312,24000569215,2020-12-05,10.7500,2.15,12.9000,ES,,"Start Group
Start Group
Amazon USA"
2682106,24000572318,24000569218,2020-12-05,21.4900,4.30,25.7900,ES,,"Start Group
Start Group
Amazon USA"
2682128,24000572334,24000569226,2020-12-05,10.7500,2.15,12.9000,ES,,"Start Group
Start Group
Amazon USA"
2682129,24000572336,24000569227,2020-12-05,10.7500,2.15,12.9000,ES,,"Start Group
Start Group
Amazon USA"
2682159,24000572352,24000569235,2020-12-05,10.7500,2.15,12.9000,ES,,"Start Group
Start Group
Amazon USA"
2682165,24000572360,24000569239,2020-12-05,10.7500,2.15,12.9000,ES,,"Start Group
Start Group
Amazon USA"
2682166,24000572362,24000569240,2020-12-05,32.1400,6.43,38.5700,ES,,"Start Group
Start Group
Amazon USA"
2682184,24000572370,24000569244,2020-12-05,10.7500,2.15,12.9000,ES,,"Start Group
Start Group
Amazon USA"
2682214,24000572390,24000569254,2020-12-05,10.7500,2.15,12.9000,ES,,"Start Group
Start Group
Amazon USA"
2682215,24000572392,24000569255,2020-12-05,10.7500,2.15,12.9000,ES,,"Start Group
Start Group
Amazon USA"
2682216,24000572394,24000569256,2020-12-05,10.7500,2.15,12.9000,ES,,"Start Group
Start Group
Amazon USA"
2682217,24000572396,24000569257,2020-12-05,7.5200,1.51,9.0300,ES,,"Start Group
Start Group
Amazon USA"
2682226,24000572400,24000569259,2020-12-05,10.7500,2.15,12.9000,ES,,"Start Group
Start Group
Amazon USA"
2682228,24000572402,24000569260,2020-12-05,10.7500,2.15,12.9000,ES,,"Start Group
Start Group
Amazon USA"
2682253,24000572420,24000569269,2020-12-05,10.7500,2.15,12.9000,ES,,"Start Group
Start Group
Amazon USA"
2682265,24000572426,24000569272,2020-12-05,26.8700,5.38,32.2500,ES,,"Start Group
Start Group
Amazon USA"
2682271,24000572432,24000569275,2020-12-05,10.7500,2.15,12.9000,ES,,"Start Group
Start Group
Amazon USA"
2682290,24000572444,24000569281,2020-12-05,10.7500,2.15,12.9000,ES,,"Start Group
Start Group
Amazon USA"
2682312,24000572460,24000569289,2020-12-05,10.7500,2.15,12.9000,ES,,"Start Group
Start Group
Amazon USA"
2682336,24000572484,24000569301,2020-12-05,7.4200,1.48,8.9000,ES,,"Start Group
Start Group
Amazon USA"
2682348,24000572498,24000569308,2020-12-05,59.1200,11.83,70.9500,ES,,"Start Group
Start Group
Amazon USA"
2682349,24000572500,24000569309,2020-12-05,14.9400,2.99,17.9300,ES,,"Start Group
Start Group
Amazon USA"
2682359,24000572506,24000569312,2020-12-05,13.9700,2.79,16.7600,ES,,"Start Group
Start Group
Amazon USA"
2682378,24000572524,24000569321,2020-12-05,21.4900,4.30,25.7900,ES,,"Start Group
Start Group
Amazon USA"
2682379,24000572526,24000569322,2020-12-05,8.6000,1.72,10.3200,ES,,"Start Group
Start Group
Amazon USA"
2682380,24000572528,24000569323,2020-12-05,4.3000,0.86,5.1600,ES,,"Start Group
Start Group
Amazon USA"
2682381,24000572530,24000569324,2020-12-05,10.7500,2.15,12.9000,ES,,"Start Group
Start Group
Amazon USA"
2682382,24000572532,24000569325,2020-12-05,10.7500,2.15,12.9000,ES,,"Start Group
Start Group
Amazon USA"
2682407,24000572550,24000569334,2020-12-05,10.7500,2.15,12.9000,ES,,"Start Group
Start Group
Amazon USA"
2682427,24000572560,24000569339,2020-12-05,10.7500,2.15,12.9000,ES,,"Start Group
Start Group
Amazon USA"
2682428,24000572562,24000569340,2020-12-05,10.7500,2.15,12.9000,ES,,"Start Group
Start Group
Amazon USA"
2682440,24000572572,24000569345,2020-12-05,10.7500,2.15,12.9000,ES,,"Start Group
Start Group
Amazon USA"
2682449,24000572576,24000569347,2020-12-05,10.7500,2.15,12.9000,ES,,"Start Group
Start Group
Amazon USA"
2682450,24000572578,24000569348,2020-12-05,10.7500,2.15,12.9000,ES,,"Start Group
Start Group
Amazon USA"
2682460,24000572590,24000569354,2020-12-05,10.7500,2.15,12.9000,ES,,"Start Group
Start Group
Amazon USA"
2682474,24000572594,24000569356,2020-12-05,16.0700,3.21,19.2800,ES,,"Start Group
Start Group
Amazon USA"
2682499,24000572620,24000569369,2020-12-05,95.6700,20.09,115.7600,ES,,"Start Group
Start Group
Amazon USA"
2682500,24000572622,24000569370,2020-12-05,23.6500,4.73,28.3800,ES,,"Start Group
Start Group
Amazon USA"
2682525,24000572648,24000569383,2020-12-05,10.7500,2.15,12.9000,ES,,"Start Group
Start Group
Amazon USA"
2682532,24000572656,24000569387,2020-12-05,12.9000,2.58,15.4800,ES,,"Start Group
Start Group
Amazon USA"
2682541,24000572660,24000569389,2020-12-05,10.7500,2.15,12.9000,ES,,"Start Group
Start Group
Amazon USA"
2682542,24000572662,24000569390,2020-12-05,10.7500,2.15,12.9000,ES,,"Start Group
Start Group
Amazon USA"
2682566,24000572678,24000569398,2020-12-05,10.7500,2.15,12.9000,ES,,"Start Group
Start Group
Amazon USA"
2682567,24000572680,24000569399,2020-12-05,10.7500,2.15,12.9000,ES,,"Start Group
Start Group
Amazon USA"
2682585,24000572694,24000569406,2020-12-06,10.7500,2.15,12.9000,ES,,"Start Group
Start Group
Amazon USA"
2682600,24000572712,24000569415,2020-12-06,10.7500,2.15,12.9000,ES,,"Start Group
Start Group
Amazon USA"
2682622,24000572736,24000569427,2020-12-06,10.7500,2.15,12.9000,ES,,"Start Group
Start Group
Amazon USA"
2682648,24000572756,24000569437,2020-12-06,13.8700,2.77,16.6400,ES,,"Start Group
Start Group
Amazon USA"
2682666,24000572770,24000569444,2020-12-06,23.5400,4.71,28.2500,ES,,"Start Group
Start Group
Amazon USA"
2682673,24000572780,24000569449,2020-12-06,9.5700,1.91,11.4800,ES,,"Start Group
Start Group
Amazon USA"
2682772,24000572848,24000569483,2020-12-06,12.3500,2.47,14.8200,ES,,"Start Group
Start Group
Amazon USA"
2682795,24000572862,24000569490,2020-12-06,10.7500,2.15,12.9000,ES,,"Start Group
Start Group
Amazon USA"
2682815,24000572872,24000569495,2020-12-06,27.8400,5.57,33.4100,ES,,"Start Group
Start Group
Amazon USA"
2682858,24000572886,24000569502,2020-12-06,10.7500,2.15,12.9000,ES,,"Start Group
Start Group
Amazon USA"
2682863,24000572888,24000569503,2020-12-06,4.3000,0.86,5.1600,ES,,"Start Group
Start Group
Amazon USA"
2682864,24000572890,24000569504,2020-12-06,13.8700,2.77,16.6400,ES,,"Start Group
Start Group
Amazon USA"
2682883,24000572896,24000569507,2020-12-06,12.6800,2.54,15.2200,ES,,"Start Group
Start Group
Amazon USA"
2682889,24000572904,24000569511,2020-12-06,10.7500,2.15,12.9000,ES,,"Start Group
Start Group
Amazon USA"
2682910,24000572916,24000569517,2020-12-06,16.1200,3.23,19.3500,ES,,"Start Group
Start Group
Amazon USA"
2682921,24000572924,24000569521,2020-12-06,10.7500,2.15,12.9000,ES,,"Start Group
Start Group
Amazon USA"
2682943,24000572932,24000569525,2020-12-06,10.7500,2.15,12.9000,ES,,"Start Group
Start Group
Amazon USA"
2682956,24000572934,24000569526,2020-12-06,10.7500,2.15,12.9000,ES,,"Start Group
Start Group
Amazon USA"
2683093,24000573004,24000569561,2020-12-06,10.7500,2.15,12.9000,ES,,"Start Group
Start Group
Amazon USA"
2683156,24000573050,24000569584,2020-12-06,6.3400,1.27,7.6100,ES,,"Start Group
Start Group
Amazon USA"
2683157,24000573052,24000569585,2020-12-06,14.8400,2.96,17.8000,ES,,"Start Group
Start Group
Amazon USA"
2683184,24000573064,24000569591,2020-12-06,74.1700,14.84,89.0100,ES,,"Start Group
Start Group
Amazon USA"
2683198,6000890345,6000660743,2020-12-06,93.3900,19.61,113.0000,ES,,"Start Fitness
Fitness
SF English"
2683200,24000573072,24000569595,2020-12-06,37.5200,7.50,45.0200,ES,,"Start Group
Start Group
Amazon USA"
2683212,24000573074,24000569596,2020-12-06,26.8700,5.38,32.2500,ES,,"Start Group
Start Group
Amazon USA"
2683222,24000573084,24000569601,2020-12-06,45.1500,0.00,45.1500,ES,,"Start Group
Start Group
Amazon USA"
2683233,24000573092,24000569605,2020-12-06,14.9400,2.99,17.9300,ES,,"Start Group
Start Group
Amazon USA"
2683235,24000573094,24000569606,2020-12-06,38.5900,7.72,46.3100,ES,,"Start Group
Start Group
Amazon USA"
2683243,24000573100,24000569609,2020-12-06,10.7500,2.15,12.9000,ES,,"Start Group
Start Group
Amazon USA"
2683267,24000573116,24000569617,2020-12-06,75.1400,15.03,90.1700,ES,,"Start Group
Start Group
Amazon USA"
2683289,24000573134,24000569626,2020-12-06,91.2700,18.25,109.5200,ES,,"Start Group
Start Group
Amazon USA"
2683290,24000573136,24000569627,2020-12-06,21.5000,4.30,25.8000,ES,,"Start Group
Start Group
Amazon USA"
2683321,24000573152,24000569635,2020-12-06,43.0000,8.60,51.6000,ES,,"Start Group
Start Group
Amazon USA"
2683352,24000573168,24000569643,2020-12-06,10.7500,2.15,12.9000,ES,,"Start Group
Start Group
Amazon USA"
2683386,24000573182,24000569650,2020-12-06,10.7500,2.15,12.9000,ES,,"Start Group
Start Group
Amazon USA"
2683453,24000573222,24000569670,2020-12-06,2.1500,0.43,2.5800,ES,,"Start Group
Start Group
Amazon USA"
2683475,24000573240,24000569679,2020-12-06,16.0200,3.20,19.2200,ES,,"Start Group
Start Group
Amazon USA"
2683599,24000573310,24000569714,2020-12-06,10.7500,2.15,12.9000,ES,,"Start Group
Start Group
Amazon USA"
2683632,24000573336,24000569727,2020-12-06,75.1400,15.03,90.1700,ES,,"Start Group
Start Group
Amazon USA"
2683701,24000573378,24000569748,2020-12-06,10.7500,2.15,12.9000,ES,,"Start Group
Start Group
Amazon USA"
2683702,24000573380,24000569749,2020-12-06,10.7500,2.15,12.9000,ES,,"Start Group
Start Group
Amazon USA"
2683739,24000573402,24000569760,2020-12-06,9.5700,1.91,11.4800,ES,,"Start Group
Start Group
Amazon USA"
2683752,24000573412,24000569765,2020-12-06,170.9200,34.18,205.1000,ES,,"Start Group
Start Group
Amazon USA"
2683820,24000573470,24000569794,2020-12-06,118.2500,23.65,141.9000,ES,,"Start Group
Start Group
Amazon USA"
2683821,24000573472,24000569795,2020-12-06,13.8700,2.77,16.6400,ES,,"Start Group
Start Group
Amazon USA"
2683822,24000573474,24000569796,2020-12-06,4.2500,0.85,5.1000,ES,,"Start Group
Start Group
Amazon USA"
2683866,24000573502,24000569810,2020-12-06,9.0300,0.00,9.0300,ES,,"Start Group
Start Group
Amazon USA"
2683881,24000573514,24000569816,2020-12-06,10.7500,2.15,12.9000,ES,,"Start Group
Start Group
Amazon USA"
2683882,24000573516,24000569817,2020-12-06,48.2700,9.65,57.9200,ES,,"Start Group
Start Group
Amazon USA"
2683925,24000573546,24000569832,2020-12-06,123.6200,24.72,148.3400,ES,,"Start Group
Start Group
Amazon USA"
2683944,24000573564,24000569841,2020-12-06,10.7500,2.15,12.9000,ES,,"Start Group
Start Group
Amazon USA"
2683976,24000573580,24000569849,2020-12-06,64.5000,0.00,64.5000,ES,,"Start Group
Start Group
Amazon USA"
2683995,24000573590,24000569854,2020-12-06,13.8700,2.77,16.6400,ES,,"Start Group
Start Group
Amazon USA"
2684010,24000573604,24000569861,2020-12-06,8.6000,1.72,10.3200,ES,,"Start Group
Start Group
Amazon USA"
2684014,6000890793,6000661179,2020-12-06,74.7900,15.70,90.4900,ES,,"Start Fitness
Fitness
SF English"
2684028,24000573610,24000569864,2020-12-06,42.8900,8.58,51.4700,ES,,"Start Group
Start Group
Amazon USA"
2684029,24000573612,24000569865,2020-12-06,63.4200,12.69,76.1100,ES,,"Start Group
Start Group
Amazon USA"
2684059,24000573620,24000569869,2020-12-06,10.7500,2.15,12.9000,ES,,"Start Group
Start Group
Amazon USA"
2684078,24000573634,24000569876,2020-12-06,10.7500,2.15,12.9000,ES,,"Start Group
Start Group
Amazon USA"
2684079,24000573636,24000569877,2020-12-06,13.8700,2.77,16.6400,ES,,"Start Group
Start Group
Amazon USA"
2684108,24000573668,24000569893,2020-12-06,12.6800,2.54,15.2200,ES,,"Start Group
Start Group
Amazon USA"
2684109,24000573670,24000569894,2020-12-06,16.1200,3.23,19.3500,ES,,"Start Group
Start Group
Amazon USA"
2684147,24000573692,24000569905,2020-12-06,10.7500,2.15,12.9000,ES,,"Start Group
Start Group
Amazon USA"
2684162,24000573706,24000569912,2020-12-06,16.0700,3.21,19.2800,ES,,"Start Group
Start Group
Amazon USA"
2684163,24000573708,24000569913,2020-12-06,3.8600,0.00,3.8600,ES,,"Start Group
Start Group
Amazon USA"
2684164,24000573710,24000569914,2020-12-06,3.8600,0.00,3.8600,ES,,"Start Group
Start Group
Amazon USA"
2684242,24000573740,24000569929,2020-12-06,12.9000,2.58,15.4800,ES,,"Start Group
Start Group
Amazon USA"
2684268,24000573754,24000569936,2020-12-06,117.1700,24.61,141.7800,ES,,"Start Group
Start Group
Amazon USA"
2684308,24000573786,24000569952,2020-12-06,7.5200,1.50,9.0200,ES,,"Start Group
Start Group
Amazon USA"
2684309,24000573788,24000569953,2020-12-06,60.2400,12.05,72.2900,ES,,"Start Group
Start Group
Amazon USA"
2684316,6000890968,6000661343,2020-12-06,74.6900,15.68,90.3700,ES,,"Start Fitness
Fitness
SF English"
2684337,24000573810,24000569964,2020-12-06,4.3000,0.86,5.1600,ES,,"Start Group
Start Group
Amazon USA"
2684338,24000573812,24000569965,2020-12-06,9.1000,0.00,9.1000,ES,,"Start Group
Start Group
Amazon USA"
2684363,24000573834,24000569976,2020-12-06,26.8700,5.38,32.2500,ES,,"Start Group
Start Group
Amazon USA"
2684377,24000573848,24000569983,2020-12-06,10.7500,2.15,12.9000,ES,,"Start Group
Start Group
Amazon USA"
2684392,24000573862,24000569990,2020-12-06,80.5200,16.10,96.6200,ES,,"Start Group
Start Group
Amazon USA"
2684394,24000573864,24000569991,2020-12-06,43.0000,8.60,51.6000,ES,,"Start Group
Start Group
Amazon USA"
2684395,24000573866,24000569992,2020-12-06,13.8700,2.77,16.6400,ES,,"Start Group
Start Group
Amazon USA"
2684433,24000573882,24000570000,2020-12-06,26.8700,5.64,32.5100,ES,,"Start Group
Start Group
Amazon USA"
2684451,24000573894,24000570006,2020-12-06,8.5900,1.72,10.3100,ES,,"Start Group
Start Group
Amazon USA"
2684469,24000573902,24000570010,2020-12-06,9.5700,1.91,11.4800,ES,,"Start Group
Start Group
Amazon USA"
2684470,24000573904,24000570011,2020-12-06,10.7500,2.15,12.9000,ES,,"Start Group
Start Group
Amazon USA"
2684539,24000573928,24000570023,2020-12-06,12.9000,2.58,15.4800,ES,,"Start Group
Start Group
Amazon USA"
2684580,24000573968,24000570043,2020-12-06,63.4200,12.69,76.1100,ES,,"Start Group
Start Group
Amazon USA"
2684581,24000573970,24000570044,2020-12-06,10.7500,2.15,12.9000,ES,,"Start Group
Start Group
Amazon USA"
2684582,24000573972,24000570045,2020-12-06,84.9200,16.99,101.9100,ES,,"Start Group
Start Group
Amazon USA"
2684638,24000574024,24000570071,2020-12-06,8.6000,1.72,10.3200,ES,,"Start Group
Start Group
Amazon USA"
2684665,24000574036,24000570077,2020-12-06,16.0700,3.21,19.2800,ES,,"Start Group
Start Group
Amazon USA"
2684701,24000574054,24000570086,2020-12-06,43.0000,8.60,51.6000,ES,,"Start Group
Start Group
Amazon USA"
2684759,24000574078,24000570098,2020-12-06,7.4200,1.48,8.9000,ES,,"Start Group
Start Group
Amazon USA"
2684783,24000574112,24000570115,2020-12-06,3.2200,0.65,3.8700,ES,,"Start Group
Start Group
Amazon USA"
2684784,24000574114,24000570116,2020-12-06,3.2200,0.65,3.8700,ES,,"Start Group
Start Group
Amazon USA"
2684785,24000574116,24000570117,2020-12-06,3.2200,0.65,3.8700,ES,,"Start Group
Start Group
Amazon USA"
2684816,24000574134,24000570126,2020-12-06,26.8700,5.38,32.2500,ES,,"Start Group
Start Group
Amazon USA"
2684817,24000574136,24000570127,2020-12-06,7.4200,1.48,8.9000,ES,,"Start Group
Start Group
Amazon USA"
2684818,24000574138,24000570128,2020-12-06,4.3000,0.86,5.1600,ES,,"Start Group
Start Group
Amazon USA"
2684820,AMZ24000583791,24000582748,2020-12-06,10.7500,2.15,12.9000,ES,,"Start Group
Start Group
Amazon"
2684850,24000574156,24000570137,2020-12-06,75.1400,15.03,90.1700,ES,,"Start Group
Start Group
Amazon USA"
2684851,24000574158,24000570138,2020-12-06,10.7500,2.15,12.9000,ES,,"Start Group
Start Group
Amazon USA"
2684891,24000574178,24000570148,2020-12-06,13.8700,2.77,16.6400,ES,,"Start Group
Start Group
Amazon USA"
2684892,24000574180,24000570149,2020-12-06,10.7500,2.15,12.9000,ES,,"Start Group
Start Group
Amazon USA"
2684893,24000574182,24000570150,2020-12-06,10.7500,2.15,12.9000,ES,,"Start Group
Start Group
Amazon USA"
2684942,24000574210,24000570164,2020-12-06,73.9600,14.79,88.7500,ES,,"Start Group
Start Group
Amazon USA"
2684961,24000574220,24000570169,2020-12-06,5.2700,1.05,6.3200,ES,,"Start Group
Start Group
Amazon USA"
2684980,24000574236,24000570177,2020-12-06,10.7500,2.15,12.9000,ES,,"Start Group
Start Group
Amazon USA"
2684981,24000574238,24000570178,2020-12-06,4.3000,0.86,5.1600,ES,,"Start Group
Start Group
Amazon USA"
2685033,24000574260,24000570189,2020-12-06,31.1700,6.24,37.4100,ES,,"Start Group
Start Group
Amazon USA"
2685034,24000574262,24000570190,2020-12-06,123.6200,24.72,148.3400,ES,,"Start Group
Start Group
Amazon USA"
2685083,24000574304,24000570211,2020-12-06,18.2700,3.65,21.9200,ES,,"Start Group
Start Group
Amazon USA"
2685084,24000574306,24000570212,2020-12-06,16.1200,3.23,19.3500,ES,,"Start Group
Start Group
Amazon USA"
2685098,24000574318,24000570218,2020-12-06,9.0300,0.00,9.0300,ES,,"Start Group
Start Group
Amazon USA"
2685099,24000574320,24000570219,2020-12-06,7.5200,1.50,9.0200,ES,,"Start Group
Start Group
Amazon USA"
2685152,24000574358,24000570238,2020-12-06,26.8700,5.38,32.2500,ES,,"Start Group
Start Group
Amazon USA"
2685203,24000574384,24000570251,2020-12-06,59.1200,11.83,70.9500,ES,,"Start Group
Start Group
Amazon USA"
2685270,24000574426,24000570272,2020-12-06,10.7500,2.15,12.9000,ES,,"Start Group
Start Group
Amazon USA"
2685289,24000574452,24000570285,2020-12-06,12.9000,2.58,15.4800,ES,,"Start Group
Start Group
Amazon USA"
2685290,24000574454,24000570286,2020-12-06,9.5700,1.91,11.4800,ES,,"Start Group
Start Group
Amazon USA"
2685330,24000574486,24000570302,2020-12-06,10.7500,2.15,12.9000,ES,,"Start Group
Start Group
Amazon USA"
2685379,24000574532,24000570325,2020-12-06,12.9000,2.58,15.4800,ES,,"Start Group
Start Group
Amazon USA"
2685390,24000574538,24000570328,2020-12-06,75.1400,15.03,90.1700,ES,,"Start Group
Start Group
Amazon USA"
2685442,24000574586,24000570352,2020-12-06,4.3000,0.86,5.1600,ES,,"Start Group
Start Group
Amazon USA"
2685464,24000574604,24000570361,2020-12-06,121.4200,24.29,145.7100,ES,,"Start Group
Start Group
Amazon USA"
2685488,24000574626,24000570372,2020-12-07,21.5000,4.30,25.8000,ES,,"Start Group
Start Group
Amazon USA"
2685500,24000574640,24000570379,2020-12-07,10.6400,2.13,12.7700,ES,,"Start Group
Start Group
Amazon USA"
2685505,24000574644,24000570381,2020-12-07,23.6500,4.73,28.3800,ES,,"Start Group
Start Group
Amazon USA"
2685522,24000574662,24000570390,2020-12-07,2.1500,0.43,2.5800,ES,,"Start Group
Start Group
Amazon USA"
2685581,24000574720,24000570419,2020-12-07,10.7500,2.15,12.9000,ES,,"Start Group
Start Group
Amazon USA"
2685594,24000574738,24000570428,2020-12-07,123.6200,24.72,148.3400,ES,,"Start Group
Start Group
Amazon USA"
2685667,24000574782,24000570450,2020-12-07,12.9000,2.58,15.4800,ES,,"Start Group
Start Group
Amazon USA"
2685677,24000574790,24000570454,2020-12-07,10.7500,2.15,12.9000,ES,,"Start Group
Start Group
Amazon USA"
2685706,24000574800,24000570459,2020-12-07,8.6000,1.72,10.3200,ES,,"Start Group
Start Group
Amazon USA"
2685742,24000574830,24000570474,2020-12-07,93.5200,18.71,112.2300,ES,,"Start Group
Start Group
Amazon USA"
2685756,24000574842,24000570480,2020-12-07,10.7500,2.15,12.9000,ES,,"Start Group
Start Group
Amazon USA"
2685757,24000574844,24000570481,2020-12-07,16.0200,3.20,19.2200,ES,,"Start Group
Start Group
Amazon USA"
2685773,24000574852,24000570485,2020-12-07,4.3000,0.86,5.1600,ES,,"Start Group
Start Group
Amazon USA"
2685774,24000574854,24000570486,2020-12-07,8.6000,1.72,10.3200,ES,,"Start Group
Start Group
Amazon USA"
2685775,24000574856,24000570487,2020-12-07,36.5400,7.32,43.8600,ES,,"Start Group
Start Group
Amazon USA"
2685799,24000574874,24000570496,2020-12-07,29.0200,5.81,34.8300,ES,,"Start Group
Start Group
Amazon USA"
2685811,24000574882,24000570500,2020-12-07,3.2200,0.65,3.8700,ES,,"Start Group
Start Group
Amazon USA"
2685812,24000574884,24000570501,2020-12-07,10.7500,2.15,12.9000,ES,,"Start Group
Start Group
Amazon USA"
2685813,24000574886,24000570502,2020-12-07,10.7500,2.15,12.9000,ES,,"Start Group
Start Group
Amazon USA"
2685833,24000574896,24000570507,2020-12-07,10.7500,2.15,12.9000,ES,,"Start Group
Start Group
Amazon USA"
2685965,24000574984,24000570551,2020-12-07,80.5200,16.10,96.6200,ES,,"Start Group
Start Group
Amazon USA"
2685985,24000574992,24000570555,2020-12-07,63.4200,12.69,76.1100,ES,,"Start Group
Start Group
Amazon USA"
2685986,24000574994,24000570556,2020-12-07,9.5700,1.91,11.4800,ES,,"Start Group
Start Group
Amazon USA"
2686125,24000575110,24000570614,2020-12-07,23.5400,4.71,28.2500,ES,,"Start Group
Start Group
Amazon USA"
2686217,24000575166,24000570642,2020-12-07,32.2500,6.77,39.0200,ES,,"Start Group
Start Group
Amazon USA"
2686218,24000575168,24000570643,2020-12-07,84.9200,16.99,101.9100,ES,,"Start Group
Start Group
Amazon USA"
2686242,24000575184,24000570651,2020-12-07,73.9600,14.79,88.7500,ES,,"Start Group
Start Group
Amazon USA"
2686409,24000575252,24000570685,2020-12-07,26.8700,5.38,32.2500,ES,,"Start Group
Start Group
Amazon USA"
2686513,24000575316,24000570717,2020-12-07,42.8900,8.58,51.4700,ES,,"Start Group
Start Group
Amazon USA"
2686671,24000575428,24000570773,2020-12-07,16.0700,3.21,19.2800,ES,,"Start Group
Start Group
Amazon USA"
2686814,24000575523,24000570823,2020-12-07,84.9200,16.99,101.9100,ES,,"Start Group
Start Group
Amazon USA"
2686982,24000575620,24000570873,2020-12-07,16.0200,3.20,19.2200,ES,,"Start Group
Start Group
Amazon USA"
2687092,24000575699,24000570913,2020-12-07,23.6500,4.73,28.3800,ES,,"Start Group
Start Group
Amazon USA"
2687093,24000575701,24000570914,2020-12-07,16.0700,3.21,19.2800,ES,,"Start Group
Start Group
Amazon USA"
2687210,24000575763,24000570945,2020-12-07,51.4700,0.00,51.4700,ES,,"Start Group
Start Group
Amazon USA"
2687225,24000575769,24000570948,2020-12-07,10.7500,2.15,12.9000,ES,,"Start Group
Start Group
Amazon USA"
2687269,24000575807,24000570968,2020-12-07,32.1400,6.43,38.5700,ES,,"Start Group
Start Group
Amazon USA"
2687349,24000575862,24000570996,2020-12-07,19.2400,3.85,23.0900,ES,,"Start Group
Start Group
Amazon USA"
2687357,24000575870,24000571000,2020-12-07,4.0300,0.81,4.8400,ES,,"Start Group
Start Group
Amazon USA"
2687381,24000575880,24000571006,2020-12-07,4.3000,0.86,5.1600,ES,,"Start Group
Start Group
Amazon USA"
2687403,24000575886,24000571009,2020-12-07,12.9000,2.58,15.4800,ES,,"Start Group
Start Group
Amazon USA"
2687424,24000575897,24000571015,2020-12-07,53.6400,10.73,64.3700,ES,,"Start Group
Start Group
Amazon USA"
2687497,24000575943,24000571039,2020-12-07,4.0300,0.81,4.8400,ES,,"Start Group
Start Group
Amazon USA"
2687532,24000575961,24000571048,2020-12-07,26.8700,5.38,32.2500,ES,,"Start Group
Start Group
Amazon USA"
2687685,24000576056,24000571096,2020-12-07,16.0700,3.21,19.2800,ES,,"Start Group
Start Group
Amazon USA"
2687708,24000576078,24000571107,2020-12-07,16.0700,3.21,19.2800,ES,,"Start Group
Start Group
Amazon USA"
2687840,24000576156,24000571147,2020-12-07,12.9000,2.58,15.4800,ES,,"Start Group
Start Group
Amazon USA"
2687862,24000576168,24000571153,2020-12-07,9.0300,0.00,9.0300,ES,,"Start Group
Start Group
Amazon USA"
2687946,24000576235,24000571188,2020-12-07,43.0000,8.60,51.6000,ES,,"Start Group
Start Group
Amazon USA"
2687988,24000576275,24000571208,2020-12-07,21.5000,4.30,25.8000,ES,,"Start Group
Start Group
Amazon USA"
2688017,24000576297,24000571219,2020-12-07,139.6900,27.94,167.6300,ES,,"Start Group
Start Group
Amazon USA"
2688054,24000576333,24000571237,2020-12-07,21.4400,4.29,25.7300,ES,,"Start Group
Start Group
Amazon USA"
2688055,24000576335,24000571238,2020-12-07,79.8700,15.98,95.8500,ES,,"Start Group
Start Group
Amazon USA"
2688089,24000576373,24000571257,2020-12-07,32.1400,6.43,38.5700,ES,,"Start Group
Start Group
Amazon USA"
2688090,24000576375,24000571258,2020-12-07,42.8900,8.58,51.4700,ES,,"Start Group
Start Group
Amazon USA"
2688096,24000576377,24000571259,2020-12-08,13.8700,2.91,16.7800,ES,,"Start Group
Start Group
Amazon USA"
2688099,24000576383,24000571262,2020-12-08,32.1400,6.43,38.5700,ES,,"Start Group
Start Group
Amazon USA"
2688147,24000576435,24000571289,2020-12-08,23.6500,4.73,28.3800,ES,,"Start Group
Start Group
Amazon USA"
2688320,24000576577,24000571365,2020-12-08,21.3900,4.28,25.6700,ES,,"Start Group
Start Group
Amazon USA"
2688417,24000576642,24000571398,2020-12-08,10.7500,2.15,12.9000,ES,,"Start Group
Start Group
Amazon USA"
2688438,24000576652,24000571403,2020-12-08,16.0700,3.21,19.2800,ES,,"Start Group
Start Group
Amazon USA"
2688456,24000576668,24000571411,2020-12-08,96.6400,19.33,115.9700,ES,,"Start Group
Start Group
Amazon USA"
2688469,24000576678,24000571416,2020-12-08,84.9200,16.99,101.9100,ES,,"Start Group
Start Group
Amazon USA"
2688489,24000576686,24000571420,2020-12-08,52.6700,10.54,63.2100,ES,,"Start Group
Start Group
Amazon USA"
2688553,24000576721,24000571439,2020-12-08,95.6700,19.14,114.8100,ES,,"Start Group
Start Group
Amazon USA"
2688657,24000576792,24000571475,2020-12-08,16.1200,3.23,19.3500,ES,,"Start Group
Start Group
Amazon USA"
2688670,24000576806,24000571482,2020-12-08,37.5200,7.50,45.0200,ES,,"Start Group
Start Group
Amazon USA"
2688691,24000576816,24000571487,2020-12-08,19.3400,3.87,23.2100,ES,,"Start Group
Start Group
Amazon USA"
2688709,24000576822,24000571490,2020-12-08,21.5000,4.30,25.8000,ES,,"Start Group
Start Group
Amazon USA"
2688731,24000576838,24000571498,2020-12-08,32.1400,6.43,38.5700,ES,,"Start Group
Start Group
Amazon USA"
2688732,24000576840,24000571499,2020-12-08,3.8700,0.00,3.8700,ES,,"Start Group
Start Group
Amazon USA"
2688837,24000576895,24000571527,2020-12-08,19.3500,3.87,23.2200,ES,,"Start Group
Start Group
Amazon USA"
2688844,24000576899,24000571529,2020-12-08,7.5200,1.51,9.0300,ES,,"Start Group
Start Group
Amazon USA"
2688845,24000576901,24000571530,2020-12-08,23.5400,4.71,28.2500,ES,,"Start Group
Start Group
Amazon USA"
2688856,6000893456,6000663701,2020-12-08,91.6700,19.25,110.9200,ES,,"Start Fitness
Fitness
SF English"
2688922,24000576947,24000571553,2020-12-08,43.0000,8.60,51.6000,ES,,"Start Group
Start Group
Amazon USA"
2688944,24000576963,24000571561,2020-12-08,4.0300,0.81,4.8400,ES,,"Start Group
Start Group
Amazon USA"
2688960,24000576969,24000571564,2020-12-08,23.6500,4.97,28.6200,ES,,"Start Group
Start Group
Amazon USA"
2689266,24000577111,24000571638,2020-12-08,16.0700,3.21,19.2800,ES,,"Start Group
Start Group
Amazon USA"
2689319,24000577147,24000571657,2020-12-08,107.3900,21.48,128.8700,ES,,"Start Group
Start Group
Amazon USA"
2689340,24000577161,24000571664,2020-12-08,21.5000,4.30,25.8000,ES,,"Start Group
Start Group
Amazon USA"
2689383,24000577181,24000571674,2020-12-08,21.3900,4.28,25.6700,ES,,"Start Group
Start Group
Amazon USA"
2689447,24000577218,24000571693,2020-12-08,9.0300,0.00,9.0300,ES,,"Start Group
Start Group
Amazon USA"
2689485,24000577242,24000571705,2020-12-08,7.4200,1.56,8.9800,ES,,"Start Group
Start Group
Amazon USA"
2689486,24000577244,24000571706,2020-12-08,4.3000,0.86,5.1600,ES,,"Start Group
Start Group
Amazon USA"
2689560,6000893897,6000664117,2020-12-08,58.3300,12.25,70.5800,ES,,"Start Fitness
Fitness
SF English"
2689592,24000577330,24000571751,2020-12-08,16.0700,3.21,19.2800,ES,,"Start Group
Start Group
Amazon USA"
2689635,24000577366,24000571769,2020-12-08,8.6000,1.72,10.3200,ES,,"Start Group
Start Group
Amazon USA"
2689673,24000577390,24000571781,2020-12-08,42.8900,8.58,51.4700,ES,,"Start Group
Start Group
Amazon USA"
2689674,24000577392,24000571782,2020-12-08,118.2500,23.65,141.9000,ES,,"Start Group
Start Group
Amazon USA"
2689735,24000577432,24000571803,2020-12-08,10.7500,2.15,12.9000,ES,,"Start Group
Start Group
Amazon USA"
2689782,24000577457,24000571816,2020-12-08,10.7500,2.15,12.9000,ES,,"Start Group
Start Group
Amazon USA"
2689783,24000577459,24000571817,2020-12-08,13.9700,2.80,16.7700,ES,,"Start Group
Start Group
Amazon USA"
2689836,24000577499,24000571837,2020-12-08,21.5000,4.30,25.8000,ES,,"Start Group
Start Group
Amazon USA"
2689872,24000577527,24000571851,2020-12-08,10.7500,2.15,12.9000,ES,,"Start Group
Start Group
Amazon USA"
2689919,24000577559,24000571867,2020-12-08,32.1400,6.43,38.5700,ES,,"Start Group
Start Group
Amazon USA"
2690099,24000577657,24000571916,2020-12-08,4.3000,0.86,5.1600,ES,,"Start Group
Start Group
Amazon USA"
2690100,24000577659,24000571917,2020-12-08,29.0200,5.81,34.8300,ES,,"Start Group
Start Group
Amazon USA"
2690194,24000577716,24000571946,2020-12-08,52.5700,10.51,63.0800,ES,,"Start Group
Start Group
Amazon USA"
2690240,24000577746,24000571962,2020-12-08,32.1400,6.43,38.5700,ES,,"Start Group
Start Group
Amazon USA"
2690345,24000577824,24000572001,2020-12-08,5.3700,1.08,6.4500,ES,,"Start Group
Start Group
Amazon USA"
2690466,24000577921,24000572050,2020-12-08,16.0200,3.20,19.2200,ES,,"Start Group
Start Group
Amazon USA"
2690491,24000577943,24000572061,2020-12-08,4.0300,0.81,4.8400,ES,,"Start Group
Start Group
Amazon USA"
2690576,24000578017,24000572098,2020-12-08,9.0300,0.00,9.0300,ES,,"Start Group
Start Group
Amazon USA"
2690627,24000578052,24000572116,2020-12-08,10.7500,2.15,12.9000,ES,,"Start Group
Start Group
Amazon USA"
2690657,24000578086,24000572133,2020-12-09,10.7500,2.15,12.9000,ES,,"Start Group
Start Group
Amazon USA"
2690678,24000578102,24000572141,2020-12-09,10.7500,2.15,12.9000,ES,,"Start Group
Start Group
Amazon USA"
2690689,24000578114,24000572147,2020-12-09,23.6500,4.73,28.3800,ES,,"Start Group
Start Group
Amazon USA"
2690816,24000578219,24000572206,2020-12-09,73.9600,14.79,88.7500,ES,,"Start Group
Start Group
Amazon USA"
2690827,24000578225,24000572209,2020-12-09,4.3000,0.86,5.1600,ES,,"Start Group
Start Group
Amazon USA"
2690952,24000578299,24000572246,2020-12-09,8.6000,1.72,10.3200,ES,,"Start Group
Start Group
Amazon USA"
2690959,24000578307,24000572250,2020-12-09,63.4200,12.69,76.1100,ES,,"Start Group
Start Group
Amazon USA"
2690996,24000578329,24000572261,2020-12-09,128.9800,25.80,154.7800,ES,,"Start Group
Start Group
Amazon USA"
2691012,24000578337,24000572265,2020-12-09,10.7500,2.15,12.9000,ES,,"Start Group
Start Group
Amazon USA"
2691246,24000578476,24000572335,2020-12-09,16.1200,3.23,19.3500,ES,,"Start Group
Start Group
Amazon USA"
2691302,24000578498,24000572346,2020-12-09,18.5400,3.89,22.4300,ES,,"Start Group
Start Group
Amazon USA"
2691308,24000578510,24000572352,2020-12-09,152.9800,30.60,183.5800,ES,,"Start Group
Start Group
Amazon USA"
2691430,24000578605,24000572401,2020-12-09,10.7500,2.15,12.9000,ES,,"Start Group
Start Group
Amazon USA"
2691447,24000578617,24000572407,2020-12-09,64.5000,12.90,77.4000,ES,,"Start Group
Start Group
Amazon USA"
2691465,24000578623,24000572410,2020-12-09,84.9200,16.99,101.9100,ES,,"Start Group
Start Group
Amazon USA"
2691649,24000578730,24000572465,2020-12-09,13.8700,2.77,16.6400,ES,,"Start Group
Start Group
Amazon USA"
2691664,24000578746,24000572473,2020-12-09,6.4400,1.35,7.7900,ES,,"Start Group
Start Group
Amazon USA"
2691796,24000578809,24000572507,2020-12-09,106.4200,21.29,127.7100,ES,,"Start Group
Start Group
Amazon USA"
2691971,24000578939,24000572574,2020-12-09,59.1200,11.83,70.9500,ES,,"Start Group
Start Group
Amazon USA"
2692007,24000578963,24000572586,2020-12-09,12.9000,2.58,15.4800,ES,,"Start Group
Start Group
Amazon USA"
2692061,24000578987,24000572598,2020-12-09,19.1600,3.83,22.9900,ES,,"Start Group
Start Group
Amazon USA"
2692090,24000579004,24000572607,2020-12-09,53.2100,10.64,63.8500,ES,,"Start Group
Start Group
Amazon USA"
2692215,24000579054,24000572632,2020-12-09,59.1200,11.83,70.9500,ES,,"Start Group
Start Group
Amazon USA"
2692216,24000579056,24000572633,2020-12-09,10.7500,2.15,12.9000,ES,,"Start Group
Start Group
Amazon USA"
2692301,24000579136,24000572673,2020-12-09,7.4200,1.48,8.9000,ES,,"Start Group
Start Group
Amazon USA"
2692350,24000579169,24000572691,2020-12-09,10.7500,2.15,12.9000,ES,,"Start Group
Start Group
Amazon USA"
2692362,24000579179,24000572696,2020-12-09,10.7500,2.15,12.9000,ES,,"Start Group
Start Group
Amazon USA"
2692501,24000579260,24000572738,2020-12-09,19.3500,3.87,23.2200,ES,,"Start Group
Start Group
Amazon USA"
2692516,24000579266,24000572741,2020-12-09,12.9000,2.58,15.4800,ES,,"Start Group
Start Group
Amazon USA"
2692575,24000579296,24000572756,2020-12-09,10.6400,2.13,12.7700,ES,,"Start Group
Start Group
Amazon USA"
2692608,24000579326,24000572771,2020-12-09,14.8400,2.96,17.8000,ES,,"Start Group
Start Group
Amazon USA"
2692632,24000579342,24000572779,2020-12-09,69.8700,13.98,83.8500,ES,,"Start Group
Start Group
Amazon USA"
2692768,24000579443,24000572831,2020-12-09,75.1400,15.03,90.1700,ES,,"Start Group
Start Group
Amazon USA"
2692811,24000579480,24000572850,2020-12-09,37.6200,7.53,45.1500,ES,,"Start Group
Start Group
Amazon USA"
2692889,24000579546,24000572884,2020-12-10,10.7500,2.15,12.9000,ES,,"Start Group
Start Group
Amazon USA"
2692905,24000579557,24000572890,2020-12-10,75.1400,15.03,90.1700,ES,,"Start Group
Start Group
Amazon USA"
2692921,24000579571,24000572897,2020-12-10,2.1500,0.43,2.5800,ES,,"Start Group
Start Group
Amazon USA"
2692980,24000579637,24000572931,2020-12-10,32.1400,6.43,38.5700,ES,,"Start Group
Start Group
Amazon USA"
2693012,24000579673,24000572953,2020-12-10,3.2200,0.65,3.8700,ES,,"Start Group
Start Group
Amazon USA"
2693097,24000579733,24000572983,2020-12-10,32.2400,6.77,39.0100,ES,,"Start Group
Start Group
Amazon USA"
2693143,24000579758,24000572996,2020-12-10,15.0500,3.01,18.0600,ES,,"Start Group
Start Group
Amazon USA"
2693167,24000579777,24000573006,2020-12-10,10.7500,2.15,12.9000,ES,,"Start Group
Start Group
Amazon USA"
2693224,24000579804,24000573020,2020-12-10,9.5700,1.91,11.4800,ES,,"Start Group
Start Group
Amazon USA"
2693231,24000579806,24000573021,2020-12-10,21.3900,4.28,25.6700,ES,,"Start Group
Start Group
Amazon USA"
2693260,24000579819,24000573028,2020-12-10,4.0300,0.81,4.8400,ES,,"Start Group
Start Group
Amazon USA"
2693270,24000579825,24000573031,2020-12-10,32.3600,6.47,38.8300,ES,,"Start Group
Start Group
Amazon USA"
2693463,AMZ24000583798,24000582755,2020-12-10,53.7500,10.75,64.5000,ES,,"Start Group
Start Group
Amazon"
2693480,AMZ24000583803,24000582760,2020-12-10,52.6700,10.54,63.2100,ES,,"Start Group
Start Group
Amazon"
2693522,AMZ24000583810,24000582767,2020-12-10,106.4200,21.29,127.7100,ES,,"Start Group
Start Group
Amazon"
2693547,AMZ24000583820,24000582777,2020-12-10,32.1400,6.43,38.5700,ES,,"Start Group
Start Group
Amazon"
2693607,AMZ24000583833,24000582790,2020-12-10,26.8700,5.38,32.2500,ES,,"Start Group
Start Group
Amazon"
2693666,AMZ24000583850,24000582807,2020-12-10,14.5000,2.90,17.4000,ES,,"Start Group
Start Group
Amazon"
2693703,AMZ24000583863,24000582820,2020-12-10,128.9800,25.80,154.7800,ES,,"Start Group
Start Group
Amazon"
2693743,AMZ24000583876,24000582833,2020-12-10,13.8700,2.77,16.6400,ES,,"Start Group
Start Group
Amazon"
2693847,EBY24000581325,24000580682,2020-12-10,3.7400,0.78,4.5200,ES,,"Start Group
Start Group
eBay"
2693857,AMZ24000583900,24000582857,2020-12-10,10.7500,2.15,12.9000,ES,,"Start Group
Start Group
Amazon"
2693895,AMZ24000583915,24000582872,2020-12-10,95.6700,19.14,114.8100,ES,,"Start Group
Start Group
Amazon"
2693938,6000896274,6000666386,2020-12-10,4.6800,0.98,5.6600,ES,,"Start Fitness
Fitness
SF English"
2694044,AMZ24000583954,24000582911,2020-12-10,102.1200,20.43,122.5500,ES,,"Start Group
Start Group
Amazon"
2694045,AMZ24000583955,24000582912,2020-12-10,75.1400,15.03,90.1700,ES,,"Start Group
Start Group
Amazon"
2694076,AMZ24000583971,24000582928,2020-12-10,10.7500,2.15,12.9000,ES,,"Start Group
Start Group
Amazon"
2694152,AMZ24000583993,24000582950,2020-12-10,32.1400,6.43,38.5700,ES,,"Start Group
Start Group
Amazon"
2694188,AMZ24000584001,24000582958,2020-12-10,10.7500,2.15,12.9000,ES,,"Start Group
Start Group
Amazon"
2694237,AMZ24000584014,24000582971,2020-12-10,19.2400,4.04,23.2800,ES,,"Start Group
Start Group
Amazon"
2694255,AMZ24000584027,24000582984,2020-12-10,63.4200,12.69,76.1100,ES,,"Start Group
Start Group
Amazon"
2694256,AMZ24000584028,24000582985,2020-12-10,4.0300,0.81,4.8400,ES,,"Start Group
Start Group
Amazon"
2694462,AMZ24000584090,24000583047,2020-12-10,118.2500,23.65,141.9000,ES,,"Start Group
Start Group
Amazon"
2694554,AMZ24000584116,24000583073,2020-12-10,12.9000,2.71,15.6100,ES,,"Start Group
Start Group
Amazon"
2694615,AMZ24000584138,24000583095,2020-12-10,16.0700,3.21,19.2800,ES,,"Start Group
Start Group
Amazon"
2694809,AMZ24000584187,24000583144,2020-12-10,6.4500,1.29,7.7400,ES,,"Start Group
Start Group
Amazon"
2694852,AMZ24000584200,24000583157,2020-12-10,121.4200,24.29,145.7100,ES,,"Start Group
Start Group
Amazon"
2694892,AMZ24000584215,24000583172,2020-12-10,10.7500,2.15,12.9000,ES,,"Start Group
Start Group
Amazon"
2695018,AMZ24000584261,24000583218,2020-12-10,10.7500,2.15,12.9000,ES,,"Start Group
Start Group
Amazon"
2695027,AMZ24000584264,24000583221,2020-12-10,10.7500,2.15,12.9000,ES,,"Start Group
Start Group
Amazon"
2695102,AMZ24000584293,24000583250,2020-12-10,10.7500,2.15,12.9000,ES,,"Start Group
Start Group
Amazon"
2695182,AMZ24000584321,24000583278,2020-12-11,26.8700,5.38,32.2500,ES,,"Start Group
Start Group
Amazon"
2695454,6000896692,6000667170,2020-12-11,60.7700,12.76,73.5300,ES,,"Start Fitness
Fitness
SF English"
2695481,AMZ24000584407,24000583364,2020-12-11,180.6000,36.12,216.7200,ES,,"Start Group
Start Group
Amazon"
2695523,AMZ24000584421,24000583378,2020-12-11,160.1700,33.64,193.8100,ES,,"Start Group
Start Group
Amazon"
2695559,AMZ24000584430,24000583387,2020-12-11,26.8700,5.38,32.2500,ES,,"Start Group
Start Group
Amazon"
2695563,6000897201,6000667230,2020-12-11,43.0500,7.85,50.9000,ES,,"Start Fitness
Fitness
SF English"
2695657,AMZ24000584450,24000583407,2020-12-11,41.9200,8.39,50.3100,ES,,"Start Group
Start Group
Amazon"
2695676,AMZ24000584460,24000583417,2020-12-11,4.3000,0.86,5.1600,ES,,"Start Group
Start Group
Amazon"
2695734,AMZ24000584472,24000583429,2020-12-11,26.8700,5.38,32.2500,ES,,"Start Group
Start Group
Amazon"
2695755,AMZ24000584480,24000583437,2020-12-11,118.2500,23.65,141.9000,ES,,"Start Group
Start Group
Amazon"
2695764,AMZ24000584482,24000583439,2020-12-11,43.0000,8.60,51.6000,ES,,"Start Group
Start Group
Amazon"
2695811,AMZ24000584493,24000583450,2020-12-11,15.0500,3.01,18.0600,ES,,"Start Group
Start Group
Amazon"
2695859,AMZ24000584499,24000583456,2020-12-11,12.9000,2.58,15.4800,ES,,"Start Group
Start Group
Amazon"
2696011,AMZ24000584540,24000583497,2020-12-11,10.7500,2.15,12.9000,ES,,"Start Group
Start Group
Amazon"
2696076,AMZ24000584561,24000583518,2020-12-11,7.4200,1.56,8.9800,ES,,"Start Group
Start Group
Amazon"
2696236,AMZ24000584607,24000583564,2020-12-11,63.4200,13.32,76.7400,ES,,"Start Group
Start Group
Amazon"
2696306,AMZ24000584634,24000583591,2020-12-11,17.0900,3.42,20.5100,ES,,"Start Group
Start Group
Amazon"
2696354,6000897669,6000667674,2020-12-11,0.0000,0.00,0.0000,ES,,"Start Fitness
Fitness
SF English"
2696451,AMZ24000584674,24000583631,2020-12-11,18.5200,3.71,22.2300,ES,,"Start Group
Start Group
Amazon"
2696916,AMZ24000584813,24000583770,2020-12-11,7.4200,1.48,8.9000,ES,,"Start Group
Start Group
Amazon"
2696917,AMZ24000584814,24000583771,2020-12-11,75.1400,15.03,90.1700,ES,,"Start Group
Start Group
Amazon"
2696918,AMZ24000584815,24000583772,2020-12-11,63.4200,12.69,76.1100,ES,,"Start Group
Start Group
Amazon"
2697037,AMZ24000584862,24000583819,2020-12-11,84.9200,16.99,101.9100,ES,,"Start Group
Start Group
Amazon"
2697061,AMZ24000584869,24000583826,2020-12-11,10.7500,2.15,12.9000,ES,,"Start Group
Start Group
Amazon"
2697079,AMZ24000584874,24000583831,2020-12-11,10.7500,2.15,12.9000,ES,,"Start Group
Start Group
Amazon"
2697080,AMZ24000584875,24000583832,2020-12-11,63.4200,12.69,76.1100,ES,,"Start Group
Start Group
Amazon"
2697087,AMZ24000584876,24000583833,2020-12-11,32.1400,6.43,38.5700,ES,,"Start Group
Start Group
Amazon"
2697129,AMZ24000584891,24000583848,2020-12-12,26.8700,5.38,32.2500,ES,,"Start Group
Start Group
Amazon"
2697189,AMZ24000584915,24000583872,2020-12-12,41.9200,8.39,50.3100,ES,,"Start Group
Start Group
Amazon"
2697234,AMZ24000584930,24000583887,2020-12-12,9.0300,0.00,9.0300,ES,,"Start Group
Start Group
Amazon"
2697346,AMZ24000584959,24000583916,2020-12-12,63.4200,12.69,76.1100,ES,,"Start Group
Start Group
Amazon"
2697385,AMZ24000584970,24000583927,2020-12-12,111.2300,22.25,133.4800,ES,,"Start Group
Start Group
Amazon"
2697609,AMZ24000585029,24000583986,2020-12-12,21.3900,4.28,25.6700,ES,,"Start Group
Start Group
Amazon"
2697610,AMZ24000585030,24000583987,2020-12-12,63.4200,12.69,76.1100,ES,,"Start Group
Start Group
Amazon"
2697640,AMZ24000585040,24000583997,2020-12-12,80.5200,16.10,96.6200,ES,,"Start Group
Start Group
Amazon"
2697689,AMZ24000585053,24000584010,2020-12-12,4.0300,0.81,4.8400,ES,,"Start Group
Start Group
Amazon"
2697854,6000898517,6000668471,2020-12-12,60.9700,11.12,72.0900,ES,,"Start Fitness
Fitness
SF English"
2697926,AMZ24000585112,24000584069,2020-12-12,16.0700,3.21,19.2800,ES,,"Start Group
Start Group
Amazon"
2697944,AMZ24000585117,24000584074,2020-12-12,21.5000,4.30,25.8000,ES,,"Start Group
Start Group
Amazon"
2698068,AMZ24000585156,24000584113,2020-12-12,18.1700,3.63,21.8000,ES,,"Start Group
Start Group
Amazon"
2698170,AMZ24000585186,24000584143,2020-12-12,81.5900,16.32,97.9100,ES,,"Start Group
Start Group
Amazon"
2698319,AMZ24000585230,24000584187,2020-12-12,118.2500,23.65,141.9000,ES,,"Start Group
Start Group
Amazon"
2698430,AMZ24000585262,24000584219,2020-12-12,52.6700,10.54,63.2100,ES,,"Start Group
Start Group
Amazon"
2698476,AMZ24000585286,24000584243,2020-12-12,26.8700,5.38,32.2500,ES,,"Start Group
Start Group
Amazon"
2698499,AMZ24000585289,24000584246,2020-12-12,23.6500,4.73,28.3800,ES,,"Start Group
Start Group
Amazon"
2698532,AMZ24000585301,24000584258,2020-12-12,43.0000,8.60,51.6000,ES,,"Start Group
Start Group
Amazon"
2698543,AMZ24000585306,24000584263,2020-12-12,59.0200,11.80,70.8200,ES,,"Start Group
Start Group
Amazon"
2698587,AMZ24000585327,24000584284,2020-12-12,10.7500,2.15,12.9000,ES,,"Start Group
Start Group
Amazon"
2698613,AMZ24000585335,24000584292,2020-12-12,16.0200,3.20,19.2200,ES,,"Start Group
Start Group
Amazon"
2698723,AMZ24000585370,24000584327,2020-12-12,7.4200,1.48,8.9000,ES,,"Start Group
Start Group
Amazon"
2698741,AMZ24000585375,24000584332,2020-12-12,18.5200,3.71,22.2300,ES,,"Start Group
Start Group
Amazon"
2698748,AMZ24000585378,24000584335,2020-12-12,84.9200,16.99,101.9100,ES,,"Start Group
Start Group
Amazon"
2698853,AMZ24000585416,24000584373,2020-12-12,118.2500,23.65,141.9000,ES,,"Start Group
Start Group
Amazon"
2698859,AMZ24000585417,24000584374,2020-12-12,118.2500,23.65,141.9000,ES,,"Start Group
Start Group
Amazon"
2698887,6000899105,6000669029,2020-12-12,44.0300,8.66,52.6900,ES,,"Start Fitness
Fitness
SF English"
2698908,AMZ24000585432,24000584389,2020-12-12,10.7500,2.15,12.9000,ES,,"Start Group
Start Group
Amazon"
2698909,AMZ24000585433,24000584390,2020-12-12,96.6400,19.33,115.9700,ES,,"Start Group
Start Group
Amazon"
2698980,AMZ24000585455,24000584412,2020-12-12,160.1700,32.03,192.2000,ES,,"Start Group
Start Group
Amazon"
2699066,AMZ24000585477,24000584434,2020-12-12,24.6200,4.92,29.5400,ES,,"Start Group
Start Group
Amazon"
2699313,AMZ24000585557,24000584514,2020-12-12,10.7500,2.15,12.9000,ES,,"Start Group
Start Group
Amazon"
2699442,AMZ24000585601,24000584558,2020-12-13,19.2400,3.85,23.0900,ES,,"Start Group
Start Group
Amazon"
2700081,AMZ24000585807,24000584764,2020-12-13,75.1400,15.78,90.9200,ES,,"Start Group
Start Group
Amazon"
2700275,AMZ24000585882,24000584839,2020-12-13,115.9900,23.20,139.1900,ES,,"Start Group
Start Group
Amazon"
2700290,AMZ24000585888,24000584845,2020-12-13,31.1700,6.24,37.4100,ES,,"Start Group
Start Group
Amazon"
2700409,AMZ24000585925,24000584882,2020-12-13,23.6500,4.73,28.3800,ES,,"Start Group
Start Group
Amazon"
2700712,AMZ24000586020,24000584977,2020-12-13,4.3000,0.86,5.1600,ES,,"Start Group
Start Group
Amazon"
2700791,AMZ24000586050,24000585007,2020-12-13,26.7700,5.35,32.1200,ES,,"Start Group
Start Group
Amazon"
2700836,AMZ24000586069,24000585026,2020-12-13,10.7500,2.26,13.0100,ES,,"Start Group
Start Group
Amazon"
2701078,AMZ24000586158,24000585115,2020-12-13,27.7400,5.54,33.2800,ES,,"Start Group
Start Group
Amazon"
2701110,AMZ24000586171,24000585128,2020-12-13,32.1400,6.43,38.5700,ES,,"Start Group
Start Group
Amazon"
2701263,AMZ24000586216,24000585173,2020-12-13,64.4800,12.90,77.3800,ES,,"Start Group
Start Group
Amazon"
2701316,EBY24000582276,24000581630,2020-12-13,9.3500,1.87,11.2200,ES,,"Start Group
Start Group
eBay"
2701338,6000900462,6000670334,2020-12-13,28.0200,5.51,33.5300,ES,,"Start Fitness
Fitness
SF English"
2701352,AMZ24000586245,24000585202,2020-12-13,16.0700,3.21,19.2800,ES,,"Start Group
Start Group
Amazon"
2701444,AMZ24000586274,24000585231,2020-12-13,16.1200,3.23,19.3500,ES,,"Start Group
Start Group
Amazon"
2701453,EBY24000582291,24000581645,2020-12-13,20.0000,4.00,24.0000,ES,,"Start Group
Start Group
eBay"
2701496,AMZ24000586291,24000585248,2020-12-13,31.1700,6.24,37.4100,ES,,"Start Group
Start Group
Amazon"
2701554,AMZ24000586307,24000585264,2020-12-13,4.0300,0.81,4.8400,ES,,"Start Group
Start Group
Amazon"
2701652,AMZ24000586340,24000585297,2020-12-13,20.7400,4.15,24.8900,ES,,"Start Group
Start Group
Amazon"
2701673,AMZ24000586353,24000585310,2020-12-13,79.8700,15.98,95.8500,ES,,"Start Group
Start Group
Amazon"
2701786,AMZ24000586393,24000585350,2020-12-13,10.7400,2.16,12.9000,ES,,"Start Group
Start Group
Amazon"
2701787,AMZ24000586394,24000585351,2020-12-13,21.5000,4.30,25.8000,ES,,"Start Group
Start Group
Amazon"
2701973,AMZ24000586458,24000585415,2020-12-13,16.1200,3.23,19.3500,ES,,"Start Group
Start Group
Amazon"
2702055,AMZ24000586496,24000585453,2020-12-13,70.8200,0.00,70.8200,ES,,"Start Group
Start Group
Amazon"
2702075,AMZ24000586503,24000585460,2020-12-13,29.9900,6.00,35.9900,ES,,"Start Group
Start Group
Amazon"
2702085,6000900877,6000670730,2020-12-13,21.5100,3.93,25.4400,ES,,"Start Fitness
Fitness
SF English"
2702114,AMZ24000586516,24000585473,2020-12-13,75.2500,15.05,90.3000,ES,,"Start Group
Start Group
Amazon"
2702262,AMZ24000586559,24000585516,2020-12-14,18.5200,3.71,22.2300,ES,,"Start Group
Start Group
Amazon"
2702280,AMZ24000586566,24000585523,2020-12-14,26.8700,5.38,32.2500,ES,,"Start Group
Start Group
Amazon"
2702306,AMZ24000586575,24000585532,2020-12-14,63.4200,12.69,76.1100,ES,,"Start Group
Start Group
Amazon"
2702434,6000901030,6000670878,2020-12-14,46.4100,8.23,54.6400,ES,,"Start Fitness
Fitness
SF English"
2702470,AMZ24000586626,24000585583,2020-12-14,60.2700,12.06,72.3300,ES,,"Start Group
Start Group
Amazon"
2702471,AMZ24000586627,24000585584,2020-12-14,46.3700,9.27,55.6400,ES,,"Start Group
Start Group
Amazon"
2702480,AMZ24000586632,24000585589,2020-12-14,16.0700,3.21,19.2800,ES,,"Start Group
Start Group
Amazon"
2702481,AMZ24000586633,24000585590,2020-12-14,32.0400,6.40,38.4400,ES,,"Start Group
Start Group
Amazon"
2702496,AMZ24000586639,24000585596,2020-12-14,46.3700,9.27,55.6400,ES,,"Start Group
Start Group
Amazon"
2702507,AMZ24000586646,24000585603,2020-12-14,46.3700,9.27,55.6400,ES,,"Start Group
Start Group
Amazon"
2702509,AMZ24000586647,24000585604,2020-12-14,13.9100,2.78,16.6900,ES,,"Start Group
Start Group
Amazon"
2702565,AMZ24000586666,24000585623,2020-12-14,13.9100,2.78,16.6900,ES,,"Start Group
Start Group
Amazon"
2702579,AMZ24000586673,24000585630,2020-12-14,16.1200,3.23,19.3500,ES,,"Start Group
Start Group
Amazon"
2702650,AMZ24000586705,24000585662,2020-12-14,10.7500,2.15,12.9000,ES,,"Start Group
Start Group
Amazon"
2702680,AMZ24000586720,24000585677,2020-12-14,21.3900,4.28,25.6700,ES,,"Start Group
Start Group
Amazon"
2702704,AMZ24000586729,24000585686,2020-12-14,10.7500,2.15,12.9000,ES,,"Start Group
Start Group
Amazon"
2702774,AMZ24000586752,24000585709,2020-12-14,26.7700,5.35,32.1200,ES,,"Start Group
Start Group
Amazon"
2702799,AMZ24000586762,24000585719,2020-12-14,63.4200,12.69,76.1100,ES,,"Start Group
Start Group
Amazon"
2702845,6000901243,6000671084,2020-12-14,111.9000,20.41,132.3100,ES,,"Start Fitness
Fitness
SF English"
2702867,AMZ24000586789,24000585746,2020-12-14,7.4200,1.48,8.9000,ES,,"Start Group
Start Group
Amazon"
2702895,AMZ24000586800,24000585757,2020-12-14,31.1700,6.24,37.4100,ES,,"Start Group
Start Group
Amazon"
2702940,AMZ24000586812,24000585769,2020-12-14,4.0300,0.81,4.8400,ES,,"Start Group
Start Group
Amazon"
2703010,AMZ24000586839,24000585796,2020-12-14,8.6000,1.72,10.3200,ES,,"Start Group
Start Group
Amazon"
2703179,AMZ24000586884,24000585841,2020-12-14,38.5900,7.72,46.3100,ES,,"Start Group
Start Group
Amazon"
2703235,AMZ24000586901,24000585858,2020-12-14,9.5100,1.92,11.4300,ES,,"Start Group
Start Group
Amazon"
2703288,AMZ24000586917,24000585874,2020-12-14,45.1500,0.00,45.1500,ES,,"Start Group
Start Group
Amazon"
2703319,AMZ24000586930,24000585887,2020-12-14,161.0400,32.20,193.2400,ES,,"Start Group
Start Group
Amazon"
2703327,AMZ24000586935,24000585892,2020-12-14,16.1200,3.23,19.3500,ES,,"Start Group
Start Group
Amazon"
2703433,AMZ24000586966,24000585923,2020-12-14,85.8900,17.18,103.0700,ES,,"Start Group
Start Group
Amazon"
2703470,AMZ24000586983,24000585940,2020-12-14,23.6500,4.73,28.3800,ES,,"Start Group
Start Group
Amazon"
2703564,AMZ24000587014,24000585971,2020-12-14,96.6400,19.33,115.9700,ES,,"Start Group
Start Group
Amazon"
2703656,AMZ24000587042,24000585999,2020-12-14,80.5200,16.10,96.6200,ES,,"Start Group
Start Group
Amazon"
2703678,AMZ24000587050,24000586007,2020-12-14,10.7500,2.15,12.9000,ES,,"Start Group
Start Group
Amazon"
2703744,AMZ24000587067,24000586024,2020-12-14,106.4200,21.29,127.7100,ES,,"Start Group
Start Group
Amazon"
2703782,6000901782,6000671587,2020-12-14,35.9400,7.07,43.0100,ES,,"Start Fitness
Fitness
SF English"
2703856,AMZ24000587104,24000586061,2020-12-14,4.0300,0.81,4.8400,ES,,"Start Group
Start Group
Amazon"
2703891,AMZ24000587112,24000586069,2020-12-14,32.1400,6.43,38.5700,ES,,"Start Group
Start Group
Amazon"
2703981,AMZ24000587132,24000586089,2020-12-14,4.0300,0.81,4.8400,ES,,"Start Group
Start Group
Amazon"
2704026,AMZ24000587141,24000586098,2020-12-14,16.0700,3.21,19.2800,ES,,"Start Group
Start Group
Amazon"
2704137,AMZ24000587169,24000586126,2020-12-14,106.4200,21.29,127.7100,ES,,"Start Group
Start Group
Amazon"
2704228,AMZ24000587197,24000586154,2020-12-14,59.1200,11.83,70.9500,ES,,"Start Group
Start Group
Amazon"
2704313,AMZ24000587220,24000586177,2020-12-14,43.0000,9.03,52.0300,ES,,"Start Group
Start Group
Amazon"
2704358,AMZ24000587235,24000586192,2020-12-14,2.1500,0.43,2.5800,ES,,"Start Group
Start Group
Amazon"
2704481,AMZ24000587275,24000586232,2020-12-14,47.3000,9.46,56.7600,ES,,"Start Group
Start Group
Amazon"
2704509,AMZ24000587285,24000586242,2020-12-14,75.1400,15.03,90.1700,ES,,"Start Group
Start Group
Amazon"
2704644,AMZ24000587330,24000586287,2020-12-15,21.5000,4.30,25.8000,ES,,"Start Group
Start Group
Amazon"
2704696,AMZ24000587338,24000586295,2020-12-15,25.8000,0.00,25.8000,ES,,"Start Group
Start Group
Amazon"
2704709,AMZ24000587343,24000586300,2020-12-15,84.9200,16.99,101.9100,ES,,"Start Group
Start Group
Amazon"
2704794,AMZ24000587370,24000586327,2020-12-15,29.9900,6.30,36.2900,ES,,"Start Group
Start Group
Amazon"
2704813,6000902376,6000672155,2020-12-15,111.9200,20.42,132.3400,ES,,"Start Fitness
Fitness
SF English"
2704935,AMZ24000587399,24000586356,2020-12-15,16.1200,3.39,19.5100,ES,,"Start Group
Start Group
Amazon"
2705051,AMZ24000587429,24000586386,2020-12-15,123.6200,24.72,148.3400,ES,,"Start Group
Start Group
Amazon"
2705068,AMZ24000587435,24000586392,2020-12-15,8.6000,1.72,10.3200,ES,,"Start Group
Start Group
Amazon"
2705210,AMZ24000587482,24000586439,2020-12-15,26.7700,5.35,32.1200,ES,,"Start Group
Start Group
Amazon"
2705385,AMZ24000587542,24000586499,2020-12-15,53.7500,10.75,64.5000,ES,,"Start Group
Start Group
Amazon"
2705783,AMZ24000587614,24000586571,2020-12-15,16.6400,3.32,19.9600,ES,,"Start Group
Start Group
Amazon"
2705833,AMZ24000587664,24000586621,2020-12-15,5.3700,1.08,6.4500,ES,,"Start Group
Start Group
Amazon"
2705851,AMZ24000587680,24000586637,2020-12-15,32.1400,6.43,38.5700,ES,,"Start Group
Start Group
Amazon"
2705852,AMZ24000587681,24000586638,2020-12-15,21.3900,4.28,25.6700,ES,,"Start Group
Start Group
Amazon"
2705853,AMZ24000587682,24000586639,2020-12-15,5.3700,1.08,6.4500,ES,,"Start Group
Start Group
Amazon"
2705854,AMZ24000587683,24000586640,2020-12-15,67.7100,13.54,81.2500,ES,,"Start Group
Start Group
Amazon"
2705855,AMZ24000587684,24000586641,2020-12-15,32.1400,6.43,38.5700,ES,,"Start Group
Start Group
Amazon"
2705856,AMZ24000587685,24000586642,2020-12-15,31.1700,6.24,37.4100,ES,,"Start Group
Start Group
Amazon"
2706016,AMZ24000587722,24000586679,2020-12-15,75.1400,15.03,90.1700,ES,,"Start Group
Start Group
Amazon"
2706093,AMZ24000587753,24000586710,2020-12-15,32.1400,6.43,38.5700,ES,,"Start Group
Start Group
Amazon"
2706231,AMZ24000587793,24000586750,2020-12-15,16.0700,3.21,19.2800,ES,,"Start Group
Start Group
Amazon"
2706256,AMZ24000587800,24000586757,2020-12-15,21.5000,4.30,25.8000,ES,,"Start Group
Start Group
Amazon"
2706397,AMZ24000587839,24000586796,2020-12-15,107.3900,22.55,129.9400,ES,,"Start Group
Start Group
Amazon"
2706502,AMZ24000587870,24000586827,2020-12-15,102.1200,20.43,122.5500,ES,,"Start Group
Start Group
Amazon"
2706507,AMZ24000587872,24000586829,2020-12-15,3.2200,0.65,3.8700,ES,,"Start Group
Start Group
Amazon"
2706520,AMZ24000587875,24000586832,2020-12-15,9.5700,2.01,11.5800,ES,,"Start Group
Start Group
Amazon"
2706546,AMZ24000587884,24000586841,2020-12-15,23.6500,4.73,28.3800,ES,,"Start Group
Start Group
Amazon"
2706603,AMZ24000587909,24000586866,2020-12-16,5.2700,1.11,6.3800,ES,,"Start Group
Start Group
Amazon"
2706624,AMZ24000587918,24000586875,2020-12-16,26.8700,5.38,32.2500,ES,,"Start Group
Start Group
Amazon"
2706680,AMZ24000587929,24000586886,2020-12-16,96.6400,19.33,115.9700,ES,,"Start Group
Start Group
Amazon"
2706763,AMZ24000587948,24000586905,2020-12-16,15.0500,3.01,18.0600,ES,,"Start Group
Start Group
Amazon"
2706770,AMZ24000587951,24000586908,2020-12-16,52.6700,10.54,63.2100,ES,,"Start Group
Start Group
Amazon"
2706794,AMZ24000587960,24000586917,2020-12-16,13.9100,2.78,16.6900,ES,,"Start Group
Start Group
Amazon"
2706799,AMZ24000587964,24000586921,2020-12-16,60.2700,12.06,72.3300,ES,,"Start Group
Start Group
Amazon"
2706800,AMZ24000587965,24000586922,2020-12-16,46.3700,9.27,55.6400,ES,,"Start Group
Start Group
Amazon"
2706804,AMZ24000587966,24000586923,2020-12-16,13.9000,2.78,16.6800,ES,,"Start Group
Start Group
Amazon"
2706836,AMZ24000587976,24000586933,2020-12-16,69.8700,13.98,83.8500,ES,,"Start Group
Start Group
Amazon"
2706898,AMZ24000587986,24000586943,2020-12-16,120.2900,24.06,144.3500,ES,,"Start Group
Start Group
Amazon"
2706980,AMZ24000588001,24000586958,2020-12-16,63.4200,12.69,76.1100,ES,,"Start Group
Start Group
Amazon"
2706995,AMZ24000588006,24000586963,2020-12-16,10.7500,2.26,13.0100,ES,,"Start Group
Start Group
Amazon"
2707005,AMZ24000588008,24000586965,2020-12-16,10.7400,2.16,12.9000,ES,,"Start Group
Start Group
Amazon"
2707070,AMZ24000588027,24000586984,2020-12-16,16.1200,3.23,19.3500,ES,,"Start Group
Start Group
Amazon"
2707071,AMZ24000588028,24000586985,2020-12-16,75.1400,15.03,90.1700,ES,,"Start Group
Start Group
Amazon"
2707081,AMZ24000588032,24000586989,2020-12-16,10.7500,2.26,13.0100,ES,,"Start Group
Start Group
Amazon"
2707093,AMZ24000588036,24000586993,2020-12-16,53.6400,10.73,64.3700,ES,,"Start Group
Start Group
Amazon"
2707130,AMZ24000588042,24000586999,2020-12-16,7.4200,1.48,8.9000,ES,,"Start Group
Start Group
Amazon"
2707152,AMZ24000588048,24000587005,2020-12-16,16.0700,3.21,19.2800,ES,,"Start Group
Start Group
Amazon"
2707314,6000903893,6000673574,2020-12-16,26.7100,4.87,31.5800,ES,,"Start Fitness
Fitness
SF English"
2707470,AMZ24000588131,24000587088,2020-12-16,84.9200,16.99,101.9100,ES,,"Start Group
Start Group
Amazon"
2707521,AMZ24000588142,24000587099,2020-12-16,63.4200,12.69,76.1100,ES,,"Start Group
Start Group
Amazon"
2707678,AMZ24000588181,24000587138,2020-12-16,68.6200,13.72,82.3400,ES,,"Start Group
Start Group
Amazon"
2707744,AMZ24000588200,24000587157,2020-12-16,31.1700,6.24,37.4100,ES,,"Start Group
Start Group
Amazon"
2707747,AMZ24000588201,24000587158,2020-12-16,16.0700,3.21,19.2800,ES,,"Start Group
Start Group
Amazon"
2707790,AMZ24000588211,24000587168,2020-12-16,50.3100,0.00,50.3100,ES,,"Start Group
Start Group
Amazon"
2707798,AMZ24000588213,24000587170,2020-12-16,16.1200,3.23,19.3500,ES,,"Start Group
Start Group
Amazon"
2707805,AMZ24000588215,24000587172,2020-12-16,16.1200,3.23,19.3500,ES,,"Start Group
Start Group
Amazon"
2707868,AMZ24000588232,24000587189,2020-12-16,69.7700,13.95,83.7200,ES,,"Start Group
Start Group
Amazon"
2707869,AMZ24000588233,24000587190,2020-12-16,75.1400,15.03,90.1700,ES,,"Start Group
Start Group
Amazon"
2707904,AMZ24000588243,24000587200,2020-12-16,34.4000,6.88,41.2800,ES,,"Start Group
Start Group
Amazon"
2707930,AMZ24000588251,24000587208,2020-12-16,37.6200,7.53,45.1500,ES,,"Start Group
Start Group
Amazon"
2708003,AMZ24000588271,24000587228,2020-12-16,13.9000,2.78,16.6800,ES,,"Start Group
Start Group
Amazon"
2708115,AMZ24000588299,24000587256,2020-12-16,96.6400,19.33,115.9700,ES,,"Start Group
Start Group
Amazon"
2708139,AMZ24000588309,24000587266,2020-12-16,75.1400,15.03,90.1700,ES,,"Start Group
Start Group
Amazon"
2708154,AMZ24000588316,24000587273,2020-12-16,63.4200,12.69,76.1100,ES,,"Start Group
Start Group
Amazon"
2708224,AMZ24000588340,24000587297,2020-12-16,7.4200,1.48,8.9000,ES,,"Start Group
Start Group
Amazon"
2708239,AMZ24000588345,24000587302,2020-12-16,128.8900,25.78,154.6700,ES,,"Start Group
Start Group
Amazon"
2708273,AMZ24000588356,24000587313,2020-12-16,63.4200,12.69,76.1100,ES,,"Start Group
Start Group
Amazon"
2708362,AMZ24000588386,24000587343,2020-12-17,182.7400,36.56,219.3000,ES,,"Start Group
Start Group
Amazon"
2708383,AMZ24000588394,24000587351,2020-12-17,107.3900,21.48,128.8700,ES,,"Start Group
Start Group
Amazon"
2708465,AMZ24000588407,24000587364,2020-12-17,31.1700,6.24,37.4100,ES,,"Start Group
Start Group
Amazon"
2708477,AMZ24000588409,24000587366,2020-12-17,59.1200,11.83,70.9500,ES,,"Start Group
Start Group
Amazon"
2708511,AMZ24000588418,24000587375,2020-12-17,50.3100,0.00,50.3100,ES,,"Start Group
Start Group
Amazon"
2708530,AMZ24000588421,24000587378,2020-12-17,51.5900,0.00,51.5900,ES,,"Start Group
Start Group
Amazon"
2708531,AMZ24000588422,24000587379,2020-12-17,21.5000,4.30,25.8000,ES,,"Start Group
Start Group
Amazon"
2708605,AMZ24000588460,24000587417,2020-12-17,26.7700,5.35,32.1200,ES,,"Start Group
Start Group
Amazon"
2708606,AMZ24000588461,24000587418,2020-12-17,16.1200,3.23,19.3500,ES,,"Start Group
Start Group
Amazon"
2708688,AMZ24000588473,24000587430,2020-12-17,18.2700,3.66,21.9300,ES,,"Start Group
Start Group
Amazon"
2708750,AMZ24000588481,24000587438,2020-12-17,139.6900,27.94,167.6300,ES,,"Start Group
Start Group
Amazon"
2708800,AMZ24000588489,24000587446,2020-12-17,9.9200,1.98,11.9000,ES,,"Start Group
Start Group
Amazon"
2708863,AMZ24000588505,24000587462,2020-12-17,53.7500,10.75,64.5000,ES,,"Start Group
Start Group
Amazon"
2708894,AMZ24000588512,24000587469,2020-12-17,75.1400,15.03,90.1700,ES,,"Start Group
Start Group
Amazon"
2708909,AMZ24000588514,24000587471,2020-12-17,34.4300,6.89,41.3200,ES,,"Start Group
Start Group
Amazon"
2708910,AMZ24000588515,24000587472,2020-12-17,10.7500,2.15,12.9000,ES,,"Start Group
Start Group
Amazon"
2708929,AMZ24000588522,24000587479,2020-12-17,46.3700,9.27,55.6400,ES,,"Start Group
Start Group
Amazon"
2709032,AMZ24000588541,24000587498,2020-12-17,12.9000,2.58,15.4800,ES,,"Start Group
Start Group
Amazon"
2709078,AMZ24000588546,24000587503,2020-12-17,23.5400,4.71,28.2500,ES,,"Start Group
Start Group
Amazon"
2709080,6000904999,6000674644,2020-12-17,74.1700,15.57,89.7400,ES,,"Start Fitness
Fitness
SF English"
2709165,AMZ24000588569,24000587526,2020-12-17,106.4200,21.29,127.7100,ES,,"Start Group
Start Group
Amazon"
2709175,6000905067,6000674709,2020-12-17,0.0000,0.00,0.0000,ES,,"Start Fitness
Fitness
SF English"
2709222,AMZ24000588582,24000587539,2020-12-17,75.1400,15.03,90.1700,ES,,"Start Group
Start Group
Amazon"
2709326,AMZ24000588596,24000587553,2020-12-17,7.5200,1.51,9.0300,ES,,"Start Group
Start Group
Amazon"
2709373,AMZ24000588608,24000587565,2020-12-17,12.9000,2.58,15.4800,ES,,"Start Group
Start Group
Amazon"
2709398,AMZ24000588612,24000587569,2020-12-17,59.1200,11.83,70.9500,ES,,"Start Group
Start Group
Amazon"
2709407,AMZ24000588614,24000587571,2020-12-17,63.4200,12.69,76.1100,ES,,"Start Group
Start Group
Amazon"
2709438,AMZ24000588619,24000587576,2020-12-17,10.7500,2.15,12.9000,ES,,"Start Group
Start Group
Amazon"
2709462,AMZ24000588623,24000587580,2020-12-17,75.1400,15.03,90.1700,ES,,"Start Group
Start Group
Amazon"
2709574,6000905351,6000674970,2020-12-17,23.3600,4.91,28.2700,ES,,"Start Fitness
Fitness
SF English"
2709585,AMZ24000588658,24000587615,2020-12-17,17.0900,3.42,20.5100,ES,,"Start Group
Start Group
Amazon"
2709640,AMZ24000588668,24000587625,2020-12-17,18.1700,3.63,21.8000,ES,,"Start Group
Start Group
Amazon"
2709666,AMZ24000588673,24000587630,2020-12-17,74.1700,14.84,89.0100,ES,,"Start Group
Start Group
Amazon"
2709685,AMZ24000588680,24000587637,2020-12-17,21.5000,4.30,25.8000,ES,,"Start Group
Start Group
Amazon"
2709695,AMZ24000588683,24000587640,2020-12-17,32.1400,6.43,38.5700,ES,,"Start Group
Start Group
Amazon"
2709737,AMZ24000588691,24000587648,2020-12-17,10.7500,2.15,12.9000,ES,,"Start Group
Start Group
Amazon"
2709797,AMZ24000588704,24000587661,2020-12-18,45.1500,0.00,45.1500,ES,,"Start Group
Start Group
Amazon"
2709854,AMZ24000588712,24000587669,2020-12-18,32.1400,6.43,38.5700,ES,,"Start Group
Start Group
Amazon"
2709873,AMZ24000588717,24000587674,2020-12-18,32.1400,6.43,38.5700,ES,,"Start Group
Start Group
Amazon"
2709912,AMZ24000588727,24000587684,2020-12-18,13.8700,2.77,16.6400,ES,,"Start Group
Start Group
Amazon"
2709930,AMZ24000588734,24000587691,2020-12-18,8.6000,1.72,10.3200,ES,,"Start Group
Start Group
Amazon"
2709946,AMZ24000588737,24000587694,2020-12-18,64.2200,2.78,67.0000,ES,,"Start Group
Start Group
Amazon"
2709987,AMZ24000588752,24000587709,2020-12-18,16.1200,3.22,19.3400,ES,,"Start Group
Start Group
Amazon"
2710005,AMZ24000588755,24000587712,2020-12-18,139.6400,27.93,167.5700,ES,,"Start Group
Start Group
Amazon"
2710009,6000905618,6000675222,2020-12-18,158.8200,33.35,192.1700,ES,,"Start Fitness
Fitness
SF English"
2710076,6000905664,6000675271,2020-12-18,55.9600,10.20,66.1600,ES,,"Start Fitness
Fitness
SF English"
2710161,AMZ24000588778,24000587735,2020-12-18,29.9900,6.00,35.9900,ES,,"Start Group
Start Group
Amazon"
2710172,6000905747,6000675349,2020-12-18,103.3100,18.84,122.1500,ES,,"Start Fitness
Fitness
SF English"
2710226,AMZ24000588784,24000587741,2020-12-18,48.3700,9.68,58.0500,ES,,"Start Group
Start Group
Amazon"
2710230,AMZ24000588785,24000587742,2020-12-18,4.0300,0.81,4.8400,ES,,"Start Group
Start Group
Amazon"
2710369,6000905901,6000675493,2020-12-18,103.3100,18.84,122.1500,ES,,"Start Fitness
Fitness
SF English"
2710444,AMZ24000588820,24000587777,2020-12-18,43.0000,8.60,51.6000,ES,,"Start Group
Start Group
Amazon"
2710458,AMZ24000588823,24000587780,2020-12-18,84.9200,16.99,101.9100,ES,,"Start Group
Start Group
Amazon"
2710519,AMZ24000588837,24000587794,2020-12-18,10.6400,2.13,12.7700,ES,,"Start Group
Start Group
Amazon"
2710556,AMZ24000588841,24000587798,2020-12-18,4.0300,0.81,4.8400,ES,,"Start Group
Start Group
Amazon"
2710596,AMZ24000588850,24000587807,2020-12-18,63.4200,12.69,76.1100,ES,,"Start Group
Start Group
Amazon"
2710730,AMZ24000588877,24000587834,2020-12-18,25.8000,5.16,30.9600,ES,,"Start Group
Start Group
Amazon"
2710791,AMZ24000588890,24000587847,2020-12-18,127.9100,26.86,154.7700,ES,,"Start Group
Start Group
Amazon"
2710844,AMZ24000588899,24000587856,2020-12-18,118.2500,23.65,141.9000,ES,,"Start Group
Start Group
Amazon"
2711036,AMZ24000588938,24000587895,2020-12-19,32.2500,6.45,38.7000,ES,,"Start Group
Start Group
Amazon"
2711043,AMZ24000588940,24000587897,2020-12-19,63.4200,12.69,76.1100,ES,,"Start Group
Start Group
Amazon"
2711191,AMZ24000588965,24000587922,2020-12-19,106.4200,21.29,127.7100,ES,,"Start Group
Start Group
Amazon"
2711279,AMZ24000588979,24000587936,2020-12-19,138.6700,27.73,166.4000,ES,,"Start Group
Start Group
Amazon"
2711305,6000906505,6000676065,2020-12-19,181.9200,33.18,215.1000,ES,,"Start Fitness
Fitness
SF English"
2711309,EBY24000583479,24000582833,2020-12-19,25.0000,5.00,30.0000,ES,,"Start Group
Start Group
eBay"
2711369,AMZ24000588995,24000587952,2020-12-19,24.0700,4.82,28.8900,ES,,"Start Group
Start Group
Amazon"
2711380,AMZ24000588996,24000587953,2020-12-19,85.8900,17.18,103.0700,ES,,"Start Group
Start Group
Amazon"
2711531,6000906652,6000676202,2020-12-19,152.0900,31.94,184.0300,ES,,"Start Fitness
Fitness
SF English"
2711591,AMZ24000589040,24000587997,2020-12-19,46.3700,9.27,55.6400,ES,,"Start Group
Start Group
Amazon"
2711597,AMZ24000589042,24000587999,2020-12-19,68.6200,13.72,82.3400,ES,,"Start Group
Start Group
Amazon"
2711598,AMZ24000589043,24000588000,2020-12-19,68.6200,13.72,82.3400,ES,,"Start Group
Start Group
Amazon"
2711646,AMZ24000589051,24000588008,2020-12-19,106.4200,22.35,128.7700,ES,,"Start Group
Start Group
Amazon"
2711668,6000906747,6000676296,2020-12-19,42.1000,7.68,49.7800,ES,,"Start Fitness
Fitness
SF English"
2711693,AMZ24000589064,24000588021,2020-12-19,16.0700,3.21,19.2800,ES,,"Start Group
Start Group
Amazon"
2711763,AMZ24000589075,24000588032,2020-12-19,53.7500,10.75,64.5000,ES,,"Start Group
Start Group
Amazon"
2711780,AMZ24000589079,24000588036,2020-12-19,115.9700,0.00,115.9700,ES,,"Start Group
Start Group
Amazon"
2711858,AMZ24000589095,24000588052,2020-12-19,43.0000,8.60,51.6000,ES,,"Start Group
Start Group
Amazon"
2711932,AMZ24000589106,24000588063,2020-12-19,24.6200,4.92,29.5400,ES,,"Start Group
Start Group
Amazon"
2711936,AMZ24000589107,24000588064,2020-12-19,8.6000,1.72,10.3200,ES,,"Start Group
Start Group
Amazon"
2711989,AMZ24000589113,24000588070,2020-12-19,115.9900,23.20,139.1900,ES,,"Start Group
Start Group
Amazon"
2712010,AMZ24000589120,24000588077,2020-12-19,43.0000,8.60,51.6000,ES,,"Start Group
Start Group
Amazon"
2712021,AMZ24000589123,24000588080,2020-12-19,10.7500,2.15,12.9000,ES,,"Start Group
Start Group
Amazon"
2712044,AMZ24000589128,24000588085,2020-12-19,81.5900,16.32,97.9100,ES,,"Start Group
Start Group
Amazon"
2712104,AMZ24000589141,24000588098,2020-12-19,53.7500,10.75,64.5000,ES,,"Start Group
Start Group
Amazon"
2712135,AMZ24000589145,24000588102,2020-12-19,118.2500,23.65,141.9000,ES,,"Start Group
Start Group
Amazon"
2712166,AMZ24000589148,24000588105,2020-12-19,84.9200,16.99,101.9100,ES,,"Start Group
Start Group
Amazon"
2712186,AMZ24000589149,24000588106,2020-12-19,72.9900,14.60,87.5900,ES,,"Start Group
Start Group
Amazon"
2712218,AMZ24000589154,24000588111,2020-12-19,2.1500,0.43,2.5800,ES,,"Start Group
Start Group
Amazon"
2712257,AMZ24000589160,24000588117,2020-12-20,105.5800,0.00,105.5800,ES,,"Start Group
Start Group
Amazon"
2712279,AMZ24000589163,24000588120,2020-12-20,32.1400,6.43,38.5700,ES,,"Start Group
Start Group
Amazon"
2712406,6000907236,6000676764,2020-12-20,65.8300,13.83,79.6600,ES,,"Start Fitness
Fitness
SF English"
2712471,AMZ24000589195,24000588152,2020-12-20,48.2700,9.65,57.9200,ES,,"Start Group
Start Group
Amazon"
2712515,AMZ24000589206,24000588163,2020-12-20,21.5000,4.30,25.8000,ES,,"Start Group
Start Group
Amazon"
2712541,6000907335,6000676860,2020-12-20,46.5500,9.77,56.3200,ES,,"Start Fitness
Fitness
SF English"
2712583,AMZ24000589220,24000588177,2020-12-20,75.1400,15.03,90.1700,ES,,"Start Group
Start Group
Amazon"
2712650,AMZ24000589239,24000588196,2020-12-20,63.4200,12.69,76.1100,ES,,"Start Group
Start Group
Amazon"
2712666,AMZ24000589242,24000588199,2020-12-20,10.7500,2.15,12.9000,ES,,"Start Group
Start Group
Amazon"
2712694,EBY24000583666,24000583020,2020-12-20,47.8200,10.04,57.8600,ES,,"Start Group
Start Group
eBay"
2712703,AMZ24000589250,24000588207,2020-12-20,26.8700,5.38,32.2500,ES,,"Start Group
Start Group
Amazon"
2712744,AMZ24000589256,24000588213,2020-12-20,84.9200,16.99,101.9100,ES,,"Start Group
Start Group
Amazon"
2712745,AMZ24000589257,24000588214,2020-12-20,118.2500,23.65,141.9000,ES,,"Start Group
Start Group
Amazon"
2712788,6000907506,6000677023,2020-12-20,123.2900,25.89,149.1800,ES,,"Start Fitness
Fitness
SF English"
2712824,AMZ24000589274,24000588231,2020-12-20,32.1400,6.43,38.5700,ES,,"Start Group
Start Group
Amazon"
2712884,AMZ24000589284,24000588241,2020-12-20,26.8700,5.64,32.5100,ES,,"Start Group
Start Group
Amazon"
2712906,AMZ24000589291,24000588248,2020-12-20,48.3700,9.68,58.0500,ES,,"Start Group
Start Group
Amazon"
2712911,AMZ24000589294,24000588251,2020-12-20,43.0000,8.60,51.6000,ES,,"Start Group
Start Group
Amazon"
2712985,AMZ24000589306,24000588263,2020-12-20,118.1400,23.63,141.7700,ES,,"Start Group
Start Group
Amazon"
2713000,AMZ24000589310,24000588267,2020-12-20,80.6200,16.13,96.7500,ES,,"Start Group
Start Group
Amazon"
2713070,AMZ24000589328,24000588285,2020-12-20,63.4200,12.69,76.1100,ES,,"Start Group
Start Group
Amazon"
2713118,AMZ24000589331,24000588288,2020-12-20,105.5800,0.00,105.5800,ES,,"Start Group
Start Group
Amazon"
2713145,AMZ24000589338,24000588295,2020-12-20,15.0500,3.01,18.0600,ES,,"Start Group
Start Group
Amazon"
2713147,6000907759,6000677263,2020-12-20,39.8400,7.26,47.1000,ES,,"Start Fitness
Fitness
SF English"
2713169,AMZ24000589341,24000588298,2020-12-20,63.4200,12.69,76.1100,ES,,"Start Group
Start Group
Amazon"
2713180,AMZ24000589344,24000588301,2020-12-20,105.8900,21.18,127.0700,ES,,"Start Group
Start Group
Amazon"
2713209,AMZ24000589354,24000588311,2020-12-20,75.1400,15.03,90.1700,ES,,"Start Group
Start Group
Amazon"
2713255,AMZ24000589361,24000588318,2020-12-20,75.1400,15.03,90.1700,ES,,"Start Group
Start Group
Amazon"
2713280,AMZ24000589363,24000588320,2020-12-20,50.3100,0.00,50.3100,ES,,"Start Group
Start Group
Amazon"
2713341,AMZ24000589383,24000588340,2020-12-20,7.4200,1.48,8.9000,ES,,"Start Group
Start Group
Amazon"
2713423,AMZ24000589400,24000588357,2020-12-20,59.0200,11.80,70.8200,ES,,"Start Group
Start Group
Amazon"
2713432,AMZ24000589404,24000588361,2020-12-20,26.8700,5.38,32.2500,ES,,"Start Group
Start Group
Amazon"
2713448,AMZ24000589408,24000588365,2020-12-20,26.8700,5.38,32.2500,ES,,"Start Group
Start Group
Amazon"
2713470,AMZ24000589413,24000588370,2020-12-20,10.7500,2.15,12.9000,ES,,"Start Group
Start Group
Amazon"
2713471,AMZ24000589414,24000588371,2020-12-20,10.7500,2.15,12.9000,ES,,"Start Group
Start Group
Amazon"
2713494,AMZ24000589418,24000588375,2020-12-21,64.3900,12.88,77.2700,ES,,"Start Group
Start Group
Amazon"
2713562,AMZ24000589430,24000588387,2020-12-21,106.4200,21.29,127.7100,ES,,"Start Group
Start Group
Amazon"
2713603,AMZ24000589439,24000588396,2020-12-21,8.9000,0.00,8.9000,ES,,"Start Group
Start Group
Amazon"
2713620,AMZ24000589442,24000588399,2020-12-21,60.2700,12.06,72.3300,ES,,"Start Group
Start Group
Amazon"
2713631,AMZ24000589445,24000588402,2020-12-21,8.6000,1.81,10.4100,ES,,"Start Group
Start Group
Amazon"
2713685,AMZ24000589452,24000588409,2020-12-21,51.5900,0.00,51.5900,ES,,"Start Group
Start Group
Amazon"
2713691,AMZ24000589453,24000588410,2020-12-21,32.1400,6.43,38.5700,ES,,"Start Group
Start Group
Amazon"
2713692,AMZ24000589454,24000588411,2020-12-21,26.8700,5.38,32.2500,ES,,"Start Group
Start Group
Amazon"
2713742,AMZ24000589462,24000588419,2020-12-21,111.2300,22.25,133.4800,ES,,"Start Group
Start Group
Amazon"
2713858,AMZ24000589480,24000588437,2020-12-21,75.1400,15.03,90.1700,ES,,"Start Group
Start Group
Amazon"
2713869,AMZ24000589483,24000588440,2020-12-21,26.8700,5.38,32.2500,ES,,"Start Group
Start Group
Amazon"
2713921,AMZ24000589492,24000588449,2020-12-21,118.2500,23.65,141.9000,ES,,"Start Group
Start Group
Amazon"
2714010,AMZ24000589504,24000588461,2020-12-21,96.6400,20.29,116.9300,ES,,"Start Group
Start Group
Amazon"
2714046,AMZ24000589516,24000588473,2020-12-21,25.8000,0.00,25.8000,ES,,"Start Group
Start Group
Amazon"
2714252,AMZ24000589676,24000588633,2020-12-21,46.3700,9.74,56.1100,ES,,"Start Group
Start Group
Amazon"
2715674,EBY24000584032,24000583386,2020-12-23,33.2500,6.65,39.9000,ES,,"Start Group
Start Group
eBay"
2715834,EBY24000584054,24000583408,2020-12-23,20.7500,4.15,24.9000,ES,,"Start Group
Start Group
eBay"
2716099,EBY24000584093,24000583444,2020-12-23,74.7800,14.96,89.7400,ES,,"Start Group
Start Group
eBay"
2716140,6000909813,6000679193,2020-12-23,137.0200,28.78,165.8000,ES,,"Start Fitness
Fitness
SF English"
2716602,EBY24000584160,24000583511,2020-12-24,91.6700,18.33,110.0000,ES,,"Start Group
Start Group
eBay"
2717175,6000910254,6000679606,2020-12-25,2082.5000,437.33,2519.8300,ES,,"Start Fitness
Fitness
SF English"
2717572,6000910505,6000679841,2020-12-25,60.6300,11.06,71.6900,ES,,"Start Fitness
Fitness
SF English"
2719205,6000911722,6000681005,2020-12-26,70.0200,14.70,84.7200,ES,,"Start Fitness
Fitness
SF English"
2719372,6000911843,6000681126,2020-12-26,68.0000,12.41,80.4100,ES,,"Start Fitness
Fitness
SF English"
2720265,EBY24000584636,24000583987,2020-12-27,12.5000,2.50,15.0000,ES,,"Start Group
Start Group
eBay"
2721316,6000913300,6000682507,2020-12-27,72.3300,12.16,84.4900,ES,,"Start Fitness
Fitness
SF English"
2723834,6000908425,6000684221,2020-12-28,101.7900,21.38,123.1700,ES,,"Start Fitness
Fitness
SF English"
2724159,EBY24000585173,24000584518,2020-12-29,29.4300,5.89,35.3200,ES,,"Start Group
Start Group
eBay"
2725104,6000916071,6000685115,2020-12-29,65.4400,13.74,79.1800,ES,,"Start Fitness
Fitness
SF English"
2725633,6000916459,6000685481,2020-12-29,92.4500,19.41,111.8600,ES,,"Start Fitness
Fitness
SF English"
2726451,6000916994,6000685996,2020-12-30,94.8300,19.92,114.7500,ES,,"Start Fitness
Fitness
SF English"
2726514,6000916660,6000686041,2020-12-30,111.9200,20.42,132.3400,ES,,"Start Fitness
Fitness
SF English"
2726708,EBY24000585495,24000584838,2020-12-30,12.5000,2.50,15.0000,ES,,"Start Group
Start Group
eBay"
2726927,6000917378,6000686361,2020-12-30,134.2400,28.19,162.4300,ES,,"Start Fitness
Fitness
SF English"
2727123,6000917527,6000686506,2020-12-30,152.5500,30.01,182.5600,ES,,"Start Fitness
Fitness
SF English"
2728605,6000918639,6000687548,2020-12-31,0.0000,0.00,0.0000,ES,,"Start Fitness
Fitness
SF English"
