entity_id,store_id,base_grand_total,shipping_tax_amount,tax_amount,base_tax_amount,store_to_order_rate,base_shipping_tax_amount,base_discount_amount,base_to_order_rate,grand_total,shipping_amount,subtotal_incl_tax,base_subtotal_incl_tax,store_to_base_rate,base_shipping_amount,total_qty,base_to_global_rate,subtotal,base_subtotal,discount_amount,billing_address_id,is_used_for_refund,order_id,email_sent,can_void_flag,state,shipping_address_id,store_currency_code,transaction_id,order_currency_code,base_currency_code,global_currency_code,increment_id,created_at,updated_at,hidden_tax_amount,base_hidden_tax_amount,shipping_hidden_tax_amount,base_shipping_hidden_tax_amnt,shipping_incl_tax,base_shipping_incl_tax,base_total_refunded,base_customer_balance_amount,customer_balance_amount,base_gift_cards_amount,gift_cards_amount,gw_base_price,gw_price,gw_items_base_price,gw_items_price,gw_card_base_price,gw_card_price,gw_base_tax_amount,gw_tax_amount,gw_items_base_tax_amount,gw_items_tax_amount,gw_card_base_tax_amount,gw_card_tax_amount,base_reward_currency_amount,reward_currency_amount,reward_points_balance,discount_description,payment_fee_amount,base_payment_fee_amount,payment_installment_fee_amount,base_payment_installment_fee_amount,payment_fee_tax,base_payment_fee_tax,payment_percentage_fee,base_payment_percentage_fee
2195491,6,89.0500,0.0000,0.0000,0.0000,1.0000,0.0000,-9.1600,1.0000,89.0500,6.6300,91.5800,91.5800,1.0000,6.6300,2.0000,1.0000,91.5800,91.5800,-9.1600,4500353,,2251310,,,2,4500354,GBP,1745832266665145,GBP,GBP,GBP,600678551,"2020-03-03 09:13:02","2020-03-03 09:13:02",0.0000,0.0000,0.0000,,6.6300,6.6300,,0.0000,0.0000,0.0000,0.0000,,,,,,,,,,,,,,,,SIMEK10,0.0000,0.0000,0.0000,0.0000,0.0000,0.0000,0.0000,0.0000
2199089,6,59.1300,0.0000,0.0000,0.0000,1.0000,0.0000,-9.1600,1.0000,59.1300,6.6300,91.5800,91.5800,1.0000,6.6300,2.0000,1.0000,91.5800,91.5800,-9.1600,4507890,,2255083,,,2,4507891,GBP,1535834946802266,GBP,GBP,GBP,600679375,"2020-03-06 11:39:02","2020-03-06 11:39:02",0.0000,0.0000,0.0000,,6.6300,6.6300,,29.9200,29.9200,0.0000,0.0000,,,,,,,,,,,,,,,,SIMEK10,0.0000,0.0000,0.0000,0.0000,0.0000,0.0000,0.0000,0.0000
