"Invoice Entity ID","Order number","Invoice Number","Invoice date","GBP Net goods after discount","GBP VAT on Goods","GBP Gross goods after discount",country_id,"Store Credit Used",store_name
2731037,6000920020,6000689336,2021-01-01,110.2000,0.00,110.2000,PL,,"Start Fitness
Fitness
SF English"
2740636,6000927281,6000695737,2021-01-07,407.2900,0.00,407.2900,PL,,"Start Fitness
Fitness
SF English"
2740780,6000927351,6000695801,2021-01-07,98.3400,0.00,98.3400,PL,,"Start Fitness
Fitness
SF English"
2741706,6000928036,6000696441,2021-01-07,251.2600,0.00,251.2600,PL,,"Start Fitness
Fitness
SF English"
2742911,6000928847,6000697221,2021-01-08,33.6800,0.00,33.6800,PL,,"Start Fitness
Fitness
SF English"
2751298,6000934356,6000702457,2021-01-13,33.3300,0.00,33.3300,PL,,"Start Fitness
Fitness
SF English"
2756524,6000939066,6000705658,2021-01-16,145.5100,0.00,145.5100,PL,,"Start Fitness
Fitness
SF English"
2769549,6000947224,6000713388,2021-01-24,22.4900,0.00,22.4900,PL,,"Start Fitness
Fitness
SF English"
2775276,6000950880,6000716836,2021-01-28,95.7500,0.00,95.7500,PL,,"Start Fitness
Fitness
SF English"
