item_id,order_item_id,"Invoice ID","Order Number","Customer name",customer_email,"Invoice No","Invoice Date",country_id,base_row_total_incl_tax,store_name,name,base_discount_amount,"Value less discount",tax_percent,"Net Discounted Amount","Return Date",month_year,value,product_id,customer_group_id,"net based on catalog vat","New tax"
7389394,7389394,2652096,6000872709,"Artur Zawadzki",artur.zawadzki@gmail.com,6000643946,"2020-11-23 11:51:47",PL,39.9000,"Start Fitness
Fitness
SF English","Ronhill Core Mens Running Jacket - Navy",,39.9000,20.0000,33.25000000,122020,112020,2,380158,0,33.25,33.2500
7392608,7392608,2653312,6000873452,"Anna Kotowicz",ania-kotowicz@wp.pl,6000644643,"2020-11-23 21:13:32",PL,69.9000,"Start Fitness
Fitness
SF English","Asics Future Camo Mens Running Jacket - Green",,69.9000,20.0000,58.25000000,122020,112020,2,381152,0,58.25,58.2500
7338015,7338015,2632456,6000861189,"Katarzyna Kolcz",kate.kolcz@gmail.com,6000632950,"2020-11-12 09:44:56",PL,40.0000,"Start Fitness
Fitness
SF English","Scott RC AS ++ Mens Cycling Bib Tights - Black",,40.0000,20.0000,33.33333333,122020,112020,2,361266,0,33.33,33.3300
7362472,7362472,2642169,6000866798,"Maria Getman",chechenb@gmail.com,6000638290,"2020-11-17 20:32:58",PL,15.0000,"Start Fitness
Fitness
SF English","Salming Flow Womens Running Tights - Pink",,15.0000,20.0000,12.50000000,122020,112020,2,365548,0,12.50,12.5000
7362474,7362474,2642169,6000866798,"Maria Getman",chechenb@gmail.com,6000638290,"2020-11-17 20:32:58",PL,10.0000,"Start Fitness
Fitness
SF English","Gilbert Blitz Half Zip Soft Shell Womens Training Jacket - Black",,10.0000,20.0000,8.33333333,122020,112020,2,366270,0,8.33,8.3300
7389388,7389388,2652096,6000872709,"Artur Zawadzki",artur.zawadzki@gmail.com,6000643946,"2020-11-23 11:51:47",PL,64.9000,"Start Fitness
Fitness
SF English","Ronhill Tech Tornado Mens Running Jacket - Blue",,64.9000,20.0000,54.08333333,122020,112020,2,379213,0,54.08,54.0800
7389390,7389390,2652096,6000872709,"Artur Zawadzki",artur.zawadzki@gmail.com,6000643946,"2020-11-23 11:51:47",PL,44.9000,"Start Fitness
Fitness
SF English","Ronhill Life Nightrunner Mens Long Running Tights - Black",,44.9000,20.0000,37.41666667,122020,112020,2,380218,0,37.42,37.4200
7389392,7389392,2652096,6000872709,"Artur Zawadzki",artur.zawadzki@gmail.com,6000643946,"2020-11-23 11:51:47",PL,69.9000,"Start Fitness
Fitness
SF English","Ronhill Life Nightrunner Mens Running Jacket - Blue",,69.9000,20.0000,58.25000000,122020,112020,2,380168,0,58.25,58.2500
7390708,7390708,2652550,6000872995,"Anna Tkocz",anyatkocz@gmail.com,6000644210,"2020-11-23 15:31:20",PL,49.9000,"Start Fitness
Fitness
SF English","Scott Trail MTN Insulated Womens Cycling Jacket - Red",,49.9000,20.0000,41.58333333,122020,112020,2,376860,1,41.58,41.5800
7390710,7390710,2652550,6000872995,"Anna Tkocz",anyatkocz@gmail.com,6000644210,"2020-11-23 15:31:20",PL,6.9000,"Start Fitness
Fitness
SF English","Scott Trail MTN Womens Cycling Vest Tank Top - Red",,6.9000,20.0000,5.75000000,122020,112020,2,376905,1,5.75,5.7500
7390892,7390892,2652610,AMZ24000577239,"M2E Orders",m2eorders@startfitness.co.uk,24000576200,"2020-11-23 15:57:04",PL,56.7600,"Start Group
Start Group
Amazon","Under Armour Original Series (2 Pack) Printed Mens Boxer Jock - Green-L",,56.7600,20.0000,47.30000000,122020,112020,2,330601,1,47.30,47.3000
7300146,7300146,2616617,AMZ24000567970,"M2E Orders",m2eorders@startfitness.co.uk,24000566930,"2020-11-02 12:42:50",PL,28.6400,"Start Group
Start Group
Amazon","Zone3 Neoprene Swim Cap - Black-L",,28.6400,19.9851,23.86963048,122020,112020,2,368496,1,23.87,23.8700
7301289,7301289,2617234,AMZ24000568006,"M2E Orders",m2eorders@startfitness.co.uk,24000566966,"2020-11-02 13:55:26",PL,28.6400,"Start Group
Start Group
Amazon","Zone3 Neoprene Swim Cap - Black-L",,28.6400,19.9851,23.86963048,122020,112020,2,368496,1,23.87,23.8700
7418899,7418899,2662827,AMZ24000579897,"M2E Orders",m2eorders@startfitness.co.uk,24000578854,"2020-11-27 21:39:20",PL,19.9900,"Start Group
Start Group
Amazon","Sub Sports Cold Thermal Compression Mens Base Layer Top - Black-XL",,19.9900,19.9880,16.65999933,122020,112020,2,365090,1,16.66,16.6600
7304262,7304262,2619008,6000854124,"Michal Szczesny",athanor@wp.pl,6000626197,"2020-11-03 09:44:22",PL,25.0000,"Start Fitness
Fitness
SF English","Salming Quest Mens Running Shoes - Black",,25.0000,20.0000,20.83333333,122020,112020,2,365837,1,20.83,20.8300
7419854,7419854,2663129,6000879335,"Łukasz Gajda",l.gajdax@gmail.com,6000650266,"2020-11-27 22:52:27",PL,6.9000,"Start Fitness
Fitness
SF English","Scott RC Team Short Sleeve Junior Cycling Jersey - Blue",0.6900,6.2100,0.0000,6.21000000,122020,112020,5,362777,1,6.21,6.2100
7316358,7316358,2623898,AMZ24000570293,"M2E Orders",m2eorders@startfitness.co.uk,24000569254,"2020-11-07 11:49:02",PL,40.8900,"Start Group
Start Group
Amazon","Ronhill Everyday Mens Running Jacket - Yellow-M",,40.8900,20.0176,34.07000307,122020,112020,2,231726,1,34.08,34.0800
7419856,7419856,2663129,6000879335,"Łukasz Gajda",l.gajdax@gmail.com,6000650266,"2020-11-27 22:52:27",PL,6.9000,"Start Fitness
Fitness
SF English","Scott RC Team Short Sleeve Junior Cycling Jersey - Blue",0.6900,6.2100,0.0000,6.21000000,122020,112020,5,362777,1,6.21,6.2100
7320899,7320899,2625672,EBY24000569947,"M2E Orders",m2eorders@startfitness.co.uk,24000569335,"2020-11-08 12:45:40",PL,132.9900,"Start Group
Start Group
eBay","Castelli Gabba 3 Mens Short Sleeve Cycling Jersey - Black",,132.9900,20.0000,110.82500000,122020,112020,2,239272,1,110.83,110.8300
7419858,7419858,2663129,6000879335,"Łukasz Gajda",l.gajdax@gmail.com,6000650266,"2020-11-27 22:52:27",PL,7.9000,"Start Fitness
Fitness
SF English","Scott RC Team Short Sleeve Junior Cycling Jersey - Orange",0.7900,7.1100,0.0000,7.11000000,122020,112020,5,362772,1,7.11,7.1100
7322874,7322874,2626435,EBY24000570084,"M2E Orders",m2eorders@startfitness.co.uk,24000569472,"2020-11-08 18:23:29",PL,22.9800,"Start Group
Start Group
eBay","Muc-Off Tubeless Valve Set 44mm - Iridescent",,22.9800,20.0000,19.15000000,122020,112020,2,360284,1,19.15,19.1500
7419860,7419860,2663129,6000879335,"Łukasz Gajda",l.gajdax@gmail.com,6000650266,"2020-11-27 22:52:27",PL,7.9000,"Start Fitness
Fitness
SF English","Scott RC Team Short Sleeve Junior Cycling Jersey - Orange",0.7900,7.1100,0.0000,7.11000000,122020,112020,5,362772,1,7.11,7.1100
7323903,7323903,2626785,EBY24000570153,"M2E Orders",m2eorders@startfitness.co.uk,24000569541,"2020-11-08 20:35:00",PL,17.9900,"Start Group
Start Group
eBay","adidas Cotton Fleece Womens Training Hoody - Blue",,17.9900,20.0000,14.99166667,122020,112020,2,229874,1,14.99,14.9900
7419862,7419862,2663129,6000879335,"Łukasz Gajda",l.gajdax@gmail.com,6000650266,"2020-11-27 22:52:27",PL,9.9000,"Start Fitness
Fitness
SF English","Scott Trail 20 Loose Fit Junior Cycling Shorts - Red",0.9900,8.9100,0.0000,8.91000000,122020,112020,5,362735,1,8.91,8.9100
7419864,7419864,2663129,6000879335,"Łukasz Gajda",l.gajdax@gmail.com,6000650266,"2020-11-27 22:52:27",PL,9.9000,"Start Fitness
Fitness
SF English","Scott Trail 20 Loose Fit Junior Cycling Shorts - Red",0.9900,8.9100,0.0000,8.91000000,122020,112020,5,362735,1,8.91,8.9100
7338832,7338832,2632789,AMZ24000572498,"M2E Orders",m2eorders@startfitness.co.uk,24000571459,"2020-11-12 13:38:51",PL,38.6900,"Start Group
Start Group
Amazon","Syncros RR2.0 Stem - Black-80mm",,38.6900,20.0062,32.24000093,122020,112020,2,287188,1,32.24,32.2400
7419866,7419866,2663129,6000879335,"Łukasz Gajda",l.gajdax@gmail.com,6000650266,"2020-11-27 22:52:27",PL,3.0000,"Start Fitness
Fitness
SF English","Craft Pro Cool Long Sleeve Junior Running Top - Black",0.3000,2.7000,0.0000,2.70000000,122020,112020,5,329103,1,2.70,2.7000
7339351,7339351,2632997,EBY24000571407,"M2E Orders",m2eorders@startfitness.co.uk,24000570778,"2020-11-12 15:48:08",PL,39.0000,"Start Group
Start Group
eBay","adidas Believe This PrimeKnit FLW Womens Long Training Tights - Black",,39.0000,20.0000,32.50000000,122020,112020,2,344985,1,32.50,32.5000
7419868,7419868,2663129,6000879335,"Łukasz Gajda",l.gajdax@gmail.com,6000650266,"2020-11-27 22:52:27",PL,7.0000,"Start Fitness
Fitness
SF English","Gilbert Revolution Junior Training Jacket - Blue",0.7000,6.3000,0.0000,6.30000000,122020,112020,5,366594,1,6.30,6.3000
7419870,7419870,2663129,6000879335,"Łukasz Gajda",l.gajdax@gmail.com,6000650266,"2020-11-27 22:52:27",PL,5.0000,"Start Fitness
Fitness
SF English","Gilbert Vapour Short Sleeve Junior Polo Shirt - Black",0.5000,4.5000,0.0000,4.50000000,122020,112020,5,366521,1,4.50,4.5000
7419872,7419872,2663129,6000879335,"Łukasz Gajda",l.gajdax@gmail.com,6000650266,"2020-11-27 22:52:27",PL,3.0000,"Start Fitness
Fitness
SF English","Craft Pro Cool Long Sleeve Junior Running Top - Navy",0.3000,2.7000,0.0000,2.70000000,122020,112020,5,329085,1,2.70,2.7000
7419874,7419874,2663129,6000879335,"Łukasz Gajda",l.gajdax@gmail.com,6000650266,"2020-11-27 22:52:27",PL,20.0000,"Start Fitness
Fitness
SF English","adidas Ace 16.1 Firm Ground Junior Football Boots - Silver",2.0000,18.0000,0.0000,18.00000000,122020,112020,5,181457,1,18.00,18.0000
7365495,7365495,2643394,AMZ24000575015,"M2E Orders",m2eorders@startfitness.co.uk,24000573976,"2020-11-18 17:29:20",PL,67.9400,"Start Group
Start Group
Amazon","Renthal Fatbar V2 31.8mm - Black-40",,67.9400,19.9929,56.62001668,122020,112020,2,285373,1,56.62,56.6200
7426583,7426583,2665825,EBY24000576990,"M2E Orders",m2eorders@startfitness.co.uk,24000576350,"2020-11-28 22:19:23",PL,28.8200,"Start Group
Start Group
eBay","Syncros Speed iS Direct Mount 450 Saddle Bag",,28.8200,20.0000,24.01666667,122020,112020,2,346794,1,24.02,24.0200
7370909,7370909,2645354,6000868707,"Arek Rozumek",arek_roz@wp.pl,6000640122,"2020-11-19 21:23:51",PL,6.9000,"Start Fitness
Fitness
SF English","Scott Trail MTN Womens Cycling Vest Tank Top - Red",0.6900,6.2100,20.0000,5.17500000,122020,112020,2,376905,1,5.18,5.1800
7426584,7426584,2665825,EBY24000576990,"M2E Orders",m2eorders@startfitness.co.uk,24000576350,"2020-11-28 22:19:23",PL,31.0700,"Start Group
Start Group
eBay","Syncros Speed iS Direct Mount 650 Saddle Bag",,31.0700,20.0000,25.89166667,122020,112020,2,346793,1,25.89,25.8900
7370911,7370911,2645354,6000868707,"Arek Rozumek",arek_roz@wp.pl,6000640122,"2020-11-19 21:23:51",PL,10.0000,"Start Fitness
Fitness
SF English","Scott Ridance Full Finger Cycling Gloves - Grey",1.0000,9.0000,20.0000,7.50000000,122020,112020,2,360895,1,7.50,7.5000
7432007,7432007,2667786,6000882017,"Krzysztof  Szczerbak",alpina2003@wp.pl,6000652841,"2020-11-29 18:33:44",PL,20.0000,"Start Fitness
Fitness
SF English","DBlade Hi Visibility Winter Jacket - Yellow",2.0000,18.0000,20.0000,15.00000000,122020,112020,2,311015,1,15.00,15.0000
7370913,7370913,2645354,6000868707,"Arek Rozumek",arek_roz@wp.pl,6000640122,"2020-11-19 21:23:51",PL,59.0000,"Start Fitness
Fitness
SF English","Scott Fuga Plus Rev MTB Cycling Helmet - White",5.9000,53.1000,0.0000,53.10000000,122020,112020,5,360604,1,53.10,53.1000
7432009,7432009,2667786,6000882017,"Krzysztof  Szczerbak",alpina2003@wp.pl,6000652841,"2020-11-29 18:33:44",PL,20.0000,"Start Fitness
Fitness
SF English","DBlade Hi Visibility Winter Jacket - Yellow",2.0000,18.0000,20.0000,15.00000000,122020,112020,2,311015,1,15.00,15.0000
7370915,7370915,2645354,6000868707,"Arek Rozumek",arek_roz@wp.pl,6000640122,"2020-11-19 21:23:51",PL,29.8000,"Start Fitness
Fitness
SF English","Scott RC Premium Short Sleeve Mens Cycling Jersey - Orange",2.9800,26.8200,20.0000,22.35000000,122020,112020,2,376392,1,22.35,22.3500
7432011,7432011,2667786,6000882017,"Krzysztof  Szczerbak",alpina2003@wp.pl,6000652841,"2020-11-29 18:33:44",PL,20.0000,"Start Fitness
Fitness
SF English","DBlade Hi Visibility Winter Jacket - Yellow",2.0000,18.0000,20.0000,15.00000000,122020,112020,2,311015,1,15.00,15.0000
7370917,7370917,2645354,6000868707,"Arek Rozumek",arek_roz@wp.pl,6000640122,"2020-11-19 21:23:51",PL,29.8000,"Start Fitness
Fitness
SF English","Scott Trail MTN Tech Short Sleeve Mens Cycling Jersey - Green",2.9800,26.8200,20.0000,22.35000000,122020,112020,2,376539,1,22.35,22.3500
7370919,7370919,2645354,6000868707,"Arek Rozumek",arek_roz@wp.pl,6000640122,"2020-11-19 21:23:51",PL,49.9000,"Start Fitness
Fitness
SF English","Scott Trail Tech Hybrid (With Pad) Mens Cycling Bib Shorts - Black",4.9900,44.9100,20.0000,37.42500000,122020,112020,2,361911,1,37.43,37.4300
7370921,7370921,2645354,6000868707,"Arek Rozumek",arek_roz@wp.pl,6000640122,"2020-11-19 21:23:51",PL,5.0000,"Start Fitness
Fitness
SF English","Scott Trail Low Cut Cycling Socks - White",0.5000,4.5000,20.0000,3.75000000,122020,112020,2,361214,1,3.75,3.7500
7370923,7370923,2645354,6000868707,"Arek Rozumek",arek_roz@wp.pl,6000640122,"2020-11-19 21:23:51",PL,6.0000,"Start Fitness
Fitness
SF English","Scott Trail Cycling Socks - Black",0.6000,5.4000,20.0000,4.50000000,122020,112020,2,361204,1,4.50,4.5000
7370925,7370925,2645354,6000868707,"Arek Rozumek",arek_roz@wp.pl,6000640122,"2020-11-19 21:23:51",PL,14.9000,"Start Fitness
Fitness
SF English","Scott 10 Icon Womens Cycling Hoody - Blue",1.4900,13.4100,20.0000,11.17500000,122020,112020,2,362512,1,11.18,11.1800
7373258,7373258,2646220,6000869243,"george dub",karola0204@tlen.pl,6000640619,"2020-11-20 13:01:18",PL,549.0000,"Start Fitness
Fitness
SF English","Tacx Flux S Smart Trainer - Black",,549.0000,20.0000,457.50000000,122020,112020,2,354045,1,457.50,457.5000
7381560,7381560,2649133,6000870977,"Zbigniew Jaworski",jjazz@op.pl,6000642288,"2020-11-21 21:02:28",PL,75.0000,"Start Fitness
Fitness
SF English","More Mile Cheviot 4 Mens Trail Running Shoes - Black",,75.0000,20.0000,62.50000000,122020,112020,2,233469,1,62.50,62.5000
7381562,7381562,2649133,6000870977,"Zbigniew Jaworski",jjazz@op.pl,6000642288,"2020-11-21 21:02:28",PL,2.0000,"Start Fitness
Fitness
SF English","More Mile Tokyo Compression Socks - White",,2.0000,20.0000,1.66666667,122020,112020,2,86841,1,1.67,1.6700
