item_id,order_item_id,"Invoice ID","Order Number","Customer name",customer_email,"Invoice No","Invoice Date",country_id,base_row_total_incl_tax,store_name,name,base_discount_amount,"Value less discount",tax_percent,"Net Discounted Amount","Return Date",month_year,value,product_id,customer_group_id,"net based on catalog vat","New tax"
6418230,6418230,2266640,2400676864,"Morten Ju Hansen",3cmychqm5bfgxhg@marketplace.amazon.co.uk,2400676279,"2020-04-16 18:37:06",DK,31.2000,"Start Group
Start Group
Amazon","More Mile Cheviot 4 Mens Trail Running Shoes - Black-8.5",,31.2000,25.0000,24.96000000,42020,42020,2,233475,0,26.00,26.00
6426051,6426051,2269853,600726128,"claus leinoe",clausleinoe@gamil.com,600691934,"2020-04-18 11:35:03",DK,25.0000,"Start Fitness
Fitness
SF English","Orca Tri Swimming Gloves - Black",,25.0000,20.0000,20.83333333,42020,42020,2,208535,0,20.83,20.83
6424834,6424834,2269339,1900278977,"Felicity  Turner",Felicity_turner@hotmail.com,1900251500,"2020-04-18 07:59:02",DK,107.9000,"Start Fitness
Fitness
Fitness Mobile","Brooks Adrenaline GTS 20 Womens Running Shoes - Black",10.7900,97.1100,20.0000,80.92500000,42020,42020,2,344257,0,80.93,80.93
6345380,6345380,2233766,600719530,"Søren Lund",soerenlund@ymail.com,600685917,"2020-04-02 16:40:03",DK,109.0000,"Start Fitness
Fitness
SF English","Brooks Levitate 3 LE Mens Running Shoes - Black",,109.0000,20.0000,90.83333333,42020,42020,2,352102,0,90.83,90.83
6412429,6412429,2264198,600724842,"peter kristensen",info@lagocph.dk,600690768,"2020-04-15 17:08:07",DK,25.0000,"Start Fitness
Fitness
SF English","Orca Tri Swimming Gloves - Black",,25.0000,20.0000,20.83333333,42020,42020,2,208535,0,20.83,20.83
6438080,6438080,2274779,2500323529,"Carsten Leth Jeppesen",carsten.jeppesen@dsa-net.dk,2500322676,"2020-04-20 13:57:46",DK,58.9900,"Start Group
Start Group
eBay","Reebok Speed TR Flexweave Mens Training Shoes - Blue",,58.9900,20.0000,49.15833333,42020,42020,2,331721,0,49.16,49.16
6449812,6449812,2279669,2400680957,"Adam Israilov",7wkrq8frjyh1qx2@marketplace.amazon.co.uk,2400680369,"2020-04-22 14:50:54",DK,12.3900,"Start Group
Start Group
Amazon","adidas Sport Headband - Black",,12.3900,25.0252,9.91000214,42020,42020,2,355796,0,10.33,10.33
6438090,6438090,2274783,2500323533,"Carsten Leth Jeppesen",carsten.jeppesen@dsa-net.dk,2500322680,"2020-04-20 13:57:51",DK,122.9900,"Start Group
Start Group
eBay","Reebok Floatride Run Fast Pro Mens Running Shoes - Blue",,122.9900,20.0000,102.49166667,42020,42020,2,344420,0,102.49,102.49
6360683,6360683,2241509,600720534,"WIll Fisher",will.fisher17@gmail.com,600686844,"2020-04-05 18:57:06",DK,15.0000,"Start Fitness
Fitness
SF English","Ohmme Voyager Mens Yoga Pants - Blue",1.5000,13.5000,20.0000,11.25000000,42020,42020,2,347995,0,11.25,11.25
6360685,6360685,2241509,600720534,"WIll Fisher",will.fisher17@gmail.com,600686844,"2020-04-05 18:57:06",DK,40.0000,"Start Fitness
Fitness
SF English","Ohmme Voyager Mens Yoga Pants - Grey",4.0000,36.0000,20.0000,30.00000000,42020,42020,2,347991,0,30.00,30.00
6360687,6360687,2241509,600720534,"WIll Fisher",will.fisher17@gmail.com,600686844,"2020-04-05 18:57:06",DK,20.0000,"Start Fitness
Fitness
SF English","Ohmme Denim Mens Yoga Pants - Blue",2.0000,18.0000,20.0000,15.00000000,42020,42020,2,347963,0,15.00,15.00
6414683,6414683,2265219,600724995,"Maria Pertl",mpertl@gmail.com,600690910,"2020-04-16 07:37:03",DK,89.0000,"Start Fitness
Fitness
SF English","adidas Terrex Agravic GTX Womens Trail Running Shoes - Grey",,89.0000,20.0000,74.16666667,42020,42020,2,301517,0,74.17,74.17
6414685,6414685,2265219,600724995,"Maria Pertl",mpertl@gmail.com,600690910,"2020-04-16 07:37:03",DK,3.0000,"Start Fitness
Fitness
SF English","Craft Pro Cool Womens Mesh Boxer Shorts - White",,3.0000,20.0000,2.50000000,42020,42020,2,328470,0,2.50,2.50
6414687,6414687,2265219,600724995,"Maria Pertl",mpertl@gmail.com,600690910,"2020-04-16 07:37:03",DK,27.9000,"Start Fitness
Fitness
SF English","adidas Don't Rest Jacquard Womens Sports Bra - Black",,27.9000,20.0000,23.25000000,42020,42020,2,345015,0,23.25,23.25
6364735,6364735,2243497,600720864,"Felicity Turner",felicity_turner@hotmail.com,600687146,"2020-04-06 16:30:08",DK,107.9000,"Start Fitness
Fitness
SF English","Brooks Adrenaline GTS 20 Womens Running Shoes - Black",10.7900,97.1100,20.0000,80.92500000,42020,42020,2,344257,0,80.93,80.93
6364737,6364737,2243497,600720864,"Felicity Turner",felicity_turner@hotmail.com,600687146,"2020-04-06 16:30:08",DK,20.0000,"Start Fitness
Fitness
SF English","Ronhill Infinity Womens 7/8 Running Tights - Green",2.0000,18.0000,20.0000,15.00000000,42020,42020,2,352484,0,15.00,15.00
6364739,6364739,2243497,600720864,"Felicity Turner",felicity_turner@hotmail.com,600687146,"2020-04-06 16:30:08",DK,18.0000,"Start Fitness
Fitness
SF English","Ronhill Momentum Agile Womens 7/8 Running Tights - Black",1.8000,16.2000,20.0000,13.50000000,42020,42020,2,352466,0,13.50,13.50
6364741,6364741,2243497,600720864,"Felicity Turner",felicity_turner@hotmail.com,600687146,"2020-04-06 16:30:08",DK,29.9000,"Start Fitness
Fitness
SF English","Ronhill Stride Thermal Half Zip Long Sleeve Womens Running Top - Pink",2.9900,26.9100,20.0000,22.42500000,42020,42020,2,336983,0,22.43,22.43
6364743,6364743,2243497,600720864,"Felicity Turner",felicity_turner@hotmail.com,600687146,"2020-04-06 16:30:08",DK,19.9000,"Start Fitness
Fitness
SF English","Salomon Agile Long Sleeve Womens Running Top - Red",1.9900,17.9100,20.0000,14.92500000,42020,42020,2,337612,0,14.93,14.93
6350254,6350254,2236287,2500311175,"Henrik Larsen",formandlarsen@gmail.com,2500310339,"2020-04-03 18:22:40",DK,27.8900,"Start Group
Start Group
eBay","Under Armour Rival Fleece Camo Mens Training Hoody - Green ",,27.8900,20.0000,23.24166667,42020,42020,2,347222,0,23.24,23.24
6401013,6401013,2259328,2500319189,"Peter Hansen",peter@westsign.dk,2500318338,"2020-04-13 17:09:13",DK,143.9200,"Start Group
Start Group
eBay","Pirelli P Zero Velo 4S Tyre 700 x 23c",,143.9200,20.0000,119.93333333,42020,42020,2,236083,0,119.93,119.93
6355141,6355141,2238786,2500312164,"Etsuko Oide",etsuko@takumi.dk,2500311327,"2020-04-04 19:03:01",DK,8.9900,"Start Group
Start Group
eBay","TCA Balance Womens Knit Long Running Tights - Grey",,8.9900,20.0000,7.49166667,42020,42020,2,251858,0,7.49,7.49
6355143,6355143,2238786,2500312164,"Etsuko Oide",etsuko@takumi.dk,2500311327,"2020-04-04 19:03:01",DK,5.9900,"Start Group
Start Group
eBay","TCA Pro Performance Womens Short Sleeve Baselayer Running Top - Black",,5.9900,20.0000,4.99166667,42020,42020,2,248534,0,4.99,4.99
6355145,6355145,2238786,2500312164,"Etsuko Oide",etsuko@takumi.dk,2500311327,"2020-04-04 19:03:01",DK,7.9900,"Start Group
Start Group
eBay","Regatta Floreo II Womens Fleece - Black",,7.9900,20.0000,6.65833333,42020,42020,2,333220,0,6.66,6.66
6409007,6409007,2262761,600724489,"Marlene Dissing",2010dissing@gmail.com,600690454,"2020-04-15 06:09:04",DK,10.0000,"Start Fitness
Fitness
SF English","TCA SpaceKnit Premium Womens Long Running Tights - Blue",1.0000,9.0000,20.0000,7.50000000,42020,42020,2,246067,0,7.50,7.50
6409009,6409009,2262761,600724489,"Marlene Dissing",2010dissing@gmail.com,600690454,"2020-04-15 06:09:04",DK,9.0000,"Start Fitness
Fitness
SF English","More Mile Train To Run Womens Long Sleeve Running Top - Purple",0.9000,8.1000,20.0000,6.75000000,42020,42020,2,240011,0,6.75,6.75
6409011,6409011,2262761,600724489,"Marlene Dissing",2010dissing@gmail.com,600690454,"2020-04-15 06:09:04",DK,8.0000,"Start Fitness
Fitness
SF English","TCA SpaceKnit Premium Womens Long Training Tights - Pink",0.8000,7.2000,20.0000,6.00000000,42020,42020,2,248613,0,6.00,6.00
6409013,6409013,2262761,600724489,"Marlene Dissing",2010dissing@gmail.com,600690454,"2020-04-15 06:09:04",DK,3.5000,"Start Fitness
Fitness
SF English","More Mile Cadeo Coolmax Twin Pack Running Socks ",0.3500,3.1500,20.0000,2.62500000,42020,42020,2,87671,0,2.63,2.63
6409015,6409015,2262761,600724489,"Marlene Dissing",2010dissing@gmail.com,600690454,"2020-04-15 06:09:04",DK,7.0000,"Start Fitness
Fitness
SF English","More Mile Heather 3/4 Capri Womens Running Tights - Pink",0.7000,6.3000,20.0000,5.25000000,42020,42020,2,190733,0,5.25,5.25
6409017,6409017,2262761,600724489,"Marlene Dissing",2010dissing@gmail.com,600690454,"2020-04-15 06:09:04",DK,8.0000,"Start Fitness
Fitness
SF English","TCA SpaceKnit Premium Womens Long Running Tights - Black",0.8000,7.2000,20.0000,6.00000000,42020,42020,2,248561,0,6.00,6.00
6409019,6409019,2262761,600724489,"Marlene Dissing",2010dissing@gmail.com,600690454,"2020-04-15 06:09:04",DK,10.0000,"Start Fitness
Fitness
SF English","Sub Sports Dual 2.0 Womens Long Sleeve Compression Top - Green",1.0000,9.0000,20.0000,7.50000000,42020,42020,2,358192,0,7.50,7.50
6409021,6409021,2262761,600724489,"Marlene Dissing",2010dissing@gmail.com,600690454,"2020-04-15 06:09:04",DK,5.0000,"Start Fitness
Fitness
SF English","TCA Strappy Womens Running Vest Tank Top - Blue",0.5000,4.5000,20.0000,3.75000000,42020,42020,2,252469,0,3.75,3.75
6409023,6409023,2262761,600724489,"Marlene Dissing",2010dissing@gmail.com,600690454,"2020-04-15 06:09:04",DK,5.0000,"Start Fitness
Fitness
SF English","Sub Sports SubAir Seamless Womens Sports Bra - Grey",0.5000,4.5000,20.0000,3.75000000,42020,42020,2,326306,0,3.75,3.75
6409025,6409025,2262761,600724489,"Marlene Dissing",2010dissing@gmail.com,600690454,"2020-04-15 06:09:04",DK,5.0000,"Start Fitness
Fitness
SF English","More Mile Marl Womens Boy Running Short Tight - Grey",0.5000,4.5000,20.0000,3.75000000,42020,42020,2,86248,0,3.75,3.75
6409027,6409027,2262761,600724489,"Marlene Dissing",2010dissing@gmail.com,600690454,"2020-04-15 06:09:04",DK,5.0000,"Start Fitness
Fitness
SF English","TCA Vista Cross Back Womens Running Vest Tank Top - Pink",0.5000,4.5000,20.0000,3.75000000,42020,42020,2,246550,0,3.75,3.75
6409029,6409029,2262761,600724489,"Marlene Dissing",2010dissing@gmail.com,600690454,"2020-04-15 06:09:04",DK,5.0000,"Start Fitness
Fitness
SF English","TCA Air Racerback Womens Training Vest Tank Top - Blue",0.5000,4.5000,20.0000,3.75000000,42020,42020,2,249297,0,3.75,3.75
6409031,6409031,2262761,600724489,"Marlene Dissing",2010dissing@gmail.com,600690454,"2020-04-15 06:09:04",DK,30.0000,"Start Fitness
Fitness
SF English","Asics Gel Lyte 33 3 Womens Running Shoes - Pink",3.0000,27.0000,20.0000,22.50000000,42020,42020,2,91676,0,22.50,22.50
6409033,6409033,2262761,600724489,"Marlene Dissing",2010dissing@gmail.com,600690454,"2020-04-15 06:09:04",DK,39.0000,"Start Fitness
Fitness
SF English","Brooks PureFlow 5 Womens Running Shoes - Blue",3.9000,35.1000,20.0000,29.25000000,42020,42020,2,207706,0,29.25,29.25
6457832,6457832,2282869,600729078,"Donatas Dziaugys",donatas.dziaugys@gmail.com,600694641,"2020-04-24 00:26:03",DK,5.0000,"Start Fitness
Fitness
SF English","DBlade Piquet Mens Short Sleeve Polo Shirt - Black",,5.0000,20.0000,4.16666667,42020,42020,2,311153,0,4.17,4.17
6457834,6457834,2282869,600729078,"Donatas Dziaugys",donatas.dziaugys@gmail.com,600694641,"2020-04-24 00:26:03",DK,2.0000,"Start Fitness
Fitness
SF English","Puma Performance + T Medium Quarter Training Socks - White",,2.0000,20.0000,1.66666667,42020,42020,2,229452,0,1.67,1.67
6457836,6457836,2282869,600729078,"Donatas Dziaugys",donatas.dziaugys@gmail.com,600694641,"2020-04-24 00:26:03",DK,25.0000,"Start Fitness
Fitness
SF English","Puma Basket evoKnit 3D Mens Trainers - Black",,25.0000,20.0000,20.83333333,42020,42020,2,295097,0,20.83,20.83
6421991,6421991,2268157,2400677324,"Emanuil Nikolov",kbf7klrv7gzv6jf@marketplace.amazon.co.uk,2400676739,"2020-04-17 14:12:28",DK,29.1100,"Start Group
Start Group
Amazon","Under Armour Undeniable 4.0 Medium Holdall - Black",,29.1100,24.9893,23.28999362,42020,42020,2,338758,0,24.26,24.26
6487636,6487636,2294894,2500329162,"Michael Ahler",postmic@msn.com,2500328303,"2020-04-28 23:04:51",DK,19.9900,"Start Group
Start Group
eBay","Under Armour Streaker 2.0 Mens Running Vest - Blue",,19.9900,20.0000,16.65833333,42020,42020,2,331179,0,16.66,16.66
6379635,6379635,2250190,2500316326,"Claus EJonassen",jonassen2710@hotmail.com,2500315481,"2020-04-09 19:54:43",DK,31.9600,"Start Group
Start Group
eBay","DBlade Australian Canvas Mens Work Wear Pants - Blue",,31.9600,20.0000,26.63333333,42020,42020,2,311268,0,26.63,26.63
6405110,6405110,2261070,600724177,"Henrik Varmer",henrik@varmer.dk,600690168,"2020-04-14 12:04:08",DK,119.0000,"Start Fitness
Fitness
SF English","adidas Leistung 16 ll BOA Mens Weightlifting Shoes - White",,119.0000,20.0000,99.16666667,42020,42020,2,297106,0,99.17,99.17
6399863,6399863,2258844,2500319045,"Thomas Deis-Christensen",t.homasdc2304@gmail.com,2500318194,"2020-04-13 14:21:26",DK,23.7800,"Start Group
Start Group
eBay","Under Armour Tech Short Sleeve Mens Running Top - Black",,23.7800,20.0000,19.81666667,42020,42020,2,126390,0,19.82,19.82
6395086,6395086,2256868,2400673868,"André Lopes",h5q6xknwhwpqcy7@marketplace.amazon.co.uk,2400673284,"2020-04-12 17:37:27",DK,16.6100,"Start Group
Start Group
Amazon","Reebok Crossfit Soft Wrist Wrap - Teal",,16.6100,24.9812,13.28999882,42020,42020,2,333654,0,13.84,13.84
6358736,6358736,2240548,1900273446,"Ruth Boesen",ruth@boesen.net,1900246654,"2020-04-05 13:55:03",DK,65.0000,"Start Fitness
Fitness
Fitness Mobile","Saucony Guide 9 Womens Running Shoes - Purple",,65.0000,20.0000,54.16666667,42020,42020,2,333267,0,54.17,54.17
6462652,6462652,2284855,2400682323,"Anders Borchorst",89306pj07ysbtpd@marketplace.amazon.co.uk,2400681735,"2020-04-24 20:42:52",DK,72.9000,"Start Group
Start Group
Amazon","Reebok Forever Floatride Energy 2.0 Mens Running Shoes - Black-11",,72.9000,25.0000,58.32000000,42020,42020,2,353108,0,60.75,60.75
6379087,6379087,2249961,2500316242,"Tim Shrubsole",timshrub@live.com,2500315397,"2020-04-09 17:42:28",DK,15.3500,"Start Group
Start Group
eBay","DBlade Canvas Multipocket Mens Work Wear Pants - Blue",,15.3500,20.0000,12.79166667,42020,42020,2,311249,0,12.79,12.79
6437600,6437600,2274585,2500323481,"palle sunddal",palle.sunddal@gerflor.com,2500322628,"2020-04-20 12:22:33",DK,13.3500,"Start Group
Start Group
eBay","adidas Infinity Warm Cycling Knee Warmers - Black",,13.3500,20.0000,11.12500000,42020,42020,2,321340,0,11.13,11.13
6362229,6362229,2242299,600720607,"Taya Sedgman",tayasedgman@gmail.com,600686912,"2020-04-06 08:08:03",DK,107.9000,"Start Fitness
Fitness
SF English","Brooks Adrenaline GTS 20 LE Womens Running Shoes - Green",,107.9000,20.0000,89.91666667,42020,42020,2,352126,0,89.92,89.92
6362231,6362231,2242299,600720607,"Taya Sedgman",tayasedgman@gmail.com,600686912,"2020-04-06 08:08:03",DK,10.0000,"Start Fitness
Fitness
SF English","Sub Sports Dual 2.0 Womens Sports Bra - Blue",,10.0000,20.0000,8.33333333,42020,42020,2,358276,0,8.33,8.33
6362233,6362233,2242299,600720607,"Taya Sedgman",tayasedgman@gmail.com,600686912,"2020-04-06 08:08:03",DK,17.0000,"Start Fitness
Fitness
SF English","Brooks FastForward Crossback Womens Sports Bra - Purple",,17.0000,20.0000,14.16666667,42020,42020,2,336159,0,14.17,14.17
6362235,6362235,2242299,600720607,"Taya Sedgman",tayasedgman@gmail.com,600686912,"2020-04-06 08:08:03",DK,19.0000,"Start Fitness
Fitness
SF English","Brooks Hot Shot Womens Sports Bra - Purple",,19.0000,20.0000,15.83333333,42020,42020,2,319368,0,15.83,15.83
6401746,6401746,2259645,600723882,"Torben Sandby",tbc@it.dk,600689894,"2020-04-13 19:00:08",DK,75.0000,"Start Fitness
Fitness
SF English","Asics Gel Cumulus 21 Winterized Mens Running Shoes - Green",7.5000,67.5000,20.0000,56.25000000,42020,42020,2,341419,0,56.25,56.25
6401748,6401748,2259645,600723882,"Torben Sandby",tbc@it.dk,600689894,"2020-04-13 19:00:08",DK,59.9000,"Start Fitness
Fitness
SF English","Asics Alpine XT 2 Mens Trail Running Shoes - Grey",5.9900,53.9100,20.0000,44.92500000,42020,42020,2,333145,0,44.93,44.93
6401750,6401750,2259645,600723882,"Torben Sandby",tbc@it.dk,600689894,"2020-04-13 19:00:08",DK,8.9000,"Start Fitness
Fitness
SF English","Asics Invisible (6 Pack) Socks - Black",0.8900,8.0100,20.0000,6.67500000,42020,42020,2,304138,0,6.68,6.68
6424467,6424467,2269170,2500322092,"gazi salihu",gazi89@outlook.dk,2500321239,"2020-04-18 00:05:34",DK,27.3900,"Start Group
Start Group
eBay","Under Armour Rival Mens Fleece Training Hoody - Navy",,27.3900,20.0000,22.82500000,42020,42020,2,302301,0,22.83,22.83
6497869,6497869,2299089,2500330307,"Sigfrid Hansen",tatanka@tatanka.fo,2500329448,"2020-04-30 18:20:00",DK,19.9900,"Start Group
Start Group
eBay","DBlade Denim Multipocket Mens Work Wear Jeans - Denim",,19.9900,20.0000,16.65833333,42020,42020,2,311289,0,16.66,16.66
6469193,6469193,2287581,600730077,"Casper Juhl",cjcj_374@hotmail.com,600695554,"2020-04-26 05:25:04",DK,107.9000,"Start Fitness
Fitness
SF English","Brooks Adrenaline GTS 20 Mens Running Shoes - Blue",,107.9000,20.0000,89.91666667,42020,42020,2,344181,0,89.92,89.92
6469195,6469195,2287581,600730077,"Casper Juhl",cjcj_374@hotmail.com,600695554,"2020-04-26 05:25:04",DK,17.9000,"Start Fitness
Fitness
SF English","Inov8 Merino Lite (2 Pack) Running Socks - Black",,17.9000,20.0000,14.91666667,42020,42020,2,340562,0,14.92,14.92
6424481,6424481,2269178,2500322093,"gazi salihu",gazi89@outlook.dk,2500321240,"2020-04-18 00:21:22",DK,27.3500,"Start Group
Start Group
eBay","Under Armour Fleece Armour Mens Joggers - Blue",,27.3500,20.0000,22.79166667,42020,42020,2,350227,0,22.79,22.79
6498505,6498505,2299343,600732959,"Camilla christensen",cc.christensen@hotmail.com,600698198,"2020-04-30 19:57:05",DK,6.0000,"Start Fitness
Fitness
SF English","Feetures Elite Light Cushion Mini Crew Running Socks - Yellow",,6.0000,20.0000,5.00000000,42020,42020,2,208191,0,5.00,5.00
6498507,6498507,2299343,600732959,"Camilla christensen",cc.christensen@hotmail.com,600698198,"2020-04-30 19:57:05",DK,5.0000,"Start Fitness
Fitness
SF English","Brooks Rebound Racer Womens Sports Bra - White",,5.0000,20.0000,4.16666667,42020,42020,2,210633,0,4.17,4.17
6433422,6433422,2272873,600726772,"Anna Victoria Meulengracht",vim@heimstaden.dk,600692515,"2020-04-19 17:05:03",DK,119.9000,"Start Fitness
Fitness
SF English","Asics Gel Nimbus 22 Barcelona Marathon Womens Running Shoes - White",,119.9000,20.0000,99.91666667,42020,42020,2,355202,0,99.92,99.92
6433424,6433424,2272873,600726772,"Anna Victoria Meulengracht",vim@heimstaden.dk,600692515,"2020-04-19 17:05:03",DK,119.9000,"Start Fitness
Fitness
SF English","Asics Gel Nimbus 22 Barcelona Marathon Womens Running Shoes - White",,119.9000,20.0000,99.91666667,42020,42020,2,355202,0,99.92,99.92
6466314,6466314,2286362,2500326675,"Kristian Kyed",k_kyed@mail.dk,2500325819,"2020-04-25 14:24:13",DK,29.9000,"Start Group
Start Group
eBay","Puma Performance + R Medium Quarter Running Socks - White",,29.9000,20.0000,24.91666667,42020,42020,2,229440,0,24.92,24.92
6497897,6497897,2299105,2500330312,"Sigfrid Hansen",tatanka@tatanka.fo,2500329453,"2020-04-30 18:26:12",DK,6.9900,"Start Group
Start Group
eBay","DBlade Corporate Buzz Short Sleeve Mens Work Wear Top - Navy",,6.9900,20.0000,5.82500000,42020,42020,2,311215,0,5.83,5.83
6497899,6497899,2299105,2500330312,"Sigfrid Hansen",tatanka@tatanka.fo,2500329453,"2020-04-30 18:26:12",DK,13.9800,"Start Group
Start Group
eBay","DBlade Corporate Buzz Short Sleeve Mens Work Wear Top - Navy",,13.9800,20.0000,11.65000000,42020,42020,2,311215,0,11.65,11.65
6497901,6497901,2299105,2500330312,"Sigfrid Hansen",tatanka@tatanka.fo,2500329453,"2020-04-30 18:26:12",DK,6.9900,"Start Group
Start Group
eBay","DBlade Corporate Buzz Short Sleeve Mens Work Wear Top - Navy",,6.9900,20.0000,5.82500000,42020,42020,2,311215,0,5.83,5.83
6497905,6497905,2299107,2500330313,"Sigfrid Hansen",tatanka@tatanka.fo,2500329454,"2020-04-30 18:26:19",DK,17.9800,"Start Group
Start Group
eBay","DBlade Logo Mens Full Zip Hoody - Grey",,17.9800,20.0000,14.98333333,42020,42020,2,311116,0,14.98,14.98
6497907,6497907,2299107,2500330313,"Sigfrid Hansen",tatanka@tatanka.fo,2500329454,"2020-04-30 18:26:19",DK,8.9900,"Start Group
Start Group
eBay","DBlade Logo Mens Full Zip Hoody - Grey",,8.9900,20.0000,7.49166667,42020,42020,2,311116,0,7.49,7.49
6497909,6497909,2299107,2500330313,"Sigfrid Hansen",tatanka@tatanka.fo,2500329454,"2020-04-30 18:26:19",DK,8.9900,"Start Group
Start Group
eBay","DBlade Logo Mens Full Zip Hoody - Grey",,8.9900,20.0000,7.49166667,42020,42020,2,311116,0,7.49,7.49
6423372,6423372,2268708,600725929,"Morten Olesen",lene-morten@mail.dk,600691753,"2020-04-17 18:39:06",DK,69.9000,"Start Fitness
Fitness
SF English","Asics GT 2000 6 Womens Running Shoes - Black",,69.9000,20.0000,58.25000000,42020,42020,2,241140,0,58.25,58.25
6497943,6497943,2299120,2500330314,"Sigfrid Hansen",tatanka@tatanka.fo,2500329455,"2020-04-30 18:30:42",DK,16.9900,"Start Group
Start Group
eBay","DBlade Softshell Mens Work Wear Vest Gilet - Black",,16.9900,20.0000,14.15833333,42020,42020,2,311058,0,14.16,14.16
6371425,6371425,2246568,2500315142,"Regitze Slot Winkel",regitzeswinkel@gmail.com,2500314297,"2020-04-08 07:43:08",DK,30.2500,"Start Group
Start Group
eBay","Reebok WOR Meet You There Graphic Womens Joggers - Grey",,30.2500,20.0000,25.20833333,42020,42020,2,322638,0,25.21,25.21
6482340,6482340,2292766,600731296,"Peter Riis",peterglickriis@gmail.com,600696665,"2020-04-28 07:32:03",DK,75.0000,"Start Fitness
Fitness
SF English","Brooks Adrenaline GTS 19 WIDE FIT (4E) Mens Running Shoes - Blue",,75.0000,20.0000,62.50000000,42020,42020,2,311917,0,62.50,62.50
6382139,6382139,2251250,600722398,"Nanna Nielsen Lange",nannanlange@gmail.com,600688534,"2020-04-10 11:21:15",DK,50.0000,"Start Fitness
Fitness
SF English","Saucony Kinvara 10 Womens Running Shoes - White",,50.0000,20.0000,41.66666667,42020,42020,2,330730,0,41.67,41.67
6344138,6344138,2233171,600719427,"Andreas Pedersen",Andreashovesen@outlook.dk,600685820,"2020-04-02 12:22:01",DK,75.0000,"Start Fitness
Fitness
SF English","Saucony Liberty ISO Mens Running Shoes - White",,75.0000,20.0000,62.50000000,42020,42020,2,293287,0,62.50,62.50
6394646,6394646,2256692,2400673811,"Christian Heyde-Petersen",jbmj3lm4x9pbkgn@marketplace.amazon.co.uk,2400673227,"2020-04-12 16:32:07",DK,13.4900,"Start Group
Start Group
Amazon","adidas StellaSport Graphic Womens Sports Bra - Blue-XS",,13.4900,25.0232,10.78999738,42020,42020,2,209852,0,11.24,11.24
6369350,6369350,2245584,2500314789,"Marina Zhylko",marinazhylko@yahoo.com,2500313945,"2020-04-07 16:27:53",DK,15.9900,"Start Group
Start Group
eBay","Regatta Nevado II Womens Down Jacket - Blue",,15.9900,20.0000,13.32500000,42020,42020,2,351436,0,13.33,13.33
6340331,6340331,2231153,2400665954,"Alex Kimber",66rf3gbzsxddyny@marketplace.amazon.co.uk,2400665378,"2020-04-01 13:02:59",DK,67.5500,"Start Group
Start Group
Amazon","Asics GT 1000 8 Mens Running Shoes - Blue-11",,67.5500,25.0000,54.04000000,42020,42020,2,333053,0,56.29,56.29
6349546,6349546,2235898,600719859,"Christian Edelvold Berg",edelvoldberg@gmail.com,600686218,"2020-04-03 15:26:10",DK,119.9000,"Start Fitness
Fitness
SF English","Asics Gel Nimbus 22 Mens Running Shoes - Yellow",11.9900,107.9100,20.0000,89.92500000,42020,42020,2,345743,0,89.93,89.93
6349548,6349548,2235898,600719859,"Christian Edelvold Berg",edelvoldberg@gmail.com,600686218,"2020-04-03 15:26:10",DK,99.9000,"Start Fitness
Fitness
SF English","Asics Gel FujiTrabuco 8 GTX Mens Trail Running Shoes - Black",9.9900,89.9100,20.0000,74.92500000,42020,42020,2,350720,0,74.93,74.93
6349550,6349550,2235898,600719859,"Christian Edelvold Berg",edelvoldberg@gmail.com,600686218,"2020-04-03 15:26:10",DK,107.9000,"Start Fitness
Fitness
SF English","Asics Gel FujiTrabuco 8 Mens Trail Running Shoes - Black",10.7900,97.1100,20.0000,80.92500000,42020,42020,2,346267,0,80.93,80.93
6349552,6349552,2235898,600719859,"Christian Edelvold Berg",edelvoldberg@gmail.com,600686218,"2020-04-03 15:26:10",DK,119.9000,"Start Fitness
Fitness
SF English","Asics Gel Nimbus 22 Lite Show Mens Running Shoes - Grey",11.9900,107.9100,20.0000,89.92500000,42020,42020,2,348635,0,89.93,89.93
6349554,6349554,2235898,600719859,"Christian Edelvold Berg",edelvoldberg@gmail.com,600686218,"2020-04-03 15:26:10",DK,22.0000,"Start Fitness
Fitness
SF English","Under Armour Fleece Armour Mens Joggers - Blue",2.2000,19.8000,20.0000,16.50000000,42020,42020,2,350227,0,16.50,16.50
6414987,6414987,2265330,2500321064,"SARA HANSEN",saraemilie_th@hotmail.com,2500320212,"2020-04-16 08:46:16",DK,81.9900,"Start Group
Start Group
eBay","Salomon Speedcross 4 GTX Womens Trail Running Shoes - Blue",,81.9900,20.0000,68.32500000,42020,42020,2,311769,0,68.33,68.33
6377039,6377039,2249056,600721977,"Cody Baird",codybaird8@gmail.com,600688154,"2020-04-09 11:23:02",DK,120.0000,"Start Fitness
Fitness
SF English","Asics Gel Kayano 26 WIDE FIT (2E) Mens Running Shoes - Black",12.0000,108.0000,20.0000,90.00000000,42020,42020,2,332995,0,90.00,90.00
6458085,6458085,2282984,1900282111,"Adam Omari",adam.omari@hotmail.com,1900254218,"2020-04-24 06:14:03",DK,84.0000,"Start Fitness
Fitness
Fitness Mobile","adidas Solar Boost Mens Running Shoes - Grey",,84.0000,20.0000,70.00000000,42020,42020,2,308984,0,70.00,70.00
6378207,6378207,2249561,1900274968,"Kasper Poulsen",kasper-poulsen@hotmail.com,1900247974,"2020-04-09 14:42:03",DK,75.0000,"Start Fitness
Fitness
Fitness Mobile","Asics Gel Cumulus 21 Mens Running Shoes - Silver",7.5000,67.5000,20.0000,56.25000000,42020,42020,2,341675,0,56.25,56.25
6421645,6421645,2268022,2500321808,"Michael Amtsbiller",mich1864@gmail.com,2500320955,"2020-04-17 13:11:40",DK,27.3900,"Start Group
Start Group
eBay","FlipBelt Classic Running Waist Belt - Black",,27.3900,20.0000,22.82500000,42020,42020,2,288501,0,22.83,22.83
6367267,6367267,2244614,2500314444,"Isa Olsen",isahostolsen@gmail.com,2500313600,"2020-04-07 08:50:35",DK,61.9900,"Start Group
Start Group
eBay","Salomon Sonic RA Pro Womens Running Shoes - Pink",,61.9900,20.0000,51.65833333,42020,42020,2,290607,0,51.66,51.66
6353901,6353901,2238162,600720150,"William Knudsen",williambbk@hotmail.com,600686490,"2020-04-04 15:05:03",DK,99.0000,"Start Fitness
Fitness
SF English","adidas Ultra Boost 19 Mens Running Shoes - White",,99.0000,20.0000,82.50000000,42020,42020,2,310009,0,82.50,82.50
6387123,6387123,2253491,2400672771,"Pia Skatka Flensted Nielsen",llzfs4wc6drdz1r@marketplace.amazon.co.uk,2400672187,"2020-04-11 10:43:41",DK,44.7400,"Start Group
Start Group
Amazon","adidas Ultra Energy Mens Running Jacket - Black-S",,44.7400,25.0070,35.78999576,42020,42020,2,203069,0,37.28,37.28
6377632,6377632,2249329,2500316033,"Nyt Syn Aars ATT KENT",kk@villazigzag.dk,2500315188,"2020-04-09 13:16:54",DK,139.2600,"Start Group
Start Group
eBay","Asics Gel Nimbus 22 WIDE FIT (2E) Mens Running Shoes - Black",,139.2600,20.0000,116.05000000,42020,42020,2,347351,0,116.05,116.05
6354898,6354898,2238675,1900273128,"Dorte  Erichsen",dorteerichsen@hotmail.com,1900246385,"2020-04-04 18:13:02",DK,59.9000,"Start Fitness
Fitness
Fitness Mobile","Saucony Ride ISO Mens Running Shoes - Grey",,59.9000,20.0000,49.91666667,42020,42020,2,310596,0,49.92,49.92
6353951,6353951,2238175,2500311930,"Morten Kvistholm",kvistholm.morten@gmail.com,2500311093,"2020-04-04 15:06:39",DK,9.2000,"Start Group
Start Group
eBay","Dare2B Core Stretch III Neck Warmer - Blue",,9.2000,20.0000,7.66666667,42020,42020,2,343741,0,7.67,7.67
6448312,6448312,2279105,1900281150,"Peter Henningsen ",1981ph@gmail.com,1900253394,"2020-04-22 10:59:54",DK,65.0000,"Start Fitness
Fitness
Fitness Mobile","Brooks Adrenaline GTS 18 Womens Running Shoes - Black",,65.0000,20.0000,54.16666667,42020,42020,2,239394,0,54.17,54.17
6388305,6388305,2254015,2400672940,"Martha Ivester",772vw6f8gpfsypv@marketplace.amazon.co.uk,2400672356,"2020-04-11 14:00:14",DK,57.2400,"Start Group
Start Group
Amazon","Saucony Kinvara 10 Womens Running Shoes - White-9",,57.2400,25.0055,45.78998524,42020,42020,2,330741,0,47.70,47.70
6497567,6497567,2298960,2500330264,"Sigfrid Hansen",tatanka@tatanka.fo,2500329405,"2020-04-30 17:22:14",DK,21.9900,"Start Group
Start Group
eBay","DBlade Softshell Mens Work Wear Jacket - Black",,21.9900,20.0000,18.32500000,42020,42020,2,311064,0,18.33,18.33
6386074,6386074,2253036,2500317233,"Gregory Stephenson",gkstephenson@mail.dk,2500316388,"2020-04-11 07:18:22",DK,9.9400,"Start Group
Start Group
eBay","Ultimate Performance Performance Mens Athletic Support - White",,9.9400,20.0000,8.28333333,42020,42020,2,28948,0,8.28,8.28
6394235,6394235,2256524,600723297,"Jane Andersen",jane.andersen@ps.rm.dk,600689357,"2020-04-12 15:35:03",DK,59.0000,"Start Fitness
Fitness
SF English","Asics Throw Pro Field Event Spikes - Black",,59.0000,20.0000,49.16666667,42020,42020,2,358716,0,49.17,49.17
6367923,6367923,2244929,600721147,"Julia Knipschildt",juknip@gmail.com,600687403,"2020-04-07 11:29:03",DK,35.0000,"Start Fitness
Fitness
SF English","adidas Believe This Solid Womens Long Training Tights - Black",3.5000,31.5000,20.0000,26.25000000,42020,42020,2,331821,0,26.25,26.25
6438528,6438528,2274992,600727267,"Jesper Rebstrup",jesper.rebstrup@gmail.com,600692966,"2020-04-20 15:05:05",DK,65.0000,"Start Fitness
Fitness
SF English","Merrell Moab 2.0 GTX Mens Walking Shoes - Brown",,65.0000,20.0000,54.16666667,42020,42020,2,349938,0,54.17,54.17
6363008,6363008,2242692,600720690,"Michael Sabat",msabat@live.dk,600686989,"2020-04-06 11:05:03",DK,69.0000,"Start Fitness
Fitness
SF English","Saucony Kinvara 10 Mens Running Shoes - Orange",,69.0000,20.0000,57.50000000,42020,42020,2,319030,0,57.50,57.50
6366845,6366845,2244435,600721036,"Mads Mondrup",mondrup.salg@gmail.com,600687299,"2020-04-07 06:42:03",DK,549.0000,"Start Fitness
Fitness
SF English","Hollowgram Carbon Road Wheelset - Black",54.9000,494.1000,20.0000,411.75000000,42020,42020,2,291076,0,411.75,411.75
6342440,6342440,2232247,600719273,"Louise Pryds",louisepryds@hotmail.com,600685671,"2020-04-01 21:20:05",DK,59.0000,"Start Fitness
Fitness
SF English","adidas Powerlift 4.0 Mens Weightlifting Shoes - Green",,59.0000,20.0000,49.16666667,42020,42020,2,316921,0,49.17,49.17
6490414,6490414,2296062,2400685384,"Aimi Justinussen",c8txz0q75vfpy82@marketplace.amazon.co.uk,2400684794,"2020-04-29 14:16:11",DK,35.8400,"Start Group
Start Group
Amazon","adidas Designed 2 Move Womens 7/8 Training Tights - Black-M",,35.8400,20.0000,29.86666667,42020,42020,2,335356,0,29.87,29.87
6414079,6414079,2264930,2400676423,"Kimberly Michelle Richey",c5f8xz0g6rt3xd4@marketplace.amazon.co.uk,2400675838,"2020-04-15 22:41:46",DK,87.4500,"Start Group
Start Group
Amazon","Mizuno Wave Shadow 3 Mens Running Shoes - Black",,87.4500,25.0000,69.96000000,42020,42020,2,337580,0,72.88,72.88
6393113,6393113,2256078,600723211,"Karsten Boelsmark Jensen",boelsmark@hotmail.com,600689276,"2020-04-12 12:57:04",DK,20.0000,"Start Fitness
Fitness
SF English","Regatta Questra Stretch Softshell Mens Short Walking Trousers - Grey",,20.0000,20.0000,16.66666667,42020,42020,2,346903,0,16.67,16.67
6399130,6399130,2258555,600723657,"Lene  Hoegsberg",lene.hoegsberg@gmail.com,600689682,"2020-04-13 12:45:02",DK,87.9000,"Start Fitness
Fitness
SF English","adidas Adizero Shotput Field Event Spikes - Orange",8.7900,79.1100,20.0000,65.92500000,42020,42020,2,349180,1,65.93,65.93
6386247,6386247,2253098,600722688,"Nils Grove",nilsgrove@gmail.com,600688787,"2020-04-11 08:03:05",DK,129.9000,"Start Fitness
Fitness
SF English","Asics Gel Nimbus 22 Mens Running Shoes - Black",,129.9000,20.0000,108.25000000,42020,42020,2,348667,1,108.25,108.25
6466108,6466108,2286288,1900282888,"Rosa GARCIA SANCHEZ",rosa.garcia.sanchez@gmail.com,1900254910,"2020-04-25 13:56:06",DK,38.9000,"Start Fitness
Fitness
Fitness Mobile","Asics Patriot 10 Womens Running Shoes - Black",3.8900,35.0100,20.0000,29.17500000,42020,42020,2,318427,1,29.18,29.18
6466110,6466110,2286288,1900282888,"Rosa GARCIA SANCHEZ",rosa.garcia.sanchez@gmail.com,1900254910,"2020-04-25 13:56:06",DK,34.9000,"Start Fitness
Fitness
Fitness Mobile","Salomon Discovery Full-Zip Long Sleeve Womens Running Top - Orange",3.4900,31.4100,20.0000,26.17500000,42020,42020,2,232835,1,26.18,26.18
6466112,6466112,2286288,1900282888,"Rosa GARCIA SANCHEZ",rosa.garcia.sanchez@gmail.com,1900254910,"2020-04-25 13:56:06",DK,34.9000,"Start Fitness
Fitness
Fitness Mobile","Salomon Intensity Womens Long Running Tights - Black",3.4900,31.4100,20.0000,26.17500000,42020,42020,2,291000,1,26.18,26.18
6492288,6492288,2296816,600732374,"Morten Iversen",moihpv@hotmail.com,600697658,"2020-04-29 19:30:05",DK,3.0000,"Start Fitness
Fitness
SF English","Asics Dry Baselayer Compression Womens Short Sleeve Top - White",,3.0000,20.0000,2.50000000,42020,42020,2,192427,1,2.50,2.50
6492290,6492290,2296816,600732374,"Morten Iversen",moihpv@hotmail.com,600697658,"2020-04-29 19:30:05",DK,6.0000,"Start Fitness
Fitness
SF English","Craft Club T & F Short Sleeve Womens Running Top - Red",,6.0000,20.0000,5.00000000,42020,42020,2,175507,1,5.00,5.00
6492292,6492292,2296816,600732374,"Morten Iversen",moihpv@hotmail.com,600697658,"2020-04-29 19:30:05",DK,6.0000,"Start Fitness
Fitness
SF English","Craft Club T & F Short Sleeve Womens Running Top - Black",,6.0000,20.0000,5.00000000,42020,42020,2,175513,1,5.00,5.00
6492294,6492294,2296816,600732374,"Morten Iversen",moihpv@hotmail.com,600697658,"2020-04-29 19:30:05",DK,5.0000,"Start Fitness
Fitness
SF English","Aqua Sphere Lulu Womens Swimsuit - Blue",,5.0000,20.0000,4.16666667,42020,42020,2,47355,1,4.17,4.17
6492296,6492296,2296816,600732374,"Morten Iversen",moihpv@hotmail.com,600697658,"2020-04-29 19:30:05",DK,15.0000,"Start Fitness
Fitness
SF English","Craft Pro Cool Womens Mesh Boxer Shorts - White",,15.0000,20.0000,12.50000000,42020,42020,2,328470,1,12.50,12.50
6492298,6492298,2296816,600732374,"Morten Iversen",moihpv@hotmail.com,600697658,"2020-04-29 19:30:05",DK,4.0000,"Start Fitness
Fitness
SF English","Craft Warm Mid Cycling Socks - Black",,4.0000,20.0000,3.33333333,42020,42020,2,328415,1,3.33,3.33
6492300,6492300,2296816,600732374,"Morten Iversen",moihpv@hotmail.com,600697658,"2020-04-29 19:30:05",DK,10.0000,"Start Fitness
Fitness
SF English","Craft Active Padded Womens Cycling Shorts - Black",,10.0000,20.0000,8.33333333,42020,42020,2,328624,1,8.33,8.33
6492302,6492302,2296816,600732374,"Morten Iversen",moihpv@hotmail.com,600697658,"2020-04-29 19:30:05",DK,60.0000,"Start Fitness
Fitness
SF English","Saucony Triumph ISO 5 Womens Running Shoes - Grey",,60.0000,20.0000,50.00000000,42020,42020,2,310448,1,50.00,50.00
6341182,6341182,2231580,600719174,"Martin  Brock",martinbrock@live.dk,600685583,"2020-04-01 16:36:02",DK,15.8000,"Start Fitness
Fitness
SF English","Under Armour HeatGear (3 Pack) Crew Socks",,15.8000,20.0000,13.16666667,42020,42020,2,340761,1,13.17,13.17
6341184,6341184,2231580,600719174,"Martin  Brock",martinbrock@live.dk,600685583,"2020-04-01 16:36:02",DK,5.0000,"Start Fitness
Fitness
SF English","Sub Sports SubAir Mens Seamless Boxer Short - Grey",,5.0000,20.0000,4.16666667,42020,42020,2,326282,1,4.17,4.17
6351753,6351753,2237062,600719990,"Finn Jensen",finnej@hotmail.com,600686339,"2020-04-04 07:22:02",DK,60.0000,"Start Fitness
Fitness
SF English","Merrell Moab 2.0 GTX Mens Walking Shoes - Brown",6.0000,54.0000,20.0000,45.00000000,42020,42020,2,349938,1,45.00,45.00
6377361,6377361,2249221,1900274887,"Erling Worm",erlingworm@gmail.com,1900247921,"2020-04-09 12:26:49",DK,66.9000,"Start Fitness
Fitness
Fitness Mobile","adidas Adizero Bekoji 2 Mens Running Shoes - Blue",,66.9000,20.0000,55.75000000,42020,42020,2,350500,1,55.75,55.75
6377363,6377363,2249221,1900274887,"Erling Worm",erlingworm@gmail.com,1900247921,"2020-04-09 12:26:49",DK,83.9000,"Start Fitness
Fitness
Fitness Mobile","adidas Adizero Boston Boost 8 Mens Running Shoes - Black",,83.9000,20.0000,69.91666667,42020,42020,2,331286,1,69.92,69.92
6377365,6377365,2249221,1900274887,"Erling Worm",erlingworm@gmail.com,1900247921,"2020-04-09 12:26:49",DK,10.0000,"Start Fitness
Fitness
Fitness Mobile","More Mile Cheviot (5 Pack) Trail Running Socks - Multi",2.5000,7.5000,20.0000,6.25000000,42020,42020,2,163815,1,6.25,6.25
6414855,6414855,2265261,600725015,"Kristina Kronborg",kkronborg@privat.dk,600690923,"2020-04-16 08:22:03",DK,69.0000,"Start Fitness
Fitness
SF English","Saucony Triumph ISO 4 Womens Running Shoes - Red",,69.0000,20.0000,57.50000000,42020,42020,2,244509,1,57.50,57.50
6414857,6414857,2265261,600725015,"Kristina Kronborg",kkronborg@privat.dk,600690923,"2020-04-16 08:22:03",DK,18.0000,"Start Fitness
Fitness
SF English","Under Armour HeatGear Compression Mens Long Sleeve Top - Black",,18.0000,20.0000,15.00000000,42020,42020,2,126615,1,15.00,15.00
6414859,6414859,2265261,600725015,"Kristina Kronborg",kkronborg@privat.dk,600690923,"2020-04-16 08:22:03",DK,8.0000,"Start Fitness
Fitness
SF English","Craft Warm Mid Cycling Socks - Black",,8.0000,20.0000,6.66666667,42020,42020,2,328415,1,6.67,6.67
6349923,6349923,2236101,600719888,"Michael Bourke",mlpbourke@gmail.com,600686246,"2020-04-03 17:08:24",DK,107.9000,"Start Fitness
Fitness
SF English","Brooks Adrenaline GTS 20 Mens Running Shoes - Blue",,107.9000,20.0000,89.91666667,42020,42020,2,344181,1,89.92,89.92
6349925,6349925,2236101,600719888,"Michael Bourke",mlpbourke@gmail.com,600686246,"2020-04-03 17:08:24",DK,14.9000,"Start Fitness
Fitness
SF English","Fitness Mad Tread Foam Roller - Black",,14.9000,20.0000,12.41666667,42020,42020,2,335487,1,12.42,12.42
6349926,6349926,2236101,600719888,"Michael Bourke",mlpbourke@gmail.com,600686246,"2020-04-03 17:08:24",DK,59.0000,"Start Fitness
Fitness
SF English","Shimano XC51N SPD Mens Cycling Shoes - Black",,59.0000,20.0000,49.16666667,42020,42020,2,119541,1,49.17,49.17
6459117,6459117,2283443,600729215,"Ingolf Vig",ingolfvig@hotmail.com,600694772,"2020-04-24 10:04:03",DK,30.0000,"Start Fitness
Fitness
SF English","2XU Reflect Run Compression Mens Long Running Tights - Black",3.0000,27.0000,20.0000,22.50000000,42020,42020,2,307709,1,22.50,22.50
6459119,6459119,2283443,600729215,"Ingolf Vig",ingolfvig@hotmail.com,600694772,"2020-04-24 10:04:03",DK,29.0000,"Start Fitness
Fitness
SF English","2XU Elite Long Sleeve Mens Compression Top - Black",2.9000,26.1000,20.0000,21.75000000,42020,42020,2,341275,1,21.75,21.75
6459121,6459121,2283443,600729215,"Ingolf Vig",ingolfvig@hotmail.com,600694772,"2020-04-24 10:04:03",DK,0.5000,"Start Fitness
Fitness
SF English","GMTee Golf Alignment Ball Marker",0.0500,0.4500,20.0000,0.37500000,42020,42020,2,287333,1,0.38,0.38
6459122,6459122,2283443,600729215,"Ingolf Vig",ingolfvig@hotmail.com,600694772,"2020-04-24 10:04:03",DK,1.0000,"Start Fitness
Fitness
SF English","GMTee Golf 3 In 1 Multi Cleaner Brush",0.1000,0.9000,20.0000,0.75000000,42020,42020,2,287335,1,0.75,0.75
6459123,6459123,2283443,600729215,"Ingolf Vig",ingolfvig@hotmail.com,600694772,"2020-04-24 10:04:03",DK,10.9000,"Start Fitness
Fitness
SF English","Under Armour Tech Short Sleeve Mens Running Top - Black",1.0900,9.8100,20.0000,8.17500000,42020,42020,2,126390,1,8.18,8.18
6459125,6459125,2283443,600729215,"Ingolf Vig",ingolfvig@hotmail.com,600694772,"2020-04-24 10:04:03",DK,30.0000,"Start Fitness
Fitness
SF English","SKINS DNAmic Compression Short Sleeve Mens Training Top - Black",3.0000,27.0000,20.0000,22.50000000,42020,42020,2,250561,1,22.50,22.50
6388748,6388748,2254184,600722884,"Morten Hansen",morten_hansen34@hotmail.com,600688966,"2020-04-11 15:08:08",DK,5.0000,"Start Fitness
Fitness
SF English","adidas Mumbai Indians Short Sleeve Mens Cricket Top - Blue",0.5000,4.5000,20.0000,3.75000000,42020,42020,2,330409,1,3.75,3.75
6388750,6388750,2254184,600722884,"Morten Hansen",morten_hansen34@hotmail.com,600688966,"2020-04-11 15:08:08",DK,5.0000,"Start Fitness
Fitness
SF English","Ben Sherman Tracer Beanie Hat - Navy",0.5000,4.5000,20.0000,3.75000000,42020,42020,2,310993,1,3.75,3.75
6388751,6388751,2254184,600722884,"Morten Hansen",morten_hansen34@hotmail.com,600688966,"2020-04-11 15:08:08",DK,5.0000,"Start Fitness
Fitness
SF English","Original Penguin Basic Rib Beanie Hat - Green",0.5000,4.5000,20.0000,3.75000000,42020,42020,2,310986,1,3.75,3.75
6388752,6388752,2254184,600722884,"Morten Hansen",morten_hansen34@hotmail.com,600688966,"2020-04-11 15:08:08",DK,5.0000,"Start Fitness
Fitness
SF English","Ben Sherman Omani Beanie Hat - Green",0.5000,4.5000,20.0000,3.75000000,42020,42020,2,346803,1,3.75,3.75
6388753,6388753,2254184,600722884,"Morten Hansen",morten_hansen34@hotmail.com,600688966,"2020-04-11 15:08:08",DK,20.0000,"Start Fitness
Fitness
SF English","Regatta Marauder II Mens Waterproof Jacket - Grey",2.0000,18.0000,20.0000,15.00000000,42020,42020,2,341950,1,15.00,15.00
6388755,6388755,2254184,600722884,"Morten Hansen",morten_hansen34@hotmail.com,600688966,"2020-04-11 15:08:08",DK,3.0000,"Start Fitness
Fitness
SF English","Regatta Lazka Mens Long Sleeve Shirt - Navy",0.3000,2.7000,20.0000,2.25000000,42020,42020,2,309622,1,2.25,2.25
6388757,6388757,2254184,600722884,"Morten Hansen",morten_hansen34@hotmail.com,600688966,"2020-04-11 15:08:08",DK,5.0000,"Start Fitness
Fitness
SF English","Ben Sherman Docker Beanie Hat - Black",0.5000,4.5000,20.0000,3.75000000,42020,42020,2,346800,1,3.75,3.75
6388758,6388758,2254184,600722884,"Morten Hansen",morten_hansen34@hotmail.com,600688966,"2020-04-11 15:08:08",DK,5.0000,"Start Fitness
Fitness
SF English","Ben Sherman Docker Beanie Hat - Grey",0.5000,4.5000,20.0000,3.75000000,42020,42020,2,346799,1,3.75,3.75
6485472,6485472,2293976,600731706,"PHILIPPA THOMPSON",pippacthompson@hotmail.co.uk,600697039,"2020-04-28 16:27:12",DK,55.0000,"Start Fitness
Fitness
SF English","Reebok Crossfit Nano 2.0 Mens Training Shoes - Orange",5.5000,49.5000,20.0000,41.25000000,42020,42020,2,332217,1,41.25,41.25
6485474,6485474,2293976,600731706,"PHILIPPA THOMPSON",pippacthompson@hotmail.co.uk,600697039,"2020-04-28 16:27:12",DK,5.0000,"Start Fitness
Fitness
SF English","Sub Sports Heat Stay Cool Tech Short Sleeve Mens Top - Red",0.5000,4.5000,20.0000,3.75000000,42020,42020,2,326268,1,3.75,3.75
6485476,6485476,2293976,600731706,"PHILIPPA THOMPSON",pippacthompson@hotmail.co.uk,600697039,"2020-04-28 16:27:12",DK,10.0000,"Start Fitness
Fitness
SF English","Sub Sports Heat Stay Cool Tech Mens Short Sleeve Top - Black",1.0000,9.0000,20.0000,7.50000000,42020,42020,2,211704,1,7.50,7.50
6371456,6371456,2246577,1900274418,"anette  Dewett",anedew@live.dk,1900247493,"2020-04-08 07:53:06",DK,14.9000,"Start Fitness
Fitness
Fitness Mobile","Fitness Mad Ultra Speed Rope",,14.9000,20.0000,12.41666667,42020,42020,2,298634,1,12.42,12.42
6371457,6371457,2246577,1900274418,"anette  Dewett",anedew@live.dk,1900247493,"2020-04-08 07:53:06",DK,12.4900,"Start Fitness
Fitness
Fitness Mobile","Fitness Mad (Set Of 5) Mini Power Loops Resistance Bands",,12.4900,20.0000,10.40833333,42020,42020,2,249681,1,10.41,10.41
6399432,6399432,2258702,600723686,"Ib Lunde Rasmussen",lrc@lrc.dk,600689715,"2020-04-13 13:35:44",DK,119.9000,"Start Fitness
Fitness
SF English","Asics Gel Nimbus 22 Mens Running Shoes - Black",,119.9000,20.0000,99.91666667,42020,42020,2,350734,1,99.92,99.92
6399434,6399434,2258702,600723686,"Ib Lunde Rasmussen",lrc@lrc.dk,600689715,"2020-04-13 13:35:44",DK,10.0000,"Start Fitness
Fitness
SF English","More Mile Endurance (5 Pack) Running Socks - Multi",,10.0000,20.0000,8.33333333,42020,42020,2,211834,1,8.33,8.33
6442981,6442981,2276857,600727657,"Helle Sorensen",hsbouet@gmail.com,600693329,"2020-04-21 11:58:01",DK,30.0000,"Start Fitness
Fitness
SF English","Regatta Nevado II Womens Down Jacket - Blue",,30.0000,20.0000,25.00000000,42020,42020,2,351436,1,25.00,25.00
6442983,6442983,2276857,600727657,"Helle Sorensen",hsbouet@gmail.com,600693329,"2020-04-21 11:58:01",DK,8.0000,"Start Fitness
Fitness
SF English","Umbro Woven Womens Training Jacket - Black",,8.0000,20.0000,6.66666667,42020,42020,2,315764,1,6.67,6.67
6442985,6442985,2276857,600727657,"Helle Sorensen",hsbouet@gmail.com,600693329,"2020-04-21 11:58:01",DK,14.0000,"Start Fitness
Fitness
SF English","Regatta Closinda Womens Fleece - Red",,14.0000,20.0000,11.66666667,42020,42020,2,332136,1,11.67,11.67
6414390,6414390,2265080,1900278037,"Mads Søgaard  Mondrup",mads.mondrup@gmail.com,1900250680,"2020-04-16 04:53:59",DK,1499.0000,"Start Fitness
Fitness
Fitness Mobile","Cannondale SuperX Apex 1 Mens Carbon Cyclocross Bike 2019 - Blue",,1499.0000,20.0000,1249.16666667,42020,42020,2,233843,1,1249.17,1249.17
6402537,6402537,2259922,1900277017,"Andreas  Winter ",amendir@gmail.com,1900249792,"2020-04-13 20:23:26",DK,59.9000,"Start Fitness
Fitness
Fitness Mobile","Saucony Guide ISO 2 Mens Running Shoes - Green",,59.9000,20.0000,49.91666667,42020,42020,2,310472,1,49.92,49.92
6374956,6374956,2248085,1900274702,"Annie Goransson",anniegoransson@gmail.com,1900247744,"2020-04-08 20:02:02",DK,29.9000,"Start Fitness
Fitness
Fitness Mobile","HUUB Neoprene Swimming Skull Cap - Black",,29.9000,20.0000,24.91666667,42020,42020,2,357067,1,24.92,24.92
6374958,6374958,2248085,1900274702,"Annie Goransson",anniegoransson@gmail.com,1900247744,"2020-04-08 20:02:02",DK,25.0000,"Start Fitness
Fitness
Fitness Mobile","Orca Tri Swimming Gloves - Black",,25.0000,20.0000,20.83333333,42020,42020,2,208535,1,20.83,20.83
6374960,6374960,2248085,1900274702,"Annie Goransson",anniegoransson@gmail.com,1900247744,"2020-04-08 20:02:02",DK,128.9000,"Start Fitness
Fitness
Fitness Mobile","Orca TRN Womens Wetsuit - Black",,128.9000,20.0000,107.41666667,42020,42020,2,357289,1,107.42,107.42
6353451,6353451,2237916,1900273011,"Trine  Hyttel",trinehyttel@gmail.com,1900246276,"2020-04-04 13:46:44",DK,29.9000,"Start Fitness
Fitness
Fitness Mobile","Asics GT 1000 8 GS Junior Running Shoes - Black",,29.9000,0.0000,29.90000000,42020,42020,5,333162,1,29.90,29.90
6353453,6353453,2237916,1900273011,"Trine  Hyttel",trinehyttel@gmail.com,1900246276,"2020-04-04 13:46:44",DK,120.0000,"Start Fitness
Fitness
Fitness Mobile","Asics Gel Kayano 26 Mens Running Shoes - Blue",,120.0000,20.0000,100.00000000,42020,42020,2,347128,1,100.00,100.00
6422308,6422308,2268285,600725813,"Martin  Brock",martinbrock@live.dk,600691649,"2020-04-17 15:13:05",DK,5.0000,"Start Fitness
Fitness
SF English","Sub Sports SubAir Seamless Baselayer Short Sleeve Mens Top - Grey",0.5000,4.5000,20.0000,3.75000000,42020,42020,2,326288,1,3.75,3.75
6422310,6422310,2268285,600725813,"Martin  Brock",martinbrock@live.dk,600691649,"2020-04-17 15:13:05",DK,25.0000,"Start Fitness
Fitness
SF English","More Mile Super Lift 3 CrossFit / Weightlifting Shoes - Green",2.5000,22.5000,20.0000,18.75000000,42020,42020,2,231084,1,18.75,18.75
6422312,6422312,2268285,600725813,"Martin  Brock",martinbrock@live.dk,600691649,"2020-04-17 15:13:05",DK,39.9000,"Start Fitness
Fitness
SF English","Under Armour ColdGear Fitted Mens Training Hoody - Black",3.9900,35.9100,20.0000,29.92500000,42020,42020,2,313624,1,29.93,29.93
6422314,6422314,2268285,600725813,"Martin  Brock",martinbrock@live.dk,600691649,"2020-04-17 15:13:05",DK,20.0000,"Start Fitness
Fitness
SF English","Under Armour Mid Graphic Womens Sports Bra - Black",2.0000,18.0000,20.0000,15.00000000,42020,42020,2,304414,1,15.00,15.00
6422316,6422316,2268285,600725813,"Martin  Brock",martinbrock@live.dk,600691649,"2020-04-17 15:13:05",DK,10.0000,"Start Fitness
Fitness
SF English","More Mile Vibe Classic Leather Trainers - Black",1.0000,9.0000,20.0000,7.50000000,42020,42020,2,228511,1,7.50,7.50
6422318,6422318,2268285,600725813,"Martin  Brock",martinbrock@live.dk,600691649,"2020-04-17 15:13:05",DK,18.0000,"Start Fitness
Fitness
SF English","DBlade Denim Multipocket Mens Work Wear Jeans - Denim",1.8000,16.2000,20.0000,13.50000000,42020,42020,2,311289,1,13.50,13.50
6422320,6422320,2268285,600725813,"Martin  Brock",martinbrock@live.dk,600691649,"2020-04-17 15:13:05",DK,7.9000,"Start Fitness
Fitness
SF English","Under Armour HeatGear (3 Pack) Crew Socks",0.7900,7.1100,20.0000,5.92500000,42020,42020,2,340761,1,5.93,5.93
6422322,6422322,2268285,600725813,"Martin  Brock",martinbrock@live.dk,600691649,"2020-04-17 15:13:05",DK,15.0000,"Start Fitness
Fitness
SF English","Under Armour Tech Short Sleeve Mens Running Top - Grey",1.5000,13.5000,20.0000,11.25000000,42020,42020,2,113649,1,11.25,11.25
6422324,6422324,2268285,600725813,"Martin  Brock",martinbrock@live.dk,600691649,"2020-04-17 15:13:05",DK,10.0000,"Start Fitness
Fitness
SF English","Nike Legacy 91 Custom Tech Golf Cap - Blue",1.0000,9.0000,20.0000,7.50000000,42020,42020,2,326311,1,7.50,7.50
6422325,6422325,2268285,600725813,"Martin  Brock",martinbrock@live.dk,600691649,"2020-04-17 15:13:05",DK,1.0000,"Start Fitness
Fitness
SF English","ForArms Upper Body Muscle Toning System forarmsS1 - Orange",0.1000,0.9000,20.0000,0.75000000,42020,42020,2,83643,1,0.75,0.75
6422327,6422327,2268285,600725813,"Martin  Brock",martinbrock@live.dk,600691649,"2020-04-17 15:13:05",DK,3.0000,"Start Fitness
Fitness
SF English","More Mile California Long Compression Socks - White",0.3000,2.7000,20.0000,2.25000000,42020,42020,2,84266,1,2.25,2.25
6422329,6422329,2268285,600725813,"Martin  Brock",martinbrock@live.dk,600691649,"2020-04-17 15:13:05",DK,4.0000,"Start Fitness
Fitness
SF English","Diadora Womens Full Zip Hoody - White",0.4000,3.6000,20.0000,3.00000000,42020,42020,2,315681,1,3.00,3.00
6422331,6422331,2268285,600725813,"Martin  Brock",martinbrock@live.dk,600691649,"2020-04-17 15:13:05",DK,5.0000,"Start Fitness
Fitness
SF English","Corex Fitness Womens Training Vest Tank Top - Black",0.5000,4.5000,20.0000,3.75000000,42020,42020,2,321597,1,3.75,3.75
6383338,6383338,2251792,600722512,"Malte Dam Korsbjerg",maltedamkorsbjerg@gmail.com,600688638,"2020-04-10 14:52:59",DK,12.0000,"Start Fitness
Fitness
SF English","Under Armour Patterson Backpack - Black",1.2000,10.8000,20.0000,9.00000000,42020,42020,2,349931,1,9.00,9.00
6442547,6442547,2276677,1900280614,"Helge Ganderup",hsganderup@hotmail.com,1900252932,"2020-04-21 10:40:02",DK,99.9000,"Start Fitness
Fitness
Fitness Mobile","Asics Gel Nimbus 21 Mens Running Shoes - Black",,99.9000,20.0000,83.25000000,42020,42020,2,315012,1,83.25,83.25
6390650,6390650,2255065,2700004192,"Anders Holte Nielsen",anhl@dgs.com,2700003905,"2020-04-11 22:05:03",DK,20.0000,"More Mile
More Mile
More Mile Mobile","More Mile 2 in 1 Mens Cycling Shorts - Black ",,20.0000,20.0000,16.66666667,42020,42020,2,85695,1,16.67,16.67
6390652,6390652,2255065,2700004192,"Anders Holte Nielsen",anhl@dgs.com,2700003905,"2020-04-11 22:05:03",DK,6.0000,"More Mile
More Mile
More Mile Mobile","More Mile R2R Compression Socks - Black",,6.0000,20.0000,5.00000000,42020,42020,2,176255,1,5.00,5.00
6390654,6390654,2255065,2700004192,"Anders Holte Nielsen",anhl@dgs.com,2700003905,"2020-04-11 22:05:03",DK,13.0000,"More Mile
More Mile
More Mile Mobile","More Mile Compression Womens Long Sleeve Top - Black",,13.0000,20.0000,10.83333333,42020,42020,2,225000,1,10.83,10.83
6344345,6344345,2233270,600719451,"Frank Lyng Andersen",franklyng@jubii.dk,600685845,"2020-04-02 13:01:04",DK,69.0000,"Start Fitness
Fitness
SF English","2XU Hi Rise Womens Long Compression Tights - Black",6.9000,62.1000,20.0000,51.75000000,42020,42020,2,340297,1,51.75,51.75
6344347,6344347,2233270,600719451,"Frank Lyng Andersen",franklyng@jubii.dk,600685845,"2020-04-02 13:01:04",DK,66.9000,"Start Fitness
Fitness
SF English","2XU Fitness Hi-Rise Womens Long Compression Tights - Black",6.6900,60.2100,20.0000,50.17500000,42020,42020,2,325604,1,50.18,50.18
6344349,6344349,2233270,600719451,"Frank Lyng Andersen",franklyng@jubii.dk,600685845,"2020-04-02 13:01:04",DK,5.0000,"Start Fitness
Fitness
SF English","Sub Sports SubAir Seamless Womens Short Tights - Grey",0.5000,4.5000,20.0000,3.75000000,42020,42020,2,326300,1,3.75,3.75
6344351,6344351,2233270,600719451,"Frank Lyng Andersen",franklyng@jubii.dk,600685845,"2020-04-02 13:01:04",DK,5.0000,"Start Fitness
Fitness
SF English","Sub Sports SubAir Seamless Womens Sports Bra - Grey",0.5000,4.5000,20.0000,3.75000000,42020,42020,2,326306,1,3.75,3.75
6344353,6344353,2233270,600719451,"Frank Lyng Andersen",franklyng@jubii.dk,600685845,"2020-04-02 13:01:04",DK,5.0000,"Start Fitness
Fitness
SF English","Sub Sports SubAir Seamless Womens Vest Tank Top - Grey",0.5000,4.5000,20.0000,3.75000000,42020,42020,2,326294,1,3.75,3.75
6344355,6344355,2233270,600719451,"Frank Lyng Andersen",franklyng@jubii.dk,600685845,"2020-04-02 13:01:04",DK,2.0000,"Start Fitness
Fitness
SF English","Healthspan NutriCoach Protein Shaker Bottle - Orange",0.2000,1.8000,20.0000,1.50000000,42020,42020,2,347689,1,1.50,1.50
6344356,6344356,2233270,600719451,"Frank Lyng Andersen",franklyng@jubii.dk,600685845,"2020-04-02 13:01:04",DK,5.0000,"Start Fitness
Fitness
SF English","TCA Air Racerback Womens Training Vest Tank Top - Blue",0.5000,4.5000,20.0000,3.75000000,42020,42020,2,249297,1,3.75,3.75
6344358,6344358,2233270,600719451,"Frank Lyng Andersen",franklyng@jubii.dk,600685845,"2020-04-02 13:01:04",DK,5.0000,"Start Fitness
Fitness
SF English","TCA Vista Cross Back Womens Running Vest Tank Top - Pink",0.5000,4.5000,20.0000,3.75000000,42020,42020,2,246550,1,3.75,3.75
6344360,6344360,2233270,600719451,"Frank Lyng Andersen",franklyng@jubii.dk,600685845,"2020-04-02 13:01:04",DK,5.0000,"Start Fitness
Fitness
SF English","TCA Laser Tech Lightweight Womens Running Vest Tank Top - Green",0.5000,4.5000,20.0000,3.75000000,42020,42020,2,246222,1,3.75,3.75
6344362,6344362,2233270,600719451,"Frank Lyng Andersen",franklyng@jubii.dk,600685845,"2020-04-02 13:01:04",DK,10.0000,"Start Fitness
Fitness
SF English","Ronhill Momentum Womens Sports Bra - Pink",1.0000,9.0000,20.0000,7.50000000,42020,42020,2,353477,1,7.50,7.50
6344364,6344364,2233270,600719451,"Frank Lyng Andersen",franklyng@jubii.dk,600685845,"2020-04-02 13:01:04",DK,10.0000,"Start Fitness
Fitness
SF English","Ronhill Momentum Deluxe Short Sleeve Womens Running Top - Pink",1.0000,9.0000,20.0000,7.50000000,42020,42020,2,353428,1,7.50,7.50
6344366,6344366,2233270,600719451,"Frank Lyng Andersen",franklyng@jubii.dk,600685845,"2020-04-02 13:01:04",DK,29.9000,"Start Fitness
Fitness
SF English","Asics Tokyo Short Sleeve Mens Running Top - White",2.9900,26.9100,20.0000,22.42500000,42020,42020,2,355035,1,22.43,22.43
6344368,6344368,2233270,600719451,"Frank Lyng Andersen",franklyng@jubii.dk,600685845,"2020-04-02 13:01:04",DK,20.0000,"Start Fitness
Fitness
SF English","Asics Speed Mens Running Vest - Green",2.0000,18.0000,20.0000,15.00000000,42020,42020,2,354861,1,15.00,15.00
6344370,6344370,2233270,600719451,"Frank Lyng Andersen",franklyng@jubii.dk,600685845,"2020-04-02 13:01:04",DK,20.0000,"Start Fitness
Fitness
SF English","Ronhill Momentum Windchill Womens Running Jacket - Pink",2.0000,18.0000,20.0000,15.00000000,42020,42020,2,349865,1,15.00,15.00
6376178,6376178,2248662,600721881,"Søren Teglgaard Jakobsen",sorenteglgaard@gmail.com,600688065,"2020-04-09 07:51:36",DK,38.9000,"Start Fitness
Fitness
SF English","Asics Patriot 10 Mens Running Shoes - Blue",3.8900,35.0100,20.0000,29.17500000,42020,42020,2,318321,1,29.18,29.18
6376180,6376180,2248662,600721881,"Søren Teglgaard Jakobsen",sorenteglgaard@gmail.com,600688065,"2020-04-09 07:51:36",DK,39.9000,"Start Fitness
Fitness
SF English","adidas Duramo 9 Mens Running Shoes - Navy",3.9900,35.9100,20.0000,29.92500000,42020,42020,2,337773,1,29.93,29.93
6474028,6474028,2289498,600730483,"Rasmus Bolbroe",rasmus_bolbroe@hotmail.com,600695925,"2020-04-26 18:57:21",DK,7.0000,"Start Fitness
Fitness
SF English","More Mile Cadeo Coolmax Twin Pack Running Socks - White",0.7000,6.3000,20.0000,5.25000000,42020,42020,2,85428,1,5.25,5.25
6474030,6474030,2289498,600730483,"Rasmus Bolbroe",rasmus_bolbroe@hotmail.com,600695925,"2020-04-26 18:57:21",DK,5.0000,"Start Fitness
Fitness
SF English","2XU Ankle Running Socks - White",0.5000,4.5000,20.0000,3.75000000,42020,42020,2,359471,1,3.75,3.75
6474032,6474032,2289498,600730483,"Rasmus Bolbroe",rasmus_bolbroe@hotmail.com,600695925,"2020-04-26 18:57:21",DK,75.0000,"Start Fitness
Fitness
SF English","Saucony Liberty ISO Mens Running Shoes - Blue",7.5000,67.5000,20.0000,56.25000000,42020,42020,2,310644,1,56.25,56.25
6474034,6474034,2289498,600730483,"Rasmus Bolbroe",rasmus_bolbroe@hotmail.com,600695925,"2020-04-26 18:57:21",DK,25.0000,"Start Fitness
Fitness
SF English","Under Armour MK1 Terry Mens Training Shorts - Navy",2.5000,22.5000,20.0000,18.75000000,42020,42020,2,302158,1,18.75,18.75
6474036,6474036,2289498,600730483,"Rasmus Bolbroe",rasmus_bolbroe@hotmail.com,600695925,"2020-04-26 18:57:21",DK,16.0000,"Start Fitness
Fitness
SF English","Under Armour HeatGear Compression Mens Short Sleeve Top - White",1.6000,14.4000,20.0000,12.00000000,42020,42020,2,126600,1,12.00,12.00
6474038,6474038,2289498,600730483,"Rasmus Bolbroe",rasmus_bolbroe@hotmail.com,600695925,"2020-04-26 18:57:21",DK,15.0000,"Start Fitness
Fitness
SF English","Under Armour HeatGear Compression Mens Short Sleeve Top - Blue",1.5000,13.5000,20.0000,11.25000000,42020,42020,2,354519,1,11.25,11.25
6474040,6474040,2289498,600730483,"Rasmus Bolbroe",rasmus_bolbroe@hotmail.com,600695925,"2020-04-26 18:57:21",DK,6.9000,"Start Fitness
Fitness
SF English","Under Armour HeatGear (3 Pack) Low Cut Socks - Black",0.6900,6.2100,20.0000,5.17500000,42020,42020,2,348255,1,5.18,5.18
6474042,6474042,2289498,600730483,"Rasmus Bolbroe",rasmus_bolbroe@hotmail.com,600695925,"2020-04-26 18:57:21",DK,6.9000,"Start Fitness
Fitness
SF English","Under Armour HeatGear (3 Pack) Low Cut Socks - Grey",0.6900,6.2100,20.0000,5.17500000,42020,42020,2,348258,1,5.18,5.18
