item_id,order_item_id,"Invoice ID","Order Number","Customer name",customer_email,"Invoice No","Invoice Date",country_id,base_row_total_incl_tax,store_name,name,base_discount_amount,"Value less discount",tax_percent,"Net Discounted Amount","Return Date",month_year,value,product_id,customer_group_id,"net based on catalog vat","New tax"
7486279,7486279,2689754,6000894003,"Urska Jamnikar Ciglenecki",urska.jamnikar@vf.uni-lj.si,6000664219,"2020-12-08 18:44:49",SI,30.0000,"Start Fitness
Fitness
SF English","adidas Adizero Ambition 3 Running Spikes - Blue",3.0000,27.0000,20.0000,22.50000000,122020,122020,2,159730,0,22.50,22.5000
7515329,7515329,2701692,6000900657,,nusa.kokalj@telemach.net,6000670519,"2020-12-13 21:14:34",SI,211.8900,"Start Fitness
Fitness
SF English","Inov8 Thermoshell Pro Womens Running Jacket - Black",,211.8900,20.0000,176.57500000,122020,122020,2,382524,0,176.58,176.5800
7515331,7515331,2701692,6000900657,,nusa.kokalj@telemach.net,6000670519,"2020-12-13 21:14:34",SI,60.4600,"Start Fitness
Fitness
SF English","Inov8 Race Elite Womens 3/4 Capri Running Tights - Black",,60.4600,20.0000,50.38333333,122020,122020,2,382504,0,50.38,50.3800
7513478,7513478,2700953,6000900249,"Marko Mandir",markomandir@yahoo.com,6000670129,"2020-12-13 17:27:52",SI,15.0000,"Start Fitness
Fitness
SF English","Sub Sports Dual 2.0 Mens Compression Running Tights - Black",,15.0000,20.0000,12.50000000,122020,122020,2,368179,0,12.50,12.5000
7515333,7515333,2701692,6000900657,,nusa.kokalj@telemach.net,6000670519,"2020-12-13 21:14:34",SI,15.4800,"Start Fitness
Fitness
SF English","Under Armour Pure Stretch Womens Brief - Green",,15.4800,20.0000,12.90000000,122020,122020,2,330609,0,12.90,12.9000
7513480,7513480,2700953,6000900249,"Marko Mandir",markomandir@yahoo.com,6000670129,"2020-12-13 17:27:52",SI,2.9500,"Start Fitness
Fitness
SF English","More Mile California Long Compression Socks - Black",,2.9500,20.0000,2.45833333,122020,122020,2,186891,0,2.46,2.4600
7562453,7562453,2719400,6000911862,"Jernej Murn",mjernej@yahoo.com,6000681142,"2020-12-26 20:16:14",SI,21.9000,"Start Fitness
Fitness
SF English","adidas AeroReady Running Gloves - Black",,21.9000,20.0000,18.25000000,122020,122020,2,387712,0,18.25,18.2500
7513482,7513482,2700953,6000900249,"Marko Mandir",markomandir@yahoo.com,6000670129,"2020-12-13 17:27:52",SI,45.0000,"Start Fitness
Fitness
SF English","Under Armour HOVR Velociti 2 Run Mens Running Shoes - White",,45.0000,20.0000,37.50000000,122020,122020,2,364207,0,37.50,37.5000
7562455,7562455,2719400,6000911862,"Jernej Murn",mjernej@yahoo.com,6000681142,"2020-12-26 20:16:14",SI,1.9500,"Start Fitness
Fitness
SF English","Ultimate Performance Track Spike Pins",,1.9500,20.0000,1.62500000,122020,122020,2,345093,0,1.63,1.6300
7513484,7513484,2700953,6000900249,"Marko Mandir",markomandir@yahoo.com,6000670129,"2020-12-13 17:27:52",SI,12.0000,"Start Fitness
Fitness
SF English","FuelBelt Helium Ergo Hydration Bottle Belt - Black",,12.0000,20.0000,10.00000000,122020,122020,2,360458,0,10.00,10.0000
7562457,7562457,2719400,6000911862,"Jernej Murn",mjernej@yahoo.com,6000681142,"2020-12-26 20:16:14",SI,1.9500,"Start Fitness
Fitness
SF English","Ultimate Performance Track Spike Pins",,1.9500,20.0000,1.62500000,122020,122020,2,345093,0,1.63,1.6300
7500406,7500406,2695515,6000897166,,agencijazu5@gmail.com,6000667201,"2020-12-11 09:37:39",SI,22.3200,"Start Fitness
Fitness
SF English","Scott Trail Tech Hybrid (With Pad) Womens Cycling Shorts - Blue",,22.3200,20.0000,18.60000000,122020,122020,2,362283,0,18.60,18.6000
7513485,7513485,2700953,6000900249,"Marko Mandir",markomandir@yahoo.com,6000670129,"2020-12-13 17:27:52",SI,5.9000,"Start Fitness
Fitness
SF English","Speedo Biofuse Aquatic Earplugs - Grey",,5.9000,20.0000,4.91666667,122020,122020,2,101480,0,4.92,4.9200
7562459,7562459,2719400,6000911862,"Jernej Murn",mjernej@yahoo.com,6000681142,"2020-12-26 20:16:14",SI,79.0000,"Start Fitness
Fitness
SF English","adidas Adizero Prime Finesse Running Spikes - White",,79.0000,20.0000,65.83333333,122020,122020,2,314261,0,65.83,65.8300
7500408,7500408,2695515,6000897166,,agencijazu5@gmail.com,6000667201,"2020-12-11 09:37:39",SI,88.6100,"Start Fitness
Fitness
SF English","Scott Trail MTN Tech GTX Active Womens Cycling Jacket - Grey",,88.6100,20.0000,73.84166667,122020,122020,2,362124,0,73.84,73.8400
7513486,7513486,2700953,6000900249,"Marko Mandir",markomandir@yahoo.com,6000670129,"2020-12-13 17:27:52",SI,3.0000,"Start Fitness
Fitness
SF English","Piu Miglia 1000ml Sports Water Bottle - Blue",,3.0000,20.0000,2.50000000,122020,122020,2,158389,0,2.50,2.5000
7500410,7500410,2695515,6000897166,,agencijazu5@gmail.com,6000667201,"2020-12-11 09:37:39",SI,33.6500,"Start Fitness
Fitness
SF English","Scott Trail Flow Pro Mens Cycling Shorts - Yellow",,33.6500,20.0000,28.04166667,122020,122020,2,361955,0,28.04,28.0400
7500412,7500412,2695515,6000897166,,agencijazu5@gmail.com,6000667201,"2020-12-11 09:37:39",SI,20.1900,"Start Fitness
Fitness
SF English","Scott Superstitious Full Finger Cycling Gloves - Black",,20.1900,20.0000,16.82500000,122020,122020,2,360874,0,16.83,16.8300
7500414,7500414,2695515,6000897166,,agencijazu5@gmail.com,6000667201,"2020-12-11 09:37:39",SI,27.9300,"Start Fitness
Fitness
SF English","Endura Hummvee Plus II Full Finger Cycling Gloves - Black",,27.9300,20.0000,23.27500000,122020,122020,2,387081,0,23.28,23.2800
7500416,7500416,2695515,6000897166,,agencijazu5@gmail.com,6000667201,"2020-12-11 09:37:39",SI,17.8400,"Start Fitness
Fitness
SF English","Endura BaaBaa Merino Winter Cycling Socks - Black",,17.8400,20.0000,14.86666667,122020,122020,2,379517,0,14.87,14.8700
7501749,7501749,2696051,6000897498,,milanmajk@gmail.com,6000667512,"2020-12-11 14:24:11",SI,78.5200,"Start Fitness
Fitness
SF English","Altra Torin IQ Mens Running Shoes - Grey",,78.5200,20.0000,65.43333333,122020,122020,2,386055,0,65.43,65.4300
7466083,7466083,2681527,6000889481,"Dejan Paliska",dejan.paliska1@gmail.com,6000659923,"2020-12-05 17:08:21",SI,10.0000,"Start Fitness
Fitness
SF English","More Mile Junior Cycle Jacket - Yellow",,10.0000,0.0000,10.00000000,122020,122020,5,86748,0,10.00,10.0000
7466085,7466085,2681527,6000889481,"Dejan Paliska",dejan.paliska1@gmail.com,6000659923,"2020-12-05 17:08:21",SI,15.0000,"Start Fitness
Fitness
SF English","Piu Miglia Junior Cycling Bib Tights With Pad - Blue",,15.0000,0.0000,15.00000000,122020,122020,5,160496,0,15.00,15.0000
7466087,7466087,2681527,6000889481,"Dejan Paliska",dejan.paliska1@gmail.com,6000659923,"2020-12-05 17:08:21",SI,20.0000,"Start Fitness
Fitness
SF English","Piu Miglia  Elite Junior Cycling Jacket - Orange",,20.0000,0.0000,20.00000000,122020,122020,5,160465,0,20.00,20.0000
7466089,7466089,2681527,6000889481,"Dejan Paliska",dejan.paliska1@gmail.com,6000659923,"2020-12-05 17:08:21",SI,8.0000,"Start Fitness
Fitness
SF English","Craft Rain Bootie Cycling Overshoes - Black",,8.0000,20.0000,6.66666667,122020,122020,2,113833,0,6.67,6.6700
7515303,7515303,2701692,6000900657,,nusa.kokalj@telemach.net,6000670519,"2020-12-13 21:14:34",SI,50.3600,"Start Fitness
Fitness
SF English","adidas Don't Rest AlphaSkin Graphic Womens Sports Bra - Pink",,50.3600,20.0000,41.96666667,122020,122020,2,382719,0,41.97,41.9700
7515305,7515305,2701692,6000900657,,nusa.kokalj@telemach.net,6000670519,"2020-12-13 21:14:34",SI,39.2600,"Start Fitness
Fitness
SF English","adidas Stronger For It Cross Back Womens Sports Bra - Grey",,39.2600,20.0000,32.71666667,122020,122020,2,247544,0,32.72,32.7200
7515307,7515307,2701692,6000900657,,nusa.kokalj@telemach.net,6000670519,"2020-12-13 21:14:34",SI,6.6200,"Start Fitness
Fitness
SF English","More Mile Cheviot Trail Running Socks - Black",,6.6200,20.0000,5.51666667,122020,122020,2,387857,0,5.52,5.5200
7515309,7515309,2701692,6000900657,,nusa.kokalj@telemach.net,6000670519,"2020-12-13 21:14:34",SI,15.5900,"Start Fitness
Fitness
SF English","Feetures Elite Light Cushion Mini Crew Running Socks - Blue",,15.5900,20.0000,12.99166667,122020,122020,2,386960,0,12.99,12.9900
7515311,7515311,2701692,6000900657,,nusa.kokalj@telemach.net,6000670519,"2020-12-13 21:14:34",SI,14.4700,"Start Fitness
Fitness
SF English","Inov8 F-Lite Crew Womens Training Socks - Pink",,14.4700,20.0000,12.05833333,122020,122020,2,384355,0,12.06,12.0600
7515313,7515313,2701692,6000900657,,nusa.kokalj@telemach.net,6000670519,"2020-12-13 21:14:34",SI,14.4700,"Start Fitness
Fitness
SF English","adidas AlphaSkin UltraLight Performance Crew Socks - Pink",,14.4700,20.0000,12.05833333,122020,122020,2,383736,0,12.06,12.0600
7515315,7515315,2701692,6000900657,,nusa.kokalj@telemach.net,6000670519,"2020-12-13 21:14:34",SI,14.4700,"Start Fitness
Fitness
SF English","Hilly Marathon Fresh Anklet Running Socks - Grey",,14.4700,20.0000,12.05833333,122020,122020,2,377280,0,12.06,12.0600
7515317,7515317,2701692,6000900657,,nusa.kokalj@telemach.net,6000670519,"2020-12-13 21:14:34",SI,11.2200,"Start Fitness
Fitness
SF English","Sub Sports Cold Thermal Fitted Long Sleeve Funnel Neck Womens Running Top - Grey",,11.2200,20.0000,9.35000000,122020,122020,2,387653,0,9.35,9.3500
7475716,7475716,2685610,6000891637,,jakob.mamic@gmail.com,6000661970,"2020-12-07 06:42:10",SI,74.9900,"Start Fitness
Fitness
SF English","Syncros Triathlon Extension Bars - Black",,74.9900,20.0000,62.49166667,122020,122020,2,379132,0,62.49,62.4900
7515319,7515319,2701692,6000900657,,nusa.kokalj@telemach.net,6000670519,"2020-12-13 21:14:34",SI,11.2200,"Start Fitness
Fitness
SF English","Sub Sports Cold Thermal Fitted Long Sleeve Mock Womens Running Top - Grey",,11.2200,20.0000,9.35000000,122020,122020,2,387623,0,9.35,9.3500
7515321,7515321,2701692,6000900657,,nusa.kokalj@telemach.net,6000670519,"2020-12-13 21:14:34",SI,13.4600,"Start Fitness
Fitness
SF English","Salming Balance Long Sleeve Womens Running Top - Pink",,13.4600,20.0000,11.21666667,122020,122020,2,365448,0,11.22,11.2200
7515323,7515323,2701692,6000900657,,nusa.kokalj@telemach.net,6000670519,"2020-12-13 21:14:34",SI,22.4300,"Start Fitness
Fitness
SF English","Asics Icon Half Zip Long Sleeve Womens Running Top - Pink",,22.4300,20.0000,18.69166667,122020,122020,2,352903,0,18.69,18.6900
7515325,7515325,2701692,6000900657,,nusa.kokalj@telemach.net,6000670519,"2020-12-13 21:14:34",SI,44.8700,"Start Fitness
Fitness
SF English","adidas Cozy Cover Up Long Sleeve Womens Running Top - Black",,44.8700,20.0000,37.39166667,122020,122020,2,342707,0,37.39,37.3900
7529984,7529984,2707562,6000904066,"Marko Turcin",arijana7@yahoo.com,6000673741,"2020-12-16 16:39:56",SI,10.0000,"Start Fitness
Fitness
SF English","Sub Sports Cold Thermal Fitted Long Sleeve Funnel Neck Womens Running Top - Black",,10.0000,20.0000,8.33333333,122020,122020,2,387647,0,8.33,8.3300
7486277,7486277,2689754,6000894003,"Urska Jamnikar Ciglenecki",urska.jamnikar@vf.uni-lj.si,6000664219,"2020-12-08 18:44:49",SI,40.0000,"Start Fitness
Fitness
SF English","adidas Adizero Triple Jump / Pole Vault Field Event Spikes - Blue",4.0000,36.0000,20.0000,30.00000000,122020,122020,2,218325,0,30.00,30.0000
7515327,7515327,2701692,6000900657,,nusa.kokalj@telemach.net,6000670519,"2020-12-13 21:14:34",SI,80.5400,"Start Fitness
Fitness
SF English","Craft Active Extreme 2.0 Womens Long Sleeve Top - Black",,80.5400,20.0000,67.11666667,122020,122020,2,300650,0,67.12,67.1200
7529986,7529986,2707562,6000904066,"Marko Turcin",arijana7@yahoo.com,6000673741,"2020-12-16 16:39:56",SI,20.0000,"Start Fitness
Fitness
SF English","Sub Sports Cold Thermal Fitted Long Sleeve Funnel Neck Womens Running Top - Black",,20.0000,20.0000,16.66666667,122020,122020,2,387647,0,16.67,16.6700
7545430,7545430,2713245,6000907831,"Janez Bester",bester.bmd@gmail.com,6000677331,"2020-12-20 20:50:07",SI,6.0000,"Start Fitness
Fitness
SF English","Christmas Festive (3 Pack) Mens Novelty Socks",,6.0000,20.0000,5.00000000,122020,122020,2,386681,1,5.00,5.0000
7512157,7512157,2700416,6000899938,"Misha Sinič",sinic.misa@gmail.com,6000669830,"2020-12-13 14:28:42",SI,4.4900,"Start Fitness
Fitness
SF English","Piu Miglia Cycling Leg Warmers - Black",,4.4900,20.0000,3.74166667,122020,122020,2,42705,1,3.74,3.7400
7530082,7530082,2707596,6000904089,"Robi Ciglar",robi.ciglar@gmail.com,6000673763,"2020-12-16 16:56:31",SI,11.2200,"Start Fitness
Fitness
SF English","Asics Essentials Running Waist Belt - Black",,11.2200,20.0000,9.35000000,122020,122020,2,369103,1,9.35,9.3500
7557191,7557191,2717646,6000910555,"Marjan Zupančič",binebingo@gmail.com,6000679887,"2020-12-25 20:23:24",SI,4.4900,"Start Fitness
Fitness
SF English","Piu Miglia Cycling Arm Warmers - Black",0.2200,4.2700,20.0000,3.55833333,122020,122020,2,42702,1,3.56,3.5600
7493162,7493162,2692436,6000895441,"Marko Flek",marko.flek@siol.net,6000665598,"2020-12-09 21:03:17",SI,50.3600,"Start Fitness
Fitness
SF English","Under Armour Fly Fast HeatGear Mens Running Tights - Black",,50.3600,20.0000,41.96666667,122020,122020,2,383414,1,41.97,41.9700
7545432,7545432,2713245,6000907831,"Janez Bester",bester.bmd@gmail.com,6000677331,"2020-12-20 20:50:07",SI,10.0000,"Start Fitness
Fitness
SF English","Scott 10 Icon Womens Cycling Hoody - Blue",,10.0000,20.0000,8.33333333,122020,122020,2,362525,1,8.33,8.3300
7534529,7534529,2709295,6000905153,"Alen Kralj",piskotek@siol.net,6000674789,"2020-12-17 18:33:39",SI,145.7100,"Start Fitness
Fitness
SF English","adidas Adizero Pro Mens Running Shoes - Pink",,145.7100,20.0000,121.42500000,122020,122020,2,385636,1,121.43,121.4300
7557193,7557193,2717646,6000910555,"Marjan Zupančič",binebingo@gmail.com,6000679887,"2020-12-25 20:23:24",SI,28.0400,"Start Fitness
Fitness
SF English","Asics Athlete Sprinter Mens Compression Short Tights - Black",1.4000,26.6400,20.0000,22.20000000,122020,122020,2,389023,1,22.20,22.2000
7493164,7493164,2692436,6000895441,"Marko Flek",marko.flek@siol.net,6000665598,"2020-12-09 21:03:17",SI,54.9600,"Start Fitness
Fitness
SF English","adidas Speed Mens Long Running Tights - Black",,54.9600,20.0000,45.80000000,122020,122020,2,334980,1,45.80,45.8000
7545434,7545434,2713245,6000907831,"Janez Bester",bester.bmd@gmail.com,6000677331,"2020-12-20 20:50:07",SI,10.0000,"Start Fitness
Fitness
SF English","TCA Pro Performance Supreme High Waist Womens Long Running Tights - Black",,10.0000,20.0000,8.33333333,122020,122020,2,327213,1,8.33,8.3300
7534531,7534531,2709295,6000905153,"Alen Kralj",piskotek@siol.net,6000674789,"2020-12-17 18:33:39",SI,145.7100,"Start Fitness
Fitness
SF English","adidas Adizero Pro Womens Running Shoes - Pink",,145.7100,20.0000,121.42500000,122020,122020,2,372023,1,121.43,121.4300
7493166,7493166,2692436,6000895441,"Marko Flek",marko.flek@siol.net,6000665598,"2020-12-09 21:03:17",SI,50.3600,"Start Fitness
Fitness
SF English","adidas Saturday Mens Short Running Tights - Black",,50.3600,20.0000,41.96666667,122020,122020,2,352926,1,41.97,41.9700
7517220,7517220,2702474,6000901056,"borut mrak",borut.mrak@kolektor.com,6000670904,"2020-12-14 09:52:16",SI,110.0000,"Start Fitness
Fitness
SF English","Scott MTB RC EVO Mens Cycling Shoes - Grey",11.0000,99.0000,20.0000,82.50000000,122020,122020,2,377140,1,82.50,82.5000
7545436,7545436,2713245,6000907831,"Janez Bester",bester.bmd@gmail.com,6000677331,"2020-12-20 20:50:07",SI,10.0000,"Start Fitness
Fitness
SF English","Sub Sports Cold Thermal Womens Long Running Tights - Black",,10.0000,20.0000,8.33333333,122020,122020,2,387659,1,8.33,8.3300
7534533,7534533,2709295,6000905153,"Alen Kralj",piskotek@siol.net,6000674789,"2020-12-17 18:33:39",SI,77.4000,"Start Fitness
Fitness
SF English","adidas Solar Boost 19 Womens Running Shoes - Blue",,77.4000,20.0000,64.50000000,122020,122020,2,332816,1,64.50,64.5000
7442824,7442824,2672182,AMZ24000582465,"M2E Orders",m2eorders@startfitness.co.uk,24000581422,"2020-12-01 11:35:17",SI,23.5800,"Start Group
Start Group
Amazon","Under Armour Liner 2.0 Running Gloves - Black-XL",,23.5800,20.0000,19.65000000,122020,122020,2,311585,1,19.65,19.6500
7534535,7534535,2709295,6000905153,"Alen Kralj",piskotek@siol.net,6000674789,"2020-12-17 18:33:39",SI,77.4000,"Start Fitness
Fitness
SF English","adidas Solar Boost Womens Running Shoes - Grey",,77.4000,20.0000,64.50000000,122020,122020,2,310089,1,64.50,64.5000
7517555,7517555,2702640,6000901131,"Rok Trdina",clio2.0rs@gmail.com,6000670974,"2020-12-14 10:58:54",SI,39.2600,"Start Fitness
Fitness
SF English","Craft Rime Mens Cycling Jacket - Black",3.9300,35.3300,20.0000,29.44166667,122020,122020,2,356339,1,29.44,29.4400
7545438,7545438,2713245,6000907831,"Janez Bester",bester.bmd@gmail.com,6000677331,"2020-12-20 20:50:07",SI,8.0000,"Start Fitness
Fitness
SF English","TCA Nova High Waist Womens Long Running Tights - Red",,8.0000,20.0000,6.66666667,122020,122020,2,248574,1,6.67,6.6700
7444913,7444913,2672887,6000884936,"IRENA MODREJ MEŽNAR",irena.meznar@gmail.com,6000655593,"2020-12-01 16:49:04",SI,25.6900,"Start Fitness
Fitness
SF English","Fitness Mad Power Resistance Loop Strong",,25.6900,20.0000,21.40833333,122020,122020,2,292693,1,21.41,21.4100
7534537,7534537,2709295,6000905153,"Alen Kralj",piskotek@siol.net,6000674789,"2020-12-17 18:33:39",SI,99.8300,"Start Fitness
Fitness
SF English","adidas Solar Boost 19 Womens Running Shoes - Orange",,99.8300,20.0000,83.19166667,122020,122020,2,372340,1,83.19,83.1900
7517557,7517557,2702640,6000901131,"Rok Trdina",clio2.0rs@gmail.com,6000670974,"2020-12-14 10:58:54",SI,55.9700,"Start Fitness
Fitness
SF English","Scott Trail Tech Hybrid (With Pad) Mens Cycling Bib Shorts - Black",5.5900,50.3800,20.0000,41.98333333,122020,122020,2,361911,1,41.98,41.9800
7548376,7548376,2714378,6000906691,"Danijela Stanisic",dstanisic40@gmail.com,6000677976,"2020-12-21 17:40:18",SI,59.0000,"Start Fitness
Fitness
SF English","Mizuno Duel Sonic 2 Mens Running Shoes - Red",,59.0000,20.0000,49.16666667,122020,122020,2,366906,1,49.17,49.1700
7444914,7444914,2672887,6000884936,"IRENA MODREJ MEŽNAR",irena.meznar@gmail.com,6000655593,"2020-12-01 16:49:04",SI,16.8300,"Start Fitness
Fitness
SF English","Scott AS 30 Cycling Knee Warmers - Black",,16.8300,20.0000,14.02500000,122020,122020,2,377681,1,14.03,14.0300
7534539,7534539,2709295,6000905153,"Alen Kralj",piskotek@siol.net,6000674789,"2020-12-17 18:33:39",SI,77.4000,"Start Fitness
Fitness
SF English","adidas SL20 Womens Running Shoes - Orange",,77.4000,20.0000,64.50000000,122020,122020,2,353993,1,64.50,64.5000
7571732,7571732,2722446,6000913875,"Rok Trdina",clio2.0rs@gmail.com,6000683255,"2020-12-28 13:37:07",SI,39.2600,"Start Fitness
Fitness
SF English","Craft Rime Mens Cycling Jacket - Black",3.9300,35.3300,20.0000,29.44166667,122020,122020,2,356339,1,29.44,29.4400
7517559,7517559,2702640,6000901131,"Rok Trdina",clio2.0rs@gmail.com,6000670974,"2020-12-14 10:58:54",SI,3.3700,"Start Fitness
Fitness
SF English","Dare2B Brainwave Fleece Lined Junior Beanie - Blue",0.3400,3.0300,0.0000,3.03000000,122020,122020,11,387823,1,2.53,2.5300
7548378,7548378,2714378,6000906691,"Danijela Stanisic",dstanisic40@gmail.com,6000677976,"2020-12-21 17:40:18",SI,69.0000,"Start Fitness
Fitness
SF English","Mizuno Wave Duel Mens Running Shoes - Red",,69.0000,20.0000,57.50000000,122020,122020,2,366882,1,57.50,57.5000
7444916,7444916,2672887,6000884936,"IRENA MODREJ MEŽNAR",irena.meznar@gmail.com,6000655593,"2020-12-01 16:49:04",SI,33.5400,"Start Fitness
Fitness
SF English","Madison 77 Road Race Premio Short Sleeve Mens Cycling Jersey - Red",,33.5400,20.0000,27.95000000,122020,122020,2,364056,1,27.95,27.9500
7513756,7513756,2701085,6000900319,"Uroš Pavše",uros.pavse@gmail.com,6000670194,"2020-12-13 18:04:48",SI,11.1000,"Start Fitness
Fitness
SF English","Fox Camo Face Mask - Black",,11.1000,20.0000,9.25000000,122020,122020,2,384516,1,9.25,9.2500
7535292,7535292,2709579,6000905352,"Nika Bajc",bajc.nika@gmail.com,6000674972,"2020-12-17 21:38:08",SI,11.2200,"Start Fitness
Fitness
SF English","Scott 10 Icon Womens Cycling Hoody - Blue",,11.2200,20.0000,9.35000000,122020,122020,2,362525,1,9.35,9.3500
7571734,7571734,2722446,6000913875,"Rok Trdina",clio2.0rs@gmail.com,6000683255,"2020-12-28 13:37:07",SI,16.8300,"Start Fitness
Fitness
SF English","More Mile Thermal Mens Cycling Tights - Black",1.6800,15.1500,20.0000,12.62500000,122020,122020,2,134232,1,12.63,12.6300
7517561,7517561,2702640,6000901131,"Rok Trdina",clio2.0rs@gmail.com,6000670974,"2020-12-14 10:58:54",SI,33.5400,"Start Fitness
Fitness
SF English","Scott RC Pro Long Sleeve Womens Cycling Jersey - Black",3.3500,30.1900,20.0000,25.15833333,122020,122020,2,377385,1,25.16,25.1600
7549632,7549632,2714831,6000908859,"Anita Dobrotinsek",anitka75@hotmail.com,6000678279,"2020-12-22 08:34:28",SI,28.0400,"Start Fitness
Fitness
SF English","Craft Velo Thermal 2.0 Long Sleeve Womens Cycling Jersey - Purple",,28.0400,20.0000,23.36666667,122020,122020,2,373486,1,23.37,23.3700
7444918,7444918,2672887,6000884936,"IRENA MODREJ MEŽNAR",irena.meznar@gmail.com,6000655593,"2020-12-01 16:49:04",SI,39.1500,"Start Fitness
Fitness
SF English","Madison Road Race Light Mens Cycling Bib Shorts - Black",,39.1500,20.0000,32.62500000,122020,122020,2,363488,1,32.63,32.6300
7514121,7514121,2701218,6000900394,"nejc lipovec",nejc.lipovec1@gmail.com,6000670267,"2020-12-13 18:51:46",SI,7.9000,"Start Fitness
Fitness
SF English","Tokyo Laundry Arley (2 Pack) Mens Boxer Shorts",0.7900,7.1100,20.0000,5.92500000,122020,122020,2,387783,1,5.93,5.9300
7535294,7535294,2709579,6000905352,"Nika Bajc",bajc.nika@gmail.com,6000674972,"2020-12-17 21:38:08",SI,10.1000,"Start Fitness
Fitness
SF English","More Mile Train To Run Mens Long Sleeve Running Top - Green",,10.1000,20.0000,8.41666667,122020,122020,2,237926,1,8.42,8.4200
7571736,7571736,2722446,6000913875,"Rok Trdina",clio2.0rs@gmail.com,6000683255,"2020-12-28 13:37:07",SI,11.2200,"Start Fitness
Fitness
SF English","Scott 10 Icon Womens Cycling Hoody - Pink",1.1200,10.1000,20.0000,8.41666667,122020,122020,2,362532,1,8.42,8.4200
7517563,7517563,2702640,6000901131,"Rok Trdina",clio2.0rs@gmail.com,6000670974,"2020-12-14 10:58:54",SI,5.6100,"Start Fitness
Fitness
SF English","Scott 10 Casual Slub Short Sleeve Womens Cycling Top - White",0.5700,5.0400,20.0000,4.20000000,122020,122020,2,362582,1,4.20,4.2000
7549634,7549634,2714831,6000908859,"Anita Dobrotinsek",anitka75@hotmail.com,6000678279,"2020-12-22 08:34:28",SI,5.6100,"Start Fitness
Fitness
SF English","Sub Sports SubAir Seamless Womens Sports Bra - Grey",,5.6100,20.0000,4.67500000,122020,122020,2,326306,1,4.68,4.6800
7458835,7458835,2678587,6000887872,"ales pfeifer",pfeifer.ales@gmail.com,6000658398,"2020-12-04 11:51:56",SI,76.1600,"Start Fitness
Fitness
SF English","adidas Terrex Agravic TR GTX Mens Trail Running Shoes - Grey",7.6200,68.5400,20.0000,57.11666667,122020,122020,2,373583,1,57.12,57.1200
7514123,7514123,2701218,6000900394,"nejc lipovec",nejc.lipovec1@gmail.com,6000670267,"2020-12-13 18:51:46",SI,20.0000,"Start Fitness
Fitness
SF English","Salming Lightweight Womens Running Hoody - Pink",2.0000,18.0000,20.0000,15.00000000,122020,122020,2,365664,1,15.00,15.0000
7535296,7535296,2709579,6000905352,"Nika Bajc",bajc.nika@gmail.com,6000674972,"2020-12-17 21:38:08",SI,10.1000,"Start Fitness
Fitness
SF English","More Mile Train To Run Mens Long Sleeve Running Top - Blue",,10.1000,20.0000,8.41666667,122020,122020,2,237916,1,8.42,8.4200
7571738,7571738,2722446,6000913875,"Rok Trdina",clio2.0rs@gmail.com,6000683255,"2020-12-28 13:37:07",SI,56.0900,"Start Fitness
Fitness
SF English","Scott Spur LS Cycling Sunglasses - Grey",5.6100,50.4800,20.0000,42.06666667,122020,122020,2,361171,1,42.07,42.0700
7517565,7517565,2702640,6000901131,"Rok Trdina",clio2.0rs@gmail.com,6000670974,"2020-12-14 10:58:54",SI,7.7400,"Start Fitness
Fitness
SF English","Scott 10 Casual Slub Short Sleeve Womens Cycling Top - Black",0.7700,6.9700,20.0000,5.80833333,122020,122020,2,362575,1,5.81,5.8100
7549636,7549636,2714831,6000908859,"Anita Dobrotinsek",anitka75@hotmail.com,6000678279,"2020-12-22 08:34:28",SI,11.2200,"Start Fitness
Fitness
SF English","Scott 10 Icon Womens Cycling Hoody - Blue",,11.2200,20.0000,9.35000000,122020,122020,2,362525,1,9.35,9.3500
7458837,7458837,2678587,6000887872,"ales pfeifer",pfeifer.ales@gmail.com,6000658398,"2020-12-04 11:51:56",SI,76.1600,"Start Fitness
Fitness
SF English","adidas Terrex Agravic TR GTX Mens Trail Running Shoes - Grey",7.6100,68.5500,20.0000,57.12500000,122020,122020,2,373583,1,57.13,57.1300
7514125,7514125,2701218,6000900394,"nejc lipovec",nejc.lipovec1@gmail.com,6000670267,"2020-12-13 18:51:46",SI,12.0000,"Start Fitness
Fitness
SF English","Under Armour Patterson Backpack - Blue",1.2000,10.8000,20.0000,9.00000000,122020,122020,2,349933,1,9.00,9.0000
7535298,7535298,2709579,6000905352,"Nika Bajc",bajc.nika@gmail.com,6000674972,"2020-12-17 21:38:08",SI,8.9700,"Start Fitness
Fitness
SF English","Craft Active Bike Long Sleeve Mens Cycling Jersey - Black",,8.9700,20.0000,7.47500000,122020,122020,2,328437,1,7.48,7.4800
7571739,7571739,2722446,6000913875,"Rok Trdina",clio2.0rs@gmail.com,6000683255,"2020-12-28 13:37:07",SI,13.3500,"Start Fitness
Fitness
SF English","Muc-Off Nano Tech Bike Cleaner Concentrate 1L",1.3400,12.0100,20.0000,10.00833333,122020,122020,2,347637,1,10.01,10.0100
7517567,7517567,2702640,6000901131,"Rok Trdina",clio2.0rs@gmail.com,6000670974,"2020-12-14 10:58:54",SI,11.2200,"Start Fitness
Fitness
SF English","Scott 10 Icon Womens Cycling Hoody - Pink",1.1200,10.1000,20.0000,8.41666667,122020,122020,2,362532,1,8.42,8.4200
7549638,7549638,2714831,6000908859,"Anita Dobrotinsek",anitka75@hotmail.com,6000678279,"2020-12-22 08:34:28",SI,3.3700,"Start Fitness
Fitness
SF English","Brooks Speed Mens Short Running Tights - Red",,3.3700,20.0000,2.80833333,122020,122020,2,289291,1,2.81,2.8100
7458839,7458839,2678587,6000887872,"ales pfeifer",pfeifer.ales@gmail.com,6000658398,"2020-12-04 11:51:56",SI,66.1800,"Start Fitness
Fitness
SF English","adidas Terrex Tracerocker GTX Womens Trail Running Shoes - Black",6.6200,59.5600,20.0000,49.63333333,122020,122020,2,254457,1,49.63,49.6300
7514126,7514126,2701218,6000900394,"nejc lipovec",nejc.lipovec1@gmail.com,6000670267,"2020-12-13 18:51:46",SI,15.0000,"Start Fitness
Fitness
SF English","Regatta Questra Stretch Softshell Mens Long Walking Trousers - Blue",1.5000,13.5000,20.0000,11.25000000,122020,122020,2,346925,1,11.25,11.2500
7535300,7535300,2709579,6000905352,"Nika Bajc",bajc.nika@gmail.com,6000674972,"2020-12-17 21:38:08",SI,8.8600,"Start Fitness
Fitness
SF English","Tokyo Laundry Arley (2 Pack) Mens Boxer Shorts",,8.8600,20.0000,7.38333333,122020,122020,2,387771,1,7.38,7.3800
7502324,7502324,2696294,AMZ24000584626,"M2E Orders",m2eorders@startfitness.co.uk,24000583583,"2020-12-11 16:40:15",SI,108.3600,"Start Group
Start Group
Amazon","Salomon Advanced Skin 12 Set Backpack - Black-M-L",,108.3600,20.0000,90.30000000,122020,122020,2,291521,1,90.30,90.3000
7517569,7517569,2702640,6000901131,"Rok Trdina",clio2.0rs@gmail.com,6000670974,"2020-12-14 10:58:54",SI,11.2200,"Start Fitness
Fitness
SF English","Scott 10 Icon Womens Cycling Hoody - Blue",1.1200,10.1000,20.0000,8.41666667,122020,122020,2,362525,1,8.42,8.4200
7549640,7549640,2714831,6000908859,"Anita Dobrotinsek",anitka75@hotmail.com,6000678279,"2020-12-22 08:34:28",SI,11.1000,"Start Fitness
Fitness
SF English","Asics Track And Field France Mens Sleeveless Running Top - Blue",,11.1000,20.0000,9.25000000,122020,122020,2,372341,1,9.25,9.2500
7458841,7458841,2678587,6000887872,"ales pfeifer",pfeifer.ales@gmail.com,6000658398,"2020-12-04 11:51:56",SI,33.6500,"Start Fitness
Fitness
SF English","adidas Adizero Tempo AKTIV Running Shoes - White",3.3700,30.2800,20.0000,25.23333333,122020,122020,2,217567,1,25.23,25.2300
7514128,7514128,2701218,6000900394,"nejc lipovec",nejc.lipovec1@gmail.com,6000670267,"2020-12-13 18:51:46",SI,20.0000,"Start Fitness
Fitness
SF English","Salming Lightweight Mens Running Hoody - Blue",2.0000,18.0000,20.0000,15.00000000,122020,122020,2,365658,1,15.00,15.0000
7535302,7535302,2709579,6000905352,"Nika Bajc",bajc.nika@gmail.com,6000674972,"2020-12-17 21:38:08",SI,8.8600,"Start Fitness
Fitness
SF English","Tokyo Laundry Arley (2 Pack) Mens Boxer Shorts",,8.8600,20.0000,7.38333333,122020,122020,2,387783,1,7.38,7.3800
7502617,7502617,2696410,6000897714,"Damjan Bastic",damjan.bastic@gmail.com,6000667717,"2020-12-11 17:53:11",SI,44.8700,"Start Fitness
Fitness
SF English","Salming Elements Womens Trail Running Shoes - Pink",4.4900,40.3800,20.0000,33.65000000,122020,122020,2,373688,1,33.65,33.6500
7517571,7517571,2702640,6000901131,"Rok Trdina",clio2.0rs@gmail.com,6000670974,"2020-12-14 10:58:54",SI,16.7100,"Start Fitness
Fitness
SF English","Scott Trail MTN 30 Womens Cycling Shorts - Green",1.6700,15.0400,20.0000,12.53333333,122020,122020,2,362058,1,12.53,12.5300
7549642,7549642,2714831,6000908859,"Anita Dobrotinsek",anitka75@hotmail.com,6000678279,"2020-12-22 08:34:28",SI,11.1000,"Start Fitness
Fitness
SF English","Mizuno Core Mens Short Running Tights - Blue",,11.1000,20.0000,9.25000000,122020,122020,2,369620,1,9.25,9.2500
7514165,7514165,2701231,6000900403,"nejc lipovec",nejc.lipovec1@gmail.com,6000670277,"2020-12-13 18:56:26",SI,7.9000,"Start Fitness
Fitness
SF English","Tokyo Laundry Arley (2 Pack) Mens Boxer Shorts",0.7900,7.1100,20.0000,5.92500000,122020,122020,2,387783,1,5.93,5.9300
7535304,7535304,2709579,6000905352,"Nika Bajc",bajc.nika@gmail.com,6000674972,"2020-12-17 21:38:08",SI,8.8600,"Start Fitness
Fitness
SF English","Tokyo Laundry Arley (2 Pack) Mens Boxer Shorts",,8.8600,20.0000,7.38333333,122020,122020,2,387777,1,7.38,7.3800
7502619,7502619,2696410,6000897714,"Damjan Bastic",damjan.bastic@gmail.com,6000667717,"2020-12-11 17:53:11",SI,22.3200,"Start Fitness
Fitness
SF English","Scott Trail Flow Short Sleeve Womens Cycling Jersey - Blue",2.2300,20.0900,20.0000,16.74166667,122020,122020,2,377701,1,16.74,16.7400
7517573,7517573,2702640,6000901131,"Rok Trdina",clio2.0rs@gmail.com,6000670974,"2020-12-14 10:58:54",SI,7.8500,"Start Fitness
Fitness
SF English","Scott Trail MTN DRI 70 Short Sleeve Womens Cycling Jersey - Green",0.7900,7.0600,20.0000,5.88333333,122020,122020,2,362085,1,5.88,5.8800
7549644,7549644,2714831,6000908859,"Anita Dobrotinsek",anitka75@hotmail.com,6000678279,"2020-12-22 08:34:28",SI,11.2200,"Start Fitness
Fitness
SF English","Ohmme 8 Limb Mens Yoga Hoody - Grey",,11.2200,20.0000,9.35000000,122020,122020,2,346948,1,9.35,9.3500
7514167,7514167,2701231,6000900403,"nejc lipovec",nejc.lipovec1@gmail.com,6000670277,"2020-12-13 18:56:26",SI,20.0000,"Start Fitness
Fitness
SF English","Salming Lightweight Womens Running Hoody - Pink",2.0000,18.0000,20.0000,15.00000000,122020,122020,2,365664,1,15.00,15.0000
7535306,7535306,2709579,6000905352,"Nika Bajc",bajc.nika@gmail.com,6000674972,"2020-12-17 21:38:08",SI,5.6100,"Start Fitness
Fitness
SF English","Regatta Standout Unisex Arid Waterproof Breathable Jacket - Green",,5.6100,20.0000,4.67500000,122020,122020,2,336547,1,4.68,4.6800
7502621,7502621,2696410,6000897714,"Damjan Bastic",damjan.bastic@gmail.com,6000667717,"2020-12-11 17:53:11",SI,16.7100,"Start Fitness
Fitness
SF English","Scott 10 Icon Womens Cycling Hoody - Grey",1.6700,15.0400,20.0000,12.53333333,122020,122020,2,362500,1,12.53,12.5300
7517575,7517575,2702640,6000901131,"Rok Trdina",clio2.0rs@gmail.com,6000670974,"2020-12-14 10:58:54",SI,22.4300,"Start Fitness
Fitness
SF English","Scott Endurance 10 Short Sleeve Womens Cycling Jersey - Black",2.2400,20.1900,20.0000,16.82500000,122020,122020,2,361763,1,16.83,16.8300
7549646,7549646,2714831,6000908859,"Anita Dobrotinsek",anitka75@hotmail.com,6000678279,"2020-12-22 08:34:28",SI,16.8300,"Start Fitness
Fitness
SF English","Orca Core Mens Tri Vest - Red",,16.8300,20.0000,14.02500000,122020,122020,2,305655,1,14.03,14.0300
7502623,7502623,2696410,6000897714,"Damjan Bastic",damjan.bastic@gmail.com,6000667717,"2020-12-11 17:53:11",SI,22.3200,"Start Fitness
Fitness
SF English","Scott Trail Tech Hybrid (With Pad) Womens Cycling Shorts - Blue",2.2300,20.0900,20.0000,16.74166667,122020,122020,2,362283,1,16.74,16.7400
7518802,7518802,2703078,6000901389,"Darko Stojnic",stojko@gmail.com,6000671222,"2020-12-14 14:25:43",SI,99.8300,"Start Fitness
Fitness
SF English","adidas Solar Glide 3 Boost Mens Running Shoes - White",9.9800,89.8500,20.0000,74.87500000,122020,122020,2,372455,1,74.88,74.8800
7549648,7549648,2714831,6000908859,"Anita Dobrotinsek",anitka75@hotmail.com,6000678279,"2020-12-22 08:34:28",SI,22.4300,"Start Fitness
Fitness
SF English","Regatta Hewitts III Mens Softshell Jacket - Blue",,22.4300,20.0000,18.69166667,122020,122020,2,387801,1,18.69,18.6900
7514169,7514169,2701231,6000900403,"nejc lipovec",nejc.lipovec1@gmail.com,6000670277,"2020-12-13 18:56:26",SI,12.0000,"Start Fitness
Fitness
SF English","Under Armour Patterson Backpack - Blue",1.2000,10.8000,20.0000,9.00000000,122020,122020,2,349933,1,9.00,9.0000
7535308,7535308,2709579,6000905352,"Nika Bajc",bajc.nika@gmail.com,6000674972,"2020-12-17 21:38:08",SI,5.6100,"Start Fitness
Fitness
SF English","DBlade Baselayer Mens Long Sleeve Top - Grey",,5.6100,20.0000,4.67500000,122020,122020,2,311181,1,4.68,4.6800
7588571,7588571,2727938,EBY24000585696,"M2E Orders",m2eorders@startfitness.co.uk,24000585038,"2020-12-31 07:58:06",SI,65.0000,"Start Group
Start Group
eBay","adidas Z.N.E Parley Mens Primeknit Hoody - Black",,65.0000,20.0000,54.16666667,122020,122020,2,326525,1,54.17,54.1700
7502625,7502625,2696410,6000897714,"Damjan Bastic",damjan.bastic@gmail.com,6000667717,"2020-12-11 17:53:11",SI,16.8300,"Start Fitness
Fitness
SF English","Scott Trail Flow Short Sleeve Womens Cycling Jersey - Blue",1.6900,15.1400,20.0000,12.61666667,122020,122020,2,362244,1,12.62,12.6200
7518804,7518804,2703078,6000901389,"Darko Stojnic",stojko@gmail.com,6000671222,"2020-12-14 14:25:43",SI,27.9300,"Start Fitness
Fitness
SF English","adidas Freelift Prime Mens Training Hoody - Blue",2.8000,25.1300,20.0000,20.94166667,122020,122020,2,355975,1,20.94,20.9400
7549650,7549650,2714831,6000908859,"Anita Dobrotinsek",anitka75@hotmail.com,6000678279,"2020-12-22 08:34:28",SI,22.4300,"Start Fitness
Fitness
SF English","Under Armour Fleece Armour Mens Joggers - Blue",,22.4300,20.0000,18.69166667,122020,122020,2,350227,1,18.69,18.6900
7514170,7514170,2701231,6000900403,"nejc lipovec",nejc.lipovec1@gmail.com,6000670277,"2020-12-13 18:56:26",SI,15.0000,"Start Fitness
Fitness
SF English","Regatta Questra Stretch Softshell Mens Long Walking Trousers - Blue",1.5000,13.5000,20.0000,11.25000000,122020,122020,2,346925,1,11.25,11.2500
7535310,7535310,2709579,6000905352,"Nika Bajc",bajc.nika@gmail.com,6000674972,"2020-12-17 21:38:08",SI,3.3700,"Start Fitness
Fitness
SF English","Brooks Podium Mens Track Pants - Royal",,3.3700,20.0000,2.80833333,122020,122020,2,289734,1,2.81,2.8100
7502627,7502627,2696410,6000897714,"Damjan Bastic",damjan.bastic@gmail.com,6000667717,"2020-12-11 17:53:11",SI,5.6100,"Start Fitness
Fitness
SF English","Scott Aspect Sport SF Womens Cycling Gloves - Blue",0.5600,5.0500,20.0000,4.20833333,122020,122020,2,208046,1,4.21,4.2100
7518806,7518806,2703078,6000901389,"Darko Stojnic",stojko@gmail.com,6000671222,"2020-12-14 14:25:43",SI,32.5300,"Start Fitness
Fitness
SF English","adidas AlphaSkin Sport ClimaWarm Mens Long Training Tights - Black",3.2500,29.2800,20.0000,24.40000000,122020,122020,2,292886,1,24.40,24.4000
7557162,7557162,2717646,6000910555,"Marjan Zupančič",binebingo@gmail.com,6000679887,"2020-12-25 20:23:24",SI,22.4300,"Start Fitness
Fitness
SF English","Craghoppers Cason Half Zip Mens Fleece - Brown",1.1200,21.3100,20.0000,17.75833333,122020,122020,2,375923,1,17.76,17.7600
7470379,7470379,2683351,24000573166,"M2E Orders",m2eorders@startfitness.co.uk,24000569642,"2020-12-06 12:49:19",SI,103.0700,"Start Group
Start Group
Amazon USA","Reebok Crossfit Nano 9.0 Mens Training Shoes - Blue-9",,103.0700,20.0023,85.89002044,122020,122020,2,349505,1,85.89,85.8900
7514172,7514172,2701231,6000900403,"nejc lipovec",nejc.lipovec1@gmail.com,6000670277,"2020-12-13 18:56:26",SI,20.0000,"Start Fitness
Fitness
SF English","Salming Lightweight Mens Running Hoody - Blue",2.0000,18.0000,20.0000,15.00000000,122020,122020,2,365658,1,15.00,15.0000
7535312,7535312,2709579,6000905352,"Nika Bajc",bajc.nika@gmail.com,6000674972,"2020-12-17 21:38:08",SI,5.6100,"Start Fitness
Fitness
SF English","Regatta Kaluga Softshell Junior Bodywarmer Gilet - Blue",,5.6100,0.0000,5.61000000,122020,122020,5,309494,1,5.61,5.6100
7502629,7502629,2696410,6000897714,"Damjan Bastic",damjan.bastic@gmail.com,6000667717,"2020-12-11 17:53:11",SI,44.7600,"Start Fitness
Fitness
SF English","Scott Trail MTN Merino Womens Cycling Jacket - Blue",4.4700,40.2900,20.0000,33.57500000,122020,122020,2,376894,1,33.58,33.5800
7518808,7518808,2703078,6000901389,"Darko Stojnic",stojko@gmail.com,6000671222,"2020-12-14 14:25:43",SI,32.5300,"Start Fitness
Fitness
SF English","adidas Freelift ClimaWarm Half Zip Long Sleeve Mens Running Top - Black",3.2500,29.2800,20.0000,24.40000000,122020,122020,2,342682,1,24.40,24.4000
7557164,7557164,2717646,6000910555,"Marjan Zupančič",binebingo@gmail.com,6000679887,"2020-12-25 20:23:24",SI,11.2200,"Start Fitness
Fitness
SF English","More Mile New York Cushioned Running Socks (5 Pack) - Multi",0.5600,10.6600,20.0000,8.88333333,122020,122020,2,373445,1,8.88,8.8800
7472022,7472022,2684048,6000890821,"Sasa Lavric",lavric.sasa@gmail.com,6000661201,"2020-12-06 16:56:42",SI,5.6100,"Start Fitness
Fitness
SF English","Scott 10 Casual Slub Short Sleeve Womens Cycling Top - Grey",0.5600,5.0500,20.0000,4.20833333,122020,122020,2,362590,1,4.21,4.2100
7514764,7514764,2701482,6000900544,"Vid Sever",vid.sever1@gmail.com,6000670413,"2020-12-13 20:09:58",SI,72.8000,"Start Fitness
Fitness
SF English","adidas Powerlift 4.0 Weightlifting Shoes - Green",,72.8000,20.0000,60.66666667,122020,122020,2,387917,1,60.67,60.6700
7536157,7536157,2709935,EBY24000583293,"M2E Orders",m2eorders@startfitness.co.uk,24000582647,"2020-12-18 08:54:03",SI,28.0400,"Start Group
Start Group
eBay","Asics Track And Field France Long Sleeve Mens Running Top",,28.0400,20.0000,23.36666667,122020,122020,2,372807,1,23.37,23.3700
7502631,7502631,2696410,6000897714,"Damjan Bastic",damjan.bastic@gmail.com,6000667717,"2020-12-11 17:53:11",SI,33.6500,"Start Fitness
Fitness
SF English","Scott Trail MTN Fleece Womens Cycling Jacket - Pink",3.3700,30.2800,20.0000,25.23333333,122020,122020,2,376875,1,25.23,25.2300
7518810,7518810,2703078,6000901389,"Darko Stojnic",stojko@gmail.com,6000671222,"2020-12-14 14:25:43",SI,20.1900,"Start Fitness
Fitness
SF English","adidas Supernova Short Sleeve Womens Running Top - Orange",2.0200,18.1700,20.0000,15.14166667,122020,122020,2,207307,1,15.14,15.1400
7557166,7557166,2717646,6000910555,"Marjan Zupančič",binebingo@gmail.com,6000679887,"2020-12-25 20:23:24",SI,11.2200,"Start Fitness
Fitness
SF English","Scott Ridance Full Finger Cycling Gloves - Grey",0.5700,10.6500,20.0000,8.87500000,122020,122020,2,360884,1,8.88,8.8800
7472024,7472024,2684048,6000890821,"Sasa Lavric",lavric.sasa@gmail.com,6000661201,"2020-12-06 16:56:42",SI,7.7400,"Start Fitness
Fitness
SF English","Scott 10 Casual Slub Short Sleeve Womens Cycling Top - Blue",0.7800,6.9600,20.0000,5.80000000,122020,122020,2,362596,1,5.80,5.8000
7537600,7537600,2710447,6000905960,"Mateja Kregar",mateja.kregar@siol.net,6000675551,"2020-12-18 15:47:40",SI,89.0000,"Start Fitness
Fitness
SF English","Salomon XA Pro 3D GTX Womens Trail Running Shoes - Blue",,89.0000,20.0000,74.16666667,122020,122020,2,366082,1,74.17,74.1700
7502633,7502633,2696410,6000897714,"Damjan Bastic",damjan.bastic@gmail.com,6000667717,"2020-12-11 17:53:11",SI,11.2200,"Start Fitness
Fitness
SF English","Scott 10 Icon Womens Cycling Hoody - Blue",1.1200,10.1000,20.0000,8.41666667,122020,122020,2,362525,1,8.42,8.4200
7521676,7521676,2704203,6000902055,"Andrej Ficko",andrejficko@gmail.com,6000671852,"2020-12-14 21:36:52",SI,20.0000,"Start Fitness
Fitness
SF English","Salming Quest Mens Running Shoes - Black",,20.0000,20.0000,16.66666667,122020,122020,2,365837,1,16.67,16.6700
7557168,7557168,2717646,6000910555,"Marjan Zupančič",binebingo@gmail.com,6000679887,"2020-12-25 20:23:24",SI,66.1800,"Start Fitness
Fitness
SF English","Nike Hyperforce Elite Sport Sunglasses - Black",3.3000,62.8800,20.0000,52.40000000,122020,122020,2,351370,1,52.40,52.4000
7472026,7472026,2684048,6000890821,"Sasa Lavric",lavric.sasa@gmail.com,6000661201,"2020-12-06 16:56:42",SI,7.7400,"Start Fitness
Fitness
SF English","Scott 10 No Shortcuts Short Sleeve Womens Cycling Top - Pink",0.7700,6.9700,20.0000,5.80833333,122020,122020,2,362569,1,5.81,5.8100
7537602,7537602,2710447,6000905960,"Mateja Kregar",mateja.kregar@siol.net,6000675551,"2020-12-18 15:47:40",SI,18.0000,"Start Fitness
Fitness
SF English","Hyperice Achillx Foam Roller - Grey",,18.0000,20.0000,15.00000000,122020,122020,2,237960,1,15.00,15.0000
7502635,7502635,2696410,6000897714,"Damjan Bastic",damjan.bastic@gmail.com,6000667717,"2020-12-11 17:53:11",SI,3.3700,"Start Fitness
Fitness
SF English","Dare2B Weave Out Womens Neck Warmer - Black",0.3400,3.0300,20.0000,2.52500000,122020,122020,2,385514,1,2.53,2.5300
7521678,7521678,2704203,6000902055,"Andrej Ficko",andrejficko@gmail.com,6000671852,"2020-12-14 21:36:52",SI,15.0000,"Start Fitness
Fitness
SF English","Sub Sports Dual 2.0 Mens Compression Running Tights - Black",,15.0000,20.0000,12.50000000,122020,122020,2,368185,1,12.50,12.5000
7557169,7557169,2717646,6000910555,"Marjan Zupančič",binebingo@gmail.com,6000679887,"2020-12-25 20:23:24",SI,3.3700,"Start Fitness
Fitness
SF English","Dare2B Core Stretch Cycling Leg Warmers - Black",0.1700,3.2000,20.0000,2.66666667,122020,122020,2,246034,1,2.67,2.6700
7472028,7472028,2684048,6000890821,"Sasa Lavric",lavric.sasa@gmail.com,6000661201,"2020-12-06 16:56:42",SI,66.1800,"Start Fitness
Fitness
SF English","Under Armour ColdGear Reactor Womens Jacket - Pink",6.6200,59.5600,20.0000,49.63333333,122020,122020,2,364794,1,49.63,49.6300
7537603,7537603,2710447,6000905960,"Mateja Kregar",mateja.kregar@siol.net,6000675551,"2020-12-18 15:47:40",SI,99.9000,"Start Fitness
Fitness
SF English","Merrell Moab 2 Mid GTX Womens Walking Boots - Blue",,99.9000,20.0000,83.25000000,122020,122020,2,234392,1,83.25,83.2500
7504424,7504424,2697196,6000898119,"Jernej Jeras",jernej_jeras@yahoo.com,6000668090,"2020-12-12 02:47:34",SI,29.0000,"Start Fitness
Fitness
SF English","Saucony Showdown 4 Mens Sprint Running Spikes - Yellow",,29.0000,20.0000,24.16666667,122020,122020,2,244981,1,24.17,24.1700
7526137,7526137,2706087,6000903134,"Matjaz Ujcic",matjaz.ujcic@gmail.com,6000672871,"2020-12-15 20:23:26",SI,54.9600,"Start Fitness
Fitness
SF English","Under Armour Charged Bandit 4 Mens Running Shoes - Black",,54.9600,20.0000,45.80000000,122020,122020,2,301938,1,45.80,45.8000
7557171,7557171,2717646,6000910555,"Marjan Zupančič",binebingo@gmail.com,6000679887,"2020-12-25 20:23:24",SI,11.2200,"Start Fitness
Fitness
SF English","Regatta Classic Mens Fleece - Blue",0.5600,10.6600,20.0000,8.88333333,122020,122020,2,342079,1,8.88,8.8800
7472030,7472030,2684048,6000890821,"Sasa Lavric",lavric.sasa@gmail.com,6000661201,"2020-12-06 16:56:42",SI,44.7600,"Start Fitness
Fitness
SF English","Craghoppers Beaufort Womens Insulated Jacket - Blue",4.4700,40.2900,20.0000,33.57500000,122020,122020,2,377159,1,33.58,33.5800
7540690,7540690,2711621,AMZ24000589046,"M2E Orders",m2eorders@startfitness.co.uk,24000588003,"2020-12-19 15:14:09",SI,18.8900,"Start Group
Start Group
Amazon","Under Armour Essential (6 Pack) Womens No Show Socks - Multi-4.5 - 8",,18.8900,20.0127,15.74000085,122020,122020,2,378230,1,15.74,15.7400
7504426,7504426,2697196,6000898119,"Jernej Jeras",jernej_jeras@yahoo.com,6000668090,"2020-12-12 02:47:34",SI,5.8500,"Start Fitness
Fitness
SF English","Ultimate Performance Track Spike Pins",,5.8500,20.0000,4.87500000,122020,122020,2,345093,1,4.88,4.8800
7526148,7526148,2706096,6000903137,"Matjaz Ujcic",matjaz.ujcic@gmail.com,6000672874,"2020-12-15 20:25:02",SI,54.9600,"Start Fitness
Fitness
SF English","Under Armour Charged Bandit 4 Mens Running Shoes - Black",,54.9600,20.0000,45.80000000,122020,122020,2,301938,1,45.80,45.8000
7557173,7557173,2717646,6000910555,"Marjan Zupančič",binebingo@gmail.com,6000679887,"2020-12-25 20:23:24",SI,3.3700,"Start Fitness
Fitness
SF English","Craghoppers Edgard Short Sleeve Mens Check Shirt - Green",0.1700,3.2000,20.0000,2.66666667,122020,122020,2,330374,1,2.67,2.6700
7472032,7472032,2684048,6000890821,"Sasa Lavric",lavric.sasa@gmail.com,6000661201,"2020-12-06 16:56:42",SI,44.7600,"Start Fitness
Fitness
SF English","Scott Trail AS Womens Cycling Jacket - Green",4.4800,40.2800,20.0000,33.56666667,122020,122020,2,362155,1,33.57,33.5700
7542005,7542005,2712088,6000907014,"Darko Stojnic",stojko@gmail.com,6000676548,"2020-12-19 21:21:44",SI,18.0000,"Start Fitness
Fitness
SF English","adidas Supernova Short Sleeve Womens Running Top - Orange",1.8000,16.2000,20.0000,13.50000000,122020,122020,2,207307,1,13.50,13.5000
7512144,7512144,2700416,6000899938,"Misha Sinič",sinic.misa@gmail.com,6000669830,"2020-12-13 14:28:42",SI,27.9300,"Start Fitness
Fitness
SF English","Asics Patriot 11 GS Junior Running Shoes - Blue",,27.9300,0.0000,27.93000000,122020,122020,11,386342,1,23.28,23.2800
7526222,7526222,2706129,6000903163,"Matjaz Ujcic",matjaz.ujcic@gmail.com,6000672898,"2020-12-15 20:37:35",SI,54.9600,"Start Fitness
Fitness
SF English","Under Armour Charged Bandit 4 Mens Running Shoes - Black",,54.9600,20.0000,45.80000000,122020,122020,2,301938,1,45.80,45.8000
7557175,7557175,2717646,6000910555,"Marjan Zupančič",binebingo@gmail.com,6000679887,"2020-12-25 20:23:24",SI,3.3700,"Start Fitness
Fitness
SF English","Craghoppers Natalie Short Sleeve Womens Check Shirt - Pink",0.1700,3.2000,20.0000,2.66666667,122020,122020,2,329758,1,2.67,2.6700
7472034,7472034,2684048,6000890821,"Sasa Lavric",lavric.sasa@gmail.com,6000661201,"2020-12-06 16:56:42",SI,16.7100,"Start Fitness
Fitness
SF English","Scott Trail MTN 20 Womens Cycling Hoody - Green",1.6700,15.0400,20.0000,12.53333333,122020,122020,2,362041,1,12.53,12.5300
7542007,7542007,2712088,6000907014,"Darko Stojnic",stojko@gmail.com,6000676548,"2020-12-19 21:21:44",SI,21.9000,"Start Fitness
Fitness
SF English","adidas ClimaWarm Running Gloves - Black",2.1900,19.7100,20.0000,16.42500000,122020,122020,2,306828,1,16.43,16.4300
7542009,7542009,2712088,6000907014,"Darko Stojnic",stojko@gmail.com,6000676548,"2020-12-19 21:21:44",SI,29.0000,"Start Fitness
Fitness
SF English","adidas AlphaSkin ClimaWarm Mens Long Sleeve Training Top - Black",2.9000,26.1000,20.0000,21.75000000,122020,122020,2,308663,1,21.75,21.7500
7512146,7512146,2700416,6000899938,"Misha Sinič",sinic.misa@gmail.com,6000669830,"2020-12-13 14:28:42",SI,13.4600,"Start Fitness
Fitness
SF English","Salming Speed Junior Running Shoes - Orange",,13.4600,0.0000,13.46000000,122020,122020,5,365977,1,13.46,13.4600
7526224,7526224,2706129,6000903163,"Matjaz Ujcic",matjaz.ujcic@gmail.com,6000672898,"2020-12-15 20:37:35",SI,3.3100,"Start Fitness
Fitness
SF English","More Mile The Oregon Trail Running Socks ",,3.3100,20.0000,2.75833333,122020,122020,2,87638,1,2.76,2.7600
7557177,7557177,2717646,6000910555,"Marjan Zupančič",binebingo@gmail.com,6000679887,"2020-12-25 20:23:24",SI,3.3100,"Start Fitness
Fitness
SF English","More Mile Strive Running Socks - Black",0.1700,3.1400,20.0000,2.61666667,122020,122020,2,249663,1,2.62,2.6200
7473787,7473787,2684804,6000891225,"Peter Kramberger",peter.kramberger@gkndriveline.com,6000661581,"2020-12-06 20:24:19",SI,129.0000,"Start Fitness
Fitness
SF English","adidas Terrex Free Hiker Boost Mens Walking Shoes - Black",,129.0000,20.0000,107.50000000,122020,122020,2,322403,1,107.50,107.5000
7474974,7474974,2685287,24000574448,"M2E Orders",m2eorders@startfitness.co.uk,24000570283,"2020-12-06 22:27:41",SI,162.4100,"Start Group
Start Group
Amazon USA","Topeak Joe Blow Booster Floor Pump",,162.4100,20.0015,135.33997492,122020,122020,2,373502,1,135.34,135.3400
7542011,7542011,2712088,6000907014,"Darko Stojnic",stojko@gmail.com,6000676548,"2020-12-19 21:21:44",SI,9.9000,"Start Fitness
Fitness
SF English","adidas Techfit Chill Mens Short Sleeve Compression Top - Green",0.9900,8.9100,20.0000,7.42500000,122020,122020,2,185339,1,7.43,7.4300
7512148,7512148,2700416,6000899938,"Misha Sinič",sinic.misa@gmail.com,6000669830,"2020-12-13 14:28:42",SI,8.9700,"Start Fitness
Fitness
SF English","Champion Athletic Mens Short Sleeve Top - Blue",,8.9700,20.0000,7.47500000,122020,122020,2,228031,1,7.48,7.4800
7526317,7526317,2706175,6000903188,"Dino Subasic",subasicdino7@gmail.com,6000672922,"2020-12-15 20:55:02",SI,2.2400,"Start Fitness
Fitness
SF English","StartLine 600ml Start Shaker Bottle - Black/Green",0.2200,2.0200,20.0000,1.68333333,122020,122020,2,155116,1,1.68,1.6800
7557179,7557179,2717646,6000910555,"Marjan Zupančič",binebingo@gmail.com,6000679887,"2020-12-25 20:23:24",SI,3.3700,"Start Fitness
Fitness
SF English","adidas Ace Training Socks - Grey",0.1700,3.2000,20.0000,2.66666667,122020,122020,2,234745,1,2.67,2.6700
7542013,7542013,2712088,6000907014,"Darko Stojnic",stojko@gmail.com,6000676548,"2020-12-19 21:21:44",SI,25.0000,"Start Fitness
Fitness
SF English","adidas Freelift Prime Mens Training Hoody - Grey",2.5000,22.5000,20.0000,18.75000000,122020,122020,2,337713,1,18.75,18.7500
7512150,7512150,2700416,6000899938,"Misha Sinič",sinic.misa@gmail.com,6000669830,"2020-12-13 14:28:42",SI,44.7600,"Start Fitness
Fitness
SF English","Madison Sportive Shield Softshell (With Pad) Mens Cycling Tights - Black",,44.7600,20.0000,37.30000000,122020,122020,2,363297,1,37.30,37.3000
7526318,7526318,2706175,6000903188,"Dino Subasic",subasicdino7@gmail.com,6000672922,"2020-12-15 20:55:02",SI,2.1900,"Start Fitness
Fitness
SF English","Replacement Running Spike Pins - Silver",0.2200,1.9700,20.0000,1.64166667,122020,122020,2,65690,1,1.64,1.6400
7557181,7557181,2717646,6000910555,"Marjan Zupančič",binebingo@gmail.com,6000679887,"2020-12-25 20:23:24",SI,3.3700,"Start Fitness
Fitness
SF English","Craft Club T & F Short Sleeve Womens Running Top - Red",0.1700,3.2000,20.0000,2.66666667,122020,122020,2,175507,1,2.67,2.6700
7477049,7477049,2686187,6000891919,"Mojca Pečnik Dessardo",pecnik.dessardo@gmail.com,6000662247,"2020-12-07 12:01:41",SI,77.4000,"Start Fitness
Fitness
SF English","Mizuno Wave Daichi 4 GTX Womens Trail Running Shoes - Purple",7.7400,69.6600,20.0000,58.05000000,122020,122020,2,350857,1,58.05,58.0500
7542015,7542015,2712088,6000907014,"Darko Stojnic",stojko@gmail.com,6000676548,"2020-12-19 21:21:44",SI,6.0000,"Start Fitness
Fitness
SF English","adidas Ace Training Socks - Grey",0.6000,5.4000,20.0000,4.50000000,122020,122020,2,234745,1,4.50,4.5000
7512152,7512152,2700416,6000899938,"Misha Sinič",sinic.misa@gmail.com,6000669830,"2020-12-13 14:28:42",SI,3.3700,"Start Fitness
Fitness
SF English","More Mile Trail Running Waist Bag - Black",,3.3700,20.0000,2.80833333,122020,122020,2,88111,1,2.81,2.8100
7526320,7526320,2706175,6000903188,"Dino Subasic",subasicdino7@gmail.com,6000672922,"2020-12-15 20:55:02",SI,32.5300,"Start Fitness
Fitness
SF English","Saucony Spitfire Mens Sprint Running Spikes - Black",3.2600,29.2700,20.0000,24.39166667,122020,122020,2,162456,1,24.39,24.3900
7557183,7557183,2717646,6000910555,"Marjan Zupančič",binebingo@gmail.com,6000679887,"2020-12-25 20:23:24",SI,11.2200,"Start Fitness
Fitness
SF English","More Mile Cheviot (5 Pack) Trail Running Socks - Multi",0.5600,10.6600,20.0000,8.88333333,122020,122020,2,163815,1,8.88,8.8800
7477051,7477051,2686187,6000891919,"Mojca Pečnik Dessardo",pecnik.dessardo@gmail.com,6000662247,"2020-12-07 12:01:41",SI,5.6100,"Start Fitness
Fitness
SF English","TCA Pro Performance Womens Short Sleeve Baselayer Running Top - Black",0.5600,5.0500,20.0000,4.20833333,122020,122020,2,248534,1,4.21,4.2100
7542017,7542017,2712088,6000907014,"Darko Stojnic",stojko@gmail.com,6000676548,"2020-12-19 21:21:44",SI,24.9000,"Start Fitness
Fitness
SF English","adidas Freelift Prime Mens Training Hoody - Blue",2.4900,22.4100,20.0000,18.67500000,122020,122020,2,355975,1,18.68,18.6800
7512154,7512154,2700416,6000899938,"Misha Sinič",sinic.misa@gmail.com,6000669830,"2020-12-13 14:28:42",SI,3.3700,"Start Fitness
Fitness
SF English","Regatta Peggie Printed Womens Scarf - Beige",,3.3700,20.0000,2.80833333,122020,122020,2,345118,1,2.81,2.8100
7529140,7529140,2707300,EBY24000582994,"M2E Orders",m2eorders@startfitness.co.uk,24000582348,"2020-12-16 14:05:12",SI,45.0000,"Start Group
Start Group
eBay","adidas Z.N.E Storm Heathered Mens Hoody - Grey",,45.0000,20.0000,37.50000000,122020,122020,2,313855,1,37.50,37.5000
7557185,7557185,2717646,6000910555,"Marjan Zupančič",binebingo@gmail.com,6000679887,"2020-12-25 20:23:24",SI,11.2200,"Start Fitness
Fitness
SF English","Piu Miglia Rimini Water Repellent Mens Cycling Jacket - Yellow",0.5600,10.6600,20.0000,8.88333333,122020,122020,2,148192,1,8.88,8.8800
7482650,7482650,2688382,24000576620,"M2E Orders",m2eorders@startfitness.co.uk,24000571387,"2020-12-08 09:08:17",SI,24.8900,"Start Group
Start Group
Amazon USA","Under Armour Star Wars Storm Trooper Mens Compression Top - White-S",,24.8900,20.0096,20.74000747,122020,122020,2,156788,1,20.74,20.7400
7545427,7545427,2713245,6000907831,"Janez Bester",bester.bmd@gmail.com,6000677331,"2020-12-20 20:50:07",SI,1.0000,"Start Fitness
Fitness
SF English","GMTee Golf Winter Beanie Hat - Black",,1.0000,20.0000,0.83333333,122020,122020,2,242565,1,0.83,0.8300
7512155,7512155,2700416,6000899938,"Misha Sinič",sinic.misa@gmail.com,6000669830,"2020-12-13 14:28:42",SI,3.3700,"Start Fitness
Fitness
SF English","Regatta Peggie Lightweight Scarf - Pink",,3.3700,20.0000,2.80833333,122020,122020,2,326374,1,2.81,2.8100
7557187,7557187,2717646,6000910555,"Marjan Zupančič",binebingo@gmail.com,6000679887,"2020-12-25 20:23:24",SI,3.3100,"Start Fitness
Fitness
SF English","More Mile Vermont Wool Running Socks - Black",0.1600,3.1500,20.0000,2.62500000,122020,122020,2,86923,1,2.63,2.6300
7545428,7545428,2713245,6000907831,"Janez Bester",bester.bmd@gmail.com,6000677331,"2020-12-20 20:50:07",SI,3.0000,"Start Fitness
Fitness
SF English","Christmas Festive (3 Pack) Womens Novelty Socks",,3.0000,20.0000,2.50000000,122020,122020,2,386679,1,2.50,2.5000
7512156,7512156,2700416,6000899938,"Misha Sinič",sinic.misa@gmail.com,6000669830,"2020-12-13 14:28:42",SI,3.3700,"Start Fitness
Fitness
SF English","Regatta Sancia Printed Womens Scarf - Pink",,3.3700,20.0000,2.80833333,122020,122020,2,345116,1,2.81,2.8100
7557189,7557189,2717646,6000910555,"Marjan Zupančič",binebingo@gmail.com,6000679887,"2020-12-25 20:23:24",SI,4.4900,"Start Fitness
Fitness
SF English","Piu Miglia Cycling Leg Warmers - Black",0.2300,4.2600,20.0000,3.55000000,122020,122020,2,42705,1,3.55,3.5500
7586869,7586869,2727396,6000917730,"rok puhar",rokpuhar92@gmail.com,6000686703,"2020-12-30 20:20:59",SI,45.8000,"Start Fitness
Fitness
SF English","adidas Z.N.E Mens Running Jacket - Blue",4.5800,41.2200,0.0000,41.22000000,122020,122020,2,326546,4,34.35,41.2200
7586871,7586871,2727396,6000917730,"rok puhar",rokpuhar92@gmail.com,6000686703,"2020-12-30 20:20:59",SI,37.3900,"Start Fitness
Fitness
SF English","adidas Supernova Mens Long Running Tights - Black",3.7400,33.6500,0.0000,33.65000000,122020,122020,2,292516,4,28.04,33.6500
7586873,7586873,2727396,6000917730,"rok puhar",rokpuhar92@gmail.com,6000686703,"2020-12-30 20:20:59",SI,27.1100,"Start Fitness
Fitness
SF English","adidas Adapt Mens Running Track Pants - Black",2.7100,24.4000,0.0000,24.40000000,122020,122020,2,387566,4,20.33,24.4000
7586875,7586875,2727396,6000917730,"rok puhar",rokpuhar92@gmail.com,6000686703,"2020-12-30 20:20:59",SI,55.1500,"Start Fitness
Fitness
SF English","adidas Adizero Avanti Boost Running Spikes - White",5.5200,49.6300,0.0000,49.63000000,122020,122020,2,314451,4,41.36,49.6300
