item_id,order_item_id,"Invoice ID","Order Number","Customer name",customer_email,"Invoice No","Invoice Date",country_id,base_row_total_incl_tax,store_name,name,base_discount_amount,"Value less discount",tax_percent,"Net Discounted Amount","Return Date",month_year,value,product_id,customer_group_id,"net based on catalog vat","New tax"
7811322,7811322,2812241,6000972883,"Urpu Salmenniemi",urpu.salmenniemi@gmail.com,6000737366,"2021-02-23 09:43:40",FI,116.5800,"Start Fitness
Fitness
SF English","Brooks Glycerin 19 WIDE FIT Womens Running Shoes - Grey",,116.5800,0.0000,116.58000000,22021,22021,2,388897,0,97.15,97.1500
7736789,7736789,2782719,6000955464,"Mikko Ryhänen",ryhanen.mikko@outlook.com,6000721175,"2021-02-01 18:57:35",FI,65.8300,"Start Fitness
Fitness
SF English","adidas Adizero Finesse Running Spikes - Orange",,65.8300,0.0000,65.83000000,22021,22021,2,345776,0,54.86,54.8600
7817436,7817436,2814830,6000974358,"Olli Lauronen",o.lauronen@saunalahti.fi,6000738727,"2021-02-25 09:16:29",FI,91.6700,"Start Fitness
Fitness
SF English","Asics Gel Nimbus 22 Retro Tokyo Mens Running Shoes - White",,91.6700,0.0000,91.67000000,22021,22021,2,348789,0,76.39,76.3900
7828611,7828611,2819440,6000977032,"Heidi Friman",heidi.wiivi@gmail.com,6000741266,"2021-02-28 12:07:35",FI,89.9200,"Start Fitness
Fitness
SF English","Brooks Adrenaline GTS 20 Womens Running Shoes - Black",,89.9200,0.0000,89.92000000,22021,22021,2,344243,0,74.93,74.9300
7746644,7746644,2786672,6000957799,"Jim Pennicott",jim.pennicott@outlook.com,6000723357,"2021-02-04 14:15:30",FI,82.5000,"Start Fitness
Fitness
SF English","Brooks Adrenaline GTS 20 Mens Running Shoes - Black",,82.5000,0.0000,82.50000000,22021,22021,2,344166,0,68.75,68.7500
7749262,7749262,2787714,6000958423,"Satu Kanninen",satu.kanninen@gmail.com,6000723936,"2021-02-05 10:16:40",FI,116.5800,"Start Fitness
Fitness
SF English","Brooks Glycerin 19 WIDE FIT Womens Running Shoes - Grey",,116.5800,0.0000,116.58000000,22021,22021,2,388897,0,97.15,97.1500
7801294,7801294,2808404,6000970679,,atte_autio@hotmail.com,6000735311,"2021-02-20 16:34:43",FI,129.9300,"Start Fitness
Fitness
SF English","adidas Wind.RDY Mens Running Jacket - Orange",,129.9300,0.0000,129.93000000,22021,22021,2,385681,0,108.28,108.2800
7803009,7803009,2809083,6000971031,"Irmeli Ahlqvist",iahlqvist@gmail.com,6000735634,"2021-02-21 07:54:18",FI,33.3300,"Start Fitness
Fitness
SF English","Under Armour HOVR Sonic NC Mens Running Shoes - White",,33.3300,0.0000,33.33000000,22021,22021,2,248444,0,27.78,27.7800
7804505,7804505,2809690,6000971372,"Kasper Saren",thewates@gmail.com,6000735955,"2021-02-21 15:31:51",FI,18.5000,"Start Fitness
Fitness
SF English","Under Armour HeatGear (3 Pack) Crew Socks - Black",0.9300,17.5700,0.0000,17.57000000,22021,22021,2,348251,1,14.64,14.6400
7804507,7804507,2809690,6000971372,"Kasper Saren",thewates@gmail.com,6000735955,"2021-02-21 15:31:51",FI,18.6900,"Start Fitness
Fitness
SF English","Under Armour Vanish Seamless Mens Long Sleeve Training Top - Black",0.9300,17.7600,0.0000,17.76000000,22021,22021,2,302435,1,14.80,14.8000
7811501,7811501,2812324,6000972931,"Ville-Veikko Olli",villeveikko.olli@gmail.com,6000737411,"2021-02-23 10:56:00",FI,57.0300,"Start Fitness
Fitness
SF English","adidas Adizero MD Running Spikes - White",,57.0300,0.0000,57.03000000,22021,22021,2,314293,1,47.53,47.5300
7740439,7740439,2784230,EBY24000594760,"M2E Orders",m2eorders@startfitness.co.uk,24000594075,"2021-02-02 19:17:04",FI,25.0000,"Start Group
Start Group
eBay","DBlade Basic Mens Work Wear Jeans - Denim",,25.0000,0.0000,25.00000000,22021,22021,2,311070,1,20.83,20.8300
7740441,7740441,2784230,EBY24000594760,"M2E Orders",m2eorders@startfitness.co.uk,24000594075,"2021-02-02 19:17:04",FI,25.0000,"Start Group
Start Group
eBay","DBlade Basic Mens Work Wear Jeans - Denim",,25.0000,0.0000,25.00000000,22021,22021,2,311070,1,20.83,20.8300
7740807,7740807,2784360,6000956386,"Tuukka Turkka",tuukka.turkka@gmail.com,6000722052,"2021-02-02 20:30:57",FI,18.6000,"Start Fitness
Fitness
SF English","Scott Trail Tech Hybrid (With Pad) Womens Cycling Shorts - Blue",,18.6000,0.0000,18.60000000,22021,22021,2,362283,1,15.50,15.5000
7740809,7740809,2784360,6000956386,"Tuukka Turkka",tuukka.turkka@gmail.com,6000722052,"2021-02-02 20:30:57",FI,37.3000,"Start Fitness
Fitness
SF English","Scott Trail Tech Hybrid (With Pad) Mens Cycling Bib Shorts - Blue",,37.3000,0.0000,37.30000000,22021,22021,2,361917,1,31.08,31.0800
7740811,7740811,2784360,6000956386,"Tuukka Turkka",tuukka.turkka@gmail.com,6000722052,"2021-02-02 20:30:57",FI,6.4500,"Start Fitness
Fitness
SF English","Scott 10 Heritage Dye Short Sleeve Mens Cycling Polo Shirt - Blue",,6.4500,0.0000,6.45000000,22021,22021,2,362468,1,5.38,5.3800
7740813,7740813,2784360,6000956386,"Tuukka Turkka",tuukka.turkka@gmail.com,6000722052,"2021-02-02 20:30:57",FI,13.9300,"Start Fitness
Fitness
SF English","Scott Endurance Knit Short Sleeve Mens Cycling Jersey - Orange",,13.9300,0.0000,13.93000000,22021,22021,2,377399,1,11.61,11.6100
7740815,7740815,2784360,6000956386,"Tuukka Turkka",tuukka.turkka@gmail.com,6000722052,"2021-02-02 20:30:57",FI,9.3500,"Start Fitness
Fitness
SF English","Scott Traction Full Finger Cycling Gloves - Pink",,9.3500,0.0000,9.35000000,22021,22021,2,360954,1,7.79,7.7900
7740817,7740817,2784360,6000956386,"Tuukka Turkka",tuukka.turkka@gmail.com,6000722052,"2021-02-02 20:30:57",FI,9.3500,"Start Fitness
Fitness
SF English","Scott Endurance Knit Short Sleeve Womens Cycling Jersey - Blue",,9.3500,0.0000,9.35000000,22021,22021,2,376415,1,7.79,7.7900
7740819,7740819,2784360,6000956386,"Tuukka Turkka",tuukka.turkka@gmail.com,6000722052,"2021-02-02 20:30:57",FI,9.3500,"Start Fitness
Fitness
SF English","Scott 10 Icon Womens Cycling Hoody - Blue",,9.3500,0.0000,9.35000000,22021,22021,2,362525,1,7.79,7.7900
7751321,7751321,2788613,6000958938,"Henri Vähäranta",henri.vaharanta@aol.com,6000724429,"2021-02-05 21:30:22",FI,16.6700,"Start Fitness
Fitness
SF English","adidas Condivo 16 Mens Training Pants - Blue",,16.6700,0.0000,16.67000000,22021,22021,2,162577,1,13.89,13.8900
7752227,7752227,2788991,6000959142,"Tuukka Turkka",tuukka.turkka@gmail.com,6000724621,"2021-02-06 10:01:06",FI,6.5400,"Start Fitness
Fitness
SF English","Scott RC Premium ITD Full Finger Cycling Gloves - Red",,6.5400,0.0000,6.54000000,22021,22021,2,360980,1,5.45,5.4500
7752229,7752229,2788991,6000959142,"Tuukka Turkka",tuukka.turkka@gmail.com,6000724621,"2021-02-06 10:01:06",FI,18.6000,"Start Fitness
Fitness
SF English","Scott Trail Tech Hybrid (With Pad) Womens Cycling Shorts - Blue",,18.6000,0.0000,18.60000000,22021,22021,2,362283,1,15.50,15.5000
7752231,7752231,2788991,6000959142,"Tuukka Turkka",tuukka.turkka@gmail.com,6000724621,"2021-02-06 10:01:06",FI,18.6000,"Start Fitness
Fitness
SF English","Scott Trail Tech Hybrid (With Pad) Womens Cycling Shorts - Blue",,18.6000,0.0000,18.60000000,22021,22021,2,362283,1,15.50,15.5000
7752233,7752233,2788991,6000959142,"Tuukka Turkka",tuukka.turkka@gmail.com,6000724621,"2021-02-06 10:01:06",FI,9.3500,"Start Fitness
Fitness
SF English","Scott Endurance Knit Short Sleeve Womens Cycling Jersey - Blue",,9.3500,0.0000,9.35000000,22021,22021,2,376415,1,7.79,7.7900
7752650,7752650,2789145,EBY24000595677,"M2E Orders",m2eorders@startfitness.co.uk,24000594986,"2021-02-06 11:56:56",FI,5.9000,"Start Group
Start Group
eBay","More Mile R2R Compression Running Socks - White",,5.9000,20.0000,4.91666667,22021,22021,2,209750,1,4.92,4.9200
7771812,7771812,2796840,EBY24000597198,"M2E Orders",7aad076f1be9dcafec52@members.ebay.com,24000596507,"2021-02-11 17:35:04",FI,17.5000,"Start Group
Start Group
eBay","Bell Local BMX Cycling Helmet - Brown",,17.5000,20.0000,14.58333333,22021,22021,5,391233,1,17.50,17.5000
7782221,7782221,2800836,EBY24000598062,"M2E Orders",m2eorders@startfitness.co.uk,24000597368,"2021-02-14 20:41:09",FI,39.0000,"Start Group
Start Group
eBay","2XU Accelerate Compression Mens Long Running Tights - Black",,39.0000,20.0000,32.50000000,22021,22021,2,204448,1,32.50,32.5000
7803848,7803848,2809437,6000971221,"Isla Hahl",islah@uef.fi,6000735813,"2021-02-21 12:58:03",FI,46.6400,"Start Fitness
Fitness
SF English","adidas Adizero Prime SP Running Spikes - Black",2.3300,44.3100,0.0000,44.31000000,22021,22021,2,240406,1,36.93,36.9300
7803850,7803850,2809437,6000971221,"Isla Hahl",islah@uef.fi,6000735813,"2021-02-21 12:58:03",FI,102.7300,"Start Fitness
Fitness
SF English","adidas Adizero Long Jump Field Event Spikes - Yellow",5.1400,97.5900,0.0000,97.59000000,22021,22021,2,393120,1,81.33,81.3300
7804497,7804497,2809690,6000971372,"Kasper Saren",thewates@gmail.com,6000735955,"2021-02-21 15:31:51",FI,36.1800,"Start Fitness
Fitness
SF English","Under Armour Tech 2.0 Mens Short Sleeve Training Top - Navy",1.8100,34.3700,0.0000,34.37000000,22021,22021,2,302475,1,28.64,28.6400
7804499,7804499,2809690,6000971372,"Kasper Saren",thewates@gmail.com,6000735955,"2021-02-21 15:31:51",FI,13.9300,"Start Fitness
Fitness
SF English","Under Armour Woven Graphic Mens Training Shorts - Green",0.7000,13.2300,0.0000,13.23000000,22021,22021,2,306863,1,11.03,11.0300
7804501,7804501,2809690,6000971372,"Kasper Saren",thewates@gmail.com,6000735955,"2021-02-21 15:31:51",FI,20.5700,"Start Fitness
Fitness
SF English","Under Armour Original Series (2 Pack) Printed Mens Boxer Jock - Black",1.0200,19.5500,0.0000,19.55000000,22021,22021,2,330604,1,16.29,16.2900
7804503,7804503,2809690,6000971372,"Kasper Saren",thewates@gmail.com,6000735955,"2021-02-21 15:31:51",FI,7.3800,"Start Fitness
Fitness
SF English","Under Armour HeatGear (3 Pack) No Show Socks - Black",0.3700,7.0100,0.0000,7.01000000,22021,22021,2,348262,1,5.84,5.8400
