"Invoice Entity ID","Order number","Invoice Number","Invoice date","GBP Net goods after discount","GBP VAT on Goods","GBP Gross goods after discount",country_id,"Store Credit Used",store_name
2674317,AMZ24000583048,24000582005,2020-12-02,59.1200,11.83,70.9500,PL,,"Start Group
Start Group
Amazon"
2680960,24000571526,24000568822,2020-12-05,23.6500,4.73,28.3800,PL,,"Start Group
Start Group
Amazon USA"
2683954,6000890763,6000661143,2020-12-06,90.5800,18.12,108.7000,PL,,"Start Fitness
Fitness
SF English"
2683963,6000890770,6000661149,2020-12-06,119.0400,23.81,142.8500,PL,,"Start Fitness
Fitness
SF English"
2685785,24000574860,24000570489,2020-12-07,86.6600,17.33,103.9900,PL,,"Start Group
Start Group
Amazon USA"
2686556,6000892163,6000662475,2020-12-07,121.5000,24.30,145.8000,PL,,"Start Fitness
Fitness
SF English"
2687865,EBY24000580520,24000579877,2020-12-07,33.3300,6.67,40.0000,PL,,"Start Group
Start Group
eBay"
2688775,6000893401,6000663653,2020-12-08,24.1700,4.83,29.0000,PL,,"Start Fitness
Fitness
SF English"
2693200,24000579792,24000573014,2020-12-10,32.1400,6.43,38.5700,PL,,"Start Group
Start Group
Amazon USA"
2703870,EBY24000582577,24000581931,2020-12-14,218.9000,0.00,218.9000,PL,,"Start Group
Start Group
eBay"
2709533,AMZ24000588642,24000587599,2020-12-17,27.8400,5.57,33.4100,PL,,"Start Group
Start Group
Amazon"
2712665,AMZ24000589241,24000588198,2020-12-20,37.5200,7.50,45.0200,PL,,"Start Group
Start Group
Amazon"
2717724,6000910600,6000679933,2020-12-25,26.5800,5.32,31.9000,PL,,"Start Fitness
Fitness
SF English"
2724536,6000915624,6000684711,2020-12-29,485.9700,97.20,583.1700,PL,,"Start Fitness
Fitness
SF English"
2728091,6000918224,6000687164,2020-12-31,107.3300,18.67,126.0000,PL,,"Start Fitness
Fitness
SF English"
