"Invoice Entity ID","Order number","Invoice Number","Invoice date","GBP Net goods after discount","GBP VAT on Goods","GBP Gross goods after discount",country_id,"Store Credit Used",store_name
2192711,2400654592,2400654020,2020-03-01,37.7100,7.54,45.2500,SE,0.0000,"Start Group
Start Group
Amazon"
2192750,600710741,600678000,2020-03-01,44.9300,8.98,53.9100,SE,0.0000,"Start Fitness
Fitness
SF English"
2192791,600710747,600678004,2020-03-01,24.0800,4.82,28.9000,SE,0.0000,"Start Fitness
Fitness
SF English"
2193142,600710820,600678066,2020-03-01,65.8300,13.17,79.0000,SE,0.0000,"Start Fitness
Fitness
SF English"
2193168,600710826,600678070,2020-03-01,65.8300,13.17,79.0000,SE,0.0000,"Start Fitness
Fitness
SF English"
2194010,1900265807,1900240001,2020-03-01,121.5000,24.30,145.8000,SE,0.0000,"Start Fitness
Fitness
Fitness Mobile"
2194244,600711029,600678258,2020-03-02,99.6700,19.94,119.6100,SE,0.0000,"Start Fitness
Fitness
SF English"
2194468,600711093,600678321,2020-03-02,1249.1700,0.00,1249.1700,SE,0.0000,"Start Fitness
Fitness
SF English"
2194867,600711224,600678435,2020-03-02,203.9200,40.79,244.7100,SE,0.0000,"Start Fitness
Fitness
SF English"
2195321,2500296974,2500296166,2020-03-03,21.8300,4.37,26.2000,SE,0.0000,"Start Group
Start Group
eBay"
2195534,600711361,600678562,2020-03-03,16.6700,3.33,20.0000,SE,0.0000,"Start Fitness
Fitness
SF English"
2195572,600711375,600678576,2020-03-03,749.1700,149.83,899.0000,SE,0.0000,"Start Fitness
Fitness
SF English"
2195878,600711479,600678678,2020-03-03,83.2500,16.65,99.9000,SE,0.0000,"Start Fitness
Fitness
SF English"
2196110,600711534,600678730,2020-03-03,112.4200,22.48,134.9000,SE,0.0000,"Start Fitness
Fitness
SF English"
2196596,1900266201,600678797,2020-03-04,100.5000,20.10,120.6000,SE,0.0000,"Start Fitness
Fitness
SF English"
2196706,2500297251,2500296443,2020-03-04,34.2500,6.85,41.1000,SE,0.0000,"Start Group
Start Group
eBay"
2196783,600711680,600678860,2020-03-04,158.2500,31.65,189.9000,SE,0.0000,"Start Fitness
Fitness
SF English"
2196915,600711722,600678899,2020-03-04,83.9200,16.79,100.7100,SE,0.0000,"Start Fitness
Fitness
SF English"
2197009,2400656200,2400655628,2020-03-04,21.1100,4.23,25.3400,SE,0.0000,"Start Group
Start Group
Amazon"
2197114,2400656247,2400655675,2020-03-04,64.9200,12.98,77.9000,SE,0.0000,"Start Group
Start Group
Amazon"
2197778,600711919,600679082,2020-03-05,87.6800,17.53,105.2100,SE,0.0000,"Start Fitness
Fitness
SF English"
2198266,600712073,600679224,2020-03-05,51.7500,10.35,62.1000,SE,0.0000,"Start Fitness
Fitness
SF English"
2198339,1900266556,1900240654,2020-03-05,187.3500,37.47,224.8200,SE,0.0000,"Start Fitness
Fitness
Fitness Mobile"
2198482,600712118,600679264,2020-03-05,62.0900,12.41,74.5000,SE,0.0000,"Start Fitness
Fitness
SF English"
2198488,600712121,600679267,2020-03-05,134.8500,26.97,161.8200,SE,0.0000,"Start Fitness
Fitness
SF English"
2198503,1900266576,1900240670,2020-03-05,57.5000,11.50,69.0000,SE,0.0000,"Start Fitness
Fitness
Fitness Mobile"
2199655,600712403,600679524,2020-03-06,52.4200,10.49,62.9100,SE,0.0000,"Start Fitness
Fitness
SF English"
2199744,2400657285,2400656713,2020-03-06,10.7400,2.15,12.8900,SE,0.0000,"Start Group
Start Group
Amazon"
2199892,1900266827,1900240885,2020-03-07,97.4200,19.49,116.9100,SE,0.0000,"Start Fitness
Fitness
Fitness Mobile"
2200111,1900266875,1900240931,2020-03-07,62.4200,12.48,74.9000,SE,0.0000,"Start Fitness
Fitness
Fitness Mobile"
2200543,600712597,600679692,2020-03-07,61.6700,12.33,74.0000,SE,0.0000,"Start Fitness
Fitness
SF English"
2200612,2500297992,2500297181,2020-03-07,88.3300,17.67,106.0000,SE,0.0000,"Start Group
Start Group
eBay"
2200962,600712672,600679765,2020-03-08,118.5000,23.70,142.2000,SE,0.0000,"Start Fitness
Fitness
SF English"
2201195,2500298110,2500297299,2020-03-08,8.6200,1.73,10.3500,SE,0.0000,"Start Group
Start Group
eBay"
2201345,600712739,600679829,2020-03-08,75.2200,15.05,90.2700,SE,0.0000,"Start Fitness
Fitness
SF English"
2201437,600712755,600679844,2020-03-08,74.9200,14.99,89.9100,SE,0.0000,"Start Fitness
Fitness
SF English"
2201678,600712815,600679902,2020-03-08,216.5000,43.30,259.8000,SE,0.0000,"Start Fitness
Fitness
SF English"
2202027,600712892,600679969,2020-03-08,188.1000,37.62,225.7200,SE,0.0000,"Start Fitness
Fitness
SF English"
2202090,600712905,600679980,2020-03-08,30.0000,6.00,36.0000,SE,0.0000,"Start Fitness
Fitness
SF English"
2202775,600713066,600680125,2020-03-09,35.1000,7.02,42.1200,SE,0.0000,"Start Fitness
Fitness
SF English"
2203111,600713169,600680219,2020-03-09,64.8300,12.97,77.8000,SE,0.0000,"Start Fitness
Fitness
SF English"
2203119,1900267492,1900241470,2020-03-09,140.0000,28.00,168.0000,SE,0.0000,"Start Fitness
Fitness
Fitness Mobile"
2203446,2400658647,2400658075,2020-03-09,23.4800,4.70,28.1800,SE,0.0000,"Start Group
Start Group
Amazon"
2203703,600713293,600680324,2020-03-10,0.0000,0.00,0.0000,SE,0.0000,"Start Fitness
Fitness
SF English"
2203909,1900267657,1900241611,2020-03-10,15.0000,3.00,18.0000,SE,0.0000,"Start Fitness
Fitness
Fitness Mobile"
2204254,600713455,600680475,2020-03-10,64.1200,12.83,76.9500,SE,0.0000,"Start Fitness
Fitness
SF English"
2204292,1900267729,1900241673,2020-03-10,45.0000,9.00,54.0000,SE,0.0000,"Start Fitness
Fitness
Fitness Mobile"
2204906,600713599,600680604,2020-03-11,74.9200,14.98,89.9000,SE,0.0000,"Start Fitness
Fitness
SF English"
2205279,2500298956,2500298145,2020-03-11,74.0700,14.82,88.8900,SE,0.0000,"Start Group
Start Group
eBay"
2205547,1900267944,1900241866,2020-03-11,89.9200,17.98,107.9000,SE,0.0000,"Start Fitness
Fitness
Fitness Mobile"
2205819,600713801,600680775,2020-03-12,66.7500,13.35,80.1000,SE,0.0000,"Start Fitness
Fitness
SF English"
2205830,600713803,600680777,2020-03-12,29.1700,5.83,35.0000,SE,0.0000,"Start Fitness
Fitness
SF English"
2205973,2500299128,2500298317,2020-03-12,17.4900,3.50,20.9900,SE,0.0000,"Start Group
Start Group
eBay"
2206247,600713920,600680882,2020-03-12,24.1700,4.83,29.0000,SE,0.0000,"Start Fitness
Fitness
SF English"
2206895,600714057,600681004,2020-03-13,0.0000,0.00,0.0000,SE,0.0000,"Start Fitness
Fitness
SF English"
2206911,600714063,600681009,2020-03-13,67.4300,13.48,80.9100,SE,0.0000,"Start Fitness
Fitness
SF English"
2207189,600714159,600681101,2020-03-13,86.1700,17.24,103.4100,SE,0.0000,"Start Fitness
Fitness
SF English"
2207608,1900268298,1900242176,2020-03-14,44.1700,8.83,53.0000,SE,0.0000,"Start Fitness
Fitness
Fitness Mobile"
2207621,600714229,600681164,2020-03-14,74.9200,14.99,89.9100,SE,0.0000,"Start Fitness
Fitness
SF English"
2207660,600714241,600681175,2020-03-14,20.8300,4.17,25.0000,SE,0.0000,"Start Fitness
Fitness
SF English"
2207706,600714250,600681184,2020-03-14,57.5000,11.50,69.0000,SE,0.0000,"Start Fitness
Fitness
SF English"
2207824,2500299575,2500298764,2020-03-14,22.4100,4.48,26.8900,SE,0.0000,"Start Group
Start Group
eBay"
2207965,2500299616,2500298805,2020-03-14,14.4200,2.88,17.3000,SE,0.0000,"Start Group
Start Group
eBay"
2208324,600714406,600681328,2020-03-14,124.9200,24.98,149.9000,SE,0.0000,"Start Fitness
Fitness
SF English"
2208535,600714442,600681360,2020-03-15,111.2500,22.25,133.5000,SE,0.0000,"Start Fitness
Fitness
SF English"
2208614,1900268497,1900242353,2020-03-15,47.1800,9.43,56.6100,SE,0.0000,"Start Fitness
Fitness
Fitness Mobile"
2208690,600714487,600681399,2020-03-15,144.9200,28.98,173.9000,SE,0.0000,"Start Fitness
Fitness
SF English"
2208694,600714488,600681401,2020-03-15,91.6700,18.33,110.0000,SE,0.0000,"Start Fitness
Fitness
SF English"
2209067,1900268580,1900242429,2020-03-15,86.6700,17.33,104.0000,SE,0.0000,"Start Fitness
Fitness
Fitness Mobile"
2209503,1900268676,1900242508,2020-03-16,117.0000,23.40,140.4000,SE,0.0000,"Start Fitness
Fitness
Fitness Mobile"
2209606,600714693,600681584,2020-03-16,95.0000,19.00,114.0000,SE,0.0000,"Start Fitness
Fitness
SF English"
2209675,2500300092,2500299281,2020-03-16,21.5800,4.32,25.9000,SE,0.0000,"Start Group
Start Group
eBay"
2209951,600714789,600681671,2020-03-16,90.0000,18.00,108.0000,SE,0.0000,"Start Fitness
Fitness
SF English"
2210276,2400660900,2400660327,2020-03-17,19.1200,3.83,22.9500,SE,0.0000,"Start Group
Start Group
Amazon"
2210431,1900268845,1900242650,2020-03-17,74.2500,14.85,89.1000,SE,0.0000,"Start Fitness
Fitness
Fitness Mobile"
2210433,2400660941,2400660368,2020-03-17,78.3200,15.67,93.9900,SE,0.0000,"Start Group
Start Group
Amazon"
2210914,600715084,600681925,2020-03-18,60.7500,12.15,72.9000,SE,0.0000,"Start Fitness
Fitness
SF English"
2211176,600715184,600682014,2020-03-18,16.5800,3.32,19.9000,SE,0.0000,"Start Fitness
Fitness
SF English"
2211448,600715256,600682082,2020-03-18,56.2500,11.25,67.5000,SE,0.0000,"Start Fitness
Fitness
SF English"
2211645,600715313,600682132,2020-03-19,44.2500,8.85,53.1000,SE,0.0000,"Start Fitness
Fitness
SF English"
2211764,600715361,600682174,2020-03-19,58.5000,11.70,70.2000,SE,0.0000,"Start Fitness
Fitness
SF English"
2212217,1900269143,1900242898,2020-03-19,74.9200,14.99,89.9100,SE,0.0000,"Start Fitness
Fitness
Fitness Mobile"
2212752,600715582,600682380,2020-03-20,57.5000,11.50,69.0000,SE,0.0000,"Start Fitness
Fitness
SF English"
2212876,600715625,600682421,2020-03-20,51.7500,10.35,62.1000,SE,0.0000,"Start Fitness
Fitness
SF English"
2212997,600715655,600682448,2020-03-20,45.0000,9.00,54.0000,SE,0.0000,"Start Fitness
Fitness
SF English"
2213185,600715690,600682481,2020-03-20,228.3000,45.66,273.9600,SE,0.0000,"Start Fitness
Fitness
SF English"
2213927,600715837,600682611,2020-03-21,1249.1700,249.83,1499.0000,SE,0.0000,"Start Fitness
Fitness
SF English"
2214134,600715881,600682650,2020-03-21,268.5800,53.72,322.3000,SE,0.0000,"Start Fitness
Fitness
SF English"
2214142,1900269416,1900243132,2020-03-21,29.2500,5.85,35.1000,SE,0.0000,"Start Fitness
Fitness
Fitness Mobile"
2214963,1900269555,1900243251,2020-03-22,29.2500,5.85,35.1000,SE,0.0000,"Start Fitness
Fitness
Fitness Mobile"
2215329,600716112,600682848,2020-03-22,67.9000,0.00,67.9000,SE,0.0000,"Start Fitness
Fitness
SF English"
2215937,1900269710,1900243379,2020-03-23,58.2500,11.65,69.9000,SE,0.0000,"Start Fitness
Fitness
Fitness Mobile"
2216084,600716279,600682994,2020-03-23,74.1700,14.83,89.0000,SE,0.0000,"Start Fitness
Fitness
SF English"
2216253,1900269744,1900243409,2020-03-23,66.5300,13.30,79.8300,SE,0.0000,"Start Fitness
Fitness
Fitness Mobile"
2216304,2500302520,2500301708,2020-03-23,25.5800,5.12,30.7000,SE,0.0000,"Start Group
Start Group
eBay"
2217408,2400662623,2400662050,2020-03-24,20.7500,4.15,24.9000,SE,0.0000,"Start Group
Start Group
Amazon"
2218081,600716661,600683335,2020-03-24,37.4200,7.49,44.9100,SE,0.0000,"Start Fitness
Fitness
SF English"
2218173,2500303408,2500302596,2020-03-24,62.5000,12.50,75.0000,SE,0.0000,"Start Group
Start Group
eBay"
2218189,1900269994,1900243620,2020-03-24,167.8500,33.57,201.4200,SE,0.0000,"Start Fitness
Fitness
Fitness Mobile"
2218674,600716738,600683403,2020-03-25,90.0000,18.00,108.0000,SE,0.0000,"Start Fitness
Fitness
SF English"
2218808,2500303709,2500302897,2020-03-25,33.3300,6.67,40.0000,SE,0.0000,"Start Group
Start Group
eBay"
2218840,600716781,600683445,2020-03-25,2249.1700,449.83,2699.0000,SE,0.0000,"Start Fitness
Fitness
SF English"
2219487,2400663098,2400662525,2020-03-25,29.4600,5.89,35.3500,SE,0.0000,"Start Group
Start Group
Amazon"
2219561,600716921,600683566,2020-03-25,20.8300,4.17,25.0000,SE,0.0000,"Start Fitness
Fitness
SF English"
2219810,1900270183,1900243788,2020-03-25,8.3300,1.67,10.0000,SE,0.0000,"Start Fitness
Fitness
Fitness Mobile"
2220336,600717040,600683669,2020-03-26,70.0000,14.00,84.0000,SE,0.0000,"Start Fitness
Fitness
SF English"
2221230,600717219,600683831,2020-03-26,114.1700,22.83,137.0000,SE,0.0000,"Start Fitness
Fitness
SF English"
2221749,600717288,600683895,2020-03-27,91.6700,18.33,110.0000,SE,0.0000,"Start Fitness
Fitness
SF English"
2221829,600717297,600683904,2020-03-27,148.5000,29.70,178.2000,SE,0.0000,"Start Fitness
Fitness
SF English"
2221890,600717315,600683917,2020-03-27,70.7500,14.15,84.9000,SE,0.0000,"Start Fitness
Fitness
SF English"
2221987,600717343,600683942,2020-03-27,37.5000,7.50,45.0000,SE,0.0000,"Start Fitness
Fitness
SF English"
2222766,1900270611,1900244158,2020-03-27,114.6800,22.93,137.6100,SE,0.0000,"Start Fitness
Fitness
Fitness Mobile"
2222928,2500305610,2500304792,2020-03-27,21.8300,4.37,26.2000,SE,0.0000,"Start Group
Start Group
eBay"
2222944,1900270644,1900244185,2020-03-27,108.5200,21.71,130.2300,SE,0.0000,"Start Fitness
Fitness
Fitness Mobile"
2223364,600717580,600684157,2020-03-28,97.4200,19.49,116.9100,SE,0.0000,"Start Fitness
Fitness
SF English"
2223504,600717605,600684181,2020-03-28,19.9900,4.00,23.9900,SE,0.0000,"Start Fitness
Fitness
SF English"
2224340,1900270881,1900244391,2020-03-28,40.8300,8.17,49.0000,SE,0.0000,"Start Fitness
Fitness
Fitness Mobile"
2224359,2400664303,2400663729,2020-03-28,17.2400,3.44,20.6800,SE,0.0000,"Start Group
Start Group
Amazon"
2224375,2500306230,2500305409,2020-03-28,83.2500,16.65,99.9000,SE,0.0000,"Start Group
Start Group
eBay"
2225186,2500306592,2500305765,2020-03-29,65.8300,13.17,79.0000,SE,0.0000,"Start Group
Start Group
eBay"
2225805,600718030,600684540,2020-03-29,256.2500,51.25,307.5000,SE,0.0000,"Start Fitness
Fitness
SF English"
2226636,600718201,600684692,2020-03-29,152.1700,30.44,182.6100,SE,0.0000,"Start Fitness
Fitness
SF English"
2227375,2500307460,2500306629,2020-03-30,15.2100,3.04,18.2500,SE,0.0000,"Start Group
Start Group
eBay"
2227717,1900271481,1900244924,2020-03-30,18.7500,3.75,22.5000,SE,0.0000,"Start Fitness
Fitness
Fitness Mobile"
2228226,600718524,600684984,2020-03-30,10.8000,0.00,10.8000,SE,0.0000,"Start Fitness
Fitness
SF English"
2228981,2400665411,2400664836,2020-03-31,79.0400,15.81,94.8500,SE,0.0000,"Start Group
Start Group
Amazon"
2229199,600718714,600685152,2020-03-31,0.0000,0.00,0.0000,SE,0.0000,"Start Fitness
Fitness
SF English"
2229472,600718783,600685215,2020-03-31,59.2500,11.85,71.1000,SE,0.0000,"Start Fitness
Fitness
SF English"
2229996,600718860,600685287,2020-03-31,65.1800,13.03,78.2100,SE,0.0000,"Start Fitness
Fitness
SF English"
