entity_id,store_id,base_grand_total,shipping_tax_amount,tax_amount,base_tax_amount,store_to_order_rate,base_shipping_tax_amount,base_discount_amount,base_to_order_rate,grand_total,shipping_amount,subtotal_incl_tax,base_subtotal_incl_tax,store_to_base_rate,base_shipping_amount,total_qty,base_to_global_rate,subtotal,base_subtotal,discount_amount,billing_address_id,is_used_for_refund,order_id,email_sent,can_void_flag,state,shipping_address_id,store_currency_code,transaction_id,order_currency_code,base_currency_code,global_currency_code,increment_id,created_at,updated_at,hidden_tax_amount,base_hidden_tax_amount,shipping_hidden_tax_amount,base_shipping_hidden_tax_amnt,shipping_incl_tax,base_shipping_incl_tax,base_total_refunded,base_customer_balance_amount,customer_balance_amount,base_gift_cards_amount,gift_cards_amount,gw_base_price,gw_price,gw_items_base_price,gw_items_price,gw_card_base_price,gw_card_price,gw_base_tax_amount,gw_tax_amount,gw_items_base_tax_amount,gw_items_tax_amount,gw_card_base_tax_amount,gw_card_tax_amount,base_reward_currency_amount,reward_currency_amount,reward_points_balance,discount_description,payment_fee_amount,base_payment_fee_amount,payment_installment_fee_amount,base_payment_installment_fee_amount,payment_fee_tax,base_payment_fee_tax,payment_percentage_fee,base_payment_percentage_fee
2165673,6,81.5900,0.0000,0.0000,0.0000,1.0000,0.0000,-9.9900,1.0000,81.5900,8.3300,83.2500,83.2500,1.0000,8.3300,2.0000,1.0000,83.2500,83.2500,-9.9900,4437491,,2219839,,,2,4437492,GBP,4825807260615293,GBP,GBP,GBP,600671249,"2020-02-03 10:36:02","2020-02-03 10:36:02",0.0000,0.0000,0.0000,,8.3300,8.3300,,0.0000,0.0000,0.0000,0.0000,,,,,,,,,,,,,,,,RIZZO12,0.0000,0.0000,0.0000,0.0000,0.0000,0.0000,0.0000,0.0000
2166798,6,81.5900,0.0000,0.0000,0.0000,1.0000,0.0000,-9.9900,1.0000,81.5900,8.3300,83.2500,83.2500,1.0000,8.3300,2.0000,1.0000,83.2500,83.2500,-9.9900,4439955,,2221071,,,2,4439956,GBP,4725808105886983,GBP,GBP,GBP,600671568,"2020-02-04 10:05:03","2020-02-04 10:05:03",0.0000,0.0000,0.0000,,8.3300,8.3300,,0.0000,0.0000,0.0000,0.0000,,,,,,,,,,,,,,,,RIZZO12,0.0000,0.0000,0.0000,0.0000,0.0000,0.0000,0.0000,0.0000
2167794,6,134.0400,0.0000,0.0000,0.0000,1.0000,0.0000,-16.5800,1.0000,134.0400,12.4600,138.1600,138.1600,1.0000,12.4600,4.0000,1.0000,138.1600,138.1600,-16.5800,4442058,,2222124,,,2,4442059,GBP,4555808912080007,GBP,GBP,GBP,600671819,"2020-02-05 08:28:02","2020-02-05 08:28:02",0.0000,0.0000,0.0000,,12.4600,12.4600,,0.0000,0.0000,0.0000,0.0000,,,,,,,,,,,,,,,,RIZZO12,0.0000,0.0000,0.0000,0.0000,0.0000,0.0000,0.0000,0.0000
2168787,6,41.3300,0.0000,0.0000,0.0000,1.0000,0.0000,-4.5000,1.0000,41.3300,8.3300,37.5000,37.5000,1.0000,8.3300,2.0000,1.0000,37.5000,37.5000,-4.5000,4444145,,2223168,,,2,4444146,GBP,4855809749642750,GBP,GBP,GBP,600672087,"2020-02-06 07:44:03","2020-02-06 07:44:03",0.0000,0.0000,0.0000,,8.3300,8.3300,,0.0000,0.0000,0.0000,0.0000,,,,,,,,,,,,,,,,RIZZO12,0.0000,0.0000,0.0000,0.0000,0.0000,0.0000,0.0000,0.0000
2172961,6,89.8900,0.0000,0.0000,0.0000,1.0000,0.0000,-9.9900,1.0000,89.8900,16.6300,83.2500,83.2500,1.0000,16.6300,2.0000,1.0000,83.2500,83.2500,-9.9900,4452928,,2227565,,,2,4452929,GBP,4655813375968986,GBP,GBP,GBP,600673118,"2020-02-10 12:28:03","2020-02-10 12:28:03",0.0000,0.0000,0.0000,,16.6300,16.6300,,0.0000,0.0000,0.0000,0.0000,,,,,,,,,,,,,,,,RIZZO12,0.0000,0.0000,0.0000,0.0000,0.0000,0.0000,0.0000,0.0000
2179595,6,69.2000,0.0000,0.0000,0.0000,1.1217,0.0000,-8.3000,1.1217,77.6200,9.3500,77.5800,69.1700,1.0000,8.3300,2.0000,1.0000,77.5800,69.1700,-9.3100,4466907,,2234560,,,2,4466908,GBP,4655819362426581,EUR,GBP,GBP,600674823,"2020-02-17 10:45:05","2020-02-17 10:45:05",0.0000,0.0000,0.0000,,9.3500,8.3300,,0.0000,0.0000,0.0000,0.0000,,,,,,,,,,,,,,,,RIZZO12,0.0000,0.0000,0.0000,0.0000,0.0000,0.0000,0.0000,0.0000
2186450,6,52.2600,0.0000,0.0000,0.0000,1.0000,0.0000,-5.9900,1.0000,52.2600,8.3300,49.9200,49.9200,1.0000,8.3300,2.0000,1.0000,49.9200,49.9200,-5.9900,4481375,,2241803,,,2,4481376,GBP,4745825373076234,GBP,GBP,GBP,600676562,"2020-02-24 09:43:02","2020-02-24 09:43:02",0.0000,0.0000,0.0000,,8.3300,8.3300,,0.0000,0.0000,0.0000,0.0000,,,,,,,,,,,,,,,,RIZZO12,0.0000,0.0000,0.0000,0.0000,0.0000,0.0000,0.0000,0.0000
