"Invoice Entity ID","Order number","Invoice Number","Invoice date","GBP Net goods after discount","GBP VAT on Goods","GBP Gross goods after discount",country_id,"Store Credit Used",store_name
2231153,2400665954,2400665378,2020-04-01,54.0400,13.51,67.5500,DK,0.0000,"Start Group
Start Group
Amazon"
2231580,600719174,600685583,2020-04-01,17.3300,3.47,20.8000,DK,0.0000,"Start Fitness
Fitness
SF English"
2232247,600719273,600685671,2020-04-01,49.1700,9.83,59.0000,DK,0.0000,"Start Fitness
Fitness
SF English"
2233171,600719427,600685820,2020-04-02,62.5000,12.50,75.0000,DK,0.0000,"Start Fitness
Fitness
SF English"
2233270,600719451,600685845,2020-04-02,193.3500,38.67,232.0200,DK,0.0000,"Start Fitness
Fitness
SF English"
2233766,600719530,600685917,2020-04-02,90.8300,18.17,109.0000,DK,0.0000,"Start Fitness
Fitness
SF English"
2235898,600719859,600686218,2020-04-03,352.2000,70.44,422.6400,DK,0.0000,"Start Fitness
Fitness
SF English"
2236101,600719888,600686246,2020-04-03,151.5000,30.30,181.8000,DK,0.0000,"Start Fitness
Fitness
SF English"
2236287,2500311175,2500310339,2020-04-03,23.2400,4.65,27.8900,DK,0.0000,"Start Group
Start Group
eBay"
2237062,600719990,600686339,2020-04-04,45.0000,9.00,54.0000,DK,0.0000,"Start Fitness
Fitness
SF English"
2237916,1900273011,1900246276,2020-04-04,129.9000,20.00,149.9000,DK,0.0000,"Start Fitness
Fitness
Fitness Mobile"
2238162,600720150,600686490,2020-04-04,82.5000,16.50,99.0000,DK,0.0000,"Start Fitness
Fitness
SF English"
2238175,2500311930,2500311093,2020-04-04,7.6700,1.53,9.2000,DK,0.0000,"Start Group
Start Group
eBay"
2238675,1900273128,1900246385,2020-04-04,49.9200,9.98,59.9000,DK,0.0000,"Start Fitness
Fitness
Fitness Mobile"
2238786,2500312164,2500311327,2020-04-04,19.1400,3.83,22.9700,DK,0.0000,"Start Group
Start Group
eBay"
2240548,1900273446,1900246654,2020-04-05,54.1700,10.83,65.0000,DK,0.0000,"Start Fitness
Fitness
Fitness Mobile"
2241509,600720534,600686844,2020-04-05,56.2500,11.25,67.5000,DK,0.0000,"Start Fitness
Fitness
SF English"
2242299,600720607,600686912,2020-04-06,128.2500,25.65,153.9000,DK,0.0000,"Start Fitness
Fitness
SF English"
2242692,600720690,600686989,2020-04-06,57.5000,11.50,69.0000,DK,0.0000,"Start Fitness
Fitness
SF English"
2243497,600720864,600687146,2020-04-06,146.7700,29.36,176.1300,DK,0.0000,"Start Fitness
Fitness
SF English"
2244435,600721036,600687299,2020-04-07,411.7600,82.35,494.1100,DK,0.0000,"Start Fitness
Fitness
SF English"
2244614,2500314444,2500313600,2020-04-07,51.6600,10.33,61.9900,DK,0.0000,"Start Group
Start Group
eBay"
2244929,600721147,600687403,2020-04-07,26.2500,5.25,31.5000,DK,0.0000,"Start Fitness
Fitness
SF English"
2245584,2500314789,2500313945,2020-04-07,13.3200,2.67,15.9900,DK,0.0000,"Start Group
Start Group
eBay"
2246568,2500315142,2500314297,2020-04-08,25.2100,5.04,30.2500,DK,0.0000,"Start Group
Start Group
eBay"
2246577,1900274418,1900247493,2020-04-08,22.8200,4.57,27.3900,DK,0.0000,"Start Fitness
Fitness
Fitness Mobile"
2248085,1900274702,1900247744,2020-04-08,153.1700,30.63,183.8000,DK,0.0000,"Start Fitness
Fitness
Fitness Mobile"
2248662,600721881,600688065,2020-04-09,59.1000,11.82,70.9200,DK,0.0000,"Start Fitness
Fitness
SF English"
2249056,600721977,600688154,2020-04-09,90.0000,18.00,108.0000,DK,0.0000,"Start Fitness
Fitness
SF English"
2249167,600722005,600688181,2020-04-09,0.0000,0.00,0.0000,DK,0.0000,"Start Fitness
Fitness
SF English"
2249221,1900274887,1900247921,2020-04-09,131.9200,26.38,158.3000,DK,0.0000,"Start Fitness
Fitness
Fitness Mobile"
2249329,2500316033,2500315188,2020-04-09,116.0500,23.21,139.2600,DK,0.0000,"Start Group
Start Group
eBay"
2249561,1900274968,1900247974,2020-04-09,56.2500,11.25,67.5000,DK,0.0000,"Start Fitness
Fitness
Fitness Mobile"
2249961,2500316242,2500315397,2020-04-09,12.7900,2.56,15.3500,DK,0.0000,"Start Group
Start Group
eBay"
2250190,2500316326,2500315481,2020-04-09,26.6300,5.33,31.9600,DK,0.0000,"Start Group
Start Group
eBay"
2251250,600722398,600688534,2020-04-10,41.6700,8.33,50.0000,DK,0.0000,"Start Fitness
Fitness
SF English"
2251792,600722512,600688638,2020-04-10,9.0100,1.80,10.8100,DK,0.0000,"Start Fitness
Fitness
SF English"
2253036,2500317233,2500316388,2020-04-11,8.2800,1.66,9.9400,DK,0.0000,"Start Group
Start Group
eBay"
2253098,600722688,600688787,2020-04-11,108.2500,21.65,129.9000,DK,0.0000,"Start Fitness
Fitness
SF English"
2253491,2400672771,2400672187,2020-04-11,35.7900,8.95,44.7400,DK,0.0000,"Start Group
Start Group
Amazon"
2254015,2400672940,2400672356,2020-04-11,45.7900,11.45,57.2400,DK,0.0000,"Start Group
Start Group
Amazon"
2254184,600722884,600688966,2020-04-11,39.7500,7.95,47.7000,DK,0.0000,"Start Fitness
Fitness
SF English"
2255065,2700004192,2700003905,2020-04-11,32.5000,6.50,39.0000,DK,0.0000,"More Mile
More Mile
More Mile Mobile"
2256078,600723211,600689276,2020-04-12,16.6700,3.33,20.0000,DK,0.0000,"Start Fitness
Fitness
SF English"
2256524,600723297,600689357,2020-04-12,49.1700,9.83,59.0000,DK,0.0000,"Start Fitness
Fitness
SF English"
2256692,2400673811,2400673227,2020-04-12,10.7900,2.70,13.4900,DK,0.0000,"Start Group
Start Group
Amazon"
2256868,2400673868,2400673284,2020-04-12,13.2900,3.32,16.6100,DK,0.0000,"Start Group
Start Group
Amazon"
2258555,600723657,600689682,2020-04-13,65.9200,13.19,79.1100,DK,0.0000,"Start Fitness
Fitness
SF English"
2258702,600723686,600689715,2020-04-13,108.2500,21.65,129.9000,DK,0.0000,"Start Fitness
Fitness
SF English"
2258844,2500319045,2500318194,2020-04-13,19.8200,3.96,23.7800,DK,0.0000,"Start Group
Start Group
eBay"
2259328,2500319189,2500318338,2020-04-13,119.9300,23.99,143.9200,DK,0.0000,"Start Group
Start Group
eBay"
2259645,600723882,600689894,2020-04-13,107.8500,21.57,129.4200,DK,0.0000,"Start Fitness
Fitness
SF English"
2259922,1900277017,1900249792,2020-04-13,49.9200,9.98,59.9000,DK,0.0000,"Start Fitness
Fitness
Fitness Mobile"
2261070,600724177,600690168,2020-04-14,99.1700,19.83,119.0000,DK,0.0000,"Start Fitness
Fitness
SF English"
2262761,600724489,600690454,2020-04-15,112.1200,22.43,134.5500,DK,0.0000,"Start Fitness
Fitness
SF English"
2264198,600724842,600690768,2020-04-15,20.8300,4.17,25.0000,DK,0.0000,"Start Fitness
Fitness
SF English"
2264930,2400676423,2400675838,2020-04-15,69.9600,17.49,87.4500,DK,0.0000,"Start Group
Start Group
Amazon"
2265080,1900278037,1900250680,2020-04-16,1249.1700,249.83,1499.0000,DK,0.0000,"Start Fitness
Fitness
Fitness Mobile"
2265219,600724995,600690910,2020-04-16,99.9200,19.98,119.9000,DK,0.0000,"Start Fitness
Fitness
SF English"
2265261,600725015,600690923,2020-04-16,79.1700,15.83,95.0000,DK,0.0000,"Start Fitness
Fitness
SF English"
2265330,2500321064,2500320212,2020-04-16,68.3200,13.67,81.9900,DK,0.0000,"Start Group
Start Group
eBay"
2266640,2400676864,2400676279,2020-04-16,24.9600,6.24,31.2000,DK,0.0000,"Start Group
Start Group
Amazon"
2268022,2500321808,2500320955,2020-04-17,22.8200,4.57,27.3900,DK,0.0000,"Start Group
Start Group
eBay"
2268157,2400677324,2400676739,2020-04-17,23.2900,5.82,29.1100,DK,0.0000,"Start Group
Start Group
Amazon"
2268285,600725813,600691649,2020-04-17,122.8500,24.57,147.4200,DK,0.0000,"Start Fitness
Fitness
SF English"
2268708,600725929,600691753,2020-04-17,58.2500,11.65,69.9000,DK,0.0000,"Start Fitness
Fitness
SF English"
2269170,2500322092,2500321239,2020-04-18,22.8200,4.57,27.3900,DK,0.0000,"Start Group
Start Group
eBay"
2269178,2500322093,2500321240,2020-04-18,22.7900,4.56,27.3500,DK,0.0000,"Start Group
Start Group
eBay"
2269339,1900278977,1900251500,2020-04-18,80.9300,16.18,97.1100,DK,0.0000,"Start Fitness
Fitness
Fitness Mobile"
2269853,600726128,600691934,2020-04-18,20.8300,4.17,25.0000,DK,0.0000,"Start Fitness
Fitness
SF English"
2272873,600726772,600692515,2020-04-19,199.8300,39.97,239.8000,DK,0.0000,"Start Fitness
Fitness
SF English"
2274585,2500323481,2500322628,2020-04-20,11.1200,2.23,13.3500,DK,0.0000,"Start Group
Start Group
eBay"
2274779,2500323529,2500322676,2020-04-20,49.1600,9.83,58.9900,DK,0.0000,"Start Group
Start Group
eBay"
2274783,2500323533,2500322680,2020-04-20,102.4900,20.50,122.9900,DK,0.0000,"Start Group
Start Group
eBay"
2274992,600727267,600692966,2020-04-20,54.1700,10.83,65.0000,DK,0.0000,"Start Fitness
Fitness
SF English"
2276677,1900280614,1900252932,2020-04-21,83.2500,16.65,99.9000,DK,0.0000,"Start Fitness
Fitness
Fitness Mobile"
2276857,600727657,600693329,2020-04-21,43.3300,8.67,52.0000,DK,0.0000,"Start Fitness
Fitness
SF English"
2279105,1900281150,1900253394,2020-04-22,54.1700,10.83,65.0000,DK,0.0000,"Start Fitness
Fitness
Fitness Mobile"
2279669,2400680957,2400680369,2020-04-22,9.9100,2.48,12.3900,DK,0.0000,"Start Group
Start Group
Amazon"
2282869,600729078,600694641,2020-04-24,26.6700,5.33,32.0000,DK,0.0000,"Start Fitness
Fitness
SF English"
2282984,1900282111,1900254218,2020-04-24,70.0000,14.00,84.0000,DK,0.0000,"Start Fitness
Fitness
Fitness Mobile"
2283443,600729215,600694772,2020-04-24,76.0500,15.21,91.2600,DK,0.0000,"Start Fitness
Fitness
SF English"
2284855,2400682323,2400681735,2020-04-24,58.3200,14.58,72.9000,DK,0.0000,"Start Group
Start Group
Amazon"
2286288,1900282888,1900254910,2020-04-25,81.5200,16.31,97.8300,DK,0.0000,"Start Fitness
Fitness
Fitness Mobile"
2286362,2500326675,2500325819,2020-04-25,24.9200,4.98,29.9000,DK,0.0000,"Start Group
Start Group
eBay"
2287581,600730077,600695554,2020-04-26,104.8300,20.97,125.8000,DK,0.0000,"Start Fitness
Fitness
SF English"
2289498,600730483,600695925,2020-04-26,117.6000,23.52,141.1200,DK,0.0000,"Start Fitness
Fitness
SF English"
2292766,600731296,600696665,2020-04-28,62.5000,12.50,75.0000,DK,0.0000,"Start Fitness
Fitness
SF English"
2293976,600731706,600697039,2020-04-28,52.5000,10.50,63.0000,DK,0.0000,"Start Fitness
Fitness
SF English"
2294894,2500329162,2500328303,2020-04-28,16.6600,3.33,19.9900,DK,0.0000,"Start Group
Start Group
eBay"
2296062,2400685384,2400684794,2020-04-29,29.8700,5.97,35.8400,DK,0.0000,"Start Group
Start Group
Amazon"
2296816,600732374,600697658,2020-04-29,90.8300,18.17,109.0000,DK,0.0000,"Start Fitness
Fitness
SF English"
2298960,2500330264,2500329405,2020-04-30,18.3200,3.67,21.9900,DK,0.0000,"Start Group
Start Group
eBay"
2299089,2500330307,2500329448,2020-04-30,16.6600,3.33,19.9900,DK,0.0000,"Start Group
Start Group
eBay"
2299105,2500330312,2500329453,2020-04-30,23.3000,4.66,27.9600,DK,0.0000,"Start Group
Start Group
eBay"
2299107,2500330313,2500329454,2020-04-30,29.9700,5.99,35.9600,DK,0.0000,"Start Group
Start Group
eBay"
2299120,2500330314,2500329455,2020-04-30,14.1600,2.83,16.9900,DK,0.0000,"Start Group
Start Group
eBay"
2299343,600732959,600698198,2020-04-30,9.1700,1.83,11.0000,DK,0.0000,"Start Fitness
Fitness
SF English"
