entity_id,store_id,base_grand_total,shipping_tax_amount,tax_amount,base_tax_amount,store_to_order_rate,base_shipping_tax_amount,base_discount_amount,base_to_order_rate,grand_total,shipping_amount,subtotal_incl_tax,base_subtotal_incl_tax,store_to_base_rate,base_shipping_amount,total_qty,base_to_global_rate,subtotal,base_subtotal,discount_amount,billing_address_id,is_used_for_refund,order_id,email_sent,can_void_flag,state,shipping_address_id,store_currency_code,transaction_id,order_currency_code,base_currency_code,global_currency_code,increment_id,created_at,updated_at,hidden_tax_amount,base_hidden_tax_amount,shipping_hidden_tax_amount,base_shipping_hidden_tax_amnt,shipping_incl_tax,base_shipping_incl_tax,base_total_refunded,base_customer_balance_amount,customer_balance_amount,base_gift_cards_amount,gift_cards_amount,gw_base_price,gw_price,gw_items_base_price,gw_items_price,gw_card_base_price,gw_card_price,gw_base_tax_amount,gw_tax_amount,gw_items_base_tax_amount,gw_items_tax_amount,gw_card_base_tax_amount,gw_card_tax_amount,base_reward_currency_amount,reward_currency_amount,reward_points_balance,discount_description,payment_fee_amount,base_payment_fee_amount,payment_installment_fee_amount,base_payment_installment_fee_amount,payment_fee_tax,base_payment_fee_tax,payment_percentage_fee,base_payment_percentage_fee
2194261,6,81.5900,0.0000,0.0000,0.0000,1.0000,0.0000,-9.9900,1.0000,81.5900,8.3300,83.2500,83.2500,1.0000,8.3300,2.0000,1.0000,83.2500,83.2500,-9.9900,4497805,,2250034,,,2,4497806,GBP,4555831409200631,GBP,GBP,GBP,600678265,"2020-03-02 09:23:03","2020-03-02 09:23:03",0.0000,0.0000,0.0000,,8.3300,8.3300,,0.0000,0.0000,0.0000,0.0000,,,,,,,,,,,,,,,,RIZZO12,0.0000,0.0000,0.0000,0.0000,0.0000,0.0000,0.0000,0.0000
2197734,6,52.2600,0.0000,0.0000,0.0000,1.0000,0.0000,-5.9900,1.0000,52.2600,8.3300,49.9200,49.9200,1.0000,8.3300,2.0000,1.0000,49.9200,49.9200,-5.9900,4505066,,2253670,,,2,4505067,GBP,4355833934092055,GBP,GBP,GBP,600679073,"2020-03-05 07:32:02","2020-03-05 07:32:02",0.0000,0.0000,0.0000,,8.3300,8.3300,,0.0000,0.0000,0.0000,0.0000,,,,,,,,,,,,,,,,RIZZO12,0.0000,0.0000,0.0000,0.0000,0.0000,0.0000,0.0000,0.0000
2199106,6,66.2600,0.0000,0.0000,0.0000,1.0000,0.0000,-7.9000,1.0000,66.2600,8.3300,65.8300,65.8300,1.0000,8.3300,2.0000,1.0000,65.8300,65.8300,-7.9000,4507922,,2255099,,,2,4507923,GBP,4725834954456918,GBP,GBP,GBP,600679379,"2020-03-06 11:52:05","2020-03-06 11:52:05",0.0000,0.0000,0.0000,,8.3300,8.3300,,0.0000,0.0000,0.0000,0.0000,,,,,,,,,,,,,,,,RIZZO12,0.0000,0.0000,0.0000,0.0000,0.0000,0.0000,0.0000,0.0000
