item_id,order_item_id,"Invoice ID","Order Number","Customer name",customer_email,"Invoice No","Invoice Date",country_id,base_row_total_incl_tax,store_name,name,base_discount_amount,"Value less discount",tax_percent,"Net Discounted Amount","Return Date",month_year,value,product_id,customer_group_id,"net based on catalog vat","New tax"
7475265,7475265,2685419,6000891545,,unorichyhill@hotmail.com,6000661896,"2020-12-06 23:16:08",CZ,30.0000,"Start Fitness
Fitness
SF English","More Mile Cheviot Pace Mens Trail Running Shoes - Blue",3.0000,27.0000,20.0000,22.50000000,122020,122020,2,242513,0,22.50,22.5000
7475267,7475267,2685419,6000891545,,unorichyhill@hotmail.com,6000661896,"2020-12-06 23:16:08",CZ,30.0000,"Start Fitness
Fitness
SF English","More Mile Cheviot Pace Womens Trail Running Shoes - Purple",3.0000,27.0000,20.0000,22.50000000,122020,122020,2,242175,0,22.50,22.5000
7475269,7475269,2685419,6000891545,,unorichyhill@hotmail.com,6000661896,"2020-12-06 23:16:08",CZ,35.0000,"Start Fitness
Fitness
SF English","Ronhill Stride Windspeed Womens Running Jacket - Black",,35.0000,20.0000,29.16666667,122020,122020,2,387906,0,29.17,29.1700
7475271,7475271,2685419,6000891545,,unorichyhill@hotmail.com,6000661896,"2020-12-06 23:16:08",CZ,2.9500,"Start Fitness
Fitness
SF English","More Mile California Long Compression Socks - Black",0.3000,2.6500,20.0000,2.20833333,122020,122020,2,186891,0,2.21,2.2100
7475273,7475273,2685419,6000891545,,unorichyhill@hotmail.com,6000661896,"2020-12-06 23:16:08",CZ,5.0000,"Start Fitness
Fitness
SF English","More Mile Stromstad Sport (5 Pack) Socks - Black",0.5000,4.5000,20.0000,3.75000000,122020,122020,2,143710,0,3.75,3.7500
7475275,7475275,2685419,6000891545,,unorichyhill@hotmail.com,6000661896,"2020-12-06 23:16:08",CZ,10.0000,"Start Fitness
Fitness
SF English","More Mile Cheviot (5 Pack) Trail Running Socks - Multi",5.0000,5.0000,20.0000,4.16666667,122020,122020,2,163815,0,4.17,4.1700
7475277,7475277,2685419,6000891545,,unorichyhill@hotmail.com,6000661896,"2020-12-06 23:16:08",CZ,10.0000,"Start Fitness
Fitness
SF English","Under Armour Patterson Backpack - Grey",,10.0000,20.0000,8.33333333,122020,122020,2,349932,0,8.33,8.3300
7475278,7475278,2685419,6000891545,,unorichyhill@hotmail.com,6000661896,"2020-12-06 23:16:08",CZ,10.0000,"Start Fitness
Fitness
SF English","More Mile London (5 Pack) Womens Running Socks",1.0000,9.0000,20.0000,7.50000000,122020,122020,2,149003,0,7.50,7.5000
7493905,7493905,2692760,6000895622,,ZDENEKSPOT@YAHOO.COM,6000665773,"2020-12-09 22:51:57",CZ,17.3800,"Start Fitness
Fitness
SF English","Under Armour Tech Big Logo Short Sleeve Girls Junior Running Top - Blue",1.7400,15.6400,0.0000,15.64000000,122020,122020,5,359304,0,15.64,15.6400
7515267,7515267,2701676,6000900653,"Radek Cichra",radek.cichra@gmail.com,6000670513,"2020-12-13 21:11:02",CZ,12.9000,"Start Fitness
Fitness
SF English","More Mile Train To Run Mens Long Sleeve Half Zip Running Top - Grey",1.2900,11.6100,20.0000,9.67500000,122020,122020,2,226687,1,9.68,9.6800
7515269,7515269,2701676,6000900653,"Radek Cichra",radek.cichra@gmail.com,6000670513,"2020-12-13 21:11:02",CZ,10.0000,"Start Fitness
Fitness
SF English","More Mile More-Tech Half-Zip Mens Running Hoody - Black",1.0000,9.0000,20.0000,7.50000000,122020,122020,2,107988,1,7.50,7.5000
7515271,7515271,2701676,6000900653,"Radek Cichra",radek.cichra@gmail.com,6000670513,"2020-12-13 21:11:02",CZ,10.0000,"Start Fitness
Fitness
SF English","More Mile Bamboo Comfort (5 Pack) Running Socks",1.0000,9.0000,20.0000,7.50000000,122020,122020,2,383873,1,7.50,7.5000
7515273,7515273,2701676,6000900653,"Radek Cichra",radek.cichra@gmail.com,6000670513,"2020-12-13 21:11:02",CZ,10.0000,"Start Fitness
Fitness
SF English","More Mile Endurance (5 Pack) Womens Running Socks - Multi",5.0000,5.0000,20.0000,4.16666667,122020,122020,2,211868,1,4.17,4.1700
7443401,7443401,2672361,EBY24000578025,"M2E Orders",m2eorders@startfitness.co.uk,24000577385,"2020-12-01 12:51:29",CZ,89.9000,"Start Group
Start Group
eBay","Salomon Halo Mens Down Jacket - Black",,89.9000,20.0000,74.91666667,122020,122020,2,232670,1,74.92,74.9200
7515275,7515275,2701676,6000900653,"Radek Cichra",radek.cichra@gmail.com,6000670513,"2020-12-13 21:11:02",CZ,4.0000,"Start Fitness
Fitness
SF English","More Mile Stromstad Sport (5 Pack) Socks - White",0.4000,3.6000,20.0000,3.00000000,122020,122020,2,143705,1,3.00,3.0000
7448501,7448501,2674308,24000568708,"M2E Orders",m2eorders@startfitness.co.uk,24000567413,"2020-12-02 10:24:05",CZ,39.7600,"Start Group
Start Group
Amazon USA","Reebok Crossfit Surfing Bear Short Sleeve Mens Training Top - Black-M",,39.7600,20.0000,33.13333333,122020,122020,2,355524,1,33.13,33.1300
7515277,7515277,2701676,6000900653,"Radek Cichra",radek.cichra@gmail.com,6000670513,"2020-12-13 21:11:02",CZ,12.0000,"Start Fitness
Fitness
SF English","Under Armour Twisted Renegade Running Cap - Pink",1.2000,10.8000,20.0000,9.00000000,122020,122020,2,365164,1,9.00,9.0000
7451719,7451719,2675683,AMZ24000583483,"M2E Orders",m2eorders@startfitness.co.uk,24000582440,"2020-12-02 21:51:20",CZ,77.4000,"Start Group
Start Group
Amazon","Merrell Moab 2 Ventilator Mens Walking Shoes - Grey-12.5",,77.4000,20.0000,64.50000000,122020,122020,2,331757,1,64.50,64.5000
7515734,7515734,2701826,AMZ24000586404,"M2E Orders",m2eorders@startfitness.co.uk,24000585361,"2020-12-13 21:54:21",CZ,63.8500,"Start Group
Start Group
Amazon","Muc-Off Dirt Bucket With Filth Filter",,63.8500,19.9962,53.21001832,122020,122020,2,363491,1,53.21,53.2100
7456798,7456798,2677845,6000887490,"Pavlína Maxová",pavlinamaxova@seznam.cz,6000658038,"2020-12-03 22:19:13",CZ,162.3800,"Start Fitness
Fitness
SF English","Garmin Varia RTL515 Radar Tail Light",,162.3800,20.0000,135.31666667,122020,122020,2,371960,1,135.32,135.3200
7522840,7522840,2704725,EBY24000582680,"M2E Orders",03b8135da0f222f82889@members.ebay.com,24000582034,"2020-12-15 08:01:04",CZ,59.0000,"Start Group
Start Group
eBay","Under Armour Speedform Gemini 3 Womens Running Shoes - Black",,59.0000,20.0000,49.16666667,122020,122020,2,209587,1,49.17,49.1700
7456799,7456799,2677845,6000887490,"Pavlína Maxová",pavlinamaxova@seznam.cz,6000658038,"2020-12-03 22:19:13",CZ,18.7500,"Start Fitness
Fitness
SF English","Scott Trail Vertic (With Pad) Womens Cycling Shorts - Green",,18.7500,20.0000,15.62500000,122020,122020,2,362201,1,15.63,15.6300
7523668,7523668,2705038,AMZ24000587426,"M2E Orders",m2eorders@startfitness.co.uk,24000586383,"2020-12-15 11:03:05",CZ,109.5200,"Start Group
Start Group
Amazon","Five Ten Freerider Womens MTB Cycling Shoes - Grey-9",,109.5200,19.9956,91.27001323,122020,122020,2,318751,1,91.27,91.2700
7456801,7456801,2677845,6000887490,"Pavlína Maxová",pavlinamaxova@seznam.cz,6000658038,"2020-12-03 22:19:13",CZ,8.7500,"Start Fitness
Fitness
SF English","Scott Trail MTN DRI 70 Short Sleeve Womens Cycling Jersey - Green",,8.7500,20.0000,7.29166667,122020,122020,2,362085,1,7.29,7.2900
7532393,7532393,2708579,6000904641,"Jan Havranek",Jhavran1@gmail.com,6000674294,"2020-12-17 09:28:54",CZ,99.9000,"Start Fitness
Fitness
SF English","Inov8 TrailTalon 290 Mens Trail Running Shoes - Blue",9.9900,89.9100,20.0000,74.92500000,122020,122020,2,349017,1,74.93,74.9300
7456803,7456803,2677845,6000887490,"Pavlína Maxová",pavlinamaxova@seznam.cz,6000658038,"2020-12-03 22:19:13",CZ,24.8800,"Start Fitness
Fitness
SF English","Scott Endurance 10 +++ Womens Cycling Tights - Black",,24.8800,20.0000,20.73333333,122020,122020,2,361562,1,20.73,20.7300
7532395,7532395,2708579,6000904641,"Jan Havranek",Jhavran1@gmail.com,6000674294,"2020-12-17 09:28:54",CZ,10.0000,"Start Fitness
Fitness
SF English","More Mile Slim Fit Boys Training Pants - Black",1.0000,9.0000,0.0000,9.00000000,122020,122020,5,297839,1,9.00,9.0000
7472540,7472540,2684247,6000890930,"Vojtech Palek",info@vojtapalek.com,6000661309,"2020-12-06 18:02:21",CZ,99.0000,"Start Fitness
Fitness
SF English","Asics GT 2000 8 Mens Running Shoes - Red",,99.0000,20.0000,82.50000000,122020,122020,2,374916,1,82.50,82.5000
7532397,7532397,2708579,6000904641,"Jan Havranek",Jhavran1@gmail.com,6000674294,"2020-12-17 09:28:54",CZ,12.0000,"Start Fitness
Fitness
SF English","Salming Speed Junior Running Shoes - Orange",1.2000,10.8000,0.0000,10.80000000,122020,122020,5,365977,1,10.80,10.8000
7532399,7532399,2708579,6000904641,"Jan Havranek",Jhavran1@gmail.com,6000674294,"2020-12-17 09:28:54",CZ,3.0000,"Start Fitness
Fitness
SF English","Craft Pro Cool Long Sleeve Junior Running Top - Black",0.3000,2.7000,0.0000,2.70000000,122020,122020,5,329103,1,2.70,2.7000
7532401,7532401,2708579,6000904641,"Jan Havranek",Jhavran1@gmail.com,6000674294,"2020-12-17 09:28:54",CZ,7.0000,"Start Fitness
Fitness
SF English","Gilbert Vapour Junior Training Hoody - Blue ",0.7000,6.3000,0.0000,6.30000000,122020,122020,5,366394,1,6.30,6.3000
7532403,7532403,2708579,6000904641,"Jan Havranek",Jhavran1@gmail.com,6000674294,"2020-12-17 09:28:54",CZ,6.9000,"Start Fitness
Fitness
SF English","Madison Sportive Short Sleeve Junior Cycling Jersey - Black",0.6900,6.2100,0.0000,6.21000000,122020,122020,5,363188,1,6.21,6.2100
7532405,7532405,2708579,6000904641,"Jan Havranek",Jhavran1@gmail.com,6000674294,"2020-12-17 09:28:54",CZ,3.0000,"Start Fitness
Fitness
SF English","Craft Pro Cool Long Sleeve Junior Running Top - Red",0.3000,2.7000,0.0000,2.70000000,122020,122020,5,329091,1,2.70,2.7000
7532407,7532407,2708579,6000904641,"Jan Havranek",Jhavran1@gmail.com,6000674294,"2020-12-17 09:28:54",CZ,12.0000,"Start Fitness
Fitness
SF English","Kappa 4 Training Womens Wind Jacket - Grey",1.2000,10.8000,20.0000,9.00000000,122020,122020,2,387805,1,9.00,9.0000
7575826,7575826,2723778,EBY24000585119,"M2E Orders",m2eorders@startfitness.co.uk,24000584464,"2020-12-28 22:49:06",CZ,129.9500,"Start Group
Start Group
eBay","Brand-X Ascend Dropper Seatpost 170mm - Black",,129.9500,20.0000,108.29166667,122020,122020,2,360723,1,108.29,108.2900
7482915,7482915,2688450,6000893233,"Vladimir Janous",vlada.janous@post.cz,6000663481,"2020-12-08 09:42:35",CZ,20.0000,"Start Fitness
Fitness
SF English","Salming Ultralite 2.0 Womens Running Jacket - Pink",,20.0000,20.0000,16.66666667,122020,122020,2,365782,1,16.67,16.6700
7487836,7487836,2690493,6000894403,"David Kucera",dave.kucera@post.cz,6000664593,"2020-12-08 22:46:44",CZ,30.0000,"Start Fitness
Fitness
SF English","Under Armour Sportstyle Roll Top Backpack - Black",,30.0000,20.0000,25.00000000,122020,122020,2,365234,1,25.00,25.0000
7487837,7487837,2690493,6000894403,"David Kucera",dave.kucera@post.cz,6000664593,"2020-12-08 22:46:44",CZ,3.0000,"Start Fitness
Fitness
SF English","MLB NY New York Yankees Gym Sack - Black",,3.0000,20.0000,2.50000000,122020,122020,2,226642,1,2.50,2.5000
7487838,7487838,2690493,6000894403,"David Kucera",dave.kucera@post.cz,6000664593,"2020-12-08 22:46:44",CZ,9.0000,"Start Fitness
Fitness
SF English","More Mile Train To Run Mens Long Sleeve Running Top - Green",,9.0000,20.0000,7.50000000,122020,122020,2,237926,1,7.50,7.5000
7515255,7515255,2701676,6000900653,"Radek Cichra",radek.cichra@gmail.com,6000670513,"2020-12-13 21:11:02",CZ,79.0000,"Start Fitness
Fitness
SF English","Saucony Triumph ISO 5 Mens Running Shoes - Green",7.9000,71.1000,20.0000,59.25000000,122020,122020,2,330781,1,59.25,59.2500
7515257,7515257,2701676,6000900653,"Radek Cichra",radek.cichra@gmail.com,6000670513,"2020-12-13 21:11:02",CZ,93.9000,"Start Fitness
Fitness
SF English","Hoka Rincon 2 Womens Running Shoes - Blue",9.3900,84.5100,20.0000,70.42500000,122020,122020,2,376804,1,70.43,70.4300
7515259,7515259,2701676,6000900653,"Radek Cichra",radek.cichra@gmail.com,6000670513,"2020-12-13 21:11:02",CZ,40.0000,"Start Fitness
Fitness
SF English","Under Armour SpeedForm Gemini Vent Womens Running Shoes - Blue",4.0000,36.0000,20.0000,30.00000000,122020,122020,2,247494,1,30.00,30.0000
7515261,7515261,2701676,6000900653,"Radek Cichra",radek.cichra@gmail.com,6000670513,"2020-12-13 21:11:02",CZ,5.0000,"Start Fitness
Fitness
SF English","TCA Pro Performance Womens Short Sleeve Baselayer Running Top - Pink",0.5000,4.5000,20.0000,3.75000000,122020,122020,2,245882,1,3.75,3.7500
7515263,7515263,2701676,6000900653,"Radek Cichra",radek.cichra@gmail.com,6000670513,"2020-12-13 21:11:02",CZ,10.0000,"Start Fitness
Fitness
SF English","Sub Sports Dual 2.0 Womens Compression Running Tights - Black",1.0000,9.0000,20.0000,7.50000000,122020,122020,2,387665,1,7.50,7.5000
7515265,7515265,2701676,6000900653,"Radek Cichra",radek.cichra@gmail.com,6000670513,"2020-12-13 21:11:02",CZ,10.0000,"Start Fitness
Fitness
SF English","More Mile More-Tech Womens Running Tights - Black",1.0000,9.0000,20.0000,7.50000000,122020,122020,2,87569,1,7.50,7.5000
7497140,7497140,2694086,6000896368,"Jan Simek",jindra@hosana.cz,6000666474,"2020-12-10 16:19:25",CZ,81.6600,"Start Fitness
Fitness
SF English","Saucony Showdown 4 Womens Running Spikes - Green",8.1700,73.4900,0.0000,73.49000000,122020,122020,2,367030,4,61.24,73.4900
