"Invoice Entity ID","Order number","Invoice Number","Invoice date","GBP Net goods after discount","GBP VAT on Goods","GBP Gross goods after discount",country_id,"Store Credit Used",store_name
2528170,6000852118,6000624372,2020-09-18,74.9200,14.9800,89.9000,FR,,"Start Fitness
Fitness
SF English"
2528235,6000852195,6000624437,2020-09-30,1.1200,0.2300,1.3500,FR,,"Start Fitness
Fitness
SF English"
