item_id,order_item_id,"Invoice ID","Order Number","Customer name",customer_email,"Invoice No","Invoice Date",country_id,base_row_total_incl_tax,store_name,name,base_discount_amount,"Value less discount",tax_percent,"Net Discounted Amount","Return Date",month_year,value,product_id,customer_group_id,"net based on catalog vat","New tax"
7481043,7481043,2687744,6000892889,"cecilia wallenius",wallenius.cecilia@gmail.com,6000663161,"2020-12-07 21:43:32",SE,10.4200,"Start Fitness
Fitness
SF English","More Mile Marl Full Zip Womens Training Hoody - Grey",,10.4200,25.0000,8.33600000,122020,122020,2,98115,0,8.68,8.6800
7484315,7484315,2689004,6000893542,"Caroline Vestervall",caroline.vestervall@outlook.com,6000663783,"2020-12-08 13:46:41",SE,82.2900,"Start Fitness
Fitness
SF English","Saucony Triumph ISO 5 Mens Running Shoes - Green",,82.2900,25.0000,65.83200000,122020,122020,2,330781,0,68.58,68.5800
7510946,7510946,2699920,6000899675,"Katarina Segerkvist",katarina@segerkvist.se,6000669567,"2020-12-13 11:30:27",SE,20.8400,"Start Fitness
Fitness
SF English","More Mile Cheviot (5 Pack) Trail Running Socks - Multi",1.0400,19.8000,25.0000,15.84000000,122020,122020,2,163815,0,16.50,16.5000
7578376,7578376,2724662,6000915715,"ola lagström",ola.lagstrom@sodra.com,6000684798,"2020-12-29 14:39:06",SE,104.0600,"Start Fitness
Fitness
SF English","Saucony Peregrine 10 GTX Mens Trail Running Shoes - Black",,104.0600,25.0000,83.24800000,122020,122020,2,380863,0,86.72,86.7200
7474140,7474140,2684936,6000891306,"Thomas Olsson",thomas.68@telia.com,6000661655,"2020-12-06 20:57:50",SE,23.3600,"Start Fitness
Fitness
SF English","Salming Quest Mens Running Shoes - Black",2.3400,21.0200,25.0000,16.81600000,122020,122020,2,365837,0,17.52,17.5200
7510948,7510948,2699920,6000899675,"Katarina Segerkvist",katarina@segerkvist.se,6000669567,"2020-12-13 11:30:27",SE,20.8400,"Start Fitness
Fitness
SF English","More Mile New York Cushioned Running Socks (5 Pack) - Multi",1.0400,19.8000,25.0000,15.84000000,122020,122020,2,373445,0,16.50,16.5000
7579846,7579846,2725123,6000916086,"Par-Owe Stridkvist",stridqvist@yahoo.se,6000685130,"2020-12-29 18:00:52",SE,135.4200,"Start Fitness
Fitness
SF English","Scott Road RC SL Mens Cycling Shoes - White",,135.4200,25.0000,108.33600000,122020,122020,2,376993,0,112.85,112.8500
7448616,7448616,2674345,6000885727,"Juha Kangas",mail@juhakangas.se,6000656348,"2020-12-02 10:47:30",SE,1769.7900,"Start Fitness
Fitness
SF English","Cannondale Quick Neo 2 SL Mens Electric Hybrid Bike 2020 - Grey",,1769.7900,25.0000,1415.83200000,122020,122020,2,361111,0,1474.83,1474.8300
7495262,7495262,2693327,6000895887,,marlenehedlund77@hotmail.com,6000666041,"2020-12-10 10:29:14",SE,82.2900,"Start Fitness
Fitness
SF English","Asics Gel DS Trainer 25 Mens Running Shoes - Red",4.1100,78.1800,25.0000,62.54400000,122020,122020,2,355165,0,65.15,65.1500
7474142,7474142,2684936,6000891306,"Thomas Olsson",thomas.68@telia.com,6000661655,"2020-12-06 20:57:50",SE,92.3000,"Start Fitness
Fitness
SF English","Mizuno WaveKnit R2 Mens Running Shoes - Blue",9.2300,83.0700,25.0000,66.45600000,122020,122020,2,324475,0,69.23,69.2300
7474144,7474144,2684936,6000891306,"Thomas Olsson",thomas.68@telia.com,6000661655,"2020-12-06 20:57:50",SE,17.5300,"Start Fitness
Fitness
SF English","Speedo Gala Logo Medalist Womens Swimsuit - Black",1.7500,15.7800,25.0000,12.62400000,122020,122020,2,380962,0,13.15,13.1500
7516241,7516241,2702012,6000900844,"Richard Tillblad",ricky@rickytillblad.se,6000670699,"2020-12-13 22:54:24",SE,64.1500,"Start Fitness
Fitness
SF English","Under Armour Qualifier Speedpocket Mens Long Running Tights - Black",3.2100,60.9400,25.0000,48.75200000,122020,122020,2,354318,0,50.78,50.7800
7474146,7474146,2684936,6000891306,"Thomas Olsson",thomas.68@telia.com,6000661655,"2020-12-06 20:57:50",SE,11.6900,"Start Fitness
Fitness
SF English","Speedo Monogram Womens Muscleback Swimsuit",1.1700,10.5200,25.0000,8.41600000,122020,122020,2,94322,0,8.77,8.7700
7516243,7516243,2702012,6000900844,"Richard Tillblad",ricky@rickytillblad.se,6000670699,"2020-12-13 22:54:24",SE,28.0400,"Start Fitness
Fitness
SF English","Ronhill Infinity Marathon Mens Short Running Tights - Black",1.4000,26.6400,25.0000,21.31200000,122020,122020,2,324365,0,22.20,22.2000
7474148,7474148,2684936,6000891306,"Thomas Olsson",thomas.68@telia.com,6000661655,"2020-12-06 20:57:50",SE,11.6900,"Start Fitness
Fitness
SF English","Speedo Monogram Womens Muscleback Swimsuit",1.1700,10.5200,25.0000,8.41600000,122020,122020,2,94322,0,8.77,8.7700
7516245,7516245,2702012,6000900844,"Richard Tillblad",ricky@rickytillblad.se,6000670699,"2020-12-13 22:54:24",SE,4.5500,"Start Fitness
Fitness
SF English","Madison Road Race Apex Long Cycling Socks - Black",0.2300,4.3200,25.0000,3.45600000,122020,122020,2,363705,0,3.60,3.6000
7588280,7588280,2727830,6000918035,"robert skoog",robskoog71@gmail.com,6000686990,"2020-12-31 00:26:32",SE,103.1300,"Start Fitness
Fitness
SF English","Asics GT 2000 8 Mens Running Shoes - Red",,103.1300,25.0000,82.50400000,122020,122020,2,374916,0,85.94,85.9400
7454105,7454105,2676679,6000886883,"Anneli Ekdahl",anneli4106@gmail.com,6000657452,"2020-12-03 14:00:14",SE,103.1300,"Start Fitness
Fitness
SF English","Asics GT 2000 8 Womens Running Shoes - Blue",,103.1300,25.0000,82.50400000,122020,122020,2,374084,0,85.94,85.9400
7474150,7474150,2684936,6000891306,"Thomas Olsson",thomas.68@telia.com,6000661655,"2020-12-06 20:57:50",SE,11.6900,"Start Fitness
Fitness
SF English","Mizuno Impulse Core Graphic Short Sleeve Womens Running Top - Blue",1.1700,10.5200,25.0000,8.41600000,122020,122020,2,364556,0,8.77,8.7700
7516247,7516247,2702012,6000900844,"Richard Tillblad",ricky@rickytillblad.se,6000670699,"2020-12-13 22:54:24",SE,5.2600,"Start Fitness
Fitness
SF English","Madison Road Race Apex Long Cycling Socks - Black",0.2600,5.0000,25.0000,4.00000000,122020,122020,2,363701,0,4.17,4.1700
7454107,7454107,2676679,6000886883,"Anneli Ekdahl",anneli4106@gmail.com,6000657452,"2020-12-03 14:00:14",SE,10.4200,"Start Fitness
Fitness
SF English","Sub Sports Cold Thermal Womens Long Running Tights - Black",,10.4200,25.0000,8.33600000,122020,122020,2,387659,0,8.68,8.6800
7559137,7559137,2718326,6000911042,,robin.orling@gmail.com,6000680360,"2020-12-26 12:09:52",SE,103.1300,"Start Fitness
Fitness
SF English","Mizuno Wave Inspire 16 Mens Running Shoes - Black",,103.1300,25.0000,82.50400000,122020,122020,2,351703,0,85.94,85.9400
7474152,7474152,2684936,6000891306,"Thomas Olsson",thomas.68@telia.com,6000661655,"2020-12-06 20:57:50",SE,5.8400,"Start Fitness
Fitness
SF English","Umbro Logo Crewneck Mens Short Sleeve Top - Blue",0.5800,5.2600,25.0000,4.20800000,122020,122020,2,315779,0,4.38,4.3800
7474154,7474154,2684936,6000891306,"Thomas Olsson",thomas.68@telia.com,6000661655,"2020-12-06 20:57:50",SE,68.9400,"Start Fitness
Fitness
SF English","Asics Gel Pulse 11 Mens Running Shoes - Black",6.8900,62.0500,25.0000,49.64000000,122020,122020,2,348695,0,51.71,51.7100
7520146,7520146,2703520,6000901630,"Rachel White",therachwhite@gmail.com,6000671454,"2020-12-14 17:46:52",SE,103.1300,"Start Fitness
Fitness
SF English","Asics Gel FujiTrabuco 8 Mens Trail Running Shoes - Blue",5.1600,97.9700,25.0000,78.37600000,122020,122020,2,371704,0,81.64,81.6400
7520949,7520949,2703880,6000901836,"Anna Enstrom",enstrom.anna@gmail.com,6000671640,"2020-12-14 20:05:13",SE,124.9000,"Start Fitness
Fitness
SF English","Brooks Adrenaline GTS 21 Womens Running Shoes - Black",6.2500,118.6500,25.0000,94.92000000,122020,122020,2,382604,0,98.88,98.8800
7496741,7496741,2693937,6000896273,"Anna svedling",plopp_opp@hotmail.com,6000666385,"2020-12-10 15:07:26",SE,5.2100,"Start Fitness
Fitness
SF English","More Mile Compression Calf Guards - Black",0.5200,4.6900,25.0000,3.75200000,122020,122020,2,147888,0,3.91,3.9100
7496743,7496743,2693937,6000896273,"Anna svedling",plopp_opp@hotmail.com,6000666385,"2020-12-10 15:07:26",SE,26.9800,"Start Fitness
Fitness
SF English","Reebok Crossfit Medium Impact Womens Sports Bra - Black",2.7000,24.2800,25.0000,19.42400000,122020,122020,2,353178,0,20.23,20.2300
7566726,7566726,2720799,6000912909,,hakanlundh@hotmail.com,6000682135,"2020-12-27 16:32:07",SE,161.4600,"Start Fitness
Fitness
SF English","Saucony Endorphin Speed Mens Running Shoes - White",,161.4600,25.0000,129.16800000,122020,122020,2,367604,0,134.55,134.5500
7496745,7496745,2693937,6000896273,"Anna svedling",plopp_opp@hotmail.com,6000666385,"2020-12-10 15:07:26",SE,5.1000,"Start Fitness
Fitness
SF English","Speedo Universal Nose Clip - Purple",0.5100,4.5900,25.0000,3.67200000,122020,122020,2,142514,0,3.83,3.8300
7569100,7569100,2721576,6000913502,"Hans Turtola",hturtola@hotmail.com,6000682701,"2020-12-27 22:15:17",SE,116.7300,"Start Fitness
Fitness
SF English","Saucony Type A9 Mens Running Shoes - White",,116.7300,25.0000,93.38400000,122020,122020,2,370426,0,97.28,97.2800
7496746,7496746,2693937,6000896273,"Anna svedling",plopp_opp@hotmail.com,6000666385,"2020-12-10 15:07:26",SE,19.6900,"Start Fitness
Fitness
SF English","Orca Killa 180 Swimming Goggles - Black",1.9700,17.7200,25.0000,14.17600000,122020,122020,2,373989,0,14.77,14.7700
7569102,7569102,2721576,6000913502,"Hans Turtola",hturtola@hotmail.com,6000682701,"2020-12-27 22:15:17",SE,105.0400,"Start Fitness
Fitness
SF English","Inov8 F-Lite 230 Mens Training Shoes - Black",,105.0400,25.0000,84.03200000,122020,122020,2,316056,0,87.53,87.5300
7496747,7496747,2693937,6000896273,"Anna svedling",plopp_opp@hotmail.com,6000666385,"2020-12-10 15:07:26",SE,6.1500,"Start Fitness
Fitness
SF English","Speedo Biofuse Aquatic Earplugs - Grey",0.6100,5.5400,25.0000,4.43200000,122020,122020,2,101480,0,4.62,4.6200
7496748,7496748,2693937,6000896273,"Anna svedling",plopp_opp@hotmail.com,6000666385,"2020-12-10 15:07:26",SE,22.8100,"Start Fitness
Fitness
SF English","adidas Prime Compression Socks - Black",2.2800,20.5300,25.0000,16.42400000,122020,122020,2,375968,0,17.11,17.1100
7480157,7480157,2687389,6000892673,,biologen@hotmail.com,6000662955,"2020-12-07 20:08:00",SE,71.8800,"Start Fitness
Fitness
SF English","adidas Adizero Prime Accelerator Running Spikes - Black",7.1900,64.6900,25.0000,51.75200000,122020,122020,2,314120,0,53.91,53.9100
7501035,7501035,2695798,6000897346,,fredpettersen@hotmail.com,6000667364,"2020-12-11 12:06:17",SE,28.7600,"Start Fitness
Fitness
SF English","Panaracer Standard Inner Tube 700 x 25/35c Schrader Valve",,28.7600,25.0000,23.00800000,122020,122020,2,93648,0,23.97,23.9700
7481028,7481028,2687744,6000892889,"cecilia wallenius",wallenius.cecilia@gmail.com,6000663161,"2020-12-07 21:43:32",SE,41.6700,"Start Fitness
Fitness
SF English","Salming Elements Womens Trail Running Shoes - Pink",,41.6700,25.0000,33.33600000,122020,122020,2,373688,0,34.73,34.7300
7463332,7463332,2680360,6000888823,,joakim.oderud@gmail.com,6000659289,"2020-12-05 08:39:50",SE,20.8400,"Start Fitness
Fitness
SF English","More Mile London Mens Running Socks (5 Pack) - Multi",1.0400,19.8000,25.0000,15.84000000,122020,122020,2,146576,0,16.50,16.5000
7481030,7481030,2687744,6000892889,"cecilia wallenius",wallenius.cecilia@gmail.com,6000663161,"2020-12-07 21:43:32",SE,6.7700,"Start Fitness
Fitness
SF English","Mizuno Reflective Mens Running Gilet - Black",,6.7700,25.0000,5.41600000,122020,122020,2,223696,0,5.64,5.6400
7481032,7481032,2687744,6000892889,"cecilia wallenius",wallenius.cecilia@gmail.com,6000663161,"2020-12-07 21:43:32",SE,4.1700,"Start Fitness
Fitness
SF English","Sub Sports Core Armband - Black",,4.1700,25.0000,3.33600000,122020,122020,2,360403,0,3.48,3.4800
7481034,7481034,2687744,6000892889,"cecilia wallenius",wallenius.cecilia@gmail.com,6000663161,"2020-12-07 21:43:32",SE,16.5600,"Start Fitness
Fitness
SF English","Knog Plus USB Rechargeable Running Light - Black",,16.5600,25.0000,13.24800000,122020,122020,2,339890,0,13.80,13.8000
7543695,7543695,2712651,6000907412,"ANNE EDENRO",a.edenro@gmail.com,6000676932,"2020-12-20 13:23:46",SE,62.4000,"Start Fitness
Fitness
SF English","Saucony Guide ISO 2 Womens Running Shoes - Blue",,62.4000,25.0000,49.92000000,122020,122020,2,310496,0,52.00,52.0000
7481035,7481035,2687744,6000892889,"cecilia wallenius",wallenius.cecilia@gmail.com,6000663161,"2020-12-07 21:43:32",SE,10.4200,"Start Fitness
Fitness
SF English","More Mile Select Woven Womens Running Jacket - Green",,10.4200,25.0000,8.33600000,122020,122020,2,132945,0,8.68,8.6800
7543742,7543742,2712669,6000907428,"Ove Blomberg",ove.blomberg@pgj.se,6000676947,"2020-12-20 13:40:26",SE,41.6700,"Start Fitness
Fitness
SF English","Salomon Fast Wing Mens Long Running Tights - Black",,41.6700,25.0000,33.33600000,122020,122020,2,369514,0,34.73,34.7300
7481037,7481037,2687744,6000892889,"cecilia wallenius",wallenius.cecilia@gmail.com,6000663161,"2020-12-07 21:43:32",SE,15.6300,"Start Fitness
Fitness
SF English","More Mile Select Woven Womens Running Jacket - Red",,15.6300,25.0000,12.50400000,122020,122020,2,133079,0,13.03,13.0300
7481039,7481039,2687744,6000892889,"cecilia wallenius",wallenius.cecilia@gmail.com,6000663161,"2020-12-07 21:43:32",SE,12.5000,"Start Fitness
Fitness
SF English","Kappa 4 Training Womens Wind Jacket - Grey",,12.5000,25.0000,10.00000000,122020,122020,2,387805,0,10.42,10.4200
7544987,7544987,2713108,6000907730,"Malin Andersson",malinandersson_1@hotmail.com,6000677235,"2020-12-20 19:12:39",SE,62.5000,"Start Fitness
Fitness
SF English","Asics Gel Sonoma 5 Mens Trail Running Shoes - Black",,62.5000,25.0000,50.00000000,122020,122020,2,370455,0,52.08,52.0800
7481041,7481041,2687744,6000892889,"cecilia wallenius",wallenius.cecilia@gmail.com,6000663161,"2020-12-07 21:43:32",SE,10.4200,"Start Fitness
Fitness
SF English","More Mile More-Tech Womens Running Tights - Black",,10.4200,25.0000,8.33600000,122020,122020,2,87569,0,8.68,8.6800
7544989,7544989,2713108,6000907730,"Malin Andersson",malinandersson_1@hotmail.com,6000677235,"2020-12-20 19:12:39",SE,121.7700,"Start Fitness
Fitness
SF English","Asics NovaBlast Womens Running Shoes - Black",,121.7700,25.0000,97.41600000,122020,122020,2,381056,0,101.48,101.4800
7466367,7466367,2681665,6000889543,"Jonas Tauberman",tuben@live.se,6000659986,"2020-12-05 17:59:46",SE,97.8100,"Start Fitness
Fitness
SF English","Hoka Rincon 2 Mens Running Shoes - Grey",,97.8100,25.0000,78.24800000,122020,122020,2,376720,1,81.51,81.5100
7508517,7508517,2698876,6000899094,"Jonas Tauberman",tuben@live.se,6000669021,"2020-12-12 20:06:16",SE,20.8300,"Start Fitness
Fitness
SF English","Regatta Hewitts III Mens Softshell Jacket - Blue",,20.8300,25.0000,16.66400000,122020,122020,2,387801,1,17.36,17.3600
7577348,7577348,2724310,6000915445,"Mikael Andersson",mikael_ka_andersson@hotmail.com,6000684550,"2020-12-29 11:47:50",SE,29.2100,"Start Fitness
Fitness
SF English","Puma evoStripe Warm Mens Joggers - Grey",2.9200,26.2900,25.0000,21.03200000,122020,122020,2,355434,1,21.91,21.9100
7547440,7547440,2713964,6000908336,"Johan Siggesson",sigge@aventyrsfoto.se,6000677810,"2020-12-21 13:40:29",SE,29.2100,"Start Fitness
Fitness
SF English","Scott Trail MTN DRYO 50 Womens Cycling Shorts - Grey",2.9200,26.2900,25.0000,21.03200000,122020,122020,2,362116,1,21.91,21.9100
7592227,7592227,2729056,6000918975,"jan ählström",jan.ahlstrom1@bredband.net,6000687880,"2020-12-31 18:14:15",SE,8.3300,"Start Fitness
Fitness
SF English","Sub Sports Core Baselayer Mens Short Tights - Blue",,8.3300,0.0000,8.33000000,122020,122020,2,365510,1,6.94,6.9400
7466369,7466369,2681665,6000889543,"Jonas Tauberman",tuben@live.se,6000659986,"2020-12-05 17:59:46",SE,97.8100,"Start Fitness
Fitness
SF English","Hoka Rincon 2 Womens Running Shoes - Black",,97.8100,25.0000,78.24800000,122020,122020,2,376821,1,81.51,81.5100
7508519,7508519,2698876,6000899094,"Jonas Tauberman",tuben@live.se,6000669021,"2020-12-12 20:06:16",SE,20.8300,"Start Fitness
Fitness
SF English","Regatta Hewitts III Mens Softshell Jacket - Blue",,20.8300,25.0000,16.66400000,122020,122020,2,387801,1,17.36,17.3600
7577350,7577350,2724310,6000915445,"Mikael Andersson",mikael_ka_andersson@hotmail.com,6000684550,"2020-12-29 11:47:50",SE,46.6300,"Start Fitness
Fitness
SF English","Scott Trail Tech Hybrid (With Pad) Mens Cycling Bib Shorts - Blue",4.6600,41.9700,25.0000,33.57600000,122020,122020,2,361917,1,34.98,34.9800
7484251,7484251,2688970,24000576975,"M2E Orders",m2eorders@startfitness.co.uk,24000571567,"2020-12-08 13:33:20",SE,13.0000,"Start Group
Start Group
Amazon USA","More Mile Endurance (5 Pack) Running Socks - Multi-8.5 - 10.5",,13.0000,20.0369,10.83000311,122020,122020,2,211836,1,10.83,10.8300
7547442,7547442,2713964,6000908336,"Johan Siggesson",sigge@aventyrsfoto.se,6000677810,"2020-12-21 13:40:29",SE,29.2100,"Start Fitness
Fitness
SF English","Scott Trail MTN DRYO 50 Womens Cycling Shorts - Grey",2.9200,26.2900,25.0000,21.03200000,122020,122020,2,362116,1,21.91,21.9100
7592229,7592229,2729056,6000918975,"jan ählström",jan.ahlstrom1@bredband.net,6000687880,"2020-12-31 18:14:15",SE,12.5000,"Start Fitness
Fitness
SF English","Sub Sports Core Quarter Zip Long Sleeve Mens Training Top - Blue",,12.5000,0.0000,12.50000000,122020,122020,2,363379,1,10.42,10.4200
7466371,7466371,2681665,6000889543,"Jonas Tauberman",tuben@live.se,6000659986,"2020-12-05 17:59:46",SE,116.5600,"Start Fitness
Fitness
SF English","Hoka Clifton 7 Womens Running Shoes - Black",,116.5600,25.0000,93.24800000,122020,122020,2,376739,1,97.13,97.1300
7508521,7508521,2698876,6000899094,"Jonas Tauberman",tuben@live.se,6000669021,"2020-12-12 20:06:16",SE,5.2100,"Start Fitness
Fitness
SF English","Sub Sports Seamless Dual Compression Calf Guards - Pink",,5.2100,25.0000,4.16800000,122020,122020,2,363199,1,4.34,4.3400
7577352,7577352,2724310,6000915445,"Mikael Andersson",mikael_ka_andersson@hotmail.com,6000684550,"2020-12-29 11:47:50",SE,5.8400,"Start Fitness
Fitness
SF English","Sub Sports SubAir Seamless Baselayer Short Sleeve Mens Top - Grey",0.5900,5.2500,25.0000,4.20000000,122020,122020,2,326288,1,4.38,4.3800
7547444,7547444,2713964,6000908336,"Johan Siggesson",sigge@aventyrsfoto.se,6000677810,"2020-12-21 13:40:29",SE,14.0200,"Start Fitness
Fitness
SF English","Scott All Season 10 Cycling Socks - Black",1.4000,12.6200,25.0000,10.09600000,122020,122020,2,361231,1,10.52,10.5200
7592231,7592231,2729056,6000918975,"jan ählström",jan.ahlstrom1@bredband.net,6000687880,"2020-12-31 18:14:15",SE,10.0000,"Start Fitness
Fitness
SF English","Sub Sports Core Compression Long Sleeve Mens Base Layer Top - Blue",,10.0000,0.0000,10.00000000,122020,122020,2,365497,1,8.33,8.3300
7471285,7471285,2683740,6000890647,"Christer Stålgren",fortifikator@hotmail.com,6000661031,"2020-12-06 15:16:08",SE,82.2900,"Start Fitness
Fitness
SF English","Saucony Peregrine 8 GTX Mens Trail Running Shoes - Black",,82.2900,25.0000,65.83200000,122020,122020,2,347789,1,68.58,68.5800
7508523,7508523,2698876,6000899094,"Jonas Tauberman",tuben@live.se,6000669021,"2020-12-12 20:06:16",SE,15.6300,"Start Fitness
Fitness
SF English","Scott RC Premium ITD Full Finger Cycling Gloves - Black",,15.6300,25.0000,12.50400000,122020,122020,2,360966,1,13.03,13.0300
7577354,7577354,2724310,6000915445,"Mikael Andersson",mikael_ka_andersson@hotmail.com,6000684550,"2020-12-29 11:47:50",SE,5.8400,"Start Fitness
Fitness
SF English","Sub Sports Heat Stay Cool Tech Short Sleeve Mens Top - Red",0.5800,5.2600,25.0000,4.20800000,122020,122020,2,326268,1,4.38,4.3800
7486525,7486525,2689875,6000894070,"Erik Dahlstrom",dahla.d007@gmail.com,6000664280,"2020-12-08 19:30:34",SE,112.4000,"Start Fitness
Fitness
SF English","Brooks Adrenaline GTS 20 Mens Running Shoes - Blue",,112.4000,25.0000,89.92000000,122020,122020,2,370759,1,93.67,93.6700
7547446,7547446,2713964,6000908336,"Johan Siggesson",sigge@aventyrsfoto.se,6000677810,"2020-12-21 13:40:29",SE,3.5100,"Start Fitness
Fitness
SF English","Scott Road Long Cycling Socks - Black",0.3600,3.1500,25.0000,2.52000000,122020,122020,2,361184,1,2.63,2.6300
7592233,7592233,2729056,6000918975,"jan ählström",jan.ahlstrom1@bredband.net,6000687880,"2020-12-31 18:14:15",SE,7.3800,"Start Fitness
Fitness
SF English","More Mile Cheviot Trail Running Socks - Black",,7.3800,0.0000,7.38000000,122020,122020,2,387857,1,6.15,6.1500
7442821,7442821,2672179,AMZ24000582462,"M2E Orders",m2eorders@startfitness.co.uk,24000581419,"2020-12-01 11:35:05",SE,29.9800,"Start Group
Start Group
Amazon","Topeak Drybag Wedge Strap Small Saddle Bag - Black",,29.9800,20.0160,24.98000267,122020,122020,2,12436,1,24.98,24.9800
7489290,7489290,2691061,6000894674,"Claes Boman",classe.carina@hotmail.com,6000664856,"2020-12-09 10:32:01",SE,87.5000,"Start Fitness
Fitness
SF English","Asics Gel Cumulus 21 Womens Running Shoes - Green",,87.5000,25.0000,70.00000000,122020,122020,2,330931,1,72.92,72.9200
7547448,7547448,2713964,6000908336,"Johan Siggesson",sigge@aventyrsfoto.se,6000677810,"2020-12-21 13:40:29",SE,8.1800,"Start Fitness
Fitness
SF English","Scott RC Pro Fingerless Cycling Gloves - Black",0.8100,7.3700,25.0000,5.89600000,122020,122020,2,361045,1,6.14,6.1400
7473484,7473484,2684679,6000891152,"Mikael Larsson",cml@telia.com,6000661513,"2020-12-06 19:50:15",SE,27.8200,"Start Fitness
Fitness
SF English","Feetures Elite Light Cushion Quarter Running Socks - White",,27.8200,25.0000,22.25600000,122020,122020,2,386968,1,23.18,23.1800
7508525,7508525,2698876,6000899094,"Jonas Tauberman",tuben@live.se,6000669021,"2020-12-12 20:06:16",SE,10.4200,"Start Fitness
Fitness
SF English","Scott Ridance Full Finger Cycling Gloves - Grey",,10.4200,25.0000,8.33600000,122020,122020,2,360895,1,8.68,8.6800
7577356,7577356,2724310,6000915445,"Mikael Andersson",mikael_ka_andersson@hotmail.com,6000684550,"2020-12-29 11:47:50",SE,3.5000,"Start Fitness
Fitness
SF English","Piu Miglia 750ml Sports Water Bottle - Red",0.3500,3.1500,25.0000,2.52000000,122020,122020,2,158386,1,2.63,2.6300
7448120,7448120,2674154,6000885623,"Peter Wallin",petwal@home.se,6000656248,"2020-12-02 08:45:48",SE,75.9500,"Start Fitness
Fitness
SF English","Saucony Fastwitch 9 Mens Running Shoes - White",7.6000,68.3500,25.0000,54.68000000,122020,122020,2,319126,1,56.96,56.9600
7490519,7490519,2691414,6000894026,"Charlotta Berling",lotta_berling@hotmail.com,6000665034,"2020-12-09 13:21:31",SE,135.4200,"Start Fitness
Fitness
SF English","Saucony Endorphin Shift Womens Running Shoes - Black",13.5400,121.8800,25.0000,97.50400000,122020,122020,2,367680,1,101.57,101.5700
7552876,7552876,2715817,6000909571,"rolf ranehov",rolfgitarr@gmail.com,6000678964,"2020-12-23 11:26:24",SE,36.4600,"Start Fitness
Fitness
SF English","Puma Speed Ignite Netfit Womens Running Shoes - Red",,36.4600,25.0000,29.16800000,122020,122020,2,234447,1,30.38,30.3800
7473486,7473486,2684679,6000891152,"Mikael Larsson",cml@telia.com,6000661513,"2020-12-06 19:50:15",SE,38.2200,"Start Fitness
Fitness
SF English","Feetures Elite Light Cushioning Quarter Running Socks - Black",,38.2200,25.0000,30.57600000,122020,122020,2,337543,1,31.85,31.8500
7508527,7508527,2698876,6000899094,"Jonas Tauberman",tuben@live.se,6000669021,"2020-12-12 20:06:16",SE,10.4200,"Start Fitness
Fitness
SF English","Scott Ridance Full Finger Cycling Gloves - Grey",,10.4200,25.0000,8.33600000,122020,122020,2,360890,1,8.68,8.6800
7577357,7577357,2724310,6000915445,"Mikael Andersson",mikael_ka_andersson@hotmail.com,6000684550,"2020-12-29 11:47:50",SE,54.6900,"Start Fitness
Fitness
SF English","Scott Vivo Plus MTB Cycling Helmet - Red",5.4700,49.2200,25.0000,39.37600000,122020,122020,5,376379,1,49.22,49.2200
7448122,7448122,2674154,6000885623,"Peter Wallin",petwal@home.se,6000656248,"2020-12-02 08:45:48",SE,10.5200,"Start Fitness
Fitness
SF English","More Mile Train To Run Mens Long Sleeve Running Top - Green",1.0500,9.4700,25.0000,7.57600000,122020,122020,2,237926,1,7.89,7.8900
7490521,7490521,2691414,6000894026,"Charlotta Berling",lotta_berling@hotmail.com,6000665034,"2020-12-09 13:21:31",SE,135.4200,"Start Fitness
Fitness
SF English","Saucony Endorphin Shift Mens Running Shoes - Black",13.5400,121.8800,25.0000,97.50400000,122020,122020,2,367640,1,101.57,101.5700
7556739,7556739,2717494,6000910456,"Johan Enmalm",johanenmalm@gmail.com,6000679791,"2020-12-25 17:09:42",SE,31.2500,"Start Fitness
Fitness
SF English","More Mile Cheviot Pace Mens Trail Running Shoes - Black",3.1300,28.1200,25.0000,22.49600000,122020,122020,2,242198,1,23.43,23.4300
7473488,7473488,2684679,6000891152,"Mikael Larsson",cml@telia.com,6000661513,"2020-12-06 19:50:15",SE,23.2500,"Start Fitness
Fitness
SF English","Ronhill Bobble Beanie Hat - Black",,23.2500,25.0000,18.60000000,122020,122020,2,338778,1,19.38,19.3800
7510178,7510178,2699587,6000899479,"Martin Garat",martin_garat@yahoo.se,6000669380,"2020-12-13 08:46:18",SE,82.2900,"Start Fitness
Fitness
SF English","Saucony Triumph ISO 5 Mens Running Shoes - Grey",,82.2900,25.0000,65.83200000,122020,122020,2,342980,1,68.58,68.5800
7577359,7577359,2724310,6000915445,"Mikael Andersson",mikael_ka_andersson@hotmail.com,6000684550,"2020-12-29 11:47:50",SE,54.6900,"Start Fitness
Fitness
SF English","Scott ARX Plus MTB Cycling Helmet - Grey",5.4700,49.2200,25.0000,39.37600000,122020,122020,5,377331,1,49.22,49.2200
7448124,7448124,2674154,6000885623,"Peter Wallin",petwal@home.se,6000656248,"2020-12-02 08:45:48",SE,11.6900,"Start Fitness
Fitness
SF English","Asics Essential Short Sleeve Mens Running Top - Blue",1.1700,10.5200,25.0000,8.41600000,122020,122020,2,179600,1,8.77,8.7700
7493504,7493504,2692589,24000579300,"M2E Orders",m2eorders@startfitness.co.uk,24000572758,"2020-12-09 21:50:24",SE,100.0500,"Start Group
Start Group
Amazon USA","Asics Gel FujiTrabuco 8 GTX Mens Trail Running Shoes - Black-8.5",,100.0500,20.0072,83.36999780,122020,122020,2,350726,1,83.38,83.3800
7556741,7556741,2717494,6000910456,"Johan Enmalm",johanenmalm@gmail.com,6000679791,"2020-12-25 17:09:42",SE,3.0700,"Start Fitness
Fitness
SF English","More Mile Strive Running Socks - Black",0.3000,2.7700,25.0000,2.21600000,122020,122020,2,249663,1,2.31,2.3100
7473489,7473489,2684679,6000891152,"Mikael Larsson",cml@telia.com,6000661513,"2020-12-06 19:50:15",SE,11.6900,"Start Fitness
Fitness
SF English","More Mile London Mens Running Socks (5 Pack) - Multi",,11.6900,25.0000,9.35200000,122020,122020,2,146576,1,9.74,9.7400
7448126,7448126,2674154,6000885623,"Peter Wallin",petwal@home.se,6000656248,"2020-12-02 08:45:48",SE,10.5200,"Start Fitness
Fitness
SF English","More Mile Train To Run Mens Long Sleeve Running Top - Grey",1.0500,9.4700,25.0000,7.57600000,122020,122020,2,237921,1,7.89,7.8900
7494065,7494065,2692834,6000895662,"Caroline Ljungdahl",carolineljungdahl@hotmail.com,6000665812,"2020-12-09 23:24:27",SE,60.3100,"Start Fitness
Fitness
SF English","2XU X Vent 2 In 1 Mens 5 Inch Running Shorts - Black",,60.3100,25.0000,48.24800000,122020,122020,2,382825,1,50.26,50.2600
7556743,7556743,2717494,6000910456,"Johan Enmalm",johanenmalm@gmail.com,6000679791,"2020-12-25 17:09:42",SE,3.0700,"Start Fitness
Fitness
SF English","More Mile Strive Running Socks - White",0.3100,2.7600,25.0000,2.20800000,122020,122020,2,249652,1,2.30,2.3000
7556745,7556745,2717494,6000910456,"Johan Enmalm",johanenmalm@gmail.com,6000679791,"2020-12-25 17:09:42",SE,78.1300,"Start Fitness
Fitness
SF English","Saucony Fastwitch 9 Mens Running Shoes - Yellow",7.8100,70.3200,25.0000,56.25600000,122020,122020,2,349718,1,58.60,58.6000
7514428,7514428,2701355,6000900472,"Henrik Glawing",henrik@glawing.se,6000670343,"2020-12-13 19:35:20",SE,161.3500,"Start Fitness
Fitness
SF English","Asics Gel Nimbus 23 Womens Running Shoes - Blue",,161.3500,25.0000,129.08000000,122020,122020,2,384661,1,134.46,134.4600
7580458,7580458,2725334,6000916238,"Tom Rebbitt",tom.rebbitt@btinternet.com,6000685270,"2020-12-29 19:47:22",SE,90.6300,"Start Fitness
Fitness
SF English","Mizuno Wave Rider WaveKnit 3 Mens Running Shoes - Blue",,90.6300,25.0000,72.50400000,122020,122020,2,355105,1,75.53,75.5300
7448840,7448840,2674426,AMZ24000583085,"M2E Orders",m2eorders@startfitness.co.uk,24000582042,"2020-12-02 11:38:11",SE,24.8900,"Start Group
Start Group
Amazon","Gato Sports LED Safer Sports Vest  - Pink",,24.8900,20.0096,20.74000747,122020,122020,2,229914,1,20.74,20.7400
7496487,7496487,2693841,6000896203,"jan ählström",jan.ahlstrom1@bredband.net,6000666330,"2020-12-10 14:16:46",SE,81.2500,"Start Fitness
Fitness
SF English","Brooks Cascadia 14 Mens Trail Running Shoes - Red",,81.2500,25.0000,65.00000000,122020,122020,2,365467,1,67.71,67.7100
7556747,7556747,2717494,6000910456,"Johan Enmalm",johanenmalm@gmail.com,6000679791,"2020-12-25 17:09:42",SE,87.4000,"Start Fitness
Fitness
SF English","Asics Gel Noosa Tri 12 Mens Running Shoes - Pink",8.7400,78.6600,25.0000,62.92800000,122020,122020,2,386265,1,65.55,65.5500
7580460,7580460,2725334,6000916238,"Tom Rebbitt",tom.rebbitt@btinternet.com,6000685270,"2020-12-29 19:47:22",SE,12.5000,"Start Fitness
Fitness
SF English","Mizuno Impulse Core Short Sleeve Mens Running Top - Yellow",,12.5000,25.0000,10.00000000,122020,122020,2,364396,1,10.42,10.4200
7449906,7449906,2674888,6000886005,"Peter Jibrandt",Peter.jibrandt@ownit.nu,6000656616,"2020-12-02 16:01:42",SE,98.9600,"Start Fitness
Fitness
SF English","Brooks Ghost 12 WIDE FIT Mens Running Shoes - Black",,98.9600,25.0000,79.16800000,122020,122020,2,365539,1,82.47,82.4700
7496489,7496489,2693841,6000896203,"jan ählström",jan.ahlstrom1@bredband.net,6000666330,"2020-12-10 14:16:46",SE,67.7100,"Start Fitness
Fitness
SF English","Brooks Divide Mens Trail Running Shoes - Black",,67.7100,25.0000,54.16800000,122020,122020,2,370914,1,56.43,56.4300
7556751,7556751,2717496,6000910458,"Nils Rylén",nils.rylen@hotmail.com,6000679793,"2020-12-25 17:18:50",SE,145.7300,"Start Fitness
Fitness
SF English","Brooks Glycerin 19 Mens Running Shoes - Black",14.5700,131.1600,25.0000,104.92800000,122020,122020,2,388802,1,109.30,109.3000
7585641,7585641,2726988,EBY24000585528,"M2E Orders",m2eorders@startfitness.co.uk,24000584870,"2020-12-30 17:13:01",SE,110.9400,"Start Group
Start Group
eBay","Asics Gel Foundation 13 WIDE FIT (2E) Mens Running Shoes - Blue",,110.9400,20.0000,92.45000000,122020,122020,2,296830,1,92.45,92.4500
7450441,7450441,2675133,EBY24000578482,"M2E Orders",m2eorders@startfitness.co.uk,24000577842,"2020-12-02 18:13:12",SE,29.9900,"Start Group
Start Group
eBay","Syncros RR2.0 Stem - Black",,29.9900,20.0000,24.99166667,122020,122020,2,287187,1,24.99,24.9900
7496491,7496491,2693841,6000896203,"jan ählström",jan.ahlstrom1@bredband.net,6000666330,"2020-12-10 14:16:46",SE,8.3300,"Start Fitness
Fitness
SF English","Sub Sports Elite RX Recovery Running Compression Socks - Black",,8.3300,25.0000,6.66400000,122020,122020,2,363427,1,6.94,6.9400
7557723,7557723,2717860,6000910695,"Ari Laakso",ari.laakso@veicon.se,6000680019,"2020-12-26 01:19:42",SE,90.6300,"Start Fitness
Fitness
SF English","adidas ClimaProof 2.5L Waterproof Mens Track Rain Pants - Black",,90.6300,25.0000,72.50400000,122020,122020,2,247184,1,75.53,75.5300
7496493,7496493,2693841,6000896203,"jan ählström",jan.ahlstrom1@bredband.net,6000666330,"2020-12-10 14:16:46",SE,13.5400,"Start Fitness
Fitness
SF English","Sub Sports Core Mens Gym Training Shorts - Blue",,13.5400,25.0000,10.83200000,122020,122020,2,363401,1,11.28,11.2800
7558659,7558659,2718179,6000910932,"Niklas Parnesten",niklas.parnesten@gmail.com,6000680250,"2020-12-26 11:05:52",SE,130.7500,"Start Fitness
Fitness
SF English","Hoka Speedgoat 4 Mens Trail Running Shoes - Yellow",13.0800,117.6700,25.0000,94.13600000,122020,122020,2,377005,1,98.06,98.0600
7588433,7588433,2727895,6000918073,"Anders Karlsson",agl.kalle@gmail.com,6000687023,"2020-12-31 04:58:07",SE,52.0800,"Start Fitness
Fitness
SF English","Under Armour Qualifier Outrun The Storm Mens Running Jacket - Blue",,52.0800,25.0000,41.66400000,122020,122020,2,354343,1,43.40,43.4000
7496495,7496495,2693841,6000896203,"jan ählström",jan.ahlstrom1@bredband.net,6000666330,"2020-12-10 14:16:46",SE,9.2100,"Start Fitness
Fitness
SF English","More Mile Challenger Running Socks - Blue",,9.2100,25.0000,7.36800000,122020,122020,2,244700,1,7.68,7.6800
7517722,7517722,2702696,EBY24000582435,"M2E Orders",m2eorders@startfitness.co.uk,24000581789,"2020-12-14 11:27:05",SE,17.9900,"Start Group
Start Group
eBay","FuelBelt H3O Helium 3 Bottle Hydration Belt - Black",,17.9900,20.0000,14.99166667,122020,122020,2,360466,1,14.99,14.9900
7588435,7588435,2727895,6000918073,"Anders Karlsson",agl.kalle@gmail.com,6000687023,"2020-12-31 04:58:07",SE,29.0600,"Start Fitness
Fitness
SF English","Reebok Workout Ready Fleece Mens Training Pants - Black",,29.0600,25.0000,23.24800000,122020,122020,2,344060,1,24.22,24.2200
7588437,7588437,2727895,6000918073,"Anders Karlsson",agl.kalle@gmail.com,6000687023,"2020-12-31 04:58:07",SE,30.2100,"Start Fitness
Fitness
SF English","adidas Adapt Mens Running Track Pants - Black",,30.2100,25.0000,24.16800000,122020,122020,2,387566,1,25.18,25.1800
7455192,7455192,2677153,6000887109,"Michael Olsson",kemiol@hotmail.com,6000657673,"2020-12-03 17:55:24",SE,145.9400,"Start Fitness
Fitness
SF English","Saucony Guide 13 Womens Running Shoes - Purple",14.5900,131.3500,25.0000,105.08000000,122020,122020,2,367937,1,109.46,109.4600
7496497,7496497,2693841,6000896203,"jan ählström",jan.ahlstrom1@bredband.net,6000666330,"2020-12-10 14:16:46",SE,16.5600,"Start Fitness
Fitness
SF English","Ronhill Classic Womens Running Trackster - Blue",,16.5600,25.0000,13.24800000,122020,122020,2,40860,1,13.80,13.8000
7564502,7564502,2720018,6000912332,"Lena Jannerman",Lenajannerman@hotmail.com,6000681578,"2020-12-27 10:18:18",SE,98.9600,"Start Fitness
Fitness
SF English","Brooks Ghost 12 Mens Running Shoes - Blue",,98.9600,25.0000,79.16800000,122020,122020,2,365517,1,82.47,82.4700
7476002,7476002,2685750,6000891705,"Mats  Öhman  ",mats.ohman.fbg@telia.com,6000662038,"2020-12-07 09:04:44",SE,73.7500,"Start Fitness
Fitness
SF English","Scott Fuga Plus Rev MTB Cycling Helmet - White",,73.7500,25.0000,59.00000000,122020,122020,5,360604,1,73.75,73.7500
7588439,7588439,2727895,6000918073,"Anders Karlsson",agl.kalle@gmail.com,6000687023,"2020-12-31 04:58:07",SE,31.1500,"Start Fitness
Fitness
SF English","Puma Ready To Go Mens Joggers - Black",,31.1500,25.0000,24.92000000,122020,122020,2,384395,1,25.96,25.9600
7455194,7455194,2677153,6000887109,"Michael Olsson",kemiol@hotmail.com,6000657673,"2020-12-03 17:55:24",SE,186.8300,"Start Fitness
Fitness
SF English","adidas Ultra Boost WINTER.RDY Mens Running Shoes - Black",18.6900,168.1400,25.0000,134.51200000,122020,122020,2,381657,1,140.12,140.1200
7565858,7565858,2720494,6000912682,"Ann-Charlotte Aghamn",ann-charlotte.aghamn@hotmail.com,6000681916,"2020-12-27 14:18:17",SE,79.0600,"Start Fitness
Fitness
SF English","Asics Gel Sonoma 5 GTX Womens Trail Running Shoes - Black",,79.0600,25.0000,63.24800000,122020,122020,2,370480,1,65.88,65.8800
7476004,7476004,2685750,6000891705,"Mats  Öhman  ",mats.ohman.fbg@telia.com,6000662038,"2020-12-07 09:04:44",SE,5.2100,"Start Fitness
Fitness
SF English","Scott Aspect SF Womens Cycling Gloves - Blue",,5.2100,25.0000,4.16800000,122020,122020,2,313443,1,4.34,4.3400
7530428,7530428,2707764,6000904186,"Thommy Foogde",thommyfoogde@hotmail.com,6000673856,"2020-12-16 18:38:21",SE,54.1700,"Start Fitness
Fitness
SF English","Asics Gel Excite 6 Winterized Mens Running Shoes - Black",,54.1700,25.0000,43.33600000,122020,122020,2,386253,1,45.14,45.1400
7588441,7588441,2727895,6000918073,"Anders Karlsson",agl.kalle@gmail.com,6000687023,"2020-12-31 04:58:07",SE,40.6300,"Start Fitness
Fitness
SF English","Asics Packable Mens Running Jacket - Blue",,40.6300,25.0000,32.50400000,122020,122020,2,381211,1,33.86,33.8600
7455196,7455196,2677153,6000887109,"Michael Olsson",kemiol@hotmail.com,6000657673,"2020-12-03 17:55:24",SE,68.9400,"Start Fitness
Fitness
SF English","adidas AlphaBounce Beyond Mens Running Shoes - Black",6.8900,62.0500,25.0000,49.64000000,122020,122020,2,249966,1,51.71,51.7100
7478369,7478369,2686600,24000575374,"M2E Orders",m2eorders@startfitness.co.uk,24000570746,"2020-12-07 14:47:49",SE,24.9900,"Start Group
Start Group
Amazon USA","Under Armour Fleece Armour Mens Joggers - Blue-XL",,24.9900,20.0288,20.82000320,122020,122020,2,350231,1,20.83,20.8300
7530430,7530430,2707764,6000904186,"Thommy Foogde",thommyfoogde@hotmail.com,6000673856,"2020-12-16 18:38:21",SE,20.8300,"Start Fitness
Fitness
SF English","Reebok Classic GL 6000 WW Womens Trainers - Purple",,20.8300,25.0000,16.66400000,122020,122020,2,234797,1,17.36,17.3600
7588443,7588443,2727895,6000918073,"Anders Karlsson",agl.kalle@gmail.com,6000687023,"2020-12-31 04:58:07",SE,36.5000,"Start Fitness
Fitness
SF English","More Mile Cadeo Coolmax Twin Pack Running Socks - White",2.8500,33.6500,25.0000,26.92000000,122020,122020,2,85428,1,28.04,28.0400
7457962,7457962,2678318,6000887707,"Håkan Larson",haakan.larson@gmail.com,6000658238,"2020-12-04 09:16:32",SE,20.8400,"Start Fitness
Fitness
SF English","More Mile Bamboo Comfort (5 Pack) Running Socks",4.1700,16.6700,25.0000,13.33600000,122020,122020,2,383873,1,13.89,13.8900
7479644,7479644,2687172,6000892548,"Charlotte Kroona",ckroona@hotmail.com,6000662832,"2020-12-07 18:50:21",SE,25.9400,"Start Fitness
Fitness
SF English","Under Armour Undeniable 4.0 Small Holdall - Black",,25.9400,25.0000,20.75200000,122020,122020,2,338692,1,21.62,21.6200
7530432,7530432,2707764,6000904186,"Thommy Foogde",thommyfoogde@hotmail.com,6000673856,"2020-12-16 18:38:21",SE,10.4200,"Start Fitness
Fitness
SF English","Speedo Fitted 13 Inch Leisure Mens Swim Shorts - Orange",,10.4200,25.0000,8.33600000,122020,122020,2,380977,1,8.68,8.6800
7588445,7588445,2727895,6000918073,"Anders Karlsson",agl.kalle@gmail.com,6000687023,"2020-12-31 04:58:07",SE,20.8000,"Start Fitness
Fitness
SF English","More Mile Tri Easy Elastic Shoelaces - Blue",,20.8000,25.0000,16.64000000,122020,122020,2,150820,1,17.33,17.3300
7457964,7457964,2678318,6000887707,"Håkan Larson",haakan.larson@gmail.com,6000658238,"2020-12-04 09:16:32",SE,6.2500,"Start Fitness
Fitness
SF English","Fitness Mad Hi-Density Yoga Brick - Purple",,6.2500,25.0000,5.00000000,122020,122020,2,360238,1,5.21,5.2100
7479645,7479645,2687172,6000892548,"Charlotte Kroona",ckroona@hotmail.com,6000662832,"2020-12-07 18:50:21",SE,26.0400,"Start Fitness
Fitness
SF English","Asics Thermopolis Plus Long Sleeve Mens Running Top - Blue",,26.0400,25.0000,20.83200000,122020,122020,2,381553,1,21.70,21.7000
7534583,7534583,2709317,6000905175,"Peter Nilsson",spanilsson@gmail.com,6000674808,"2020-12-17 18:46:38",SE,128.5300,"Start Fitness
Fitness
SF English","Scott MTB RC EVO Mens Cycling Shoes - Grey",,128.5300,25.0000,102.82400000,122020,122020,2,377140,1,107.11,107.1100
7588446,7588446,2727895,6000918073,"Anders Karlsson",agl.kalle@gmail.com,6000687023,"2020-12-31 04:58:07",SE,3.1200,"Start Fitness
Fitness
SF English","More Mile Tri Easy Elastic Shoelaces - Yellow",,3.1200,25.0000,2.49600000,122020,122020,2,150822,1,2.60,2.6000
7458080,7458080,2678372,EBY24000579123,"M2E Orders",m2eorders@startfitness.co.uk,24000578483,"2020-12-04 09:51:46",SE,56.0900,"Start Group
Start Group
eBay","Reebok Crossfit Nano 8 Flexweave Mens Training Shoes - Blue",,56.0900,20.0000,46.74166667,122020,122020,2,319571,1,46.74,46.7400
7570403,7570403,2721981,6000913781,"magda Rosloniec",magda.rosloniec@hotmail.se,6000682971,"2020-12-28 10:05:38",SE,71.8800,"Start Fitness
Fitness
SF English","adidas Adizero Boston Boost 8 Womens Running Shoes - Orange",,71.8800,25.0000,57.50400000,122020,122020,2,331430,1,59.90,59.9000
7479647,7479647,2687172,6000892548,"Charlotte Kroona",ckroona@hotmail.com,6000662832,"2020-12-07 18:50:21",SE,26.0400,"Start Fitness
Fitness
SF English","Asics Seamless Long Sleeve Mens Running Top - Black",,26.0400,25.0000,20.83200000,122020,122020,2,383934,1,21.70,21.7000
7538848,7538848,2710977,EBY24000583429,"M2E Orders",m2eorders@startfitness.co.uk,24000582783,"2020-12-18 23:26:04",SE,60.0000,"Start Group
Start Group
eBay","Vibram FiveFingers V-Train Mens Training Shoes - Grey",,60.0000,20.0000,50.00000000,122020,122020,2,328717,1,50.00,50.0000
7588447,7588447,2727895,6000918073,"Anders Karlsson",agl.kalle@gmail.com,6000687023,"2020-12-31 04:58:07",SE,24.9900,"Start Fitness
Fitness
SF English","TCA Pro Performance Compression Mens Short Sleeve Thermal Running Top - Blue",,24.9900,25.0000,19.99200000,122020,122020,2,247584,1,20.83,20.8300
7458565,7458565,2678511,6000887829,"Daniel Kanje",daniel_kanje@yahoo.com,6000658353,"2020-12-04 11:15:13",SE,123.9600,"Start Fitness
Fitness
SF English","adidas Ultra Boost 20 Mens Running Shoes - Black",,123.9600,25.0000,99.16800000,122020,122020,2,372812,1,103.30,103.3000
7571917,7571917,2722509,6000914131,"Petter Liif",petterliif@gmail.com,6000683301,"2020-12-28 14:06:23",SE,11.7000,"Start Fitness
Fitness
SF English","Piu Miglia Monza Cycling Socks - White",,11.7000,25.0000,9.36000000,122020,122020,2,140975,1,9.75,9.7500
7479726,7479726,2687205,6000892571,"Christian Karlsson",Thrash_and_burn@hotmail.com,6000662856,"2020-12-07 19:01:43",SE,135.3100,"Start Fitness
Fitness
SF English","Saucony Omni 19 Mens Running Shoes - Black",,135.3100,25.0000,108.24800000,122020,122020,2,367779,1,112.76,112.7600
7540003,7540003,2711365,6000906548,"ulrik friberg",duke_nukem_@hotmail.com,6000676103,"2020-12-19 12:07:25",SE,20.8400,"Start Fitness
Fitness
SF English","More Mile Florida (5 Pack) Running Socks",,20.8400,25.0000,16.67200000,122020,122020,2,383548,1,17.37,17.3700
7590341,7590341,2728471,6000918537,"christer mellstrand",christermellstrand@yahoo.se,6000687448,"2020-12-31 13:37:48",SE,26.0400,"Start Fitness
Fitness
SF English","Mizuno BG3000 Mens Long Running Tights - Black",,26.0400,25.0000,20.83200000,122020,122020,2,364483,1,21.70,21.7000
7458567,7458567,2678511,6000887829,"Daniel Kanje",daniel_kanje@yahoo.com,6000658353,"2020-12-04 11:15:13",SE,103.0200,"Start Fitness
Fitness
SF English","Saucony Peregrine 10 Mens Trail Running Shoes - Grey",,103.0200,25.0000,82.41600000,122020,122020,2,349806,1,85.85,85.8500
7500134,7500134,2695382,EBY24000581532,"M2E Orders",m2eorders@startfitness.co.uk,24000580886,"2020-12-11 08:34:05",SE,25.0000,"Start Group
Start Group
eBay","Madison Sportive Windproof Mens Cycling Gilet - Yellow",,25.0000,20.0000,20.83333333,122020,122020,2,363217,1,20.83,20.8300
7571919,7571919,2722509,6000914131,"Petter Liif",petterliif@gmail.com,6000683301,"2020-12-28 14:06:23",SE,69.8800,"Start Fitness
Fitness
SF English","Under Armour Fly Fast HeatGear Mens Short Running Tights - Black",,69.8800,25.0000,55.90400000,122020,122020,2,383547,1,58.23,58.2300
7540902,7540902,2711708,6000906768,"Bo Wikman",bo.wikman@gmail.com,6000676316,"2020-12-19 16:12:23",SE,62.5000,"Start Fitness
Fitness
SF English","Asics Gel Nimbus 14 Mens Running Shoes - Green",,62.5000,25.0000,50.00000000,122020,122020,2,381968,1,52.08,52.0800
7590343,7590343,2728471,6000918537,"christer mellstrand",christermellstrand@yahoo.se,6000687448,"2020-12-31 13:37:48",SE,52.0800,"Start Fitness
Fitness
SF English","Asics Seamless Long Sleeve Mens Running Top - Black",,52.0800,25.0000,41.66400000,122020,122020,2,383934,1,43.40,43.4000
7461305,7461305,2679480,6000888361,"Tobias Sandfeldt",tobbe_sandfeldt@hotmail.com,6000658851,"2020-12-04 18:23:54",SE,41.6700,"Start Fitness
Fitness
SF English","Salming Miles Lite Womens Running Shoes - Black",,41.6700,25.0000,33.33600000,122020,122020,2,373646,1,34.73,34.7300
7575485,7575485,2723660,6000914972,"Stefan Nilsson",stefan.nilsson@svenljunga.se,6000684101,"2020-12-28 21:47:25",SE,104.0600,"Start Fitness
Fitness
SF English","Asics GT 1000 9 GTX Mens Running Shoes - Black",,104.0600,25.0000,83.24800000,122020,122020,2,380916,1,86.72,86.7200
7542004,7542004,2712087,AMZ24000589138,"M2E Orders",m2eorders@startfitness.co.uk,24000588095,"2020-12-19 21:20:00",SE,70.9500,"Start Group
Start Group
Amazon","Asics Lite Show 2 Winter Womens Long Running Tights - Black-XS",,70.9500,20.0101,59.12002406,122020,122020,2,335908,1,59.13,59.1300
7590345,7590345,2728471,6000918537,"christer mellstrand",christermellstrand@yahoo.se,6000687448,"2020-12-31 13:37:48",SE,30.2100,"Start Fitness
Fitness
SF English","2XU Accelerate Print Mens Long Compression Tights - Grey",,30.2100,25.0000,24.16800000,122020,122020,2,307749,1,25.18,25.1800
7502309,7502309,2696286,6000897632,"Hannes Rasper",hannesrasper@gmail.com,6000667638,"2020-12-11 16:37:42",SE,145.7300,"Start Fitness
Fitness
SF English","Asics Gel Kayano 27 Mens Running Shoes - Grey",,145.7300,25.0000,116.58400000,122020,122020,2,370941,1,121.44,121.4400
7577288,7577288,2724291,6000915430,"Claus Heidenborg",heidenborg@gmail.com,6000684535,"2020-12-29 11:35:59",SE,197.9200,"Start Fitness
Fitness
SF English","Brooks Ghost 12 (4E) WIDE FIT Mens Running Shoes - Black",,197.9200,25.0000,158.33600000,122020,122020,2,365556,1,164.93,164.9300
7577290,7577290,2724291,6000915430,"Claus Heidenborg",heidenborg@gmail.com,6000684535,"2020-12-29 11:35:59",SE,10.4200,"Start Fitness
Fitness
SF English","More Mile Active 9 Inch Mens Running Shorts - Black",,10.4200,25.0000,8.33600000,122020,122020,2,289584,1,8.68,8.6800
7542817,7542817,2712332,6000907179,"Ingemar Blom",Ingemar.j.blom@gmail.com,6000676711,"2020-12-20 08:14:20",SE,130.7500,"Start Fitness
Fitness
SF English","Hoka Speedgoat 4 Mens Trail Running Shoes - Yellow",,130.7500,25.0000,104.60000000,122020,122020,2,377005,1,108.96,108.9600
7590347,7590347,2728471,6000918537,"christer mellstrand",christermellstrand@yahoo.se,6000687448,"2020-12-31 13:37:48",SE,31.2500,"Start Fitness
Fitness
SF English","2XU Reflect Run Compression Mens Long Running Tights - Black",,31.2500,25.0000,25.00000000,122020,122020,2,307709,1,26.04,26.0400
7463584,7463584,2680470,6000888891,"fredrik Kristensen",72.fredrik@gmail.com,6000659355,"2020-12-05 09:43:28",SE,52.0800,"Start Fitness
Fitness
SF English","Asics Roadhawk FF Mens Running Shoes - Grey",,52.0800,25.0000,41.66400000,122020,122020,2,383892,1,43.40,43.4000
7507361,7507361,2698378,6000898829,"Svante Leo",svante.leo@telia.com,6000668772,"2020-12-12 16:23:12",SE,92.7100,"Start Fitness
Fitness
SF English","Asics GT 2000 8 Retro Tokyo Womens Running Shoes - Red",9.2700,83.4400,25.0000,66.75200000,122020,122020,2,348831,1,69.53,69.5300
7464245,7464245,2680720,6000889079,"Joacim Petersson",joacim@devalog.se,6000659534,"2020-12-05 12:00:00",SE,18.7500,"Start Fitness
Fitness
SF English","adidas Freelift Engineered Heather Short Sleeve Mens Training Top - Grey",,18.7500,25.0000,15.00000000,122020,122020,2,324457,1,15.63,15.6300
7507363,7507363,2698378,6000898829,"Svante Leo",svante.leo@telia.com,6000668772,"2020-12-12 16:23:12",SE,72.9200,"Start Fitness
Fitness
SF English","Asics GT 2000 7 Womens Running Shoes - Pink",7.2900,65.6300,25.0000,52.50400000,122020,122020,2,312898,1,54.69,54.6900
7577292,7577292,2724291,6000915430,"Claus Heidenborg",heidenborg@gmail.com,6000684535,"2020-12-29 11:35:59",SE,6.2600,"Start Fitness
Fitness
SF English","Major League Baseball New York Yankees Gym Sack Drawstring Bag",,6.2600,25.0000,5.00800000,122020,122020,2,226643,1,5.22,5.2200
7542819,7542819,2712332,6000907179,"Ingemar Blom",Ingemar.j.blom@gmail.com,6000676711,"2020-12-20 08:14:20",SE,29.2100,"Start Fitness
Fitness
SF English","More Mile R66 2 Mens Running Shoes - Grey",,29.2100,25.0000,23.36800000,122020,122020,2,318922,1,24.34,24.3400
7590349,7590349,2728471,6000918537,"christer mellstrand",christermellstrand@yahoo.se,6000687448,"2020-12-31 13:37:48",SE,29.1700,"Start Fitness
Fitness
SF English","2XU X Vent 7 Inch (With Brief) Mens Running Shorts - Black",,29.1700,25.0000,23.33600000,122020,122020,2,375041,1,24.31,24.3100
7464247,7464247,2680720,6000889079,"Joacim Petersson",joacim@devalog.se,6000659534,"2020-12-05 12:00:00",SE,25.9400,"Start Fitness
Fitness
SF English","Under Armour Charged Cotton Short Sleeve Mens Training Top - Grey",,25.9400,25.0000,20.75200000,122020,122020,2,374343,1,21.62,21.6200
7508034,7508034,2698663,6000898932,"Pétur Sturla Bjarnason",petur_sturla@yahoo.se,6000668916,"2020-12-12 18:26:43",SE,10.4200,"Start Fitness
Fitness
SF English","More Mile New York Cushioned Running Socks (5 Pack) - Multi",1.0400,9.3800,25.0000,7.50400000,122020,122020,2,373445,1,7.82,7.8200
7577293,7577293,2724291,6000915430,"Claus Heidenborg",heidenborg@gmail.com,6000684535,"2020-12-29 11:35:59",SE,5.2100,"Start Fitness
Fitness
SF English","Sub Sports Core Waist Belt - Black",,5.2100,25.0000,4.16800000,122020,122020,2,360396,1,4.34,4.3400
7590351,7590351,2728471,6000918537,"christer mellstrand",christermellstrand@yahoo.se,6000687448,"2020-12-31 13:37:48",SE,20.8300,"Start Fitness
Fitness
SF English","2XU Elite Lite X Lock Compression Socks - White",,20.8300,25.0000,16.66400000,122020,122020,2,228942,1,17.36,17.3600
7464249,7464249,2680720,6000889079,"Joacim Petersson",joacim@devalog.se,6000659534,"2020-12-05 12:00:00",SE,112.3800,"Start Fitness
Fitness
SF English","Giro Agilis MIPS Road Cycling Helmet - White",,112.3800,25.0000,89.90400000,122020,122020,10,387972,1,93.65,93.6500
7508036,7508036,2698663,6000898932,"Pétur Sturla Bjarnason",petur_sturla@yahoo.se,6000668916,"2020-12-12 18:26:43",SE,18.7200,"Start Fitness
Fitness
SF English","More Mile London Running Socks - 3 Pack",1.8700,16.8500,25.0000,13.48000000,122020,122020,2,359206,1,14.04,14.0400
7577295,7577295,2724291,6000915430,"Claus Heidenborg",heidenborg@gmail.com,6000684535,"2020-12-29 11:35:59",SE,10.4200,"Start Fitness
Fitness
SF English","Asics Training Cap - Black",,10.4200,25.0000,8.33600000,122020,122020,2,388556,1,8.68,8.6800
7590353,7590353,2728471,6000918537,"christer mellstrand",christermellstrand@yahoo.se,6000687448,"2020-12-31 13:37:48",SE,3.0700,"Start Fitness
Fitness
SF English","More Mile California Long Compression Socks - Black",,3.0700,25.0000,2.45600000,122020,122020,2,186891,1,2.56,2.5600
7464251,7464251,2680720,6000889079,"Joacim Petersson",joacim@devalog.se,6000659534,"2020-12-05 12:00:00",SE,38.4400,"Start Fitness
Fitness
SF English","Under Armour Rival Mens Fleece Joggers - Blue",,38.4400,25.0000,30.75200000,122020,122020,2,378370,1,32.03,32.0300
7508038,7508038,2698663,6000898932,"Pétur Sturla Bjarnason",petur_sturla@yahoo.se,6000668916,"2020-12-12 18:26:43",SE,6.1400,"Start Fitness
Fitness
SF English","More Mile Bamboo Comfort Running Socks - Blue",0.6200,5.5200,25.0000,4.41600000,122020,122020,2,224946,1,4.60,4.6000
7577296,7577296,2724291,6000915430,"Claus Heidenborg",heidenborg@gmail.com,6000684535,"2020-12-29 11:35:59",SE,1.5600,"Start Fitness
Fitness
SF English","Healthspan NutriCoach Protein Shaker Bottle - Orange",,1.5600,25.0000,1.24800000,122020,122020,2,347689,1,1.30,1.3000
7544599,7544599,2712966,6000907636,"Oscar Larsson",e.o.larsson@gmail.com,6000677142,"2020-12-20 17:29:50",SE,103.1300,"Start Fitness
Fitness
SF English","Inov8 Roclite G 275 Mens Trail Running Shoes - Red",,103.1300,25.0000,82.50400000,122020,122020,2,349053,1,85.94,85.9400
7464253,7464253,2680720,6000889079,"Joacim Petersson",joacim@devalog.se,6000659534,"2020-12-05 12:00:00",SE,22.9200,"Start Fitness
Fitness
SF English","Under Armour Original Series (2 Pack) Printed Mens Boxer Jock - Green",,22.9200,25.0000,18.33600000,122020,122020,2,330598,1,19.10,19.1000
7508040,7508040,2698663,6000898932,"Pétur Sturla Bjarnason",petur_sturla@yahoo.se,6000668916,"2020-12-12 18:26:43",SE,6.1400,"Start Fitness
Fitness
SF English","More Mile Bamboo Comfort Running Socks - Red",0.6100,5.5300,25.0000,4.42400000,122020,122020,2,224931,1,4.61,4.6100
7577297,7577297,2724291,6000915430,"Claus Heidenborg",heidenborg@gmail.com,6000684535,"2020-12-29 11:35:59",SE,9.3800,"Start Fitness
Fitness
SF English","Gato Sports Safer Sport X Vest",,9.3800,25.0000,7.50400000,122020,122020,2,306340,1,7.82,7.8200
7466365,7466365,2681665,6000889543,"Jonas Tauberman",tuben@live.se,6000659986,"2020-12-05 17:59:46",SE,97.8100,"Start Fitness
Fitness
SF English","Hoka Rincon 2 Womens Running Shoes - Black",,97.8100,25.0000,78.24800000,122020,122020,2,376821,1,81.51,81.5100
7508042,7508042,2698663,6000898932,"Pétur Sturla Bjarnason",petur_sturla@yahoo.se,6000668916,"2020-12-12 18:26:43",SE,135.3100,"Start Fitness
Fitness
SF English","adidas Adizero Pro Mens Running Shoes - Black",13.5300,121.7800,25.0000,97.42400000,122020,122020,2,371993,1,101.48,101.4800
7577299,7577299,2724291,6000915430,"Claus Heidenborg",heidenborg@gmail.com,6000684535,"2020-12-29 11:35:59",SE,10.4200,"Start Fitness
Fitness
SF English","More Mile New York Cushioned Running Socks (5 Pack) - Multi",,10.4200,25.0000,8.33600000,122020,122020,2,373445,1,8.68,8.6800
7592225,7592225,2729056,6000918975,"jan ählström",jan.ahlstrom1@bredband.net,6000687880,"2020-12-31 18:14:15",SE,20.8300,"Start Fitness
Fitness
SF English","2XU Accelerate Compression Mens Short Tights - Black",,20.8300,0.0000,20.83000000,122020,122020,2,291343,1,17.36,17.3600
7590534,7590534,2728533,6000918584,"Jonas Ahlqvist",jonte7476@gmail.com,6000687493,"2020-12-31 14:00:44",SE,91.6700,"Start Fitness
Fitness
SF English","Asics Gel Kayano 26 Mens Running Shoes - Black",9.1700,82.5000,0.0000,82.50000000,122020,122020,2,332980,4,68.75,82.5000
7590536,7590536,2728533,6000918584,"Jonas Ahlqvist",jonte7476@gmail.com,6000687493,"2020-12-31 14:00:44",SE,95.8300,"Start Fitness
Fitness
SF English","Asics Gel Kayano 26 Womens Running Shoes - Pink",9.5800,86.2500,0.0000,86.25000000,122020,122020,2,332915,4,71.88,86.2500
