item_id,order_item_id,"Invoice ID","Order Number","Customer name",customer_email,"Invoice No","Invoice Date",country_id,base_row_total_incl_tax,store_name,name,base_discount_amount,"Value less discount",tax_percent,"Net Discounted Amount","Return Date",month_year,value,product_id,customer_group_id,"net based on catalog vat","New tax"
7073366,7073366,2528234,6000852194,"Kieran Reay",kieranreay@startfitness.co.uk,6000624436,"2020-09-30 08:36:09",SE,1.2000,"Start Fitness
Fitness
SF English","High 5 Energy Gel Aqua",0.1200,1.0800,0.0000,1.08000000,102020,92020,5,299769,0,1.08,1.0800
