country_id,created_at,increment_id,entity_id,base_shipping_amount,base_shipping_tax_amount,base_shipping_incl_tax
AT,2021-02-01,24000043050,213636,8.3200,1.6700,9.9900
AT,2021-02-03,24000043121,214081,5.8200,1.1700,6.9900
AT,2021-02-05,24000041894,214539,0.0000,0.0000,0.0000
AT,2021-02-10,24000043274,215231,5.8300,1.1600,6.9900
AT,2021-02-11,24000043281,215486,0.0000,0.0000,0.0000
AT,2021-02-15,24000043371,215774,0.0000,0.0000,0.0000
AT,2021-02-15,24000043376,215783,0.0000,0.0000,0.0000
AT,2021-02-15,24000041917,215790,0.0000,0.0000,0.0000
AT,2021-02-17,24000043419,216098,0.0000,0.0000,0.0000
AT,2021-02-18,24000043430,216239,8.3200,1.6700,9.9900
AT,2021-02-22,24000043075,216904,0.0000,0.0000,0.0000
AT,2021-02-27,24000043688,217820,8.3200,1.6700,9.9900
AT,2021-02-27,24000043689,217822,5.8200,1.1700,6.9900
AT,2021-02-27,24000043691,217824,0.0000,0.0000,0.0000
