country_id,created_at,entity_id,increment_id,status,base_shipping_amount,base_shipping_tax_amount,base_shipping_incl_tax
SE,2020-04-01,2288023,600718971,complete,16.6200,3.3300,19.9500
SE,2020-04-02,2290739,600719466,complete,0.0000,0.0000,
SE,2020-04-02,2291132,2400666703,complete,6.6600,1.3300,7.9900
SE,2020-04-02,2291169,1900272384,complete,6.6200,1.3300,7.9500
SE,2020-04-02,2291606,600719588,complete,4.1300,0.8200,4.9500
SE,2020-04-02,2291646,600719597,complete,12.4600,2.4900,14.9500
SE,2020-04-02,2291844,2500310306,complete,4.1300,0.8200,4.9500
SE,2020-04-03,2292355,2400667036,complete,6.6600,1.3300,7.9900
SE,2020-04-03,2293043,600719793,complete,24.9200,4.9800,29.9000
SE,2020-04-03,2293061,600719797,complete,12.4600,2.4900,14.9500
SE,2020-04-03,2293250,600719834,complete,6.6200,1.3300,7.9500
SE,2020-04-03,2293467,1900272712,complete,6.6200,1.3300,7.9500
SE,2020-04-04,2294934,2400667754,complete,3.3200,0.6700,3.9900
SE,2020-04-04,2296618,1900273202,complete,6.6200,1.3300,7.9500
SE,2020-04-05,2297393,600720323,complete,6.6200,1.3300,7.9500
SE,2020-04-05,2298075,600720395,complete,12.4500,2.4900,14.9500
SE,2020-04-05,2298683,2400668901,complete,3.3200,0.6700,3.9900
SE,2020-04-05,2298698,600720476,complete,12.4600,2.4900,14.9500
SE,2020-04-06,2300133,600720641,complete,6.6200,1.3300,7.9500
SE,2020-04-06,2301213,600720865,complete,6.6200,1.3300,7.9500
SE,2020-04-06,2301580,600720928,complete,12.4600,2.4900,14.9500
SE,2020-04-06,2301733,600720969,complete,12.4600,2.4900,14.9500
SE,2020-04-06,2301881,600721000,complete,6.6300,1.3200,7.9500
SE,2020-04-07,2302149,600721031,complete,6.6200,1.3300,7.9500
SE,2020-04-07,2302150,600721032,complete,4.1200,0.8300,4.9500
SE,2020-04-07,2302192,600721037,complete,6.6200,1.3300,7.9500
SE,2020-04-08,2304629,2500315211,complete,8.2500,1.6500,9.9000
SE,2020-04-08,2304809,1900274495,complete,6.6200,1.3300,7.9500
SE,2020-04-08,2304849,2400670756,complete,6.6500,1.3400,7.9900
SE,2020-04-08,2304906,2500315281,complete,8.2900,1.6600,9.9500
SE,2020-04-08,2305282,2400670879,complete,3.3200,0.6700,3.9900
SE,2020-04-08,2305491,600721732,complete,6.6200,1.3300,7.9500
SE,2020-04-09,2306592,600721891,complete,6.6300,1.3200,7.9500
SE,2020-04-09,2307349,600722063,complete,16.6200,3.3300,19.9500
SE,2020-04-09,2307661,600722129,complete,12.4600,2.4900,14.9500
SE,2020-04-09,2308119,1900275070,complete,12.4600,2.4900,14.9500
SE,2020-04-09,2308281,600722234,complete,12.4600,2.4900,14.9500
SE,2020-04-11,2312257,600722875,complete,16.6300,3.3200,19.9500
SE,2020-04-11,2312320,600722889,complete,12.4600,2.4900,14.9500
SE,2020-04-12,2313814,1900276199,complete,6.6200,1.3300,7.9500
SE,2020-04-12,2314160,600723201,complete,6.6200,1.3300,7.9500
SE,2020-04-12,2314814,600723320,complete,12.4600,2.4900,14.9500
SE,2020-04-12,2315125,600723370,complete,12.4500,2.4900,14.9500
SE,2020-04-13,2316910,1900276772,complete,6.6200,1.3300,7.9500
SE,2020-04-13,2317435,2500319132,complete,0.0000,0.0000,
SE,2020-04-13,2318037,600723904,complete,6.6300,1.3200,7.9500
SE,2020-04-14,2318993,2500319588,complete,4.1300,0.8200,4.9500
SE,2020-04-14,2319834,600724269,complete,6.6200,1.3300,7.9500
SE,2020-04-14,2320206,1900277362,complete,6.6200,1.3300,7.9500
SE,2020-04-14,2320444,2500320012,complete,4.1300,0.8200,4.9500
SE,2020-04-14,2320559,600724414,complete,12.4600,2.4900,14.9500
SE,2020-04-15,2321159,600724484,complete,6.6200,1.3300,7.9500
SE,2020-04-15,2321191,2500320266,complete,4.1200,0.8200,4.9500
SE,2020-04-16,2323789,600725012,complete,6.6200,1.3300,7.9500
SE,2020-04-16,2324153,1900278139,complete,12.4600,2.4900,14.9500
SE,2020-04-16,2324381,1900278183,complete,6.6200,1.3300,7.9500
SE,2020-04-16,2324775,2400676732,complete,8.3200,1.6700,9.9900
SE,2020-04-16,2325092,1900278306,complete,12.4500,2.4900,14.9500
SE,2020-04-16,2325326,1900278350,complete,12.4600,2.4900,14.9500
SE,2020-04-16,2325362,2500321492,complete,7.3900,1.4800,8.8700
SE,2020-04-16,2325381,600725431,complete,12.4600,2.4900,14.9500
SE,2020-04-16,2325528,600725472,complete,12.4600,2.4900,14.9500
SE,2020-04-17,2326011,2400677098,complete,3.3200,0.6700,3.9900
SE,2020-04-17,2327382,2400677476,complete,6.6600,1.3300,7.9900
SE,2020-04-17,2327465,1900278817,complete,4.1200,0.8200,4.9500
SE,2020-04-17,2327754,1900278898,complete,6.6200,1.3300,7.9500
SE,2020-04-18,2329045,2500322357,complete,8.3000,1.6500,9.9500
SE,2020-04-19,2330362,2500322707,complete,4.9600,0.9900,5.9500
SE,2020-04-19,2330388,600726492,complete,12.4600,2.4900,14.9500
SE,2020-04-19,2330495,600726517,complete,6.6200,1.3300,7.9500
SE,2020-04-19,2331210,600726662,complete,6.6200,1.3300,7.9500
SE,2020-04-20,2332792,600726937,complete,6.6300,1.3200,7.9500
SE,2020-04-20,2333083,1900280065,complete,12.4600,2.4900,14.9500
SE,2020-04-20,2333439,600727122,complete,6.6200,1.3300,7.9500
SE,2020-04-20,2334430,2400679649,complete,8.9100,1.7800,10.6900
SE,2020-04-21,2335244,600727500,complete,12.4500,2.4900,14.9500
SE,2020-04-21,2336777,2400680348,complete,3.3200,0.6700,3.9900
SE,2020-04-21,2336833,600727873,complete,12.4500,2.4900,14.9500
SE,2020-04-21,2337006,600727906,complete,6.6200,1.3300,7.9500
SE,2020-04-21,2337054,600727917,complete,6.6200,1.3300,7.9500
SE,2020-04-22,2338081,600728101,complete,6.6200,1.3300,7.9500
SE,2020-04-22,2338952,600728335,complete,12.4600,2.4900,14.9500
SE,2020-04-22,2339339,1900281411,complete,6.6200,1.3300,7.9500
SE,2020-04-23,2341155,600728845,complete,6.6200,1.3300,7.9500
SE,2020-04-23,2341464,600728930,bike_order,79.1200,15.8300,94.9500
SE,2020-04-24,2342288,1900282107,complete,12.4500,2.4900,14.9500
SE,2020-04-24,2342542,600729151,complete,12.4600,2.4900,14.9500
SE,2020-04-24,2343290,600729352,complete,12.4600,2.4900,14.9500
SE,2020-04-24,2344264,1900282548,complete,6.6200,1.3300,7.9500
SE,2020-04-25,2345012,1900282742,complete,6.6200,1.3300,7.9500
SE,2020-04-25,2346614,600730012,complete,6.6200,1.3300,7.9500
SE,2020-04-26,2347169,600730088,complete,6.6200,1.3300,7.9500
SE,2020-04-26,2347684,1900283282,complete,6.6200,1.3300,7.9500
SE,2020-04-26,2347921,600730236,complete,12.4600,2.4900,14.9500
SE,2020-04-26,2349111,600730494,complete,6.6200,1.3300,7.9500
SE,2020-04-26,2349439,600730544,complete,6.6300,1.3200,7.9500
SE,2020-04-26,2349496,1900283692,complete,6.6200,1.3300,7.9500
SE,2020-04-27,2349906,2500327861,complete,0.0000,0.0000,
SE,2020-04-27,2350490,600730792,complete,12.4500,2.5000,14.9500
SE,2020-04-27,2350695,600730864,complete,6.6300,1.3200,7.9500
SE,2020-04-27,2351129,600731000,complete,6.6200,1.3300,7.9500
SE,2020-04-27,2351423,600731084,complete,6.6200,1.3300,7.9500
SE,2020-04-27,2351452,600731091,complete,12.4600,2.4900,14.9500
SE,2020-04-27,2352142,2500328445,complete,8.2900,1.6600,9.9500
SE,2020-04-28,2352462,1900284327,complete,12.4600,2.4900,14.9500
SE,2020-04-28,2352603,600731322,complete,0.0000,0.0000,
SE,2020-04-28,2352908,600731423,complete,4.1200,0.8200,4.9500
SE,2020-04-28,2353083,2500328706,complete,4.1300,0.8200,4.9500
SE,2020-04-28,2353457,600731608,complete,6.6300,1.3200,7.9500
SE,2020-04-28,2354160,600731773,complete,12.4600,2.4900,14.9500
SE,2020-04-28,2354550,1900284769,complete,12.4500,2.5000,14.9500
SE,2020-04-29,2354866,600731888,complete,6.6300,1.3200,7.9500
SE,2020-04-29,2354885,1900284854,complete,6.6300,1.3200,7.9500
SE,2020-04-29,2354994,600731908,complete,6.6200,1.3300,7.9500
SE,2020-04-29,2357309,2500329823,packed,3.6700,0.7400,4.4100
SE,2020-04-30,2357997,600732613,complete,12.4600,2.4900,14.9500
SE,2020-04-30,2359328,600732939,pick_note_printed,6.6200,1.3300,7.9500
