country_id,created_at,entity_id,increment_id,status,base_shipping_amount,base_shipping_tax_amount,base_shipping_incl_tax
FR,2020-03-01,2248296,2400654556,complete,6.6800,1.3400,8.0200
FR,2020-03-01,2248369,2400654573,complete,0.0000,0.0000,
FR,2020-03-01,2248385,2400654579,complete,0.0000,0.0000,
FR,2020-03-01,2248417,2400654591,complete,0.0000,0.0000,
FR,2020-03-01,2248425,2400654595,complete,0.0000,0.0000,
FR,2020-03-01,2248468,2400654612,complete,0.0000,0.0000,
FR,2020-03-01,2248474,2400654614,complete,6.6800,1.3400,8.0200
FR,2020-03-01,2248516,2400654633,complete,0.0000,0.0000,
FR,2020-03-01,2248521,2400654636,complete,0.0000,0.0000,
FR,2020-03-01,2248525,2400654638,complete,0.0000,0.0000,
FR,2020-03-01,2248526,2400654639,complete,0.0000,0.0000,
FR,2020-03-01,2248576,2400654655,closed,0.0000,0.0000,
FR,2020-03-01,2248577,2500296486,complete,0.0000,0.0000,
FR,2020-03-01,2248626,2500296492,complete,2.0900,0.4100,2.5000
FR,2020-03-01,2248749,2400654719,complete,0.0000,0.0000,
FR,2020-03-01,2248774,2400654728,complete,0.0000,0.0000,
FR,2020-03-01,2248841,2400654754,complete,0.0000,0.0000,
FR,2020-03-01,2248862,2400654761,complete,0.0000,0.0000,
FR,2020-03-01,2248868,2400654763,complete,0.0000,0.0000,
FR,2020-03-01,2248874,2400654766,complete,0.0000,0.0000,
FR,2020-03-01,2248894,2400654777,closed,0.0000,0.0000,
FR,2020-03-01,2248895,2400654778,closed,0.0000,0.0000,
FR,2020-03-01,2248981,2400654803,complete,0.0000,0.0000,
FR,2020-03-01,2249067,2400654831,complete,0.0000,0.0000,
FR,2020-03-01,2249094,2400654840,complete,0.0000,0.0000,
FR,2020-03-01,2249095,2400654841,complete,0.0000,0.0000,
FR,2020-03-01,2249118,2400654849,complete,3.7100,0.7400,4.4500
FR,2020-03-01,2249119,2400654850,complete,0.0000,0.0000,
FR,2020-03-01,2249137,2400654855,complete,0.0000,0.0000,
FR,2020-03-01,2249151,2400654862,closed,0.0000,0.0000,
FR,2020-03-01,2249173,2400654865,complete,0.0000,0.0000,
FR,2020-03-01,2249226,2400654889,complete,0.0000,0.0000,
FR,2020-03-01,2249234,2400654894,complete,0.0000,0.0000,
FR,2020-03-01,2249300,2400654924,closed,0.0000,0.0000,
FR,2020-03-01,2249327,2400654932,complete,0.0000,0.0000,
FR,2020-03-01,2249354,2400654941,complete,0.0000,0.0000,
FR,2020-03-01,2249355,2400654942,complete,0.0000,0.0000,
FR,2020-03-01,2249365,2400654948,closed,0.0000,0.0000,
FR,2020-03-01,2249379,2400654951,complete,0.0000,0.0000,
FR,2020-03-01,2249385,2400654953,complete,0.0000,0.0000,
FR,2020-03-01,2249386,2400654954,complete,0.0000,0.0000,
FR,2020-03-01,2249387,2400654955,complete,5.9400,1.1900,7.1300
FR,2020-03-01,2249407,2400654962,complete,0.0000,0.0000,
FR,2020-03-01,2249431,2400654970,complete,0.0000,0.0000,
FR,2020-03-01,2249517,2400654998,complete,0.0000,0.0000,
FR,2020-03-01,2249518,2400654999,complete,0.0000,0.0000,
FR,2020-03-01,2249526,2400655001,complete,0.0000,0.0000,
FR,2020-03-01,2249540,2400655008,complete,0.0000,0.0000,
FR,2020-03-01,2249563,2400655015,complete,5.9400,1.1900,7.1300
FR,2020-03-01,2249564,2400655016,complete,0.0000,0.0000,
FR,2020-03-01,2249605,2400655029,complete,0.0000,0.0000,
FR,2020-03-01,2249606,2400655030,complete,0.0000,0.0000,
FR,2020-03-01,2249656,2400655047,complete,0.0000,0.0000,
FR,2020-03-01,2249698,2400655064,complete,0.0000,0.0000,
FR,2020-03-01,2249743,2400655083,complete,0.0000,0.0000,
FR,2020-03-01,2249744,2400655084,complete,6.6800,1.3400,8.0200
FR,2020-03-01,2249753,2400655089,complete,6.6800,1.3400,8.0200
FR,2020-03-01,2249772,2400655095,complete,6.6800,1.3400,8.0200
FR,2020-03-02,2249855,2400655120,complete,0.0000,0.0000,
FR,2020-03-02,2249867,2400655124,complete,0.0000,0.0000,
FR,2020-03-02,2249874,2400655128,complete,6.6800,1.3400,8.0200
FR,2020-03-02,2249881,2500296741,complete,2.0900,0.4100,2.5000
FR,2020-03-02,2249883,600711007,complete,8.3300,1.6700,10.0000
FR,2020-03-02,2249905,2400655132,complete,0.0000,0.0000,
FR,2020-03-02,2249914,2400655134,complete,0.0000,0.0000,
FR,2020-03-02,2249921,2400655139,complete,0.0000,0.0000,
FR,2020-03-02,2249946,2400655148,complete,0.0000,0.0000,
FR,2020-03-02,2249960,2400655156,complete,0.0000,0.0000,
FR,2020-03-02,2249979,2400655165,closed,0.0000,0.0000,
FR,2020-03-02,2250009,2400655174,complete,0.0000,0.0000,
FR,2020-03-02,2250034,600711034,complete,8.3300,0.0000,8.3300
FR,2020-03-02,2250037,2400655182,complete,0.0000,0.0000,
FR,2020-03-02,2250050,2500296776,complete,4.9600,0.9900,5.9500
FR,2020-03-02,2250074,2400655194,complete,0.0000,0.0000,
FR,2020-03-02,2250115,2500296784,complete,4.1700,0.8300,5.0000
FR,2020-03-02,2250116,2400655209,complete,0.0000,0.0000,
FR,2020-03-02,2250121,2400655211,complete,0.0000,0.0000,
FR,2020-03-02,2250122,2400655212,complete,0.0000,0.0000,
FR,2020-03-02,2250126,2400655214,complete,0.0000,0.0000,
FR,2020-03-02,2250226,2400655251,complete,0.0000,0.0000,
FR,2020-03-02,2250241,2400655258,complete,0.0000,0.0000,
FR,2020-03-02,2250245,2400655260,complete,6.6800,1.3400,8.0200
FR,2020-03-02,2250272,2400655264,complete,0.0000,0.0000,
FR,2020-03-02,2250307,2400655270,complete,0.0000,0.0000,
FR,2020-03-02,2250324,2400655277,complete,6.6800,1.3400,8.0200
FR,2020-03-02,2250352,2400655291,closed,0.0000,0.0000,
FR,2020-03-02,2250364,2400655297,complete,0.0000,0.0000,
FR,2020-03-02,2250448,2400655329,complete,5.5600,1.1100,6.6700
FR,2020-03-02,2250482,2400655335,complete,0.0000,0.0000,
FR,2020-03-02,2250539,2500296856,complete,2.0800,0.4200,2.5000
FR,2020-03-02,2250586,2400655373,complete,0.0000,0.0000,
FR,2020-03-02,2250615,2400655387,complete,0.0000,0.0000,
FR,2020-03-02,2250666,2400655413,complete,0.0000,0.0000,
FR,2020-03-02,2250689,2400655423,complete,0.0000,0.0000,
FR,2020-03-02,2250695,2400655427,complete,0.0000,0.0000,
FR,2020-03-02,2250700,2400655430,complete,0.0000,0.0000,
FR,2020-03-02,2250706,2400655432,complete,0.0000,0.0000,
FR,2020-03-02,2250713,2400655437,complete,5.5500,1.1200,6.6700
FR,2020-03-02,2250752,2400655450,complete,0.0000,0.0000,
FR,2020-03-02,2250762,2400655455,complete,0.0000,0.0000,
FR,2020-03-02,2250793,2400655467,complete,0.0000,0.0000,
FR,2020-03-02,2250831,2400655478,complete,0.0000,0.0000,
FR,2020-03-02,2250851,2400655486,complete,0.0000,0.0000,
FR,2020-03-02,2250892,2400655498,complete,8.1700,1.6300,9.8000
FR,2020-03-02,2250980,2400655525,complete,0.0000,0.0000,
FR,2020-03-02,2251011,2400655533,closed,0.0000,0.0000,
FR,2020-03-02,2251055,2400655553,complete,0.0000,0.0000,
FR,2020-03-02,2251076,2400655558,complete,0.0000,0.0000,
FR,2020-03-02,2251089,2400655564,complete,0.0000,0.0000,
FR,2020-03-03,2251120,2400655572,complete,0.0000,0.0000,
FR,2020-03-03,2251225,2400655597,complete,0.0000,0.0000,
FR,2020-03-03,2251264,2400655614,complete,0.0000,0.0000,
FR,2020-03-03,2251349,2400655643,closed,0.0000,0.0000,
FR,2020-03-03,2251382,2500297018,complete,2.0900,0.4100,2.5000
FR,2020-03-03,2251400,2500297022,complete,0.0000,0.0000,
FR,2020-03-03,2251413,2400655660,complete,6.6800,1.3400,8.0200
FR,2020-03-03,2251432,600711386,complete,8.3300,1.6700,10.0000
FR,2020-03-03,2251500,2400655693,complete,0.0000,0.0000,
FR,2020-03-03,2251536,2400655703,complete,0.0000,0.0000,
FR,2020-03-03,2251563,2400655713,complete,0.0000,0.0000,
FR,2020-03-03,2251569,2400655714,complete,6.6600,1.3300,7.9900
FR,2020-03-03,2251571,2400655716,complete,0.0000,0.0000,
FR,2020-03-03,2251616,2400655724,complete,0.0000,0.0000,
FR,2020-03-03,2251642,2400655732,complete,0.0000,0.0000,
FR,2020-03-03,2251648,2400655733,complete,0.0000,0.0000,
FR,2020-03-03,2251661,2400655739,complete,0.0000,0.0000,
FR,2020-03-03,2251696,2500297075,complete,0.0000,0.0000,
FR,2020-03-03,2251698,600711468,complete,0.0000,0.0000,
FR,2020-03-03,2251700,2400655753,complete,0.0000,0.0000,
FR,2020-03-03,2251729,2400655757,complete,0.0000,0.0000,
FR,2020-03-03,2251760,2400655771,complete,0.0000,0.0000,
FR,2020-03-03,2251767,2400655775,complete,0.0000,0.0000,
FR,2020-03-03,2251793,2400655787,complete,0.0000,0.0000,
FR,2020-03-03,2251811,2400655794,complete,0.0000,0.0000,
FR,2020-03-03,2251844,2400655806,closed,0.0000,0.0000,
FR,2020-03-03,2251882,2400655818,closed,0.0000,0.0000,
FR,2020-03-03,2251921,2400655837,complete,7.4200,1.4900,8.9100
FR,2020-03-03,2251931,2400655840,complete,0.0000,0.0000,
FR,2020-03-03,2251997,2400655863,complete,0.0000,0.0000,
FR,2020-03-03,2252024,2400655876,complete,0.0000,0.0000,
FR,2020-03-03,2252060,2400655892,complete,0.0000,0.0000,
FR,2020-03-03,2252064,2400655893,complete,0.0000,0.0000,
FR,2020-03-03,2252072,2400655895,complete,0.0000,0.0000,
FR,2020-03-03,2252097,2400655903,complete,0.0000,0.0000,
FR,2020-03-03,2252108,2400655907,complete,0.0000,0.0000,
FR,2020-03-03,2252185,2400655937,complete,6.6800,1.3400,8.0200
FR,2020-03-03,2252231,2400655952,complete,0.0000,0.0000,
FR,2020-03-03,2252243,2400655956,complete,0.0000,0.0000,
FR,2020-03-03,2252252,2400655960,complete,0.0000,0.0000,
FR,2020-03-03,2252310,2400655982,complete,6.6800,1.3400,8.0200
FR,2020-03-03,2252340,2400655996,complete,0.0000,0.0000,
FR,2020-03-03,2252362,2400656006,complete,0.0000,0.0000,
FR,2020-03-04,2252434,2500297216,complete,0.0000,0.0000,
FR,2020-03-04,2252479,2400656044,complete,0.0000,0.0000,
FR,2020-03-04,2252496,2400656048,complete,0.0000,0.0000,
FR,2020-03-04,2252520,2400656055,complete,0.0000,0.0000,
FR,2020-03-04,2252555,2400656063,complete,0.0000,0.0000,
FR,2020-03-04,2252561,2400656065,complete,0.0000,0.0000,
FR,2020-03-04,2252568,2400656070,complete,0.0000,0.0000,
FR,2020-03-04,2252572,2400656072,complete,0.0000,0.0000,
FR,2020-03-04,2252600,2400656082,complete,6.6800,1.3400,8.0200
FR,2020-03-04,2252621,2400656087,complete,0.0000,0.0000,
FR,2020-03-04,2252622,2400656088,complete,0.0000,0.0000,
FR,2020-03-04,2252656,2400656101,complete,0.0000,0.0000,
FR,2020-03-04,2252666,2400656104,complete,0.0000,0.0000,
FR,2020-03-04,2252725,2400656129,complete,0.0000,0.0000,
FR,2020-03-04,2252739,2400656134,closed,0.0000,0.0000,
FR,2020-03-04,2252763,2400656143,complete,0.0000,0.0000,
FR,2020-03-04,2252764,2400656144,complete,0.0000,0.0000,
FR,2020-03-04,2252795,2400656154,complete,6.6800,1.3400,8.0200
FR,2020-03-04,2252805,2400656160,complete,0.0000,0.0000,
FR,2020-03-04,2252820,2400656165,complete,0.0000,0.0000,
FR,2020-03-04,2252821,2400656166,closed,0.0000,0.0000,
FR,2020-03-04,2252857,2400656176,complete,0.0000,0.0000,
FR,2020-03-04,2252878,2500297285,complete,0.0000,0.0000,
FR,2020-03-04,2252912,2400656192,complete,0.0000,0.0000,
FR,2020-03-04,2252914,2400656193,complete,0.0000,0.0000,
FR,2020-03-04,2252916,2400656195,complete,0.0000,0.0000,
FR,2020-03-04,2252943,2400656208,complete,0.0000,0.0000,
FR,2020-03-04,2252955,2400656216,complete,0.0000,0.0000,
FR,2020-03-04,2252988,2400656231,complete,0.0000,0.0000,
FR,2020-03-04,2253085,2400656266,complete,0.0000,0.0000,
FR,2020-03-04,2253086,2400656267,complete,0.0000,0.0000,
FR,2020-03-04,2253146,2400656292,complete,0.0000,0.0000,
FR,2020-03-04,2253147,2400656293,complete,0.0000,0.0000,
FR,2020-03-04,2253170,2400656310,complete,0.0000,0.0000,
FR,2020-03-04,2253190,2400656317,complete,0.0000,0.0000,
FR,2020-03-04,2253191,2400656318,complete,0.0000,0.0000,
FR,2020-03-04,2253211,2400656328,complete,0.0000,0.0000,
FR,2020-03-04,2253242,2400656346,complete,0.0000,0.0000,
FR,2020-03-04,2253287,2400656362,complete,0.0000,0.0000,
FR,2020-03-04,2253288,2400656363,complete,0.0000,0.0000,
FR,2020-03-04,2253317,2400656372,complete,0.0000,0.0000,
FR,2020-03-04,2253330,2400656377,complete,0.0000,0.0000,
FR,2020-03-04,2253352,2400656384,complete,0.0000,0.0000,
FR,2020-03-04,2253373,2400656393,complete,0.0000,0.0000,
FR,2020-03-04,2253375,2500297363,complete,2.0900,0.4100,2.5000
FR,2020-03-04,2253400,2400656406,complete,0.0000,0.0000,
FR,2020-03-04,2253411,2400656412,complete,0.0000,0.0000,
FR,2020-03-04,2253443,2400656427,complete,0.0000,0.0000,
FR,2020-03-04,2253452,2400656429,complete,0.0000,0.0000,
FR,2020-03-04,2253465,2400656435,complete,0.0000,0.0000,
FR,2020-03-04,2253488,2500297379,complete,4.9600,0.9900,5.9500
FR,2020-03-04,2253518,2400656455,complete,0.0000,0.0000,
FR,2020-03-04,2253547,2400656467,complete,7.4200,1.4900,8.9100
FR,2020-03-04,2253569,2400656478,complete,0.0000,0.0000,
FR,2020-03-04,2253575,2400656481,complete,0.0000,0.0000,
FR,2020-03-05,2253597,2400656489,complete,0.0000,0.0000,
FR,2020-03-05,2253616,2400656492,complete,0.0000,0.0000,
FR,2020-03-05,2253645,2400656498,complete,0.0000,0.0000,
FR,2020-03-05,2253651,2400656500,complete,6.6800,1.3400,8.0200
FR,2020-03-05,2253669,2400656507,complete,0.0000,0.0000,
FR,2020-03-05,2253670,600711911,complete,8.3300,0.0000,8.3300
FR,2020-03-05,2253676,2400656509,complete,0.0000,0.0000,
FR,2020-03-05,2253680,2400656512,complete,0.0000,0.0000,
FR,2020-03-05,2253717,2400656526,complete,0.0000,0.0000,
FR,2020-03-05,2253728,2400656530,complete,0.0000,0.0000,
FR,2020-03-05,2253737,2400656536,complete,0.0000,0.0000,
FR,2020-03-05,2253747,2400656542,complete,0.0000,0.0000,
FR,2020-03-05,2253748,2400656543,complete,0.0000,0.0000,
FR,2020-03-05,2253753,2400656546,complete,0.0000,0.0000,
FR,2020-03-05,2253759,2400656550,complete,0.0000,0.0000,
FR,2020-03-05,2253786,2400656559,complete,0.0000,0.0000,
FR,2020-03-05,2253808,2400656564,complete,0.0000,0.0000,
FR,2020-03-05,2253815,2400656568,complete,5.5600,1.1100,6.6700
FR,2020-03-05,2253825,2400656571,complete,0.0000,0.0000,
FR,2020-03-05,2253833,600711954,complete,12.4600,2.4900,14.9500
FR,2020-03-05,2253926,2400656606,complete,0.0000,0.0000,
FR,2020-03-05,2253951,2400656615,complete,8.1700,1.6300,9.8000
FR,2020-03-05,2253966,2400656621,complete,0.0000,0.0000,
FR,2020-03-05,2253985,2400656629,complete,0.0000,0.0000,
FR,2020-03-05,2254036,2400656651,complete,0.0000,0.0000,
FR,2020-03-05,2254049,2400656654,complete,0.0000,0.0000,
FR,2020-03-05,2254095,2400656668,complete,0.0000,0.0000,
FR,2020-03-05,2254139,2400656681,complete,5.5600,1.1100,6.6700
FR,2020-03-05,2254144,2400656685,complete,0.0000,0.0000,
FR,2020-03-05,2254185,2400656707,complete,0.0000,0.0000,
FR,2020-03-05,2254198,2400656712,complete,0.0000,0.0000,
FR,2020-03-05,2254212,2400656718,complete,0.0000,0.0000,
FR,2020-03-05,2254213,2400656719,complete,0.0000,0.0000,
FR,2020-03-05,2254249,2400656730,complete,0.0000,0.0000,
FR,2020-03-05,2254314,2500297513,complete,0.0000,0.0000,
FR,2020-03-05,2254383,2400656781,complete,0.0000,0.0000,
FR,2020-03-05,2254412,2400656793,complete,0.0000,0.0000,
FR,2020-03-05,2254422,2400656797,complete,0.0000,0.0000,
FR,2020-03-05,2254427,600712113,complete,12.4600,2.4900,14.9500
FR,2020-03-05,2254462,2400656812,complete,0.0000,0.0000,
FR,2020-03-05,2254466,2400656815,complete,0.0000,0.0000,
FR,2020-03-05,2254473,2400656821,complete,0.0000,0.0000,
FR,2020-03-05,2254551,2400656851,complete,0.0000,0.0000,
FR,2020-03-05,2254574,2400656860,complete,0.0000,0.0000,
FR,2020-03-05,2254586,2400656866,complete,0.0000,0.0000,
FR,2020-03-05,2254642,2400656889,complete,0.0000,0.0000,
FR,2020-03-05,2254673,2400656900,complete,0.0000,0.0000,
FR,2020-03-05,2254682,2400656904,complete,0.0000,0.0000,
FR,2020-03-05,2254683,2400656905,complete,0.0000,0.0000,
FR,2020-03-05,2254722,2400656920,complete,0.0000,0.0000,
FR,2020-03-05,2254743,2400656929,complete,0.0000,0.0000,
FR,2020-03-06,2254773,2400656945,complete,0.0000,0.0000,
FR,2020-03-06,2254828,2400656957,complete,0.0000,0.0000,
FR,2020-03-06,2254879,2400656968,complete,0.0000,0.0000,
FR,2020-03-06,2254943,2500297653,complete,4.9500,0.9900,5.9500
FR,2020-03-06,2254995,600712197,complete,8.3400,1.6600,10.0000
FR,2020-03-06,2255019,2400657021,complete,0.0000,0.0000,
FR,2020-03-06,2255038,2400657026,closed,0.0000,0.0000,
FR,2020-03-06,2255099,600712241,complete,8.3300,0.0000,8.3300
FR,2020-03-06,2255111,2400657044,complete,0.0000,0.0000,
FR,2020-03-06,2255120,2400657051,complete,0.0000,0.0000,
FR,2020-03-06,2255126,2400657054,complete,0.0000,0.0000,
FR,2020-03-06,2255149,2400657061,complete,0.0000,0.0000,
FR,2020-03-06,2255150,2400657062,complete,0.0000,0.0000,
FR,2020-03-06,2255165,2400657069,complete,6.6800,1.3400,8.0200
FR,2020-03-06,2255170,2400657071,complete,0.0000,0.0000,
FR,2020-03-06,2255194,2400657079,complete,0.0000,0.0000,
FR,2020-03-06,2255202,2400657082,complete,0.0000,0.0000,
FR,2020-03-06,2255209,2400657086,complete,0.0000,0.0000,
FR,2020-03-06,2255245,2400657093,complete,0.0000,0.0000,
FR,2020-03-06,2255353,2400657132,closed,0.0000,0.0000,
FR,2020-03-06,2255372,2400657137,complete,0.0000,0.0000,
FR,2020-03-06,2255425,2400657158,complete,0.0000,0.0000,
FR,2020-03-06,2255448,2400657168,complete,0.0000,0.0000,
FR,2020-03-06,2255484,2400657182,complete,0.0000,0.0000,
FR,2020-03-06,2255496,2400657191,complete,0.0000,0.0000,
FR,2020-03-06,2255559,2400657213,closed,0.0000,0.0000,
FR,2020-03-06,2255567,2400657217,complete,0.0000,0.0000,
FR,2020-03-06,2255603,2500297768,complete,2.0900,0.4100,2.5000
FR,2020-03-06,2255609,2400657226,complete,0.0000,0.0000,
FR,2020-03-06,2255628,2400657229,complete,0.0000,0.0000,
FR,2020-03-06,2255733,2400657263,complete,0.0000,0.0000,
FR,2020-03-07,2255812,2500297815,complete,2.0800,0.4200,2.5000
FR,2020-03-07,2255838,2400657304,closed,0.0000,0.0000,
FR,2020-03-07,2255869,2400657311,complete,0.0000,0.0000,
FR,2020-03-07,2255889,2400657316,complete,0.0000,0.0000,
FR,2020-03-07,2255928,2500297848,complete,2.0900,0.4100,2.5000
FR,2020-03-07,2255943,2400657335,complete,0.0000,0.0000,
FR,2020-03-07,2255950,1900266833,complete,8.3300,1.6700,10.0000
FR,2020-03-07,2256043,2400657366,complete,0.0000,0.0000,
FR,2020-03-07,2256097,2400657385,complete,5.5600,1.1100,6.6700
FR,2020-03-07,2256136,2400657402,complete,0.0000,0.0000,
FR,2020-03-07,2256195,2400657420,complete,0.0000,0.0000,
FR,2020-03-07,2256207,2400657424,complete,0.0000,0.0000,
FR,2020-03-07,2256236,2400657435,closed,0.0000,0.0000,
FR,2020-03-07,2256241,2400657438,complete,0.0000,0.0000,
FR,2020-03-07,2256411,2500297937,complete,2.0900,0.4100,2.5000
FR,2020-03-07,2256476,2400657526,complete,0.0000,0.0000,
FR,2020-03-07,2256478,2400657527,complete,0.0000,0.0000,
FR,2020-03-07,2256528,2400657546,complete,0.0000,0.0000,
FR,2020-03-07,2256544,2400657553,complete,0.0000,0.0000,
FR,2020-03-07,2256564,2400657562,complete,0.0000,0.0000,
FR,2020-03-07,2256580,2400657566,complete,0.0000,0.0000,
FR,2020-03-07,2256590,2400657569,complete,0.0000,0.0000,
FR,2020-03-07,2256616,2400657583,complete,0.0000,0.0000,
FR,2020-03-07,2256654,2400657594,complete,0.0000,0.0000,
FR,2020-03-07,2256732,2400657626,complete,0.0000,0.0000,
FR,2020-03-07,2256747,2400657629,complete,0.0000,0.0000,
FR,2020-03-07,2256807,2400657647,complete,0.0000,0.0000,
FR,2020-03-07,2256819,2400657650,complete,0.0000,0.0000,
FR,2020-03-07,2256871,2500298032,complete,2.0800,0.4200,2.5000
FR,2020-03-07,2256887,2400657675,complete,7.4200,1.4900,8.9100
FR,2020-03-07,2256925,2400657686,complete,0.0000,0.0000,
FR,2020-03-08,2257076,2400657725,complete,0.0000,0.0000,
FR,2020-03-08,2257138,2400657749,complete,0.0000,0.0000,
FR,2020-03-08,2257139,2400657750,complete,0.0000,0.0000,
FR,2020-03-08,2257168,2400657765,complete,0.0000,0.0000,
FR,2020-03-08,2257182,2400657772,complete,0.0000,0.0000,
FR,2020-03-08,2257189,2400657775,complete,5.5600,1.1100,6.6700
FR,2020-03-08,2257232,2400657791,complete,0.0000,0.0000,
FR,2020-03-08,2257245,2400657795,complete,0.0000,0.0000,
FR,2020-03-08,2257254,2400657800,complete,0.0000,0.0000,
FR,2020-03-08,2257341,2400657843,complete,0.0000,0.0000,
FR,2020-03-08,2257379,2400657855,complete,0.0000,0.0000,
FR,2020-03-08,2257414,2400657867,complete,0.0000,0.0000,
FR,2020-03-08,2257485,600712749,complete,8.3300,1.6700,10.0000
FR,2020-03-08,2257538,2400657915,complete,0.0000,0.0000,
FR,2020-03-08,2257586,2400657929,complete,0.0000,0.0000,
FR,2020-03-08,2257601,2400657936,complete,0.0000,0.0000,
FR,2020-03-08,2257768,2400657987,complete,0.0000,0.0000,
FR,2020-03-08,2257807,2400657995,complete,0.0000,0.0000,
FR,2020-03-08,2257823,2400658000,complete,0.0000,0.0000,
FR,2020-03-08,2257826,2400658001,complete,0.0000,0.0000,
FR,2020-03-08,2257849,2400658010,complete,0.0000,0.0000,
FR,2020-03-08,2257855,2400658012,complete,0.0000,0.0000,
FR,2020-03-08,2257936,2400658046,complete,0.0000,0.0000,
FR,2020-03-08,2257948,2700004049,complete,8.3400,1.6600,10.0000
FR,2020-03-08,2257957,2400658052,complete,0.0000,0.0000,
FR,2020-03-08,2257962,2400658055,complete,0.0000,0.0000,
FR,2020-03-08,2257972,2400658059,closed,0.0000,0.0000,
FR,2020-03-08,2257973,2400658060,complete,0.0000,0.0000,
FR,2020-03-08,2257976,2400658062,complete,0.0000,0.0000,
FR,2020-03-08,2257996,2400658070,complete,0.0000,0.0000,
FR,2020-03-08,2258129,2400658111,complete,0.0000,0.0000,
FR,2020-03-08,2258136,2400658114,complete,0.0000,0.0000,
FR,2020-03-08,2258181,2400658129,complete,0.0000,0.0000,
FR,2020-03-08,2258193,2400658136,complete,0.0000,0.0000,
FR,2020-03-08,2258206,2400658140,closed,0.0000,0.0000,
FR,2020-03-08,2258207,2400658141,complete,0.0000,0.0000,
FR,2020-03-08,2258251,2400658158,complete,0.0000,0.0000,
FR,2020-03-08,2258252,2400658159,complete,0.0000,0.0000,
FR,2020-03-08,2258258,2400658163,complete,0.0000,0.0000,
FR,2020-03-08,2258283,2400658170,complete,0.0000,0.0000,
FR,2020-03-08,2258290,2400658173,complete,0.0000,0.0000,
FR,2020-03-08,2258296,2400658176,closed,0.0000,0.0000,
FR,2020-03-08,2258305,2400658180,complete,0.0000,0.0000,
FR,2020-03-08,2258365,2400658201,complete,0.0000,0.0000,
FR,2020-03-08,2258397,2400658216,complete,8.1700,1.6300,9.8000
FR,2020-03-09,2258431,2400658230,complete,6.6800,1.3400,8.0200
FR,2020-03-09,2258471,2500298351,complete,0.0000,0.0000,
FR,2020-03-09,2258473,2400658238,complete,6.6800,1.3400,8.0200
FR,2020-03-09,2258494,2400658248,complete,0.0000,0.0000,
FR,2020-03-09,2258554,2400658267,complete,0.0000,0.0000,
FR,2020-03-09,2258644,2400658298,complete,0.0000,0.0000,
FR,2020-03-09,2258674,2400658310,complete,0.0000,0.0000,
FR,2020-03-09,2258691,2400658320,complete,0.0000,0.0000,
FR,2020-03-09,2258719,2400658326,complete,8.1700,1.6300,9.8000
FR,2020-03-09,2258738,2400658331,complete,0.0000,0.0000,
FR,2020-03-09,2258743,2400658333,complete,0.0000,0.0000,
FR,2020-03-09,2258745,2400658334,complete,0.0000,0.0000,
FR,2020-03-09,2258752,2400658338,complete,0.0000,0.0000,
FR,2020-03-09,2258757,2400658339,complete,0.0000,0.0000,
FR,2020-03-09,2258815,2400658360,closed,0.0000,0.0000,
FR,2020-03-09,2258850,600713051,complete,0.0000,0.0000,
FR,2020-03-09,2258864,2400658377,complete,0.0000,0.0000,
FR,2020-03-09,2258875,2400658381,complete,0.0000,0.0000,
FR,2020-03-09,2258963,2400658407,complete,5.5600,1.1100,6.6700
FR,2020-03-09,2258968,2400658409,complete,0.0000,0.0000,
FR,2020-03-09,2259037,2400658439,complete,0.0000,0.0000,
FR,2020-03-09,2259041,1900267441,complete,4.1200,0.8300,4.9500
FR,2020-03-09,2259103,2400658455,complete,6.6800,1.3400,8.0200
FR,2020-03-09,2259106,2400658457,complete,0.0000,0.0000,
FR,2020-03-09,2259127,2400658463,closed,0.0000,0.0000,
FR,2020-03-09,2259133,2400658467,complete,0.0000,0.0000,
FR,2020-03-09,2259206,2400658490,complete,0.0000,0.0000,
FR,2020-03-09,2259286,2400658520,complete,0.0000,0.0000,
FR,2020-03-09,2259360,2400658545,complete,0.0000,0.0000,
FR,2020-03-09,2259387,2400658557,complete,0.0000,0.0000,
FR,2020-03-09,2259405,2400658566,complete,0.0000,0.0000,
FR,2020-03-09,2259416,2400658571,complete,0.0000,0.0000,
FR,2020-03-09,2259465,2400658592,complete,0.0000,0.0000,
FR,2020-03-09,2259583,2400658624,complete,0.0000,0.0000,
FR,2020-03-09,2259603,2400658633,complete,5.5600,1.1100,6.6700
FR,2020-03-09,2259604,2400658634,complete,5.5600,1.1100,6.6700
FR,2020-03-09,2259624,2400658641,complete,0.0000,0.0000,
FR,2020-03-09,2259667,2400658657,complete,0.0000,0.0000,
FR,2020-03-09,2259691,2400658669,complete,6.6800,1.3400,8.0200
FR,2020-03-10,2259726,2400658682,complete,5.5600,1.1100,6.6700
FR,2020-03-10,2259768,2400658693,complete,0.0000,0.0000,
FR,2020-03-10,2259806,2500298587,complete,0.0000,0.0000,
FR,2020-03-10,2259807,2500298588,complete,0.0000,0.0000,
FR,2020-03-10,2259825,2500298592,complete,0.0000,0.0000,
FR,2020-03-10,2259838,2400658712,complete,0.0000,0.0000,
FR,2020-03-10,2259851,2400658716,complete,0.0000,0.0000,
FR,2020-03-10,2259871,2400658723,complete,6.6800,1.3400,8.0200
FR,2020-03-10,2259930,2400658746,complete,0.0000,0.0000,
FR,2020-03-10,2259965,2400658763,complete,0.0000,0.0000,
FR,2020-03-10,2259970,2400658766,complete,0.0000,0.0000,
FR,2020-03-10,2260012,2400658781,complete,0.0000,0.0000,
FR,2020-03-10,2260099,2400658809,complete,0.0000,0.0000,
FR,2020-03-10,2260108,2400658814,complete,0.0000,0.0000,
FR,2020-03-10,2260113,2400658816,complete,0.0000,0.0000,
FR,2020-03-10,2260129,2400658819,complete,0.0000,0.0000,
FR,2020-03-10,2260133,2500298645,complete,0.0000,0.0000,
FR,2020-03-10,2260154,2400658826,complete,0.0000,0.0000,
FR,2020-03-10,2260178,2400658836,complete,0.0000,0.0000,
FR,2020-03-10,2260256,600713404,complete,0.0000,0.0000,
FR,2020-03-10,2260359,2400658890,complete,0.0000,0.0000,
FR,2020-03-10,2260360,2400658891,complete,0.0000,0.0000,
FR,2020-03-10,2260436,2400658913,complete,6.6800,1.3400,8.0200
FR,2020-03-10,2260479,2400658924,complete,0.0000,0.0000,
FR,2020-03-10,2260492,2400658929,complete,0.0000,0.0000,
FR,2020-03-10,2260497,2400658932,complete,0.0000,0.0000,
FR,2020-03-10,2260504,2400658934,complete,0.0000,0.0000,
FR,2020-03-10,2260510,2400658937,complete,0.0000,0.0000,
FR,2020-03-10,2260523,2400658939,complete,0.0000,0.0000,
FR,2020-03-10,2260548,1900267733,complete,12.4600,2.4900,14.9500
FR,2020-03-10,2260583,2400658956,complete,0.0000,0.0000,
FR,2020-03-10,2260586,2400658957,complete,6.6800,1.3400,8.0200
FR,2020-03-10,2260634,2500298750,complete,0.0000,0.0000,
FR,2020-03-10,2260641,2400658977,complete,0.0000,0.0000,
FR,2020-03-10,2260648,2400658979,complete,0.0000,0.0000,
FR,2020-03-10,2260666,2400658985,complete,0.0000,0.0000,
FR,2020-03-10,2260669,2400658987,complete,0.0000,0.0000,
FR,2020-03-10,2260694,2400658997,complete,4.4500,0.8900,5.3400
FR,2020-03-10,2260759,2400659022,complete,6.6800,1.3400,8.0200
FR,2020-03-10,2260781,2400659033,complete,0.0000,0.0000,
FR,2020-03-10,2260787,2400659034,complete,0.0000,0.0000,
FR,2020-03-11,2260934,2400659077,complete,0.0000,0.0000,
FR,2020-03-11,2260938,2400659079,complete,0.0000,0.0000,
FR,2020-03-11,2260944,2400659081,complete,0.0000,0.0000,
FR,2020-03-11,2261058,2400659114,complete,0.0000,0.0000,
FR,2020-03-11,2261102,2400659132,complete,0.0000,0.0000,
FR,2020-03-11,2261124,2400659140,complete,0.0000,0.0000,
FR,2020-03-11,2261140,2400659149,complete,8.1700,1.6300,9.8000
FR,2020-03-11,2261202,2400659172,complete,0.0000,0.0000,
FR,2020-03-11,2261233,2400659187,complete,0.0000,0.0000,
FR,2020-03-11,2261281,2400659203,closed,0.0000,0.0000,
FR,2020-03-11,2261310,2400659213,complete,0.0000,0.0000,
FR,2020-03-11,2261311,2400659214,complete,0.0000,0.0000,
FR,2020-03-11,2261346,2400659229,complete,9.8000,1.9600,11.7600
FR,2020-03-11,2261451,2400659249,complete,0.0000,0.0000,
FR,2020-03-11,2261452,2400659250,complete,6.6800,1.3400,8.0200
FR,2020-03-11,2261453,2400659251,complete,0.0000,0.0000,
FR,2020-03-11,2261454,2400659252,complete,0.0000,0.0000,
FR,2020-03-11,2261474,2400659268,complete,0.0000,0.0000,
FR,2020-03-11,2261475,2400659269,complete,0.0000,0.0000,
FR,2020-03-11,2261492,2400659277,complete,0.0000,0.0000,
FR,2020-03-11,2261535,2400659290,complete,0.0000,0.0000,
FR,2020-03-11,2261543,2400659292,complete,0.0000,0.0000,
FR,2020-03-11,2261623,2400659320,complete,0.0000,0.0000,
FR,2020-03-11,2261638,2400659328,complete,0.0000,0.0000,
FR,2020-03-11,2261643,2400659331,complete,0.0000,0.0000,
FR,2020-03-11,2261647,2400659332,complete,0.0000,0.0000,
FR,2020-03-11,2261648,2400659333,complete,0.0000,0.0000,
FR,2020-03-11,2261654,2400659335,complete,0.0000,0.0000,
FR,2020-03-11,2261700,2400659355,complete,0.0000,0.0000,
FR,2020-03-11,2261710,2400659360,complete,0.0000,0.0000,
FR,2020-03-11,2261746,2500299003,complete,2.0800,0.4100,2.5000
FR,2020-03-11,2261749,2400659375,complete,0.0000,0.0000,
FR,2020-03-11,2261801,2400659394,complete,7.4200,1.4900,8.9100
FR,2020-03-11,2261832,2400659402,complete,0.0000,0.0000,
FR,2020-03-11,2261842,2400659407,complete,0.0000,0.0000,
FR,2020-03-11,2261864,2400659417,complete,0.0000,0.0000,
FR,2020-03-11,2261891,2400659422,complete,0.0000,0.0000,
FR,2020-03-11,2261900,2400659427,complete,0.0000,0.0000,
FR,2020-03-11,2261931,2400659438,complete,0.0000,0.0000,
FR,2020-03-11,2261957,2400659453,complete,0.0000,0.0000,
FR,2020-03-12,2261993,2400659466,complete,0.0000,0.0000,
FR,2020-03-12,2262022,2400659472,complete,0.0000,0.0000,
FR,2020-03-12,2262096,2400659499,complete,0.0000,0.0000,
FR,2020-03-12,2262097,2400659500,complete,0.0000,0.0000,
FR,2020-03-12,2262106,2400659505,complete,0.0000,0.0000,
FR,2020-03-12,2262142,2400659515,complete,8.1700,1.6300,9.8000
FR,2020-03-12,2262143,2400659516,complete,0.0000,0.0000,
FR,2020-03-12,2262191,2400659538,complete,0.0000,0.0000,
FR,2020-03-12,2262245,2400659554,complete,0.0000,0.0000,
FR,2020-03-12,2262258,2400659556,complete,0.0000,0.0000,
FR,2020-03-12,2262281,2400659563,complete,0.0000,0.0000,
FR,2020-03-12,2262293,2400659566,complete,0.0000,0.0000,
FR,2020-03-12,2262459,2400659624,complete,0.0000,0.0000,
FR,2020-03-12,2262581,2400659663,complete,0.0000,0.0000,
FR,2020-03-12,2262598,2400659666,complete,0.0000,0.0000,
FR,2020-03-12,2262603,2400659671,complete,0.0000,0.0000,
FR,2020-03-12,2262609,2400659674,complete,0.0000,0.0000,
FR,2020-03-12,2262614,2400659676,complete,0.0000,0.0000,
FR,2020-03-12,2262635,2400659686,complete,0.0000,0.0000,
FR,2020-03-12,2262656,2400659696,complete,0.0000,0.0000,
FR,2020-03-12,2262663,2400659698,complete,0.0000,0.0000,
FR,2020-03-12,2262678,2400659705,complete,0.0000,0.0000,
FR,2020-03-12,2262732,2400659719,complete,0.0000,0.0000,
FR,2020-03-12,2262754,2400659724,complete,0.0000,0.0000,
FR,2020-03-12,2262789,2400659735,complete,0.0000,0.0000,
FR,2020-03-12,2262850,2400659752,complete,0.0000,0.0000,
FR,2020-03-12,2262856,2400659755,complete,0.0000,0.0000,
FR,2020-03-12,2262883,600713977,complete,12.4500,2.4900,14.9500
FR,2020-03-12,2262909,2400659780,complete,0.0000,0.0000,
FR,2020-03-12,2262949,2400659792,complete,0.0000,0.0000,
FR,2020-03-12,2262954,2400659794,complete,0.0000,0.0000,
FR,2020-03-12,2262955,2400659795,complete,0.0000,0.0000,
FR,2020-03-13,2262990,2400659815,complete,0.0000,0.0000,
FR,2020-03-13,2263090,2400659837,complete,0.0000,0.0000,
FR,2020-03-13,2263224,2400659877,complete,0.0000,0.0000,
FR,2020-03-13,2263455,2400659946,complete,0.0000,0.0000,
FR,2020-03-13,2263480,2400659954,complete,0.0000,0.0000,
FR,2020-03-13,2263498,2400659962,complete,0.0000,0.0000,
FR,2020-03-13,2263501,2400659964,complete,0.0000,0.0000,
FR,2020-03-13,2263526,2400659975,complete,5.5600,1.1100,6.6700
FR,2020-03-13,2263597,2400659994,complete,0.0000,0.0000,
FR,2020-03-13,2263615,2500299417,complete,2.4600,0.4900,2.9500
FR,2020-03-13,2263646,2400660010,complete,0.0000,0.0000,
FR,2020-03-13,2263720,2400660034,complete,0.0000,0.0000,
FR,2020-03-13,2263731,2400660037,complete,0.0000,0.0000,
FR,2020-03-13,2263765,2400660048,complete,0.0000,0.0000,
FR,2020-03-13,2263851,2400660079,complete,0.0000,0.0000,
FR,2020-03-13,2263868,2400660090,complete,0.0000,0.0000,
FR,2020-03-14,2263982,2400660130,complete,0.0000,0.0000,
FR,2020-03-14,2264003,2400660136,complete,0.0000,0.0000,
FR,2020-03-14,2264051,2400660151,complete,0.0000,0.0000,
FR,2020-03-14,2264086,2400660163,complete,0.0000,0.0000,
FR,2020-03-14,2264103,2400660165,complete,0.0000,0.0000,
FR,2020-03-14,2264117,2400660173,complete,0.0000,0.0000,
FR,2020-03-14,2264138,2400660179,complete,0.0000,0.0000,
FR,2020-03-14,2264287,2400660226,complete,0.0000,0.0000,
FR,2020-03-14,2264430,2400660254,complete,0.0000,0.0000,
FR,2020-03-14,2264455,2400660262,complete,0.0000,0.0000,
FR,2020-03-14,2264551,2400660284,complete,0.0000,0.0000,
FR,2020-03-14,2264582,2400660296,complete,0.0000,0.0000,
FR,2020-03-14,2264583,2400660297,complete,0.0000,0.0000,
FR,2020-03-14,2264597,600714375,complete,4.1200,0.8300,4.9500
FR,2020-03-14,2264647,2400660318,complete,0.0000,0.0000,
FR,2020-03-14,2264686,2400660326,complete,0.0000,0.0000,
FR,2020-03-14,2264714,2400660337,complete,0.0000,0.0000,
FR,2020-03-14,2264783,2400660353,complete,6.6800,1.3400,8.0200
FR,2020-03-15,2264793,2400660358,complete,6.6800,1.3400,8.0200
FR,2020-03-15,2264829,2400660370,complete,0.0000,0.0000,
FR,2020-03-15,2264894,2400660383,complete,0.0000,0.0000,
FR,2020-03-15,2264924,2400660391,complete,0.0000,0.0000,
FR,2020-03-15,2264977,2400660406,complete,0.0000,0.0000,
FR,2020-03-15,2264992,2400660410,complete,0.0000,0.0000,
FR,2020-03-15,2264993,2400660411,complete,0.0000,0.0000,
FR,2020-03-15,2265002,2400660414,complete,0.0000,0.0000,
FR,2020-03-15,2265027,2400660423,complete,0.0000,0.0000,
FR,2020-03-15,2265166,2400660458,complete,0.0000,0.0000,
FR,2020-03-15,2265292,2400660490,complete,0.0000,0.0000,
FR,2020-03-15,2265317,2400660497,complete,0.0000,0.0000,
FR,2020-03-15,2265335,2400660501,complete,0.0000,0.0000,
FR,2020-03-15,2265340,2400660502,complete,6.6800,1.3400,8.0200
FR,2020-03-15,2265341,2400660503,complete,0.0000,0.0000,
FR,2020-03-15,2265348,2400660506,complete,0.0000,0.0000,
FR,2020-03-15,2265370,2500299889,complete,0.0000,0.0000,
FR,2020-03-15,2265432,2500299900,complete,12.4600,2.4900,14.9500
FR,2020-03-15,2265447,2400660539,complete,0.0000,0.0000,
FR,2020-03-15,2265455,2400660540,complete,5.5600,1.1100,6.6700
FR,2020-03-15,2265456,2400660541,complete,0.0000,0.0000,
FR,2020-03-15,2265461,2400660543,complete,0.0000,0.0000,
FR,2020-03-15,2265464,2400660544,closed,0.0000,0.0000,
FR,2020-03-15,2265482,2400660550,complete,0.0000,0.0000,
FR,2020-03-15,2265491,2400660552,complete,0.0000,0.0000,
FR,2020-03-15,2265506,2400660558,complete,6.6800,1.3400,8.0200
FR,2020-03-15,2265552,2400660567,complete,0.0000,0.0000,
FR,2020-03-15,2265555,2400660569,complete,0.0000,0.0000,
FR,2020-03-15,2265591,2400660577,complete,0.0000,0.0000,
FR,2020-03-15,2265637,2400660590,complete,6.6800,1.3400,8.0200
FR,2020-03-15,2265679,2400660601,complete,0.0000,0.0000,
FR,2020-03-15,2265707,2400660607,complete,0.0000,0.0000,
FR,2020-03-15,2265738,2400660614,complete,0.0000,0.0000,
FR,2020-03-15,2265776,2500299996,complete,2.0800,0.4100,2.5000
FR,2020-03-15,2265794,2400660636,complete,0.0000,0.0000,
FR,2020-03-15,2265805,2400660641,complete,0.0000,0.0000,
FR,2020-03-15,2265807,2500300004,complete,0.0000,0.0000,
FR,2020-03-15,2265818,2400660645,complete,0.0000,0.0000,
FR,2020-03-16,2265873,2400660657,complete,0.0000,0.0000,
FR,2020-03-16,2265990,2400660684,complete,6.6800,1.3400,8.0200
FR,2020-03-16,2266006,2400660688,complete,0.0000,0.0000,
FR,2020-03-16,2266025,2400660695,complete,0.0000,0.0000,
FR,2020-03-16,2266026,2400660696,complete,0.0000,0.0000,
FR,2020-03-16,2266032,2400660697,complete,0.0000,0.0000,
FR,2020-03-16,2266044,2400660699,complete,0.0000,0.0000,
FR,2020-03-16,2266049,2400660700,complete,0.0000,0.0000,
FR,2020-03-16,2266060,2400660704,complete,6.6800,1.3400,8.0200
FR,2020-03-16,2266075,2400660706,complete,0.0000,0.0000,
FR,2020-03-16,2266101,2400660715,complete,0.0000,0.0000,
FR,2020-03-16,2266143,2400660726,complete,6.6800,1.3400,8.0200
FR,2020-03-16,2266150,2400660729,complete,6.6800,1.3400,8.0200
FR,2020-03-16,2266186,600714737,complete,0.0000,0.0000,
FR,2020-03-16,2266200,2400660739,complete,0.0000,0.0000,
FR,2020-03-16,2266230,2400660749,complete,0.0000,0.0000,
FR,2020-03-16,2266282,2500300124,complete,2.4600,0.4900,2.9500
FR,2020-03-16,2266300,2400660772,complete,0.0000,0.0000,
FR,2020-03-16,2266358,2400660789,complete,0.0000,0.0000,
FR,2020-03-16,2266371,2400660794,complete,0.0000,0.0000,
FR,2020-03-16,2266393,2400660800,complete,0.0000,0.0000,
FR,2020-03-16,2266479,2400660824,complete,6.6800,1.3400,8.0200
FR,2020-03-16,2266502,2400660829,complete,0.0000,0.0000,
FR,2020-03-16,2266539,2400660835,complete,0.0000,0.0000,
FR,2020-03-16,2266548,2400660836,complete,0.0000,0.0000,
FR,2020-03-16,2266598,2400660849,complete,5.5600,1.1100,6.6700
FR,2020-03-16,2266616,2400660858,complete,6.6800,1.3400,8.0200
FR,2020-03-16,2266617,2500300203,complete,0.0000,0.0000,
FR,2020-03-17,2266647,2500300211,complete,2.0900,0.4100,2.5000
FR,2020-03-17,2266689,2400660874,complete,0.0000,0.0000,
FR,2020-03-17,2266696,2400660875,complete,0.0000,0.0000,
FR,2020-03-17,2266732,2400660884,complete,6.6800,1.3400,8.0200
FR,2020-03-17,2266842,2400660913,complete,0.0000,0.0000,
FR,2020-03-17,2266854,2400660916,complete,0.0000,0.0000,
FR,2020-03-17,2266871,2400660921,complete,0.0000,0.0000,
FR,2020-03-17,2266882,2400660924,complete,7.4200,1.4900,8.9100
FR,2020-03-17,2266927,2400660937,complete,0.0000,0.0000,
FR,2020-03-17,2266941,2400660940,complete,0.0000,0.0000,
FR,2020-03-17,2266949,600714952,complete,0.0000,0.0000,
FR,2020-03-17,2267002,2400660951,complete,0.0000,0.0000,
FR,2020-03-17,2267004,2400660952,complete,0.0000,0.0000,
FR,2020-03-17,2267069,2400660967,complete,0.0000,0.0000,
FR,2020-03-17,2267082,2400660973,complete,5.5600,1.1100,6.6700
FR,2020-03-17,2267093,2400660976,complete,0.0000,0.0000,
FR,2020-03-17,2267109,2400660981,complete,0.0000,0.0000,
FR,2020-03-17,2267119,2400660984,complete,0.0000,0.0000,
FR,2020-03-17,2267128,2400660988,complete,0.0000,0.0000,
FR,2020-03-17,2267152,2400660996,complete,0.0000,0.0000,
FR,2020-03-17,2267174,2400661003,complete,7.4200,1.4900,8.9100
FR,2020-03-17,2267263,2400661019,complete,0.0000,0.0000,
FR,2020-03-17,2267265,2400661020,complete,0.0000,0.0000,
FR,2020-03-17,2267274,2400661025,complete,0.0000,0.0000,
FR,2020-03-17,2267331,2400661042,complete,7.4300,1.4800,8.9100
FR,2020-03-17,2267334,2400661044,complete,0.0000,0.0000,
FR,2020-03-18,2267482,2400661080,complete,0.0000,0.0000,
FR,2020-03-18,2267507,2400661084,complete,0.0000,0.0000,
FR,2020-03-18,2267540,600715107,complete,0.0000,0.0000,
FR,2020-03-18,2267570,2400661101,complete,0.0000,0.0000,
FR,2020-03-18,2267605,2500300430,complete,2.0800,0.4200,2.5000
FR,2020-03-18,2267633,2400661118,complete,0.0000,0.0000,
FR,2020-03-18,2267641,2400661123,complete,0.0000,0.0000,
FR,2020-03-18,2267697,2400661136,complete,0.0000,0.0000,
FR,2020-03-18,2267766,2400661150,complete,0.0000,0.0000,
FR,2020-03-18,2267772,2400661153,complete,5.5600,1.1100,6.6700
FR,2020-03-18,2267797,2400661162,complete,0.0000,0.0000,
FR,2020-03-18,2267866,2400661181,complete,0.0000,0.0000,
FR,2020-03-18,2267873,2400661184,complete,0.0000,0.0000,
FR,2020-03-18,2267934,2400661200,complete,6.6800,1.3400,8.0200
FR,2020-03-18,2267962,2400661208,complete,0.0000,0.0000,
FR,2020-03-18,2268011,2400661224,complete,0.0000,0.0000,
FR,2020-03-18,2268018,2400661227,complete,0.0000,0.0000,
FR,2020-03-18,2268042,2400661234,complete,0.0000,0.0000,
FR,2020-03-18,2268045,2400661235,complete,7.4200,1.4900,8.9100
FR,2020-03-18,2268055,2400661240,complete,0.0000,0.0000,
FR,2020-03-18,2268082,2400661250,complete,0.0000,0.0000,
FR,2020-03-19,2268091,2400661255,complete,0.0000,0.0000,
FR,2020-03-19,2268099,2500300555,complete,2.0800,0.4200,2.5000
FR,2020-03-19,2268195,2400661275,complete,0.0000,0.0000,
FR,2020-03-19,2268217,2400661282,complete,0.0000,0.0000,
FR,2020-03-19,2268219,2400661283,complete,0.0000,0.0000,
FR,2020-03-19,2268230,2400661284,complete,0.0000,0.0000,
FR,2020-03-19,2268245,2400661288,complete,0.0000,0.0000,
FR,2020-03-19,2268310,2400661308,complete,0.0000,0.0000,
FR,2020-03-19,2268311,2400661309,complete,0.0000,0.0000,
FR,2020-03-19,2268312,2400661310,complete,6.6800,1.3400,8.0200
FR,2020-03-19,2268327,2400661318,complete,0.0000,0.0000,
FR,2020-03-19,2268361,2400661327,complete,0.0000,0.0000,
FR,2020-03-19,2268370,600715368,complete,0.0000,0.0000,
FR,2020-03-19,2268389,2400661332,complete,0.0000,0.0000,
FR,2020-03-19,2268396,2400661335,complete,0.0000,0.0000,
FR,2020-03-19,2268402,2400661339,complete,0.0000,0.0000,
FR,2020-03-19,2268410,2400661342,complete,0.0000,0.0000,
FR,2020-03-19,2268412,2400661344,complete,0.0000,0.0000,
FR,2020-03-19,2268435,2400661351,complete,0.0000,0.0000,
FR,2020-03-19,2268443,2400661354,complete,0.0000,0.0000,
FR,2020-03-19,2268450,2400661355,complete,0.0000,0.0000,
FR,2020-03-19,2268504,2400661372,complete,0.0000,0.0000,
FR,2020-03-19,2268514,2400661375,complete,0.0000,0.0000,
FR,2020-03-19,2268546,2400661384,complete,0.0000,0.0000,
FR,2020-03-19,2268652,2400661420,complete,0.0000,0.0000,
FR,2020-03-19,2268693,2400661429,complete,5.5600,1.1100,6.6700
FR,2020-03-19,2268724,2400661432,complete,0.0000,0.0000,
FR,2020-03-19,2268731,2400661433,complete,7.4200,1.4900,8.9100
FR,2020-03-19,2268767,2500300717,complete,2.0800,0.4200,2.5000
FR,2020-03-19,2268771,2400661445,complete,0.0000,0.0000,
FR,2020-03-19,2268773,2400661446,complete,0.0000,0.0000,
FR,2020-03-19,2268789,1900269135,complete,12.4600,2.4900,14.9500
FR,2020-03-19,2268808,2400661453,complete,0.0000,0.0000,
FR,2020-03-19,2268819,2400661455,complete,0.0000,0.0000,
FR,2020-03-19,2268924,2400661469,complete,0.0000,0.0000,
FR,2020-03-19,2268990,2400661478,complete,0.0000,0.0000,
FR,2020-03-20,2269009,2400661485,complete,6.6800,1.3400,8.0200
FR,2020-03-20,2269037,2400661492,complete,0.0000,0.0000,
FR,2020-03-20,2269098,2400661500,complete,0.0000,0.0000,
FR,2020-03-20,2269210,2400661513,complete,0.0000,0.0000,
FR,2020-03-20,2269233,2400661520,complete,0.0000,0.0000,
FR,2020-03-20,2269282,2400661530,complete,0.0000,0.0000,
FR,2020-03-20,2269287,2400661531,complete,0.0000,0.0000,
FR,2020-03-20,2269330,2500300978,complete,2.0800,0.4200,2.5000
FR,2020-03-20,2269359,2400661547,complete,6.6800,1.3400,8.0200
FR,2020-03-20,2269401,2400661554,complete,0.0000,0.0000,
FR,2020-03-20,2269473,2400661566,complete,0.0000,0.0000,
FR,2020-03-20,2269490,2500301037,complete,2.1900,0.4400,2.6300
FR,2020-03-20,2269492,2400661568,complete,6.6800,1.3400,8.0200
FR,2020-03-20,2269502,2400661572,complete,6.6800,1.3400,8.0200
FR,2020-03-20,2269516,2400661575,complete,0.0000,0.0000,
FR,2020-03-20,2269603,2400661589,complete,0.0000,0.0000,
FR,2020-03-20,2269609,2400661590,complete,6.6800,1.3400,8.0200
FR,2020-03-20,2269621,2400661595,complete,0.0000,0.0000,
FR,2020-03-20,2269653,2400661605,complete,0.0000,0.0000,
FR,2020-03-20,2269657,2400661606,complete,0.0000,0.0000,
FR,2020-03-20,2269702,2400661616,complete,0.0000,0.0000,
FR,2020-03-20,2269731,2400661621,complete,0.0000,0.0000,
FR,2020-03-20,2269749,2400661622,complete,7.4200,1.4900,8.9100
FR,2020-03-20,2269822,2400661637,complete,0.0000,0.0000,
FR,2020-03-20,2269837,2400661642,complete,0.0000,0.0000,
FR,2020-03-20,2269911,2400661655,complete,0.0000,0.0000,
FR,2020-03-20,2269963,2400661665,complete,0.0000,0.0000,
FR,2020-03-20,2270006,2400661675,complete,0.0000,0.0000,
FR,2020-03-21,2270019,2400661678,complete,7.4200,1.4900,8.9100
FR,2020-03-21,2270044,2400661681,complete,0.0000,0.0000,
FR,2020-03-21,2270063,2400661682,complete,7.4200,1.4900,8.9100
FR,2020-03-21,2270078,2400661684,complete,0.0000,0.0000,
FR,2020-03-21,2270110,2400661690,complete,0.0000,0.0000,
FR,2020-03-21,2270129,2400661695,complete,0.0000,0.0000,
FR,2020-03-21,2270139,2400661699,complete,0.0000,0.0000,
FR,2020-03-21,2270147,2400661703,complete,0.0000,0.0000,
FR,2020-03-21,2270159,2400661705,complete,0.0000,0.0000,
FR,2020-03-21,2270240,2400661719,complete,6.6600,1.3300,7.9900
FR,2020-03-21,2270259,2400661722,complete,0.0000,0.0000,
FR,2020-03-21,2270289,2400661734,complete,6.6800,1.3400,8.0200
FR,2020-03-21,2270298,2400661737,complete,6.6800,1.3400,8.0200
FR,2020-03-21,2270304,2400661740,complete,0.0000,0.0000,
FR,2020-03-21,2270332,2400661750,complete,0.0000,0.0000,
FR,2020-03-21,2270365,2400661757,complete,0.0000,0.0000,
FR,2020-03-21,2270382,2400661762,complete,0.0000,0.0000,
FR,2020-03-21,2270470,2500301465,complete,4.1200,0.8300,4.9500
FR,2020-03-21,2270496,2400661788,complete,6.6800,1.3400,8.0200
FR,2020-03-21,2270505,2400661792,complete,0.0000,0.0000,
FR,2020-03-21,2270510,2400661794,complete,6.6800,1.3400,8.0200
FR,2020-03-21,2270532,2400661798,complete,7.4200,1.4900,8.9100
FR,2020-03-21,2270566,2400661806,complete,0.0000,0.0000,
FR,2020-03-21,2270587,2400661812,complete,0.0000,0.0000,
FR,2020-03-21,2270589,2400661813,complete,0.0000,0.0000,
FR,2020-03-21,2270596,2400661817,complete,0.0000,0.0000,
FR,2020-03-21,2270622,2400661823,complete,0.0000,0.0000,
FR,2020-03-21,2270629,2400661825,complete,0.0000,0.0000,
FR,2020-03-21,2270671,2400661832,complete,0.0000,0.0000,
FR,2020-03-21,2270700,2400661839,complete,0.0000,0.0000,
FR,2020-03-21,2270805,2400661870,complete,0.0000,0.0000,
FR,2020-03-21,2270813,2400661872,complete,0.0000,0.0000,
FR,2020-03-21,2270820,2400661873,complete,0.0000,0.0000,
FR,2020-03-21,2270885,2400661892,complete,0.0000,0.0000,
FR,2020-03-21,2270898,2400661896,complete,0.0000,0.0000,
FR,2020-03-21,2270936,2400661906,complete,0.0000,0.0000,
FR,2020-03-21,2270954,2400661909,complete,0.0000,0.0000,
FR,2020-03-21,2270967,2400661910,closed,6.6800,1.3400,8.0200
FR,2020-03-21,2270986,2400661914,complete,0.0000,0.0000,
FR,2020-03-21,2271016,2400661918,complete,0.0000,0.0000,
FR,2020-03-21,2271071,2400661938,complete,0.0000,0.0000,
FR,2020-03-21,2271098,2400661943,complete,0.0000,0.0000,
FR,2020-03-21,2271111,2400661947,complete,0.0000,0.0000,
FR,2020-03-22,2271141,2400661957,complete,0.0000,0.0000,
FR,2020-03-22,2271148,2400661959,complete,0.0000,0.0000,
FR,2020-03-22,2271170,2400661961,complete,0.0000,0.0000,
FR,2020-03-22,2271211,600715936,complete,4.1200,0.8200,4.9500
FR,2020-03-22,2271243,2400661971,complete,0.0000,0.0000,
FR,2020-03-22,2271244,2400661972,complete,0.0000,0.0000,
FR,2020-03-22,2271285,2400661981,complete,0.0000,0.0000,
FR,2020-03-22,2271296,2400661982,complete,0.0000,0.0000,
FR,2020-03-22,2271299,2400661983,complete,0.0000,0.0000,
FR,2020-03-22,2271314,2400661985,complete,0.0000,0.0000,
FR,2020-03-22,2271324,2400661988,complete,0.0000,0.0000,
FR,2020-03-22,2271351,2400661996,complete,0.0000,0.0000,
FR,2020-03-22,2271352,2400661997,complete,0.0000,0.0000,
FR,2020-03-22,2271364,2400662000,complete,0.0000,0.0000,
FR,2020-03-22,2271374,2400662006,complete,0.0000,0.0000,
FR,2020-03-22,2271376,2500301790,complete,4.1200,0.8300,4.9500
FR,2020-03-22,2271409,2400662015,complete,0.0000,0.0000,
FR,2020-03-22,2271420,2400662017,complete,0.0000,0.0000,
FR,2020-03-22,2271428,2400662020,complete,0.0000,0.0000,
FR,2020-03-22,2271435,2400662023,complete,8.1700,1.6300,9.8000
FR,2020-03-22,2271564,2400662047,complete,0.0000,0.0000,
FR,2020-03-22,2271578,2400662051,complete,0.0000,0.0000,
FR,2020-03-22,2271586,2400662053,complete,0.0000,0.0000,
FR,2020-03-22,2271609,2400662059,complete,0.0000,0.0000,
FR,2020-03-22,2271611,2400662061,complete,6.6800,1.3400,8.0200
FR,2020-03-22,2271616,2400662062,complete,0.0000,0.0000,
FR,2020-03-22,2271737,2400662081,complete,0.0000,0.0000,
FR,2020-03-22,2271767,2400662089,complete,0.0000,0.0000,
FR,2020-03-22,2271842,2400662102,complete,0.0000,0.0000,
FR,2020-03-22,2271882,2400662112,complete,0.0000,0.0000,
FR,2020-03-22,2271928,2400662123,complete,0.0000,0.0000,
FR,2020-03-22,2271943,2400662129,complete,0.0000,0.0000,
FR,2020-03-22,2272090,2400662160,complete,0.0000,0.0000,
FR,2020-03-22,2272165,2400662172,complete,0.0000,0.0000,
FR,2020-03-22,2272206,2400662179,complete,0.0000,0.0000,
FR,2020-03-22,2272340,2400662201,complete,6.6800,1.3400,8.0200
FR,2020-03-22,2272380,2400662209,complete,6.6800,1.3400,8.0200
FR,2020-03-22,2272382,2500302223,complete,4.1300,0.8200,4.9500
FR,2020-03-22,2272414,2400662218,complete,0.0000,0.0000,
FR,2020-03-22,2272447,2400662227,complete,0.0000,0.0000,
FR,2020-03-22,2272481,2400662240,complete,0.0000,0.0000,
FR,2020-03-23,2272521,2400662250,complete,8.1700,1.6300,9.8000
FR,2020-03-23,2272529,2400662252,complete,0.0000,0.0000,
FR,2020-03-23,2272571,2400662260,complete,0.0000,0.0000,
FR,2020-03-23,2272582,2400662261,complete,0.0000,0.0000,
FR,2020-03-23,2272592,2400662263,complete,0.0000,0.0000,
FR,2020-03-23,2272601,2400662265,complete,0.0000,0.0000,
FR,2020-03-23,2272608,2400662267,complete,0.0000,0.0000,
FR,2020-03-23,2272614,2400662269,complete,0.0000,0.0000,
FR,2020-03-23,2272649,2400662274,complete,0.0000,0.0000,
FR,2020-03-23,2272687,2400662284,complete,0.0000,0.0000,
FR,2020-03-23,2272697,2400662287,complete,8.1700,1.6300,9.8000
FR,2020-03-23,2272710,2400662288,complete,0.0000,0.0000,
FR,2020-03-23,2272726,2400662293,complete,0.0000,0.0000,
FR,2020-03-23,2272894,2400662323,complete,8.1700,1.6300,9.8000
FR,2020-03-23,2272898,2400662325,complete,0.0000,0.0000,
FR,2020-03-23,2272917,2400662332,complete,0.0000,0.0000,
FR,2020-03-23,2272918,2400662333,complete,0.0000,0.0000,
FR,2020-03-23,2272951,2400662338,complete,0.0000,0.0000,
FR,2020-03-23,2272985,2400662344,complete,8.1700,1.6300,9.8000
FR,2020-03-23,2273094,2400662363,complete,6.6800,1.3400,8.0200
FR,2020-03-23,2273113,2400662371,complete,0.0000,0.0000,
FR,2020-03-23,2273120,2400662373,complete,0.0000,0.0000,
FR,2020-03-23,2273134,2400662375,complete,5.5600,1.1100,6.6700
FR,2020-03-23,2273152,2400662381,complete,6.6800,1.3400,8.0200
FR,2020-03-23,2273173,2400662386,complete,0.0000,0.0000,
FR,2020-03-23,2273188,2400662389,complete,6.6800,1.3400,8.0200
FR,2020-03-23,2273208,2400662394,complete,0.0000,0.0000,
FR,2020-03-23,2273228,2400662399,complete,0.0000,0.0000,
FR,2020-03-23,2273236,2400662401,complete,0.0000,0.0000,
FR,2020-03-23,2273247,2400662403,complete,0.0000,0.0000,
FR,2020-03-23,2273261,2400662406,complete,0.0000,0.0000,
FR,2020-03-23,2273299,2400662412,complete,0.0000,0.0000,
FR,2020-03-23,2273302,2400662414,complete,0.0000,0.0000,
FR,2020-03-23,2273321,2400662416,complete,0.0000,0.0000,
FR,2020-03-23,2273348,2400662422,complete,0.0000,0.0000,
FR,2020-03-23,2273353,2400662423,complete,0.0000,0.0000,
FR,2020-03-23,2273403,2400662437,complete,8.1700,1.6300,9.8000
FR,2020-03-23,2273470,2400662452,complete,0.0000,0.0000,
FR,2020-03-23,2273478,2400662453,complete,0.0000,0.0000,
FR,2020-03-23,2273494,2400662456,complete,0.0000,0.0000,
FR,2020-03-23,2273575,2400662471,complete,6.6800,1.3400,8.0200
FR,2020-03-23,2273599,2400662476,complete,0.0000,0.0000,
FR,2020-03-23,2273620,2400662480,complete,0.0000,0.0000,
FR,2020-03-23,2273633,2400662482,complete,0.0000,0.0000,
FR,2020-03-23,2273652,2400662489,complete,0.0000,0.0000,
FR,2020-03-23,2273653,2400662490,complete,0.0000,0.0000,
FR,2020-03-23,2273668,2400662496,complete,0.0000,0.0000,
FR,2020-03-23,2273679,2400662499,complete,0.0000,0.0000,
FR,2020-03-23,2273709,2400662504,complete,0.0000,0.0000,
FR,2020-03-23,2273821,2400662528,complete,0.0000,0.0000,
FR,2020-03-23,2273843,2400662534,complete,0.0000,0.0000,
FR,2020-03-24,2273909,2400662557,complete,7.4200,1.4900,8.9100
FR,2020-03-24,2274039,2400662578,complete,0.0000,0.0000,
FR,2020-03-24,2274054,2400662579,complete,0.0000,0.0000,
FR,2020-03-24,2274078,2400662583,complete,0.0000,0.0000,
FR,2020-03-24,2274154,2400662597,complete,6.6800,1.3400,8.0200
FR,2020-03-24,2274187,2400662606,complete,0.0000,0.0000,
FR,2020-03-24,2274238,2400662621,complete,0.0000,0.0000,
FR,2020-03-24,2274255,2400662626,complete,6.6800,1.3400,8.0200
FR,2020-03-24,2274278,2400662634,complete,0.0000,0.0000,
FR,2020-03-24,2274341,2400662647,complete,0.0000,0.0000,
FR,2020-03-24,2274354,2400662648,complete,0.0000,0.0000,
FR,2020-03-24,2274373,2400662653,complete,0.0000,0.0000,
FR,2020-03-24,2274426,2400662665,complete,0.0000,0.0000,
FR,2020-03-24,2274500,2400662682,complete,0.0000,0.0000,
FR,2020-03-24,2274582,2400662705,complete,0.0000,0.0000,
FR,2020-03-24,2274594,2400662707,complete,0.0000,0.0000,
FR,2020-03-24,2274625,2400662714,complete,0.0000,0.0000,
FR,2020-03-24,2274704,2400662725,complete,0.0000,0.0000,
FR,2020-03-24,2274793,2400662746,complete,0.0000,0.0000,
FR,2020-03-24,2274794,2400662747,complete,0.0000,0.0000,
FR,2020-03-24,2274799,2400662749,complete,0.0000,0.0000,
FR,2020-03-24,2274806,2400662750,complete,0.0000,0.0000,
FR,2020-03-24,2274828,2400662758,complete,0.0000,0.0000,
FR,2020-03-24,2274869,2400662766,complete,0.0000,0.0000,
FR,2020-03-24,2274875,2400662769,complete,0.0000,0.0000,
FR,2020-03-24,2274890,2400662776,complete,0.0000,0.0000,
FR,2020-03-24,2274932,2400662784,complete,0.0000,0.0000,
FR,2020-03-24,2274933,2400662785,complete,0.0000,0.0000,
FR,2020-03-24,2274945,2400662787,complete,0.0000,0.0000,
FR,2020-03-24,2274953,2400662788,complete,0.0000,0.0000,
FR,2020-03-24,2274963,2400662789,closed,5.5600,1.1100,6.6700
FR,2020-03-24,2275006,2400662793,complete,0.0000,0.0000,
FR,2020-03-24,2275115,2400662823,complete,0.0000,0.0000,
FR,2020-03-24,2275138,2400662827,complete,7.4200,1.4900,8.9100
FR,2020-03-24,2275156,2400662830,complete,0.0000,0.0000,
FR,2020-03-24,2275183,2500303481,complete,0.0000,0.0000,
FR,2020-03-24,2275216,2400662843,complete,0.0000,0.0000,
FR,2020-03-24,2275234,2400662846,complete,0.0000,0.0000,
FR,2020-03-24,2275267,2400662862,complete,7.4200,1.4900,8.9100
FR,2020-03-24,2275268,2400662863,complete,0.0000,0.0000,
FR,2020-03-24,2275269,2400662864,complete,0.0000,0.0000,
FR,2020-03-24,2275278,2400662868,complete,0.0000,0.0000,
FR,2020-03-24,2275296,2400662873,complete,0.0000,0.0000,
FR,2020-03-24,2275345,2400662884,complete,0.0000,0.0000,
FR,2020-03-25,2275417,2400662898,complete,0.0000,0.0000,
FR,2020-03-25,2275457,2400662904,complete,0.0000,0.0000,
FR,2020-03-25,2275461,2400662905,complete,0.0000,0.0000,
FR,2020-03-25,2275493,2400662914,complete,0.0000,0.0000,
FR,2020-03-25,2275584,2400662930,complete,0.0000,0.0000,
FR,2020-03-25,2275622,2400662938,complete,0.0000,0.0000,
FR,2020-03-25,2275687,2400662949,complete,5.5600,1.1100,6.6700
FR,2020-03-25,2275691,2400662950,complete,7.4200,1.4900,8.9100
FR,2020-03-25,2275739,2400662962,complete,5.5600,1.1100,6.6700
FR,2020-03-25,2275778,2400662965,complete,0.0000,0.0000,
FR,2020-03-25,2275881,2400662987,complete,0.0000,0.0000,
FR,2020-03-25,2276012,2400663009,complete,0.0000,0.0000,
FR,2020-03-25,2276021,2400663011,complete,5.5600,1.1100,6.6700
FR,2020-03-25,2276049,2400663016,complete,0.0000,0.0000,
FR,2020-03-25,2276170,2400663046,complete,0.0000,0.0000,
FR,2020-03-25,2276171,2400663047,complete,5.5600,1.1100,6.6700
FR,2020-03-25,2276296,2500304002,complete,4.1200,0.8200,4.9500
FR,2020-03-25,2276306,2400663074,complete,0.0000,0.0000,
FR,2020-03-25,2276325,2400663078,complete,0.0000,0.0000,
FR,2020-03-25,2276326,2400663079,complete,0.0000,0.0000,
FR,2020-03-25,2276393,2400663095,complete,7.4200,1.4900,8.9100
FR,2020-03-25,2276416,2400663101,complete,7.4200,1.4900,8.9100
FR,2020-03-25,2276431,2400663105,complete,0.0000,0.0000,
FR,2020-03-25,2276432,2400663106,complete,0.0000,0.0000,
FR,2020-03-25,2276474,2400663112,complete,0.0000,0.0000,
FR,2020-03-25,2276532,2400663122,complete,7.4200,1.4900,8.9100
FR,2020-03-25,2276568,2400663131,complete,7.4200,1.4900,8.9100
FR,2020-03-25,2276575,2400663133,complete,0.0000,0.0000,
FR,2020-03-25,2276606,2400663145,complete,0.0000,0.0000,
FR,2020-03-25,2276636,2400663150,complete,5.5600,1.1100,6.6700
FR,2020-03-25,2276652,2400663154,complete,0.0000,0.0000,
FR,2020-03-25,2276712,2400663168,complete,0.0000,0.0000,
FR,2020-03-25,2276739,2400663173,complete,0.0000,0.0000,
FR,2020-03-25,2276778,2400663183,complete,0.0000,0.0000,
FR,2020-03-25,2276790,2400663187,complete,0.0000,0.0000,
FR,2020-03-25,2276816,2400663195,complete,0.0000,0.0000,
FR,2020-03-25,2276841,2400663199,complete,0.0000,0.0000,
FR,2020-03-25,2276884,2400663211,complete,0.0000,0.0000,
FR,2020-03-25,2276922,2400663223,complete,0.0000,0.0000,
FR,2020-03-25,2276945,2400663230,complete,0.0000,0.0000,
FR,2020-03-25,2276955,2400663231,complete,0.0000,0.0000,
FR,2020-03-26,2277087,2400663262,complete,0.0000,0.0000,
FR,2020-03-26,2277093,2400663264,complete,0.0000,0.0000,
FR,2020-03-26,2277095,2400663265,complete,0.0000,0.0000,
FR,2020-03-26,2277098,2400663267,complete,0.0000,0.0000,
FR,2020-03-26,2277115,2400663269,complete,0.0000,0.0000,
FR,2020-03-26,2277180,2400663275,complete,0.0000,0.0000,
FR,2020-03-26,2277305,2400663304,complete,0.0000,0.0000,
FR,2020-03-26,2277370,2400663317,complete,0.0000,0.0000,
FR,2020-03-26,2277398,2400663324,complete,0.0000,0.0000,
FR,2020-03-26,2277447,2400663335,complete,0.0000,0.0000,
FR,2020-03-26,2277496,2400663347,complete,0.0000,0.0000,
FR,2020-03-26,2277514,2400663354,complete,0.0000,0.0000,
FR,2020-03-26,2277522,2400663357,complete,0.0000,0.0000,
FR,2020-03-26,2277536,2400663363,complete,0.0000,0.0000,
FR,2020-03-26,2277545,2400663368,closed,0.0000,0.0000,
FR,2020-03-26,2277592,2400663379,complete,0.0000,0.0000,
FR,2020-03-26,2277612,2400663389,complete,0.0000,0.0000,
FR,2020-03-26,2277628,2400663392,complete,4.4500,0.8900,5.3400
FR,2020-03-26,2277666,2400663400,complete,0.0000,0.0000,
FR,2020-03-26,2277714,2400663413,complete,0.0000,0.0000,
FR,2020-03-26,2277733,2400663419,complete,0.0000,0.0000,
FR,2020-03-26,2277757,2400663421,complete,0.0000,0.0000,
FR,2020-03-26,2277767,2400663424,complete,0.0000,0.0000,
FR,2020-03-26,2277786,2400663432,complete,0.0000,0.0000,
FR,2020-03-26,2277880,2400663445,complete,0.0000,0.0000,
FR,2020-03-26,2277890,2500304710,complete,4.1300,0.8200,4.9500
FR,2020-03-26,2277966,2400663459,complete,7.4200,1.4900,8.9100
FR,2020-03-26,2277968,2400663460,complete,5.5600,1.1100,6.6700
FR,2020-03-26,2277998,2400663466,complete,0.0000,0.0000,
FR,2020-03-26,2278013,2400663470,complete,0.0000,0.0000,
FR,2020-03-26,2278066,2400663483,complete,0.0000,0.0000,
FR,2020-03-26,2278103,2400663494,complete,0.0000,0.0000,
FR,2020-03-26,2278107,2400663495,complete,7.4200,1.4900,8.9100
FR,2020-03-26,2278142,2400663506,complete,0.0000,0.0000,
FR,2020-03-26,2278214,2400663522,complete,0.0000,0.0000,
FR,2020-03-26,2278236,2400663526,complete,0.0000,0.0000,
FR,2020-03-26,2278324,2400663545,complete,0.0000,0.0000,
FR,2020-03-26,2278335,2400663547,complete,0.0000,0.0000,
FR,2020-03-26,2278345,2400663550,complete,0.0000,0.0000,
FR,2020-03-26,2278362,2400663554,complete,0.0000,0.0000,
FR,2020-03-26,2278365,2400663556,complete,0.0000,0.0000,
FR,2020-03-26,2278408,2400663565,complete,0.0000,0.0000,
FR,2020-03-26,2278455,2400663577,complete,0.0000,0.0000,
FR,2020-03-26,2278511,2400663588,complete,5.5600,1.1100,6.6700
FR,2020-03-27,2278626,2400663616,complete,0.0000,0.0000,
FR,2020-03-27,2278672,2400663624,complete,0.0000,0.0000,
FR,2020-03-27,2278751,2400663637,complete,0.0000,0.0000,
FR,2020-03-27,2278847,2400663658,complete,0.0000,0.0000,
FR,2020-03-27,2278925,2400663675,complete,0.0000,0.0000,
FR,2020-03-27,2278956,2400663680,complete,5.5600,1.1100,6.6700
FR,2020-03-27,2278977,2400663687,complete,0.0000,0.0000,
FR,2020-03-27,2279101,2400663716,complete,0.0000,0.0000,
FR,2020-03-27,2279126,2400663721,complete,0.0000,0.0000,
FR,2020-03-27,2279188,2400663736,complete,0.0000,0.0000,
FR,2020-03-27,2279300,2400663758,complete,0.0000,0.0000,
FR,2020-03-27,2279314,2400663761,complete,0.0000,0.0000,
FR,2020-03-27,2279362,2400663766,complete,0.0000,0.0000,
FR,2020-03-27,2279458,2400663792,complete,0.0000,0.0000,
FR,2020-03-27,2279496,2500305415,complete,0.0000,0.0000,
FR,2020-03-27,2279531,2400663809,complete,0.0000,0.0000,
FR,2020-03-27,2279533,2400663810,complete,0.0000,0.0000,
FR,2020-03-27,2279582,2400663827,complete,0.0000,0.0000,
FR,2020-03-27,2279646,2400663848,complete,0.0000,0.0000,
FR,2020-03-27,2279647,2400663849,complete,0.0000,0.0000,
FR,2020-03-27,2279659,2400663851,complete,0.0000,0.0000,
FR,2020-03-27,2279689,2400663856,complete,0.0000,0.0000,
FR,2020-03-27,2279711,2400663861,complete,0.0000,0.0000,
FR,2020-03-27,2279750,2400663875,complete,0.0000,0.0000,
FR,2020-03-27,2279781,2400663880,complete,0.0000,0.0000,
FR,2020-03-27,2279782,2400663881,complete,0.0000,0.0000,
FR,2020-03-27,2279787,2400663885,complete,0.0000,0.0000,
FR,2020-03-27,2279859,2400663899,complete,0.0000,0.0000,
FR,2020-03-27,2279965,2500305606,complete,4.1300,0.8200,4.9500
FR,2020-03-27,2279969,2400663923,complete,0.0000,0.0000,
FR,2020-03-27,2279982,2400663927,complete,0.0000,0.0000,
FR,2020-03-27,2280095,2400663952,complete,0.0000,0.0000,
FR,2020-03-27,2280114,2400663957,complete,0.0000,0.0000,
FR,2020-03-27,2280136,2400663961,complete,0.0000,0.0000,
FR,2020-03-27,2280151,2400663963,complete,0.0000,0.0000,
FR,2020-03-27,2280162,2400663969,complete,0.0000,0.0000,
FR,2020-03-28,2280285,2400663996,complete,0.0000,0.0000,
FR,2020-03-28,2280343,2400664012,complete,0.0000,0.0000,
FR,2020-03-28,2280348,2400664015,complete,0.0000,0.0000,
FR,2020-03-28,2280405,2400664022,complete,0.0000,0.0000,
FR,2020-03-28,2280418,2400664029,complete,0.0000,0.0000,
FR,2020-03-28,2280435,2400664032,complete,0.0000,0.0000,
FR,2020-03-28,2280458,2400664041,complete,0.0000,0.0000,
FR,2020-03-28,2280505,2400664058,complete,0.0000,0.0000,
FR,2020-03-28,2280534,2400664066,complete,0.0000,0.0000,
FR,2020-03-28,2280589,2400664076,complete,0.0000,0.0000,
FR,2020-03-28,2280616,2400664084,complete,0.0000,0.0000,
FR,2020-03-28,2280647,2400664093,complete,0.0000,0.0000,
FR,2020-03-28,2280651,2400664096,complete,5.5600,1.1100,6.6700
FR,2020-03-28,2280705,2400664110,complete,6.6800,1.3400,8.0200
FR,2020-03-28,2280740,2400664118,complete,0.0000,0.0000,
FR,2020-03-28,2280757,2400664121,complete,0.0000,0.0000,
FR,2020-03-28,2280758,2400664122,complete,0.0000,0.0000,
FR,2020-03-28,2280775,2400664129,complete,7.4200,1.4900,8.9100
FR,2020-03-28,2280797,2400664140,complete,0.0000,0.0000,
FR,2020-03-28,2280953,2400664179,complete,5.5600,1.1100,6.6700
FR,2020-03-28,2280966,2400664180,complete,5.5600,1.1100,6.6700
FR,2020-03-28,2281001,2400664185,complete,0.0000,0.0000,
FR,2020-03-28,2281002,2400664186,complete,0.0000,0.0000,
FR,2020-03-28,2281066,2400664205,complete,5.5600,1.1100,6.6700
FR,2020-03-28,2281092,2400664216,complete,0.0000,0.0000,
FR,2020-03-28,2281111,2400664222,complete,0.0000,0.0000,
FR,2020-03-28,2281121,2400664225,complete,0.0000,0.0000,
FR,2020-03-28,2281122,2400664226,complete,0.0000,0.0000,
FR,2020-03-28,2281133,2400664227,complete,0.0000,0.0000,
FR,2020-03-28,2281136,2400664229,complete,0.0000,0.0000,
FR,2020-03-28,2281157,2400664235,complete,0.0000,0.0000,
FR,2020-03-28,2281179,2400664243,complete,0.0000,0.0000,
FR,2020-03-28,2281195,2600035068,complete,3.9900,0.8000,4.7900
FR,2020-03-28,2281206,2400664251,complete,0.0000,0.0000,
FR,2020-03-28,2281280,2400664268,complete,0.0000,0.0000,
FR,2020-03-28,2281282,2400664270,complete,0.0000,0.0000,
FR,2020-03-28,2281304,2400664272,complete,0.0000,0.0000,
FR,2020-03-28,2281309,2500306159,complete,4.1300,0.8200,4.9500
FR,2020-03-28,2281352,2400664279,complete,0.0000,0.0000,
FR,2020-03-28,2281383,2400664285,complete,5.5600,1.1100,6.6700
FR,2020-03-28,2281415,2400664295,complete,0.0000,0.0000,
FR,2020-03-28,2281441,2400664301,complete,0.0000,0.0000,
FR,2020-03-28,2281469,2400664304,complete,0.0000,0.0000,
FR,2020-03-28,2281482,2400664308,complete,5.5600,1.1100,6.6700
FR,2020-03-28,2281489,2400664310,complete,0.0000,0.0000,
FR,2020-03-28,2281490,2400664311,complete,0.0000,0.0000,
FR,2020-03-28,2281528,2400664322,complete,0.0000,0.0000,
FR,2020-03-28,2281531,2400664323,complete,0.0000,0.0000,
FR,2020-03-28,2281543,2400664326,complete,0.0000,0.0000,
FR,2020-03-28,2281544,2400664327,complete,0.0000,0.0000,
FR,2020-03-28,2281583,2400664330,complete,0.0000,0.0000,
FR,2020-03-28,2281627,2400664338,complete,0.0000,0.0000,
FR,2020-03-28,2281632,600717793,complete,12.4600,2.4900,14.9500
FR,2020-03-28,2281651,2400664344,complete,0.0000,0.0000,
FR,2020-03-28,2281653,2400664346,complete,0.0000,0.0000,
FR,2020-03-28,2281664,2400664350,complete,0.0000,0.0000,
FR,2020-03-28,2281678,2400664356,complete,0.0000,0.0000,
FR,2020-03-28,2281821,2400664384,complete,0.0000,0.0000,
FR,2020-03-28,2281845,2400664390,complete,0.0000,0.0000,
FR,2020-03-28,2281875,2400664398,complete,0.0000,0.0000,
FR,2020-03-28,2281878,2400664400,complete,0.0000,0.0000,
FR,2020-03-28,2281924,2400664408,complete,0.0000,0.0000,
FR,2020-03-28,2281958,2400664416,complete,0.0000,0.0000,
FR,2020-03-28,2281980,2400664423,complete,0.0000,0.0000,
FR,2020-03-28,2282004,2400664428,complete,0.0000,0.0000,
FR,2020-03-28,2282071,2400664442,complete,0.0000,0.0000,
FR,2020-03-28,2282098,2400664449,complete,0.0000,0.0000,
FR,2020-03-29,2282129,2400664461,complete,0.0000,0.0000,
FR,2020-03-29,2282148,2400664466,complete,7.4300,1.4800,8.9100
FR,2020-03-29,2282239,2500306548,complete,0.0000,0.0000,
FR,2020-03-29,2282270,2400664483,complete,0.0000,0.0000,
FR,2020-03-29,2282278,2400664487,complete,0.0000,0.0000,
FR,2020-03-29,2282319,2400664495,complete,0.0000,0.0000,
FR,2020-03-29,2282339,2500306595,complete,4.1300,0.8200,4.9500
FR,2020-03-29,2282350,2400664503,complete,0.0000,0.0000,
FR,2020-03-29,2282383,2400664507,complete,0.0000,0.0000,
FR,2020-03-29,2282385,2400664509,complete,0.0000,0.0000,
FR,2020-03-29,2282393,2400664510,complete,0.0000,0.0000,
FR,2020-03-29,2282415,2400664516,complete,0.0000,0.0000,
FR,2020-03-29,2282422,2400664517,complete,0.0000,0.0000,
FR,2020-03-29,2282437,2400664521,complete,0.0000,0.0000,
FR,2020-03-29,2282448,2400664527,complete,0.0000,0.0000,
FR,2020-03-29,2282449,2400664528,complete,0.0000,0.0000,
FR,2020-03-29,2282504,2400664540,complete,5.5600,1.1100,6.6700
FR,2020-03-29,2282513,2400664545,complete,0.0000,0.0000,
FR,2020-03-29,2282537,2400664555,complete,0.0000,0.0000,
FR,2020-03-29,2282570,2400664566,complete,0.0000,0.0000,
FR,2020-03-29,2282571,2400664567,complete,5.5600,1.1100,6.6700
FR,2020-03-29,2282658,2400664585,complete,0.0000,0.0000,
FR,2020-03-29,2282659,2400664586,complete,0.0000,0.0000,
FR,2020-03-29,2282660,2400664587,complete,14.8500,2.9700,17.8200
FR,2020-03-29,2282678,2400664592,complete,8.1700,1.6300,9.8000
FR,2020-03-29,2282712,2400664600,complete,14.8500,2.9700,17.8200
FR,2020-03-29,2282783,2400664614,complete,14.8500,2.9700,17.8200
FR,2020-03-29,2282835,2400664625,complete,8.1700,1.6300,9.8000
FR,2020-03-29,2282909,2400664636,complete,14.8500,2.9700,17.8200
FR,2020-03-29,2283011,2400664654,complete,3.7100,0.7400,4.4500
FR,2020-03-29,2283088,2400664672,complete,8.1600,1.6400,9.8000
FR,2020-03-29,2283152,2400664684,complete,3.7100,0.7400,4.4500
FR,2020-03-29,2283164,2400664686,complete,8.1700,1.6300,9.8000
FR,2020-03-29,2283187,2400664691,complete,8.1700,1.6300,9.8000
FR,2020-03-29,2283191,2400664693,complete,8.1700,1.6300,9.8000
FR,2020-03-29,2283216,2400664701,complete,8.1700,1.6300,9.8000
FR,2020-03-29,2283258,2400664709,complete,3.7100,0.7400,4.4500
FR,2020-03-29,2283273,2400664713,complete,3.7100,0.7400,4.4500
FR,2020-03-29,2283330,2400664725,complete,8.1700,1.6300,9.8000
FR,2020-03-29,2283337,2400664728,complete,3.7100,0.7400,4.4500
FR,2020-03-29,2283370,2500306962,complete,4.1300,0.8200,4.9500
FR,2020-03-29,2283373,2400664731,complete,14.8500,2.9700,17.8200
FR,2020-03-29,2283576,2400664776,complete,14.8500,2.9700,17.8200
FR,2020-03-29,2283578,2400664778,complete,8.1700,1.6300,9.8000
FR,2020-03-29,2283665,2400664795,complete,8.1700,1.6300,9.8000
FR,2020-03-29,2283720,2400664803,complete,8.1700,1.6300,9.8000
FR,2020-03-29,2283823,2400664829,complete,14.8500,2.9700,17.8200
FR,2020-03-29,2283894,2400664842,complete,8.1700,1.6300,9.8000
FR,2020-03-29,2283952,2400664855,complete,3.7100,0.7400,4.4500
FR,2020-03-29,2283973,2400664861,complete,3.7100,0.7400,4.4500
FR,2020-03-30,2284037,2400664884,complete,3.7100,0.7400,4.4500
FR,2020-03-30,2284067,2400664888,complete,8.1700,1.6300,9.8000
FR,2020-03-30,2284091,2400664892,complete,3.7100,0.7400,4.4500
FR,2020-03-30,2284102,2400664893,complete,3.7100,0.7400,4.4500
FR,2020-03-30,2284166,2400664917,complete,3.7100,0.7400,4.4500
FR,2020-03-30,2284171,2400664919,complete,3.7100,0.7400,4.4500
FR,2020-03-30,2284299,2400664942,complete,8.1700,1.6300,9.8000
FR,2020-03-30,2284324,2400664947,complete,3.7100,0.7400,4.4500
FR,2020-03-30,2284339,2400664950,complete,8.1700,1.6300,9.8000
FR,2020-03-30,2284340,2400664951,complete,8.1600,1.6400,9.8000
FR,2020-03-30,2284341,2400664952,complete,4.4500,0.8900,5.3400
FR,2020-03-30,2284358,2400664955,complete,3.7100,0.7400,4.4500
FR,2020-03-30,2284380,2400664965,complete,8.1700,1.6300,9.8000
FR,2020-03-30,2284464,2400664981,complete,8.1700,1.6300,9.8000
FR,2020-03-30,2284466,2400664982,complete,8.1700,1.6300,9.8000
FR,2020-03-30,2284492,2400664988,complete,8.1700,1.6300,9.8000
FR,2020-03-30,2284493,2400664989,complete,8.1700,1.6300,9.8000
FR,2020-03-30,2284539,2400665003,complete,8.1600,1.6400,9.8000
FR,2020-03-30,2284616,2500307456,complete,8.3000,1.6500,9.9500
FR,2020-03-30,2284644,2400665021,complete,8.1700,1.6300,9.8000
FR,2020-03-30,2284660,2400665026,complete,3.7100,0.7400,4.4500
FR,2020-03-30,2284668,2400665030,complete,3.7100,0.7400,4.4500
FR,2020-03-30,2284709,2400665042,complete,14.8500,2.9700,17.8200
FR,2020-03-30,2284726,2400665043,complete,14.8500,2.9700,17.8200
FR,2020-03-30,2284737,2400665045,complete,3.7000,0.7500,4.4500
FR,2020-03-30,2284747,2400665046,complete,3.7100,0.7400,4.4500
FR,2020-03-30,2284770,2400665055,complete,3.7100,0.7400,4.4500
FR,2020-03-30,2284823,2400665067,complete,8.1700,1.6300,9.8000
FR,2020-03-30,2284828,2400665069,complete,3.7100,0.7400,4.4500
FR,2020-03-30,2284868,2400665074,complete,3.7100,0.7400,4.4500
FR,2020-03-30,2284879,2400665078,complete,3.7100,0.7400,4.4500
FR,2020-03-30,2284880,2400665079,complete,3.7100,0.7400,4.4500
FR,2020-03-30,2284881,2400665080,complete,8.1700,1.6300,9.8000
FR,2020-03-30,2285107,2400665113,complete,8.1700,1.6300,9.8000
FR,2020-03-30,2285108,2400665114,complete,3.7100,0.7400,4.4500
FR,2020-03-30,2285109,2400665115,complete,3.7100,0.7400,4.4500
FR,2020-03-30,2285110,2400665116,complete,8.1700,1.6300,9.8000
FR,2020-03-30,2285125,2400665125,complete,3.7100,0.7400,4.4500
FR,2020-03-30,2285145,2400665141,complete,3.7100,0.7400,4.4500
FR,2020-03-30,2285168,2400665143,complete,3.7100,0.7400,4.4500
FR,2020-03-30,2285195,2400665147,complete,8.1700,1.6300,9.8000
FR,2020-03-30,2285227,2400665153,complete,4.4500,0.8900,5.3400
FR,2020-03-30,2285237,2400665156,complete,14.8500,2.9700,17.8200
FR,2020-03-30,2285263,2400665165,complete,3.7100,0.7400,4.4500
FR,2020-03-30,2285334,2400665180,pick_note_printed,8.1700,1.6300,9.8000
FR,2020-03-30,2285364,2400665184,complete,8.1700,1.6300,9.8000
FR,2020-03-30,2285369,2400665187,complete,3.7100,0.7400,4.4500
FR,2020-03-30,2285392,2400665191,complete,8.1700,1.6300,9.8000
FR,2020-03-30,2285401,2400665194,complete,3.7100,0.7400,4.4500
FR,2020-03-30,2285421,2400665200,complete,3.7100,0.7400,4.4500
FR,2020-03-30,2285441,2400665207,complete,8.1700,1.6300,9.8000
FR,2020-03-30,2285495,2400665223,complete,8.1700,1.6300,9.8000
FR,2020-03-30,2285547,2400665234,complete,3.7100,0.7400,4.4500
FR,2020-03-30,2285658,2400665256,complete,3.7100,0.7400,4.4500
FR,2020-03-30,2285701,2400665269,complete,3.7100,0.7400,4.4500
FR,2020-03-30,2285738,2400665281,complete,3.7100,0.7400,4.4500
FR,2020-03-30,2285766,2400665289,complete,3.7100,0.7400,4.4500
FR,2020-03-30,2285767,2400665290,complete,8.1700,1.6300,9.8000
FR,2020-03-30,2285773,2400665293,complete,3.7100,0.7400,4.4500
FR,2020-03-31,2285857,2400665312,complete,3.7100,0.7400,4.4500
FR,2020-03-31,2285941,2400665330,complete,3.7100,0.7400,4.4500
FR,2020-03-31,2285942,2400665331,complete,3.7100,0.7400,4.4500
FR,2020-03-31,2286037,2400665350,complete,8.1700,1.6300,9.8000
FR,2020-03-31,2286099,2400665364,complete,3.7100,0.7400,4.4500
FR,2020-03-31,2286122,2400665367,complete,3.7100,0.7400,4.4500
FR,2020-03-31,2286131,2400665370,complete,3.7100,0.7400,4.4500
FR,2020-03-31,2286205,2400665386,complete,8.1600,1.6400,9.8000
FR,2020-03-31,2286211,2400665389,complete,3.7100,0.7400,4.4500
FR,2020-03-31,2286268,2400665406,complete,3.7100,0.7400,4.4500
FR,2020-03-31,2286287,2400665414,pick_note_printed,3.7000,0.7500,4.4500
FR,2020-03-31,2286311,2400665422,complete,8.1700,1.6300,9.8000
FR,2020-03-31,2286312,2400665423,complete,3.7100,0.7400,4.4500
FR,2020-03-31,2286325,2400665427,complete,3.7100,0.7400,4.4500
FR,2020-03-31,2286336,2400665429,complete,3.7100,0.7400,4.4500
FR,2020-03-31,2286344,2400665431,complete,3.7100,0.7400,4.4500
FR,2020-03-31,2286402,2400665441,complete,3.7100,0.7400,4.4500
FR,2020-03-31,2286433,2400665447,complete,3.7100,0.7400,4.4500
FR,2020-03-31,2286492,2500308196,pick_note_printed,4.1300,0.8200,4.9500
FR,2020-03-31,2286514,2400665458,complete,8.1700,1.6300,9.8000
FR,2020-03-31,2286519,2400665459,complete,14.8500,2.9700,17.8200
FR,2020-03-31,2286596,2400665475,pick_note_printed,3.7100,0.7400,4.4500
FR,2020-03-31,2286697,2400665491,pick_note_printed,3.7100,0.7400,4.4500
FR,2020-03-31,2286698,2400665492,pick_note_printed,8.1700,1.6300,9.8000
FR,2020-03-31,2286708,2400665495,pick_note_printed,6.6600,1.3300,7.9900
FR,2020-03-31,2286710,2400665497,complete,14.8400,2.9800,17.8200
FR,2020-03-31,2286721,2400665500,complete,14.8500,2.9700,17.8200
FR,2020-03-31,2286808,2400665518,pick_note_printed,3.7100,0.7400,4.4500
FR,2020-03-31,2286809,2400665519,pick_note_printed,3.7100,0.7400,4.4500
FR,2020-03-31,2286878,2400665529,pick_note_printed,8.1700,1.6300,9.8000
FR,2020-03-31,2286927,2400665538,pick_note_printed,8.1700,1.6300,9.8000
FR,2020-03-31,2286953,2400665544,pick_note_printed,8.1700,1.6300,9.8000
FR,2020-03-31,2286990,2400665551,pick_note_printed,3.7100,0.7400,4.4500
FR,2020-03-31,2287000,2400665554,pick_note_printed,3.7100,0.7400,4.4500
FR,2020-03-31,2287001,2400665555,pick_note_printed,14.8500,2.9700,17.8200
FR,2020-03-31,2287022,2400665564,pick_note_printed,8.1700,1.6300,9.8000
FR,2020-03-31,2287058,2500308422,pick_note_printed,0.0000,0.0000,
FR,2020-03-31,2287060,2500308424,pick_note_printed,4.1200,0.8300,4.9500
FR,2020-03-31,2287063,2500308426,pick_note_printed,0.0000,0.0000,
FR,2020-03-31,2287083,2400665578,pick_note_printed,8.1700,1.6300,9.8000
FR,2020-03-31,2287093,2400665580,pick_note_printed,8.1700,1.6300,9.8000
FR,2020-03-31,2287095,2400665582,pick_note_printed,3.7100,0.7400,4.4500
FR,2020-03-31,2287184,2400665595,pick_note_printed,3.7100,0.7400,4.4500
FR,2020-03-31,2287224,2400665609,pick_note_printed,8.1700,1.6300,9.8000
FR,2020-03-31,2287320,2400665629,pick_note_printed,14.8500,2.9700,17.8200
FR,2020-03-31,2287321,2400665630,pick_note_printed,8.1700,1.6300,9.8000
FR,2020-03-31,2287451,2400665664,pick_note_printed,8.1700,1.6300,9.8000
FR,2020-03-31,2287459,2400665669,pick_note_printed,3.7100,0.7400,4.4500
FR,2020-03-31,2287577,2400665696,pick_note_printed,14.8500,2.9700,17.8200
FR,2020-03-31,2287698,2400665735,pick_note_printed,3.7100,0.7400,4.4500
FR,2020-03-31,2287769,2400665756,pick_note_printed,14.8500,2.9700,17.8200
