country_id,created_at,entity_id,increment_id,status,base_shipping_amount,base_shipping_tax_amount,base_shipping_incl_tax
PT,2020-11-01,2686566,6000853721,complete,8.3300,1.6700,10.0000
PT,2020-11-02,2688514,AMZ24000568067,complete,5.1900,1.0400,6.2300
PT,2020-11-02,2686626,6000853783,complete,10.0000,2.0000,12.0000
PT,2020-11-02,2690056,AMZ24000568818,complete,7.9900,1.6000,9.5900
PT,2020-11-02,2688872,6000853916,complete,4.1700,0.8300,5.0000
PT,2020-11-03,2691087,6000854386,complete,8.3300,1.6700,10.0000
PT,2020-11-03,2690875,AMZ24000569168,complete,14.8500,2.9700,17.8200
PT,2020-11-03,2690577,AMZ24000569041,complete,6.6600,1.3300,7.9900
PT,2020-11-04,2691589,EBY24000568760,complete,2.1900,0.4400,2.6300
PT,2020-11-05,2693371,6000855463,complete,8.3400,1.6600,10.0000
PT,2020-11-05,2693198,6000855384,complete,8.3300,1.6700,10.0000
PT,2020-11-05,2693098,6000855324,complete,8.3300,1.6700,10.0000
PT,2020-11-05,2692414,6000854975,complete,4.1600,0.8400,5.0000
PT,2020-11-06,2693556,6000855540,complete,8.3400,1.6600,10.0000
PT,2020-11-07,2696294,6000857088,complete,8.3300,1.6600,10.0000
PT,2020-11-07,2696072,AMZ24000570515,complete,7.4200,1.4900,8.9100
PT,2020-11-07,2695853,6000856833,complete,8.3300,1.6700,10.0000
PT,2020-11-07,2695849,EBY24000569736,complete,0.0000,0.0000,
PT,2020-11-07,2695826,6000856818,complete,8.3400,1.6700,10.0000
PT,2020-11-07,2696374,6000857126,complete,10.0000,2.0000,12.0000
PT,2020-11-08,2698437,6000858275,complete,15.0000,0.0000,15.0000
PT,2020-11-08,2697950,EBY24000570135,complete,10.7900,2.1600,12.9500
PT,2020-11-08,2697613,AMZ24000570917,complete,7.4200,1.4900,8.9100
PT,2020-11-09,2699434,6000858850,complete,8.3400,1.6700,10.0000
PT,2020-11-09,2699375,6000858790,complete,8.3300,1.6700,10.0000
PT,2020-11-09,2698904,EBY24000570356,complete,0.0000,0.0000,
PT,2020-11-09,2698596,EBY24000570278,complete,10.7900,2.1600,12.9500
PT,2020-11-10,2701641,6000860086,complete,8.3300,1.6700,10.0000
PT,2020-11-10,2700882,6000859648,complete,8.3300,1.6700,10.0000
PT,2020-11-10,2700533,6000859418,complete,8.3400,1.6700,10.0000
PT,2020-11-11,2702864,AMZ24000572206,complete,8.3200,1.6700,9.9900
PT,2020-11-11,2702728,6000860660,complete,12.5000,2.5000,15.0000
PT,2020-11-11,2702201,AMZ24000572040,complete,4.1600,0.8300,4.9900
PT,2020-11-12,2703983,6000861368,complete,9.3500,1.8700,11.2200
PT,2020-11-12,2703759,6000861226,complete,9.3500,1.8700,11.2200
PT,2020-11-12,2704923,AMZ24000572731,complete,16.6600,3.3300,19.9900
PT,2020-11-12,2704351,AMZ24000572579,complete,6.6600,1.3300,7.9900
PT,2020-11-12,2704317,6000861554,complete,14.0200,2.8100,16.8300
PT,2020-11-12,2704306,6000861549,complete,11.2100,2.2400,13.4600
PT,2020-11-13,2705948,AMZ24000572958,complete,9.1600,1.8300,10.9900
PT,2020-11-14,2708303,6000863822,complete,4.1700,0.8300,5.0000
PT,2020-11-14,2707926,6000863614,complete,8.3300,0.0000,8.3300
PT,2020-11-14,2707779,6000863538,complete,9.3500,1.8700,11.2200
PT,2020-11-14,2707688,EBY24000572128,complete,4.9600,0.9900,5.9500
PT,2020-11-15,2709675,6000864603,complete,8.3300,1.6700,10.0000
PT,2020-11-15,2709208,EBY24000572429,complete,10.7900,2.1600,12.9500
PT,2020-11-15,2708371,AMZ24000573494,complete,6.6600,1.3300,7.9900
PT,2020-11-16,2711301,AMZ24000574227,complete,4.1600,0.8300,4.9900
PT,2020-11-17,2713143,AMZ24000574662,complete,6.9900,1.3900,8.3800
PT,2020-11-18,2714023,EBY24000573313,complete,0.0000,0.0000,
PT,2020-11-19,2715458,AMZ24000575206,complete,7.4900,1.5000,8.9900
PT,2020-11-19,2716840,AMZ24000575502,complete,4.1600,0.8300,4.9900
PT,2020-11-19,2716796,6000868815,complete,8.3300,1.6700,10.0000
PT,2020-11-19,2715539,6000868006,complete,0.0000,0.0000,
PT,2020-11-20,2717889,6000869500,complete,0.0000,0.0000,
PT,2020-11-20,2717445,6000869211,complete,4.1600,0.8400,5.0000
PT,2020-11-20,2717133,6000869013,complete,11.2200,2.2400,13.4600
PT,2020-11-20,2716846,6000868839,complete,8.3300,1.6600,10.0000
PT,2020-11-21,2720312,6000870904,complete,9.3500,1.8700,11.2200
PT,2020-11-21,2720036,6000870745,complete,9.3500,1.8700,11.2200
PT,2020-11-21,2718806,EBY24000574135,complete,0.0000,0.0000,
PT,2020-11-21,2718793,6000870005,complete,8.3300,1.6700,10.0000
PT,2020-11-22,2722847,AMZ24000576972,complete,6.6600,1.3300,7.9900
PT,2020-11-22,2721384,AMZ24000576581,complete,5.8200,1.1700,6.9900
PT,2020-11-23,2724602,6000873456,complete,9.3500,1.8700,11.2200
PT,2020-11-23,2723922,6000873043,complete,9.3500,1.8700,11.2200
PT,2020-11-23,2723910,6000873039,complete,23.3700,0.0000,23.3700
PT,2020-11-23,2724830,AMZ24000577485,complete,4.1600,0.8300,4.9900
PT,2020-11-23,2724666,AMZ24000577440,complete,5.8200,1.1700,6.9900
PT,2020-11-24,2726699,6000874649,complete,4.1700,0.8300,5.0000
PT,2020-11-24,2726684,6000874641,complete,18.7500,0.0000,18.7500
PT,2020-11-24,2726213,AMZ24000577858,complete,8.3200,1.6700,9.9900
PT,2020-11-24,2725658,6000874073,complete,8.3300,1.6700,10.0000
PT,2020-11-25,2728562,AMZ24000578468,complete,8.3200,1.6700,9.9900
PT,2020-11-25,2727905,AMZ24000578312,complete,5.8200,1.1700,6.9900
PT,2020-11-26,2730639,6000876872,complete,9.3500,1.8700,11.2200
PT,2020-11-26,2730629,6000876866,complete,9.3500,1.8700,11.2200
PT,2020-11-26,2729464,AMZ24000578698,complete,6.6600,1.3300,7.9900
PT,2020-11-27,2732939,AMZ24000579614,complete,5.8200,1.1700,6.9900
PT,2020-11-27,2732869,6000878320,complete,9.3500,1.8700,11.2200
PT,2020-11-27,2732402,EBY24000576373,complete,8.2500,1.6500,9.9000
PT,2020-11-27,2731847,AMZ24000579304,complete,7.4900,1.5000,8.9900
PT,2020-11-27,2731242,AMZ24000579194,complete,8.3200,1.6700,9.9900
PT,2020-11-27,2734437,6000879339,complete,8.3400,1.6600,10.0000
PT,2020-11-27,2734434,6000879347,complete,9.3500,1.8700,11.2200
PT,2020-11-27,2733380,6000878614,complete,8.3400,1.6600,10.0000
PT,2020-11-27,2733302,6000878560,complete,9.3500,1.8700,11.2200
PT,2020-11-27,2733057,6000878391,closed,4.6800,0.9300,5.6100
PT,2020-11-28,2736728,EBY24000576920,complete,8.2900,1.6600,9.9500
PT,2020-11-28,2735285,6000879830,complete,16.8200,3.3700,20.1900
PT,2020-11-28,2734655,AMZ24000580053,complete,6.6600,1.3300,7.9900
PT,2020-11-29,2739563,AMZ24000581382,complete,4.9900,1.0000,5.9900
PT,2020-11-29,2738917,AMZ24000581209,complete,4.1600,0.8300,4.9900
PT,2020-11-29,2738852,AMZ24000581194,complete,4.9900,1.0000,5.9900
PT,2020-11-29,2738510,AMZ24000581099,complete,7.4900,1.5000,8.9900
PT,2020-11-30,2740998,6000883063,complete,9.3500,1.8700,11.2200
PT,2020-11-30,2740982,EBY24000577608,complete,4.9600,0.9900,5.9500
PT,2020-11-30,2740666,AMZ24000581693,complete,5.9900,1.1900,7.1800
PT,2020-11-30,2740587,AMZ24000581675,complete,8.3200,1.6700,9.9900
PT,2020-11-30,2742286,6000883444,complete,9.3500,1.8700,11.2200
PT,2020-11-30,2741922,AMZ24000582047,complete,4.9900,1.0000,5.9900
