country_id,created_at,increment_id,entity_id,base_shipping_amount,base_shipping_tax_amount,base_shipping_incl_tax
IE,2020-11-04,24000041565,203293,6.6000,1.3900,7.9900
IE,2020-11-06,6000059618,203379,8.3300,1.7500,10.0800
IE,2020-11-07,6000059653,203421,0.0000,0.0000,0.0000
IE,2020-11-09,6000059665,203433,10.0000,2.1000,12.1000
IE,2020-11-11,6000059774,203596,8.3400,1.7400,10.0800
IE,2020-11-13,6000059808,203660,8.3300,1.7500,10.0800
IE,2020-11-13,6000059809,203661,8.3300,1.7500,10.0800
IE,2020-11-13,6000059810,203662,8.3300,1.7500,10.0800
IE,2020-11-18,6000059916,203844,0.0000,0.0000,0.0000
IE,2020-11-20,6000060004,203972,9.3500,1.9700,11.3100
IE,2020-11-21,6000060126,204116,9.3400,1.9700,11.3100
IE,2020-11-21,6000060127,204117,9.3400,1.9700,11.3100
IE,2020-11-21,6000060128,204118,9.3400,1.9700,11.3100
IE,2020-11-21,6000060129,204119,9.3400,1.9700,11.3100
IE,2020-11-21,6000060147,204137,0.0000,0.0000,0.0000
IE,2020-11-24,24000041695,204297,0.0000,0.0000,0.0000
IE,2020-11-27,6000060368,204518,9.3400,1.9600,11.3100
IE,2020-11-30,6000060437,204657,0.0000,0.0000,0.0000
