country_id,created_at,increment_id,entity_id,base_shipping_amount,base_shipping_tax_amount,base_shipping_incl_tax
CZ,2021-01-14,24000042518,210555,4.9600,0.9900,5.9500
CZ,2021-01-15,24000042547,210760,0.0000,0.0000,0.0000
