country_id,created_at,entity_id,increment_id,status,base_shipping_amount,base_shipping_tax_amount,base_shipping_incl_tax
GR,2021-03-01,2892686,6000977977,complete,4.9500,0.0000,4.9500
GR,2021-03-02,2895430,6000979542,complete,17.2500,0.0000,17.2500
GR,2021-03-03,2896096,6000979940,complete,25.3300,0.0000,25.3300
GR,2021-03-06,2901291,6000982913,complete,17.2500,0.0000,17.2500
GR,2021-03-06,2901177,6000982854,complete,21.9500,0.0000,21.9500
GR,2021-03-06,2900801,6000982649,complete,5.7100,0.0000,5.7100
GR,2021-03-08,2904224,6000984551,complete,17.2500,0.0000,17.2500
GR,2021-03-08,2903897,6000984361,complete,5.7100,0.0000,5.7100
GR,2021-03-09,2904798,EBY24000604023,complete,4.9600,0.9900,5.9500
GR,2021-03-10,2907239,6000986210,complete,14.9500,0.0000,14.9500
GR,2021-03-10,2906684,6000985895,complete,12.9500,0.0000,12.9500
GR,2021-03-11,2907767,6000986492,complete,17.2500,0.0000,17.2500
GR,2021-03-12,2909958,6000987781,complete,5.7100,0.0000,5.7100
GR,2021-03-12,2909194,6000987339,complete,14.9500,0.0000,14.9500
GR,2021-03-12,2909187,6000987336,complete,14.9500,0.0000,14.9500
GR,2021-03-12,2909127,6000987291,complete,17.2500,0.0000,17.2500
GR,2021-03-12,2909019,EBY24000604825,complete,6.6500,1.3400,7.9900
GR,2021-03-13,2911002,6000988358,complete,40.3200,0.0000,40.3200
GR,2021-03-14,2912316,EBY24000605426,complete,6.6600,1.3300,7.9900
GR,2021-03-15,2913582,6000989795,complete,27.6300,0.0000,27.6300
GR,2021-03-15,2913440,6000989697,complete,14.9500,0.0000,14.9500
GR,2021-03-18,2917091,6000991747,complete,14.9500,0.0000,14.9500
GR,2021-03-21,2921814,6000994363,complete,4.9500,0.0000,4.9500
GR,2021-03-21,2921705,6000994299,complete,4.9500,0.0000,4.9500
GR,2021-03-21,2921576,6000994219,complete,14.9400,0.0000,14.9400
GR,2021-03-21,2921256,6000994049,complete,25.3300,0.0000,25.3300
GR,2021-03-22,2923083,6000995089,complete,25.3300,0.0000,25.3300
GR,2021-03-22,2922672,6000994812,complete,17.2500,0.0000,17.2500
GR,2021-03-24,2926237,6000996803,complete,14.9500,0.0000,14.9500
GR,2021-03-25,2927929,6000997710,complete,4.9500,0.0000,4.9500
GR,2021-03-25,2927826,6000997655,complete,17.2500,0.0000,17.2500
GR,2021-03-25,2927096,EBY24000607985,complete,4.9600,0.9900,5.9500
GR,2021-03-26,2929698,6000998524,complete,14.9500,0.0000,14.9500
GR,2021-03-26,2929465,6000998424,complete,25.3300,0.0000,25.3300
GR,2021-03-26,2929192,EBY24000608368,complete,4.9600,0.9900,5.9500
GR,2021-03-27,2931239,6000999247,complete,14.9500,0.0000,14.9500
GR,2021-03-28,2933699,6001000428,complete,34.9500,0.0000,34.9500
GR,2021-03-28,2933428,6001000300,complete,14.9500,0.0000,14.9500
GR,2021-03-28,2932796,6000999972,complete,25.3300,0.0000,25.3300
GR,2021-03-28,2932388,6000999780,complete,17.2500,0.0000,17.2500
GR,2021-03-28,2931966,6000999571,complete,27.6300,0.0000,27.6300
GR,2021-03-30,2935855,6001001506,complete,4.9500,0.0000,4.9500
