country_id,created_at,increment_id,entity_id,base_shipping_amount,base_shipping_tax_amount,base_shipping_incl_tax
DE,2020-12-01,24000041782,204719,6.8900,1.1000,7.9900
DE,2020-12-01,24000041786,204732,0.0000,0.0000,0.0000
DE,2020-12-01,24000041787,204734,0.0000,0.0000,0.0000
DE,2020-12-02,24000041796,204759,5.1600,0.8300,5.9900
DE,2020-12-02,24000041798,204817,0.0000,0.0000,0.0000
DE,2020-12-02,24000041799,204830,0.0000,0.0000,0.0000
DE,2020-12-02,24000041800,204833,0.0000,0.0000,0.0000
DE,2020-12-03,24000041904,204907,6.2400,1.2500,7.4900
DE,2020-12-03,6000060578,204910,6.6200,1.3300,7.9500
DE,2020-12-03,24000041808,204923,0.0000,0.0000,0.0000
DE,2020-12-04,24000041832,205013,6.1400,0.9800,7.1200
DE,2020-12-04,24000041833,205014,5.1600,0.8300,5.9900
DE,2020-12-04,24000041835,205016,4.6000,0.7400,5.3400
DE,2020-12-04,24000041836,205062,0.0000,0.0000,0.0000
DE,2020-12-04,24000041838,205070,6.4600,1.0300,7.4900
DE,2020-12-04,24000041942,205120,0.0000,0.0000,0.0000
DE,2020-12-05,24000041842,205160,0.0000,0.0000,0.0000
DE,2020-12-05,24000041843,205161,5.1600,0.8300,5.9900
DE,2020-12-05,24000041844,205162,0.0000,0.0000,0.0000
DE,2020-12-05,6000060748,205177,0.0000,0.0000,0.0000
DE,2020-12-07,24000041956,205298,0.0000,0.0000,0.0000
DE,2020-12-07,24000041961,205303,0.0000,0.0000,0.0000
DE,2020-12-07,24000041989,205346,0.0000,0.0000,0.0000
DE,2020-12-07,24000041865,205401,0.0000,0.0000,0.0000
DE,2020-12-08,24000041609,205464,6.4500,1.0400,7.4900
DE,2020-12-08,24000041870,205500,0.0000,0.0000,0.0000
DE,2020-12-09,24000041881,205584,5.1600,0.8300,5.9900
DE,2020-12-10,24000041631,205761,7.9900,1.2700,9.2600
DE,2020-12-11,24000041911,205842,6.4600,1.0300,7.4900
DE,2020-12-11,24000041930,205916,0.0000,0.0000,0.0000
DE,2020-12-11,24000041932,205924,0.0000,0.0000,0.0000
DE,2020-12-12,24000041940,206039,5.1600,0.8300,5.9900
DE,2020-12-12,24000041941,206043,0.0000,0.0000,0.0000
DE,2020-12-12,24000041942,206044,0.0000,0.0000,0.0000
DE,2020-12-14,24000041988,206282,5.1600,0.8300,5.9900
DE,2020-12-14,24000041991,206286,5.1600,0.8300,5.9900
DE,2020-12-14,24000042038,206290,0.0000,0.0000,0.0000
DE,2020-12-14,24000042039,206291,0.0000,0.0000,0.0000
DE,2020-12-14,24000041995,206302,0.0000,0.0000,0.0000
DE,2020-12-14,24000041996,206305,0.0000,0.0000,0.0000
DE,2020-12-14,24000041997,206306,0.0000,0.0000,0.0000
DE,2020-12-14,24000041998,206307,0.0000,0.0000,0.0000
DE,2020-12-14,24000041999,206308,0.0000,0.0000,0.0000
DE,2020-12-14,24000042000,206309,0.0000,0.0000,0.0000
DE,2020-12-14,24000042001,206310,0.0000,0.0000,0.0000
DE,2020-12-14,24000042003,206312,0.0000,0.0000,0.0000
DE,2020-12-14,24000042004,206313,6.4600,1.0300,7.4900
DE,2020-12-14,24000042005,206314,5.1600,0.8300,5.9900
DE,2020-12-14,24000042006,206315,0.0000,0.0000,0.0000
DE,2020-12-14,24000042007,206316,0.0000,0.0000,0.0000
DE,2020-12-14,24000042008,206318,0.0000,0.0000,0.0000
DE,2020-12-14,24000042010,206320,0.0000,0.0000,0.0000
DE,2020-12-14,24000042011,206321,0.0000,0.0000,0.0000
DE,2020-12-14,24000042012,206322,0.0000,0.0000,0.0000
DE,2020-12-14,24000042013,206325,0.0000,0.0000,0.0000
DE,2020-12-14,24000042015,206329,6.8900,1.1000,7.9900
DE,2020-12-14,24000042016,206330,0.0000,0.0000,0.0000
DE,2020-12-14,24000042018,206334,0.0000,0.0000,0.0000
DE,2020-12-14,24000042019,206335,0.0000,0.0000,0.0000
DE,2020-12-14,24000042020,206336,0.0000,0.0000,0.0000
DE,2020-12-14,24000042021,206337,0.0000,0.0000,0.0000
DE,2020-12-14,24000042022,206338,0.0000,0.0000,0.0000
DE,2020-12-14,24000042023,206339,0.0000,0.0000,0.0000
DE,2020-12-14,24000042024,206340,0.0000,0.0000,0.0000
DE,2020-12-14,24000042025,206341,0.0000,0.0000,0.0000
DE,2020-12-14,24000042026,206342,0.0000,0.0000,0.0000
DE,2020-12-14,24000042028,206344,0.0000,0.0000,0.0000
DE,2020-12-14,24000042029,206346,0.0000,0.0000,0.0000
DE,2020-12-14,24000042030,206347,0.0000,0.0000,0.0000
DE,2020-12-14,24000042031,206348,0.0000,0.0000,0.0000
DE,2020-12-14,24000042032,206349,0.0000,0.0000,0.0000
DE,2020-12-14,24000042033,206351,0.0000,0.0000,0.0000
DE,2020-12-14,24000042035,206356,0.0000,0.0000,0.0000
DE,2020-12-14,24000042036,206357,0.0000,0.0000,0.0000
DE,2020-12-14,24000042037,206360,0.0000,0.0000,0.0000
DE,2020-12-14,24000042038,206361,0.0000,0.0000,0.0000
DE,2020-12-14,24000042039,206362,0.0000,0.0000,0.0000
DE,2020-12-14,24000042040,206364,0.0000,0.0000,0.0000
DE,2020-12-14,24000042041,206366,0.0000,0.0000,0.0000
DE,2020-12-14,24000042060,206369,0.0000,0.0000,0.0000
DE,2020-12-14,24000042044,206371,0.0000,0.0000,0.0000
DE,2020-12-14,24000042045,206372,0.0000,0.0000,0.0000
DE,2020-12-14,24000042046,206373,0.0000,0.0000,0.0000
DE,2020-12-15,24000042064,206435,0.0000,0.0000,0.0000
DE,2020-12-15,24000042052,206462,0.0000,0.0000,0.0000
DE,2020-12-15,24000042053,206464,0.0000,0.0000,0.0000
DE,2020-12-15,24000042054,206467,0.0000,0.0000,0.0000
DE,2020-12-15,24000042055,206470,0.0000,0.0000,0.0000
DE,2020-12-15,24000042056,206475,0.0000,0.0000,0.0000
DE,2020-12-15,24000042057,206478,0.0000,0.0000,0.0000
DE,2020-12-15,24000042059,206483,0.0000,0.0000,0.0000
DE,2020-12-15,24000042060,206485,0.0000,0.0000,0.0000
DE,2020-12-15,24000042062,206491,0.0000,0.0000,0.0000
DE,2020-12-15,24000042063,206492,0.0000,0.0000,0.0000
DE,2020-12-15,24000042064,206493,0.0000,0.0000,0.0000
DE,2020-12-15,24000042065,206494,0.0000,0.0000,0.0000
DE,2020-12-15,24000042066,206495,0.0000,0.0000,0.0000
DE,2020-12-15,24000042067,206496,6.8900,1.1000,7.9900
DE,2020-12-15,24000042068,206498,0.0000,0.0000,0.0000
DE,2020-12-15,24000042069,206499,0.0000,0.0000,0.0000
DE,2020-12-15,24000042072,206503,0.0000,0.0000,0.0000
DE,2020-12-15,24000042074,206505,0.0000,0.0000,0.0000
DE,2020-12-15,24000042076,206507,0.0000,0.0000,0.0000
DE,2020-12-15,24000042083,206514,0.0000,0.0000,0.0000
DE,2020-12-15,24000042084,206516,0.0000,0.0000,0.0000
DE,2020-12-15,24000042087,206520,0.0000,0.0000,0.0000
DE,2020-12-15,24000042068,206531,0.0000,0.0000,0.0000
DE,2020-12-15,24000042099,206535,0.0000,0.0000,0.0000
DE,2020-12-15,24000042100,206536,0.0000,0.0000,0.0000
DE,2020-12-16,24000042124,206606,0.0000,0.0000,0.0000
DE,2020-12-16,24000042125,206616,0.0000,0.0000,0.0000
DE,2020-12-16,24000042126,206618,0.0000,0.0000,0.0000
DE,2020-12-16,24000042127,206621,0.0000,0.0000,0.0000
DE,2020-12-16,24000042128,206623,0.0000,0.0000,0.0000
DE,2020-12-16,24000042130,206625,0.0000,0.0000,0.0000
DE,2020-12-16,24000042132,206646,0.0000,0.0000,0.0000
DE,2020-12-16,24000042133,206654,4.6000,0.7400,5.3400
DE,2020-12-16,24000042134,206655,0.0000,0.0000,0.0000
DE,2020-12-16,24000042135,206670,0.0000,0.0000,0.0000
DE,2020-12-16,24000042137,206767,0.0000,0.0000,0.0000
DE,2020-12-16,24000042093,206769,0.0000,0.0000,0.0000
DE,2020-12-16,24000041653,206771,7.7500,1.2400,8.9900
DE,2020-12-16,24000042138,206772,0.0000,0.0000,0.0000
DE,2020-12-16,24000042139,206773,0.0000,0.0000,0.0000
DE,2020-12-16,24000042140,206774,0.0000,0.0000,0.0000
DE,2020-12-16,24000042141,206775,0.0000,0.0000,0.0000
DE,2020-12-16,24000042142,206776,0.0000,0.0000,0.0000
DE,2020-12-17,24000042177,206821,0.0000,0.0000,0.0000
DE,2020-12-17,6000061836,206822,0.0000,0.0000,0.0000
DE,2020-12-17,24000042182,206888,6.4600,1.0300,7.4900
DE,2020-12-17,24000042112,206980,0.0000,0.0000,0.0000
DE,2020-12-17,24000042205,206996,0.0000,0.0000,0.0000
DE,2020-12-17,24000042206,206997,0.0000,0.0000,0.0000
DE,2020-12-17,24000041656,206998,0.0000,0.0000,0.0000
DE,2020-12-18,24000042116,207003,0.0000,0.0000,0.0000
DE,2020-12-18,24000042207,207004,6.8900,1.1000,7.9900
DE,2020-12-18,24000042117,207005,0.0000,0.0000,0.0000
DE,2020-12-18,24000042208,207006,6.1400,0.9800,7.1200
DE,2020-12-18,24000042118,207008,0.0000,0.0000,0.0000
DE,2020-12-18,24000042212,207018,5.1600,0.8300,5.9900
DE,2020-12-18,24000042216,207022,6.8900,1.1000,7.9900
DE,2020-12-18,24000042224,207036,0.0000,0.0000,0.0000
DE,2020-12-18,24000042227,207057,0.0000,0.0000,0.0000
DE,2020-12-18,24000041659,207074,0.0000,0.0000,0.0000
DE,2020-12-18,24000042229,207075,0.0000,0.0000,0.0000
DE,2020-12-18,24000042230,207076,0.0000,0.0000,0.0000
DE,2020-12-18,24000042232,207092,0.0000,0.0000,0.0000
DE,2020-12-18,24000042234,207094,6.1400,0.9800,7.1200
DE,2020-12-19,24000042277,207231,6.0300,0.9600,6.9900
DE,2020-12-19,24000042151,207345,0.0000,0.0000,0.0000
DE,2020-12-21,24000042307,207407,0.0000,0.0000,0.0000
DE,2020-12-21,24000041666,207428,0.0000,0.0000,0.0000
DE,2020-12-21,24000042312,207429,0.0000,0.0000,0.0000
DE,2020-12-21,24000042313,207431,0.0000,0.0000,0.0000
DE,2020-12-21,24000041667,207434,0.0000,0.0000,0.0000
DE,2020-12-21,24000042315,207436,0.0000,0.0000,0.0000
DE,2020-12-21,24000042318,207462,0.0000,0.0000,0.0000
DE,2020-12-21,24000042319,207463,0.0000,0.0000,0.0000
DE,2020-12-22,24000041678,207635,0.0000,0.0000,0.0000
DE,2020-12-22,24000042343,207639,0.0000,0.0000,0.0000
DE,2020-12-22,24000042344,207643,0.0000,0.0000,0.0000
DE,2020-12-22,24000041679,207647,0.0000,0.0000,0.0000
DE,2020-12-22,24000041680,207650,0.0000,0.0000,0.0000
DE,2020-12-22,24000042346,207652,0.0000,0.0000,0.0000
DE,2020-12-22,24000042347,207653,0.0000,0.0000,0.0000
DE,2020-12-22,24000042348,207656,6.0300,0.9600,6.9900
DE,2020-12-22,24000042355,207750,0.0000,0.0000,0.0000
DE,2020-12-23,6000062527,207908,0.0000,0.0000,0.0000
DE,2020-12-23,24000041689,208041,0.0000,0.0000,0.0000
DE,2020-12-28,6000062795,208221,0.0000,0.0000,0.0000
DE,2020-12-29,24000042251,208247,0.0000,0.0000,0.0000
DE,2020-12-31,24000042436,208517,0.0000,0.0000,0.0000
DE,2020-12-31,24000041706,208519,5.1600,0.8300,5.9900
DE,2020-12-31,24000042438,208522,6.0300,0.9600,6.9900
DE,2020-12-31,24000041707,208523,6.0300,0.9600,6.9900
DE,2020-12-31,24000042439,208524,6.8900,1.1000,7.9900
DE,2020-12-31,24000042440,208525,6.1400,0.9800,7.1200
DE,2020-12-31,24000042441,208526,5.3800,0.8600,6.2400
DE,2020-12-31,24000042295,208544,0.0000,0.0000,0.0000
