country_id,created_at,entity_id,increment_id,status,base_shipping_amount,base_shipping_tax_amount,base_shipping_incl_tax
FR,2021-02-01,2853481,EBY24000594352,complete,4.9600,0.9900,5.9500
FR,2021-02-01,2853373,6000954925,complete,13.4100,0.0000,13.4100
FR,2021-02-01,2853300,EBY24000594314,complete,4.9600,0.9900,5.9500
FR,2021-02-01,2853801,6000955212,complete,13.4100,0.0000,13.4100
FR,2021-02-02,2855259,6000956068,complete,5.5500,0.0000,5.5500
FR,2021-02-03,2856944,6000957035,complete,13.4100,0.0000,13.4100
FR,2021-02-03,2856374,6000956684,complete,21.2600,0.0000,21.2600
FR,2021-02-05,2859800,EBY24000595509,complete,4.9500,1.0000,5.9500
FR,2021-02-05,2859763,6000958764,complete,13.4100,0.0000,13.4100
FR,2021-02-06,2861596,EBY24000595834,complete,4.9900,1.0000,5.9900
FR,2021-02-06,2861544,EBY24000595827,complete,0.0000,0.0000,
FR,2021-02-06,2861488,EBY24000595816,complete,0.0000,0.0000,
FR,2021-02-06,2861321,EBY24000595779,complete,4.9500,1.0000,5.9500
FR,2021-02-06,2860439,EBY24000595644,complete,9.1200,1.8300,10.9500
FR,2021-02-06,2860277,EBY24000595606,complete,4.9900,1.0000,5.9900
FR,2021-02-07,2862663,6000960438,complete,36.9600,0.0000,36.9600
FR,2021-02-07,2862488,EBY24000596018,complete,4.9600,0.9900,5.9500
FR,2021-02-07,2862468,6000960336,complete,12.2800,0.0000,12.2800
FR,2021-02-07,2862426,6000960317,complete,13.4100,0.0000,13.4100
FR,2021-02-08,2864474,EBY24000596411,complete,4.9900,1.0000,5.9900
FR,2021-02-08,2864402,EBY24000596399,complete,0.0000,0.0000,
FR,2021-02-08,2864179,EBY24000596359,complete,4.9900,1.0000,5.9900
FR,2021-02-08,2863904,EBY24000596296,complete,4.9900,1.0000,5.9900
FR,2021-02-08,2863555,6000960953,complete,13.4100,0.0000,13.4100
FR,2021-02-09,2865659,6000962163,complete,12.2800,0.0000,12.2800
FR,2021-02-09,2865655,6000962153,complete,24.6300,0.0000,24.6300
FR,2021-02-09,2865196,6000961886,complete,10.9500,0.0000,10.9500
FR,2021-02-09,2864944,6000961743,complete,10.9500,0.0000,10.9500
FR,2021-02-10,2866595,6000962684,complete,12.2800,0.0000,12.2800
FR,2021-02-11,2868742,6000963526,complete,5.5500,0.0000,5.5500
FR,2021-02-12,2869936,EBY24000597544,complete,4.9600,0.9900,5.9500
FR,2021-02-13,2870091,EBY24000597588,complete,4.9600,0.9900,5.9500
FR,2021-02-13,2870090,EBY24000597587,complete,4.9600,0.9900,5.9500
FR,2021-02-14,2871317,6000965500,complete,5.5500,0.0000,5.5500
FR,2021-02-15,2872646,EBY24000598127,complete,0.0000,0.0000,
FR,2021-02-15,2873509,6000966791,complete,13.4100,0.0000,13.4100
FR,2021-02-15,2872965,6000966432,complete,13.4100,0.0000,13.4100
FR,2021-02-15,2872755,EBY24000598157,complete,12.4600,2.4900,14.9500
FR,2021-02-15,2872649,EBY24000598128,complete,9.9500,0.0000,9.9500
FR,2021-02-16,2874602,EBY24000598503,complete,9.1200,1.8300,10.9500
FR,2021-02-16,2874262,6000967220,complete,5.5500,0.0000,5.5500
FR,2021-02-17,2875666,6000967998,complete,5.5500,0.0000,5.5500
FR,2021-02-17,2875641,6000967982,complete,5.5500,0.0000,5.5500
FR,2021-02-17,2875640,6000967981,complete,5.5500,0.0000,5.5500
FR,2021-02-17,2875609,6000967958,complete,5.5500,0.0000,5.5500
FR,2021-02-17,2876548,6000968531,complete,5.5500,0.0000,5.5500
FR,2021-02-17,2875606,6000967957,complete,5.5500,0.0000,5.5500
FR,2021-02-17,2876202,6000968321,complete,5.5500,0.0000,5.5500
FR,2021-02-17,2875603,6000967954,complete,5.5500,0.0000,5.5500
FR,2021-02-17,2876050,6000968226,complete,5.5500,0.0000,5.5500
FR,2021-02-17,2875587,6000967943,complete,5.5500,0.0000,5.5500
FR,2021-02-17,2875920,6000968154,complete,5.5500,0.0000,5.5500
FR,2021-02-17,2875586,6000967944,complete,5.5500,0.0000,5.5500
FR,2021-02-17,2875774,6000968072,complete,5.5500,0.0000,5.5500
FR,2021-02-17,2875581,6000967941,complete,5.5500,0.0000,5.5500
FR,2021-02-17,2875759,6000968064,complete,5.5500,0.0000,5.5500
FR,2021-02-17,2875579,6000967938,complete,13.4100,0.0000,13.4100
FR,2021-02-17,2875741,6000968052,complete,5.5500,0.0000,5.5500
FR,2021-02-17,2875738,6000968050,complete,5.5500,0.0000,5.5500
FR,2021-02-17,2875717,6000968039,complete,5.5500,0.0000,5.5500
FR,2021-02-17,2875682,6000968014,complete,5.5500,0.0000,5.5500
FR,2021-02-17,2875680,6000968012,complete,5.5500,0.0000,5.5500
FR,2021-02-17,2875676,6000968008,complete,5.5500,0.0000,5.5500
FR,2021-02-17,2875673,6000968006,complete,5.5500,0.0000,5.5500
FR,2021-02-18,2877514,6000969304,complete,5.5500,0.0000,5.5500
FR,2021-02-18,2876723,6000968629,complete,5.5500,0.0000,5.5500
FR,2021-02-18,2876612,6000968563,complete,5.5500,0.0000,5.5500
FR,2021-02-18,2877778,6000969461,complete,5.5500,0.0000,5.5500
FR,2021-02-18,2877641,6000969383,complete,5.5500,0.0000,5.5500
FR,2021-02-18,2877606,6000969356,complete,5.5500,0.0000,5.5500
FR,2021-02-18,2877594,6000969350,complete,5.5500,0.0000,5.5500
FR,2021-02-18,2877584,6000969341,complete,5.5500,0.0000,5.5500
FR,2021-02-18,2877543,6000969321,complete,5.5500,0.0000,5.5500
FR,2021-02-19,2878903,6000970101,bike_order,0.0000,0.0000,
FR,2021-02-19,2878746,6000970016,complete,13.4100,0.0000,13.4100
FR,2021-02-19,2878733,EBY24000599318,complete,9.9800,0.0000,9.9800
FR,2021-02-19,2878220,6000969717,complete,5.5500,0.0000,5.5500
FR,2021-02-19,2878089,6000969642,complete,5.5500,0.0000,5.5500
FR,2021-02-19,2878057,6000969606,complete,5.5500,0.0000,5.5500
FR,2021-02-19,2878035,6000969584,complete,5.5500,0.0000,5.5500
FR,2021-02-19,2877979,EBY24000599188,complete,4.9900,1.0000,5.9900
FR,2021-02-19,2877940,6000969521,complete,13.4100,0.0000,13.4100
FR,2021-02-19,2877927,6000969516,closed,5.5500,0.0000,5.5500
FR,2021-02-19,2879047,6000969525,complete,33.5900,0.0000,33.5900
FR,2021-02-20,2879576,6000970479,complete,13.4100,0.0000,13.4100
FR,2021-02-20,2879573,6000970476,bike_order,0.0000,0.0000,
FR,2021-02-20,2879286,6000970304,complete,12.2800,0.0000,12.2800
FR,2021-02-20,2879269,EBY24000599438,complete,0.0000,0.0000,
FR,2021-02-21,2881638,6000971614,complete,21.2600,0.0000,21.2600
FR,2021-02-21,2881201,6000971362,complete,5.5500,0.0000,5.5500
FR,2021-02-21,2881194,6000971358,complete,5.5500,0.0000,5.5500
FR,2021-02-21,2880541,EBY24000599663,closed,4.9600,0.9900,5.9500
FR,2021-02-22,2883360,EBY24000600169,complete,4.9900,1.0000,5.9900
FR,2021-02-22,2883043,6000972464,complete,36.9600,0.0000,36.9600
FR,2021-02-22,2883027,6000972453,complete,13.4100,0.0000,13.4100
FR,2021-02-22,2882770,6000972273,complete,13.4100,0.0000,13.4100
FR,2021-02-22,2882359,6000971983,complete,5.5500,0.0000,5.5500
FR,2021-02-23,2884210,6000973132,complete,12.7000,0.0000,12.7000
FR,2021-02-24,2885242,6000973708,complete,21.9800,0.0000,21.9800
FR,2021-02-24,2886179,6000974268,complete,13.8600,0.0000,13.8600
FR,2021-02-24,2885683,6000973975,complete,13.8600,0.0000,13.8600
FR,2021-02-24,2885535,AMZ24000611027,complete,5.9900,0.0000,5.9900
FR,2021-02-25,2886652,6000974554,complete,13.8600,0.0000,13.8600
FR,2021-02-25,2886412,EBY24000600747,complete,9.1300,1.8200,10.9500
FR,2021-02-26,2888620,6000975700,complete,13.8600,0.0000,13.8600
FR,2021-02-26,2888569,6000975666,packed,5.7400,0.0000,5.7400
FR,2021-02-26,2888133,EBY24000601037,complete,4.9900,1.0000,5.9900
FR,2021-02-28,2891861,6000977524,pick_note_printed,5.7400,0.0000,5.7400
FR,2021-02-28,2890667,6000976847,pick_note_printed,13.8600,0.0000,13.8600
