country_id,created_at,increment_id,entity_id,base_shipping_amount,base_shipping_tax_amount,base_shipping_incl_tax
GR,2020-10-05,600072196,200344,0.0000,0.0000,0.0000
GR,2020-10-12,600072456,201087,10.7900,2.1600,12.9500
GR,2020-10-16,2400057695,201644,4.1500,0.8400,4.9900
GR,2020-10-22,600072910,202436,0.0000,0.0000,0.0000
GR,2020-10-23,600072975,202594,0.0000,0.0000,0.0000
