country_id,created_at,entity_id,increment_id,status,base_shipping_amount,base_shipping_tax_amount,base_shipping_incl_tax
ES,2020-04-01,2287947,2400665792,complete,8.9100,1.7800,10.6900
ES,2020-04-01,2288782,2400666019,complete,4.4500,0.8900,5.3400
ES,2020-04-01,2288886,2400666036,complete,8.9100,1.7800,10.6900
ES,2020-04-01,2289065,2400666079,complete,4.4500,0.8900,5.3400
ES,2020-04-01,2289210,2400666114,complete,4.4500,0.8900,5.3400
ES,2020-04-01,2289319,2400666146,complete,4.4500,0.8900,5.3400
ES,2020-04-01,2289443,2400666184,complete,8.9100,1.7800,10.6900
ES,2020-04-01,2289522,2400666209,complete,4.4500,0.8900,5.3400
ES,2020-04-01,2289546,2400666219,complete,4.4500,0.8900,5.3400
ES,2020-04-01,2289637,2400666250,complete,4.4500,0.8900,5.3400
ES,2020-04-01,2289657,2400666256,complete,4.4500,0.8900,5.3400
ES,2020-04-01,2289765,2400666291,complete,4.4500,0.8900,5.3400
ES,2020-04-01,2289769,2400666294,complete,8.9100,1.7800,10.6900
ES,2020-04-01,2289862,2400666319,complete,4.4500,0.8900,5.3400
ES,2020-04-02,2289892,2400666325,complete,4.4500,0.8900,5.3400
ES,2020-04-02,2289901,2400666328,complete,5.3400,1.0600,6.4100
ES,2020-04-02,2289976,2400666346,complete,8.9100,1.7800,10.6900
ES,2020-04-02,2290057,2400666371,complete,4.4500,0.8900,5.3400
ES,2020-04-02,2290228,2400666425,complete,4.4500,0.8900,5.3400
ES,2020-04-02,2290240,2400666430,complete,4.4500,0.8900,5.3400
ES,2020-04-02,2290295,2400666443,complete,8.9100,1.7800,10.6900
ES,2020-04-02,2290315,2400666451,complete,4.4500,0.8900,5.3400
ES,2020-04-02,2290400,2400666474,complete,14.8500,2.9700,17.8200
ES,2020-04-02,2290437,2400666494,complete,4.4500,0.8900,5.3400
ES,2020-04-02,2290457,2400666503,complete,8.9100,1.7800,10.6900
ES,2020-04-02,2290458,2400666504,complete,4.4500,0.8900,5.3400
ES,2020-04-02,2290471,2400666508,complete,8.9100,1.7800,10.6900
ES,2020-04-02,2290724,2400666582,complete,14.8500,2.9700,17.8200
ES,2020-04-02,2290822,2400666616,complete,4.4500,0.8900,5.3400
ES,2020-04-02,2290839,2400666622,complete,4.4500,0.8900,5.3400
ES,2020-04-02,2290933,2400666651,complete,4.4500,0.8900,5.3400
ES,2020-04-02,2291075,2400666685,complete,4.4500,0.8900,5.3400
ES,2020-04-02,2291088,2400666690,complete,4.4500,0.8900,5.3400
ES,2020-04-02,2291115,2400666695,complete,4.4500,0.8900,5.3400
ES,2020-04-02,2291140,2400666705,complete,4.4500,0.8900,5.3400
ES,2020-04-02,2291144,2400666707,complete,4.4400,0.9000,5.3400
ES,2020-04-02,2291214,2400666722,complete,8.9100,1.7800,10.6900
ES,2020-04-02,2291215,2400666723,complete,4.4500,0.8900,5.3400
ES,2020-04-02,2291364,2400666770,complete,4.4500,0.8900,5.3400
ES,2020-04-02,2291378,2400666772,complete,8.9100,1.7800,10.6900
ES,2020-04-02,2291395,2400666779,complete,4.4500,0.8900,5.3400
ES,2020-04-02,2291431,2400666792,complete,4.4500,0.8900,5.3400
ES,2020-04-02,2291443,2400666794,complete,14.8500,2.9700,17.8200
ES,2020-04-02,2291477,2400666803,complete,4.4500,0.8900,5.3400
ES,2020-04-02,2291645,2400666847,complete,4.4500,0.8900,5.3400
ES,2020-04-02,2291725,2400666872,complete,8.9100,1.7800,10.6900
ES,2020-04-02,2292037,2400666969,complete,4.4500,0.8900,5.3400
ES,2020-04-02,2292049,2400666972,complete,8.9100,1.7800,10.6900
ES,2020-04-03,2292444,2400667059,complete,4.4500,0.8900,5.3400
ES,2020-04-03,2292450,2500310599,complete,8.2900,1.6600,9.9500
ES,2020-04-03,2292578,2400667088,complete,8.9100,1.7800,10.6900
ES,2020-04-03,2292967,2400667182,complete,5.3400,1.0700,6.4100
ES,2020-04-03,2292968,2400667183,complete,4.4500,0.8900,5.3400
ES,2020-04-03,2292996,2400667190,complete,4.4500,0.8900,5.3400
ES,2020-04-03,2293002,2400667193,complete,4.4500,0.8900,5.3400
ES,2020-04-03,2293083,2400667217,complete,4.4500,0.8900,5.3400
ES,2020-04-03,2293159,2400667236,complete,4.4500,0.8900,5.3400
ES,2020-04-03,2293282,2400667277,complete,4.4500,0.8900,5.3400
ES,2020-04-03,2293401,2400667316,complete,5.3400,1.0700,6.4100
ES,2020-04-03,2293409,2400667321,complete,8.9100,1.7800,10.6900
ES,2020-04-03,2293424,2400667326,complete,8.9100,1.7800,10.6900
ES,2020-04-03,2293491,2400667341,complete,8.9100,1.7800,10.6900
ES,2020-04-03,2293509,2400667350,complete,8.9100,1.7800,10.6900
ES,2020-04-03,2293605,2400667381,complete,14.8500,2.9700,17.8200
ES,2020-04-03,2293607,2400667382,complete,14.8500,2.9700,17.8200
ES,2020-04-03,2293608,2400667383,complete,4.4500,0.8900,5.3400
ES,2020-04-03,2293748,2400667418,complete,4.4500,0.8900,5.3400
ES,2020-04-03,2293831,2400667434,complete,4.4500,0.8900,5.3400
ES,2020-04-03,2293850,2400667438,complete,4.4500,0.8900,5.3400
ES,2020-04-03,2293852,2400667439,complete,8.9100,1.7800,10.6900
ES,2020-04-03,2293880,2400667447,complete,8.9100,1.7800,10.6900
ES,2020-04-03,2293881,2400667448,complete,8.9100,1.7800,10.6900
ES,2020-04-03,2293906,2500311228,complete,8.2500,1.6500,9.9000
ES,2020-04-03,2293969,2400667467,complete,14.8500,2.9700,17.8200
ES,2020-04-03,2294141,2400667523,complete,8.9100,1.7800,10.6900
ES,2020-04-03,2294290,2400667564,complete,14.8500,2.9700,17.8200
ES,2020-04-03,2294422,2400667598,complete,4.4500,0.8900,5.3400
ES,2020-04-04,2294471,2400667611,complete,4.4500,0.8900,5.3400
ES,2020-04-04,2294519,2400667621,complete,4.4500,0.8900,5.3400
ES,2020-04-04,2294654,2400667656,complete,3.3200,0.6700,3.9900
ES,2020-04-04,2294868,2400667734,complete,3.7100,0.7400,4.4500
ES,2020-04-04,2294870,2400667735,complete,3.7100,0.7400,4.4500
ES,2020-04-04,2294951,2400667761,complete,14.8400,2.9800,17.8200
ES,2020-04-04,2294963,2400667767,complete,4.4500,0.8900,5.3400
ES,2020-04-04,2294967,2400667770,complete,4.4500,0.8900,5.3400
ES,2020-04-04,2294972,2400667773,complete,4.4500,0.8900,5.3400
ES,2020-04-04,2294988,2500311660,complete,4.1300,0.8200,4.9500
ES,2020-04-04,2295017,2400667785,complete,3.7100,0.7400,4.4500
ES,2020-04-04,2295119,2400667814,complete,14.8500,2.9700,17.8200
ES,2020-04-04,2295172,2400667829,complete,3.7100,0.7400,4.4500
ES,2020-04-04,2295232,2400667853,complete,4.4500,0.8900,5.3400
ES,2020-04-04,2295419,2400667911,complete,14.8500,2.9700,17.8200
ES,2020-04-04,2295439,2400667919,complete,4.4500,0.8900,5.3400
ES,2020-04-04,2295531,2400667947,complete,3.7100,0.7400,4.4500
ES,2020-04-04,2295596,2400667969,complete,3.7100,0.7400,4.4500
ES,2020-04-04,2295657,2400667990,complete,5.9400,1.1900,7.1300
ES,2020-04-04,2295727,2400668017,complete,4.4500,0.8900,5.3400
ES,2020-04-04,2295728,2400668018,complete,3.7100,0.7400,4.4500
ES,2020-04-04,2295817,2400668038,complete,3.7100,0.7400,4.4500
ES,2020-04-04,2295821,2400668041,complete,4.4500,0.8900,5.3400
ES,2020-04-04,2295844,2400668047,complete,7.4200,1.4900,8.9100
ES,2020-04-04,2295853,2400668050,complete,3.7100,0.7400,4.4500
ES,2020-04-04,2295903,2400668067,complete,8.9100,1.7800,10.6900
ES,2020-04-04,2295944,2400668082,complete,7.4200,1.4900,8.9100
ES,2020-04-04,2296031,2400668107,complete,4.4500,0.8900,5.3400
ES,2020-04-04,2296063,600720192,complete,7.4600,1.4900,8.9500
ES,2020-04-04,2296123,1900273111,complete,13.2900,2.6600,15.9500
ES,2020-04-04,2296218,2400668176,closed,4.4500,0.8900,5.3400
ES,2020-04-04,2296268,2400668193,complete,4.4500,0.8900,5.3400
ES,2020-04-04,2296326,2400668207,complete,4.4500,0.8900,5.3400
ES,2020-04-04,2296448,2400668236,complete,3.7100,0.7400,4.4500
ES,2020-04-04,2296474,2400668243,complete,3.7100,0.7400,4.4500
ES,2020-04-04,2296554,2400668261,complete,3.7100,0.7400,4.4500
ES,2020-04-04,2296577,2400668269,complete,14.8500,2.9700,17.8200
ES,2020-04-04,2296612,2400668285,complete,3.7100,0.7400,4.4500
ES,2020-04-04,2296742,2400668321,complete,5.9400,1.1900,7.1300
ES,2020-04-04,2296829,2400668352,complete,14.8400,2.9800,17.8200
ES,2020-04-04,2296843,2400668355,complete,5.9400,1.1900,7.1300
ES,2020-04-05,2296951,2400668371,complete,3.7100,0.7400,4.4500
ES,2020-04-05,2296957,2400668373,complete,4.4500,0.8900,5.3400
ES,2020-04-05,2296989,2400668382,complete,8.9100,1.7800,10.6900
ES,2020-04-05,2296990,2400668383,complete,7.4200,1.4900,8.9100
ES,2020-04-05,2297186,2400668442,complete,4.4500,0.8900,5.3400
ES,2020-04-05,2297206,2400668450,complete,3.7100,0.7400,4.4500
ES,2020-04-05,2297241,2400668463,complete,3.7100,0.7400,4.4500
ES,2020-04-05,2297373,2400668500,complete,14.8500,2.9700,17.8200
ES,2020-04-05,2297376,2400668503,complete,3.7100,0.7400,4.4500
ES,2020-04-05,2297424,2400668521,complete,7.4200,1.4900,8.9100
ES,2020-04-05,2297443,2400668524,complete,7.4200,1.4900,8.9100
ES,2020-04-05,2297597,2400668579,complete,3.7100,0.7400,4.4500
ES,2020-04-05,2297611,2400668583,complete,4.4500,0.8900,5.3400
ES,2020-04-05,2297689,2400668609,complete,3.7100,0.7400,4.4500
ES,2020-04-05,2297701,2400668612,complete,4.4500,0.8900,5.3400
ES,2020-04-05,2297832,2400668643,complete,4.4500,0.8900,5.3400
ES,2020-04-05,2297977,2400668686,complete,3.7100,0.7400,4.4500
ES,2020-04-05,2298041,2400668710,complete,3.7100,0.7400,4.4500
ES,2020-04-05,2298079,2400668719,complete,4.4500,0.8900,5.3400
ES,2020-04-05,2298099,2400668728,complete,3.7100,0.7400,4.4500
ES,2020-04-05,2298151,2400668747,complete,4.4500,0.8900,5.3400
ES,2020-04-05,2298198,2400668759,complete,5.9400,1.1900,7.1300
ES,2020-04-05,2298217,2400668763,complete,3.7100,0.7400,4.4500
ES,2020-04-05,2298527,2400668855,complete,3.7100,0.7400,4.4500
ES,2020-04-05,2298583,2400668870,complete,3.7100,0.7400,4.4500
ES,2020-04-05,2298614,2400668880,complete,4.4500,0.8900,5.3400
ES,2020-04-05,2298626,2400668885,complete,4.4500,0.8900,5.3400
ES,2020-04-05,2298863,2400668955,complete,3.7100,0.7400,4.4500
ES,2020-04-05,2298942,2400668975,complete,3.7100,0.7400,4.4500
ES,2020-04-05,2299084,2400669022,closed,14.8500,2.9700,17.8200
ES,2020-04-05,2299184,2400669047,complete,3.7100,0.7400,4.4500
ES,2020-04-05,2299241,2400669067,complete,7.1200,1.4300,8.5400
ES,2020-04-05,2299242,2400669068,complete,3.7100,0.7400,4.4500
ES,2020-04-05,2299491,2400669142,complete,3.7100,0.7400,4.4500
ES,2020-04-05,2299511,2500313474,complete,4.1300,0.8200,4.9500
ES,2020-04-05,2299586,2400669173,complete,5.9400,1.1900,7.1300
ES,2020-04-05,2299587,2400669174,complete,7.4200,1.4900,8.9100
ES,2020-04-05,2299588,2400669175,complete,5.9400,1.1900,7.1300
ES,2020-04-05,2299672,2400669209,complete,7.1200,1.4300,8.5400
ES,2020-04-05,2299673,2400669210,complete,5.9400,1.1900,7.1300
ES,2020-04-05,2299674,2400669211,complete,3.7100,0.7400,4.4500
ES,2020-04-05,2299686,2400669217,complete,5.9400,1.1900,7.1300
ES,2020-04-05,2299731,2400669237,complete,3.7100,0.7400,4.4500
ES,2020-04-05,2299767,2400669259,complete,4.4500,0.8900,5.3400
ES,2020-04-05,2299770,2400669262,complete,3.7100,0.7400,4.4500
ES,2020-04-05,2299790,2400669270,complete,7.4300,1.4800,8.9100
ES,2020-04-06,2299924,2400669308,complete,5.9400,1.1900,7.1300
ES,2020-04-06,2299941,2400669312,complete,5.9400,1.1900,7.1300
ES,2020-04-06,2299947,2400669315,complete,4.4500,0.8900,5.3400
ES,2020-04-06,2300029,2400669335,complete,4.4500,0.8900,5.3400
ES,2020-04-06,2300090,2400669361,complete,3.7100,0.7400,4.4500
ES,2020-04-06,2300110,2400669369,complete,7.4200,1.4900,8.9100
ES,2020-04-06,2300143,2400669376,complete,7.4200,1.4900,8.9100
ES,2020-04-06,2300280,2400669423,complete,3.7000,0.7500,4.4500
ES,2020-04-06,2300304,2400669430,complete,3.7100,0.7400,4.4500
ES,2020-04-06,2300350,2400669445,complete,5.9400,1.1900,7.1300
ES,2020-04-06,2300383,2400669455,complete,4.4500,0.8900,5.3400
ES,2020-04-06,2300447,2400669472,complete,7.1200,1.4200,8.5400
ES,2020-04-06,2300472,2400669486,complete,14.8500,2.9700,17.8200
ES,2020-04-06,2300485,2400669493,complete,5.9300,1.1900,7.1200
ES,2020-04-06,2300522,2400669497,complete,4.4500,0.8900,5.3400
ES,2020-04-06,2300548,2400669507,complete,5.9400,1.1900,7.1300
ES,2020-04-06,2300590,2400669522,complete,8.9100,1.7800,10.6900
ES,2020-04-06,2300591,2400669523,complete,4.4500,0.8900,5.3400
ES,2020-04-06,2300610,2400669530,complete,4.4500,0.8900,5.3400
ES,2020-04-06,2300624,2400669535,complete,7.1200,1.4200,8.5400
ES,2020-04-06,2300625,2400669536,complete,4.4500,0.8900,5.3400
ES,2020-04-06,2300660,2400669541,complete,7.1200,1.4200,8.5400
ES,2020-04-06,2300691,2400669551,complete,4.4500,0.8900,5.3400
ES,2020-04-06,2300711,2400669558,complete,5.1900,1.0400,6.2300
ES,2020-04-06,2300780,2400669577,complete,4.4500,0.8900,5.3400
ES,2020-04-06,2300823,600720791,complete,7.4600,1.4900,8.9500
ES,2020-04-06,2300862,2400669609,complete,4.4500,0.8900,5.3400
ES,2020-04-06,2300870,2400669610,complete,4.4500,0.8900,5.3400
ES,2020-04-06,2300902,2400669622,complete,5.1900,1.0400,6.2300
ES,2020-04-06,2300936,2400669631,complete,7.4200,1.4900,8.9100
ES,2020-04-06,2300991,2400669645,complete,7.4200,1.4900,8.9100
ES,2020-04-06,2300992,2400669646,complete,14.8500,2.9700,17.8200
ES,2020-04-06,2300996,2500313987,complete,0.0000,0.0000,
ES,2020-04-06,2301063,2400669665,complete,5.9400,1.1900,7.1300
ES,2020-04-06,2301084,2400669679,complete,7.4200,1.4900,8.9100
ES,2020-04-06,2301090,2400669682,complete,4.4500,0.8900,5.3400
ES,2020-04-06,2301191,2400669713,complete,5.9400,1.1900,7.1300
ES,2020-04-06,2301223,2400669726,complete,7.4200,1.4900,8.9100
ES,2020-04-06,2301246,2400669734,complete,4.4500,0.8900,5.3400
ES,2020-04-06,2301247,2400669735,complete,4.4500,0.8900,5.3400
ES,2020-04-06,2301282,2400669740,complete,7.4200,1.4900,8.9100
ES,2020-04-06,2301301,2400669749,complete,5.9400,1.1900,7.1300
ES,2020-04-06,2301376,2400669772,complete,5.1900,1.0400,6.2300
ES,2020-04-06,2301388,2400669775,complete,4.4500,0.8900,5.3400
ES,2020-04-06,2301415,2400669782,complete,4.4500,0.8900,5.3400
ES,2020-04-06,2301504,2400669802,complete,5.1900,1.0400,6.2300
ES,2020-04-06,2301516,2400669805,complete,4.4500,0.8900,5.3400
ES,2020-04-06,2301517,2400669806,complete,5.3400,1.0700,6.4100
ES,2020-04-06,2301530,2400669811,complete,4.4500,0.8900,5.3400
ES,2020-04-06,2301587,2400669826,complete,4.4500,0.8900,5.3400
ES,2020-04-06,2301623,2400669832,complete,7.1200,1.4200,8.5400
ES,2020-04-06,2301693,2400669852,complete,7.4200,1.4900,8.9100
ES,2020-04-06,2301707,2400669855,complete,4.4500,0.8900,5.3400
ES,2020-04-06,2301785,2400669871,complete,14.8500,2.9700,17.8200
ES,2020-04-06,2301830,2400669881,complete,8.9100,1.7800,10.6900
ES,2020-04-06,2301856,2400669887,complete,7.4200,1.4900,8.9100
ES,2020-04-06,2301916,2400669906,complete,4.4500,0.8900,5.3400
ES,2020-04-06,2301973,2400669920,complete,4.4500,0.8900,5.3400
ES,2020-04-06,2301974,2400669921,complete,5.9400,1.1900,7.1300
ES,2020-04-06,2301975,2400669922,complete,5.1900,1.0400,6.2300
ES,2020-04-06,2302003,2400669934,complete,5.9400,1.1900,7.1300
ES,2020-04-06,2302009,2400669937,complete,4.4500,0.8900,5.3400
ES,2020-04-06,2302045,2400669951,complete,4.4500,0.8900,5.3400
ES,2020-04-06,2302072,2400669959,complete,7.4200,1.4900,8.9100
ES,2020-04-07,2302088,2400669965,complete,4.4500,0.8900,5.3400
ES,2020-04-07,2302135,2500314355,complete,4.1300,0.8200,4.9500
ES,2020-04-07,2302140,2400669980,complete,5.1900,1.0400,6.2300
ES,2020-04-07,2302272,2400670018,complete,5.1900,1.0400,6.2300
ES,2020-04-07,2302323,2400670028,complete,5.9400,1.1900,7.1300
ES,2020-04-07,2302429,2400670052,complete,5.1900,1.0400,6.2300
ES,2020-04-07,2302513,2400670075,complete,7.4200,1.4900,8.9100
ES,2020-04-07,2302549,2400670081,complete,5.1900,1.0400,6.2300
ES,2020-04-07,2302647,2400670115,complete,4.4500,0.8900,5.3400
ES,2020-04-07,2302761,2400670140,complete,7.4300,1.4800,8.9100
ES,2020-04-07,2302849,2400670170,complete,7.4200,1.4900,8.9100
ES,2020-04-07,2302878,2400670178,complete,7.4200,1.4900,8.9100
ES,2020-04-07,2302908,2400670188,complete,7.4200,1.4900,8.9100
ES,2020-04-07,2302937,2400670197,complete,4.4500,0.8900,5.3400
ES,2020-04-07,2302977,2400670206,complete,5.2000,1.0300,6.2300
ES,2020-04-07,2302980,2400670209,complete,5.1900,1.0400,6.2300
ES,2020-04-07,2303137,2400670254,complete,5.9400,1.1900,7.1300
ES,2020-04-07,2303246,2400670280,complete,5.9400,1.1900,7.1300
ES,2020-04-07,2303270,2400670288,complete,5.1900,1.0400,6.2300
ES,2020-04-07,2303313,2400670303,complete,4.4500,0.8900,5.3400
ES,2020-04-07,2303323,2400670306,complete,4.4500,0.8900,5.3400
ES,2020-04-07,2303340,2400670309,complete,4.4500,0.8900,5.3400
ES,2020-04-07,2303369,2400670316,complete,5.1900,1.0400,6.2300
ES,2020-04-07,2303394,2400670324,complete,5.1900,1.0400,6.2300
ES,2020-04-07,2303412,2400670332,complete,7.4200,1.4900,8.9100
ES,2020-04-07,2303462,2400670351,complete,7.4200,1.4900,8.9100
ES,2020-04-07,2303463,2400670352,complete,6.2300,1.2500,7.4800
ES,2020-04-07,2303520,2400670367,complete,5.1900,1.0400,6.2300
ES,2020-04-07,2303610,2400670393,complete,5.1900,1.0400,6.2300
ES,2020-04-07,2303693,2400670419,complete,7.4200,1.4900,8.9100
ES,2020-04-07,2303725,2400670426,complete,4.4500,0.8900,5.3400
ES,2020-04-07,2303821,2400670454,complete,5.1900,1.0400,6.2300
ES,2020-04-07,2304082,2400670544,complete,5.1900,1.0400,6.2300
ES,2020-04-07,2304135,2400670557,complete,4.4500,0.8900,5.3400
ES,2020-04-07,2304201,2400670579,complete,5.1900,1.0400,6.2300
ES,2020-04-08,2304218,2400670585,complete,5.1900,1.0400,6.2300
ES,2020-04-08,2304241,2400670591,complete,4.4500,0.8900,5.3400
ES,2020-04-08,2304278,2400670599,complete,5.9400,1.1900,7.1300
ES,2020-04-08,2304299,2400670608,closed,5.1900,1.0400,6.2300
ES,2020-04-08,2304437,2400670638,complete,4.4500,0.8900,5.3400
ES,2020-04-08,2304442,2400670640,complete,7.4200,1.4900,8.9100
ES,2020-04-08,2304478,2400670651,complete,5.9300,1.1900,7.1200
ES,2020-04-08,2304544,2400670669,complete,5.1900,1.0400,6.2300
ES,2020-04-08,2304563,2400670674,complete,7.4200,1.4900,8.9100
ES,2020-04-08,2304611,2400670689,complete,5.9400,1.1900,7.1300
ES,2020-04-08,2304728,2400670722,complete,5.1900,1.0400,6.2300
ES,2020-04-08,2304747,2400670729,complete,5.9400,1.1900,7.1300
ES,2020-04-08,2304778,2400670738,complete,14.8500,2.9700,17.8200
ES,2020-04-08,2304929,2400670779,complete,7.4200,1.4900,8.9100
ES,2020-04-08,2305002,2400670808,complete,4.4500,0.8900,5.3400
ES,2020-04-08,2305047,2400670823,complete,4.4500,0.8900,5.3400
ES,2020-04-08,2305465,2400670935,complete,4.4500,0.8900,5.3400
ES,2020-04-08,2305466,2400670936,complete,14.8500,2.9700,17.8200
ES,2020-04-08,2305631,2400670981,complete,5.1900,1.0400,6.2300
ES,2020-04-08,2305645,2400670985,complete,4.4500,0.8900,5.3400
ES,2020-04-08,2305662,2400670991,complete,6.2300,1.2400,7.4800
ES,2020-04-08,2305763,2400671017,complete,4.4500,0.8900,5.3400
ES,2020-04-08,2305773,2400671020,complete,5.9400,1.1900,7.1300
ES,2020-04-08,2305833,2400671038,complete,4.4500,0.8900,5.3400
ES,2020-04-08,2305861,2400671046,complete,7.4200,1.4900,8.9100
ES,2020-04-08,2305904,2400671062,complete,4.4500,0.8900,5.3400
ES,2020-04-08,2305932,2400671069,complete,5.9400,1.1900,7.1300
ES,2020-04-08,2305954,2400671079,complete,5.1900,1.0400,6.2300
ES,2020-04-08,2305989,2400671094,complete,5.1900,1.0400,6.2300
ES,2020-04-08,2306014,2400671102,complete,7.4200,1.4900,8.9100
ES,2020-04-08,2306090,2400671127,complete,4.4500,0.8900,5.3400
ES,2020-04-08,2306118,2400671135,complete,4.4500,0.8900,5.3400
ES,2020-04-08,2306320,2400671200,complete,4.4500,0.8900,5.3400
ES,2020-04-08,2306341,2400671210,complete,7.4200,1.4900,8.9100
ES,2020-04-09,2306483,2400671243,complete,4.4500,0.8900,5.3400
ES,2020-04-09,2306579,1900274831,complete,7.4600,1.4900,8.9500
ES,2020-04-09,2306632,2400671288,complete,5.1900,1.0400,6.2300
ES,2020-04-09,2306690,2400671306,complete,5.9400,1.1900,7.1300
ES,2020-04-09,2306747,2400671322,complete,5.1900,1.0400,6.2300
ES,2020-04-09,2306763,2400671326,complete,5.1900,1.0400,6.2300
ES,2020-04-09,2306798,2400671338,complete,5.1900,1.0400,6.2300
ES,2020-04-09,2306933,2400671385,complete,7.4200,1.4900,8.9100
ES,2020-04-09,2306990,2400671392,complete,14.8500,2.9700,17.8200
ES,2020-04-09,2306995,2400671397,complete,7.4200,1.4900,8.9100
ES,2020-04-09,2307100,2500315984,complete,8.3000,1.6500,9.9500
ES,2020-04-09,2307141,2400671441,complete,4.4500,0.8900,5.3400
ES,2020-04-09,2307231,2400671465,complete,4.4500,0.8900,5.3400
ES,2020-04-09,2307263,2400671475,complete,4.4500,0.8900,5.3400
ES,2020-04-09,2307283,2400671482,complete,6.2300,1.2400,7.4800
ES,2020-04-09,2307321,2400671490,complete,7.4200,1.4900,8.9100
ES,2020-04-09,2307376,2400671502,complete,5.9400,1.1900,7.1300
ES,2020-04-09,2307413,2400671508,complete,4.4500,0.8900,5.3400
ES,2020-04-09,2307590,2400671568,complete,7.1200,1.4300,8.5400
ES,2020-04-09,2307618,2400671580,complete,4.4500,0.8900,5.3400
ES,2020-04-09,2307624,2400671582,complete,7.4200,1.4900,8.9100
ES,2020-04-09,2307666,2400671596,complete,5.9400,1.1900,7.1300
ES,2020-04-09,2307806,2400671631,complete,5.1900,1.0400,6.2300
ES,2020-04-09,2307807,2400671632,complete,5.9400,1.1900,7.1300
ES,2020-04-09,2307833,2400671639,complete,5.3400,1.0700,6.4100
ES,2020-04-09,2307899,2400671655,complete,14.8500,2.9700,17.8200
ES,2020-04-09,2307928,2400671665,complete,4.4500,0.8900,5.3400
ES,2020-04-09,2307960,2400671672,complete,5.9400,1.1900,7.1300
ES,2020-04-09,2308134,2400671726,complete,7.1200,1.4300,8.5400
ES,2020-04-09,2308143,2400671729,complete,5.1900,1.0400,6.2300
ES,2020-04-09,2308172,2400671736,complete,5.1900,1.0400,6.2300
ES,2020-04-09,2308173,2400671737,complete,5.9400,1.1900,7.1300
ES,2020-04-09,2308233,2400671753,complete,5.1900,1.0400,6.2300
ES,2020-04-09,2308260,2400671760,complete,5.9400,1.1900,7.1300
ES,2020-04-09,2308294,2400671773,complete,5.1900,1.0400,6.2300
ES,2020-04-09,2308393,2400671808,complete,5.1900,1.0400,6.2300
ES,2020-04-09,2308446,2400671819,complete,5.1900,1.0400,6.2300
ES,2020-04-09,2308475,2400671830,complete,4.4500,0.8900,5.3400
ES,2020-04-10,2308559,2500316448,complete,0.0000,0.0000,
ES,2020-04-10,2308560,2500316449,complete,4.1300,0.8200,4.9500
ES,2020-04-10,2308566,2400671867,complete,14.8500,2.9700,17.8200
ES,2020-04-10,2308577,2500316455,complete,0.0000,0.0000,
ES,2020-04-10,2308581,2500316456,complete,0.0000,0.0000,
ES,2020-04-10,2308666,2400671891,complete,5.1900,1.0400,6.2300
ES,2020-04-10,2308722,2400671908,complete,4.4500,0.8900,5.3400
ES,2020-04-10,2308726,2400671909,complete,8.9100,1.7800,10.6900
ES,2020-04-10,2308745,2400671916,complete,5.1900,1.0400,6.2300
ES,2020-04-10,2308817,2400671941,complete,4.4500,0.8900,5.3400
ES,2020-04-10,2308932,2400671971,complete,7.4200,1.4900,8.9100
ES,2020-04-10,2309019,2400671997,complete,4.4500,0.8900,5.3400
ES,2020-04-10,2309028,2400671999,complete,7.4200,1.4900,8.9100
ES,2020-04-10,2309083,2400672014,complete,5.9400,1.1900,7.1300
ES,2020-04-10,2309109,2400672025,complete,8.9100,1.7800,10.6900
ES,2020-04-10,2309110,2400672026,complete,5.1900,1.0400,6.2300
ES,2020-04-10,2309159,2400672047,complete,4.4500,0.8900,5.3400
ES,2020-04-10,2309165,2400672050,complete,5.1900,1.0400,6.2300
ES,2020-04-10,2309166,2400672051,complete,5.9400,1.1900,7.1300
ES,2020-04-10,2309215,2400672057,complete,4.4500,0.8900,5.3400
ES,2020-04-10,2309287,2400672077,complete,5.9400,1.1900,7.1300
ES,2020-04-10,2309363,2400672100,complete,4.4500,0.8900,5.3400
ES,2020-04-10,2309446,2400672129,complete,7.4200,1.4900,8.9100
ES,2020-04-10,2309459,2400672135,complete,4.4500,0.8900,5.3400
ES,2020-04-10,2309484,2400672141,complete,5.2000,1.0300,6.2300
ES,2020-04-10,2309503,2400672149,complete,4.4500,0.8900,5.3400
ES,2020-04-10,2309530,2400672159,complete,4.4500,0.8900,5.3400
ES,2020-04-10,2309749,2400672218,complete,5.9400,1.1900,7.1300
ES,2020-04-10,2309765,2400672220,complete,5.1900,1.0400,6.2300
ES,2020-04-10,2309799,2400672230,complete,7.4200,1.4900,8.9100
ES,2020-04-10,2309825,2400672238,complete,14.8500,2.9700,17.8200
ES,2020-04-10,2309890,2400672263,complete,7.4200,1.4900,8.9100
ES,2020-04-10,2309906,2400672268,complete,5.9400,1.1900,7.1300
ES,2020-04-10,2309907,2400672269,complete,4.4500,0.8900,5.3400
ES,2020-04-10,2309986,2400672293,complete,7.4200,1.4900,8.9100
ES,2020-04-10,2310034,2400672313,complete,4.4500,0.8900,5.3400
ES,2020-04-10,2310070,2400672336,complete,5.1900,1.0400,6.2300
ES,2020-04-10,2310149,2400672358,complete,5.2000,1.0300,6.2300
ES,2020-04-10,2310210,2400672378,complete,4.4500,0.8900,5.3400
ES,2020-04-10,2310328,2400672414,complete,5.1900,1.0400,6.2300
ES,2020-04-10,2310436,2400672444,complete,4.4500,0.8900,5.3400
ES,2020-04-10,2310458,2400672449,complete,5.1900,1.0400,6.2300
ES,2020-04-10,2310529,2400672464,complete,5.1900,1.0400,6.2300
ES,2020-04-10,2310622,2400672493,complete,4.4500,0.8900,5.3400
ES,2020-04-10,2310739,2400672528,complete,7.4200,1.4900,8.9100
ES,2020-04-10,2310753,2400672534,complete,5.9400,1.1900,7.1300
ES,2020-04-10,2310808,2400672548,complete,5.9400,1.1900,7.1300
ES,2020-04-10,2310839,2400672557,complete,7.4300,1.4800,8.9100
ES,2020-04-10,2310868,2400672567,complete,5.9400,1.1900,7.1300
ES,2020-04-10,2310883,2400672571,complete,4.4500,0.8900,5.3400
ES,2020-04-11,2310994,2400672609,complete,7.4200,1.4900,8.9100
ES,2020-04-11,2311016,2400672612,complete,5.2000,1.0300,6.2300
ES,2020-04-11,2311096,2400672631,complete,7.4200,1.4900,8.9100
ES,2020-04-11,2311133,2400672650,complete,4.4500,0.8900,5.3400
ES,2020-04-11,2311267,2400672685,complete,7.4200,1.4900,8.9100
ES,2020-04-11,2311411,2400672717,complete,5.1900,1.0400,6.2300
ES,2020-04-11,2311544,2400672757,complete,7.4200,1.4900,8.9100
ES,2020-04-11,2311724,2400672799,complete,5.1900,1.0400,6.2300
ES,2020-04-11,2311762,2400672819,complete,4.4500,0.8900,5.3400
ES,2020-04-11,2311793,2400672831,complete,4.4500,0.8900,5.3400
ES,2020-04-11,2311821,2400672842,complete,7.1200,1.4300,8.5400
ES,2020-04-11,2311860,2400672853,complete,5.1900,1.0400,6.2300
ES,2020-04-11,2311887,2400672862,complete,5.1900,1.0400,6.2300
ES,2020-04-11,2312011,2400672903,complete,4.4500,0.8900,5.3400
ES,2020-04-11,2312044,2400672915,complete,5.2000,1.0300,6.2300
ES,2020-04-11,2312065,2400672923,complete,5.1900,1.0400,6.2300
ES,2020-04-11,2312159,2400672952,complete,4.4500,0.8900,5.3400
ES,2020-04-11,2312200,2400672969,complete,5.1900,1.0400,6.2300
ES,2020-04-11,2312286,2400672991,complete,5.1900,1.0400,6.2300
ES,2020-04-11,2312307,2400672997,complete,4.4500,0.8900,5.3400
ES,2020-04-11,2312438,2400673017,complete,4.4500,0.8900,5.3400
ES,2020-04-11,2312479,2400673057,complete,4.4500,0.8900,5.3400
ES,2020-04-11,2312480,2400673058,complete,5.1900,1.0400,6.2300
ES,2020-04-11,2312481,2400673059,complete,4.4500,0.8900,5.3400
ES,2020-04-11,2312482,2400673060,complete,5.1900,1.0400,6.2300
ES,2020-04-11,2312483,2400673061,complete,5.1900,1.0400,6.2300
ES,2020-04-11,2312484,2400673062,closed,4.4500,0.8900,5.3400
ES,2020-04-11,2312522,2400673099,complete,5.9400,1.1900,7.1300
ES,2020-04-11,2312634,2400673109,complete,4.4500,0.8900,5.3400
ES,2020-04-11,2312703,2400673138,complete,4.4500,0.8900,5.3400
ES,2020-04-11,2312716,2400673142,complete,14.8500,2.9700,17.8200
ES,2020-04-11,2312749,2400673155,complete,8.9100,1.7800,10.6900
ES,2020-04-11,2312753,2400673157,complete,4.4500,0.8900,5.3400
ES,2020-04-11,2312764,2400673159,closed,5.1900,1.0400,6.2300
ES,2020-04-11,2312815,2400673175,complete,5.3400,1.0600,6.4100
ES,2020-04-11,2312828,2400673180,complete,5.1900,1.0400,6.2300
ES,2020-04-11,2312912,2400673210,complete,4.4500,0.8900,5.3400
ES,2020-04-11,2312939,2400673221,complete,4.4500,0.8900,5.3400
ES,2020-04-11,2313030,2400673249,complete,5.1900,1.0400,6.2300
ES,2020-04-11,2313090,2400673268,complete,5.9400,1.1900,7.1300
ES,2020-04-11,2313222,2400673309,complete,5.9400,1.1900,7.1300
ES,2020-04-11,2313259,2400673325,complete,7.4200,1.4900,8.9100
ES,2020-04-11,2313286,2400673335,complete,5.1900,1.0400,6.2300
ES,2020-04-11,2313311,2400673343,complete,5.9400,1.1900,7.1300
ES,2020-04-11,2313328,2400673352,complete,5.9400,1.1900,7.1300
ES,2020-04-12,2313423,2400673375,complete,4.4500,0.8900,5.3400
ES,2020-04-12,2313603,2400673422,complete,5.1900,1.0400,6.2300
ES,2020-04-12,2313615,2400673427,complete,5.1900,1.0400,6.2300
ES,2020-04-12,2313692,2400673447,complete,4.4500,0.8900,5.3400
ES,2020-04-12,2313736,2400673460,complete,5.9300,1.1900,7.1200
ES,2020-04-12,2313777,2400673475,complete,4.4500,0.8900,5.3400
ES,2020-04-12,2313798,2400673485,complete,7.4200,1.4900,8.9100
ES,2020-04-12,2313939,2400673532,complete,7.4200,1.4900,8.9100
ES,2020-04-12,2313959,2400673536,complete,14.8500,2.9700,17.8200
ES,2020-04-12,2313965,2400673537,complete,5.9400,1.1900,7.1300
ES,2020-04-12,2313974,2400673540,complete,7.4200,1.4900,8.9100
ES,2020-04-12,2314135,2400673579,complete,4.4500,0.8900,5.3400
ES,2020-04-12,2314182,2400673594,complete,7.4200,1.4900,8.9100
ES,2020-04-12,2314215,2400673607,complete,6.6600,1.3300,7.9900
ES,2020-04-12,2314260,2400673621,complete,5.1900,1.0400,6.2300
ES,2020-04-12,2314286,2400673628,closed,4.4500,0.8900,5.3400
ES,2020-04-12,2314320,2400673640,complete,5.9300,1.1900,7.1200
ES,2020-04-12,2314323,1900276294,complete,7.4500,1.5000,8.9500
ES,2020-04-12,2314343,2400673648,complete,7.4200,1.4900,8.9100
ES,2020-04-12,2314385,2400673663,complete,5.1900,1.0400,6.2300
ES,2020-04-12,2314507,2500318265,closed,4.1200,0.8200,4.9500
ES,2020-04-12,2314572,2400673721,complete,4.4500,0.8900,5.3400
ES,2020-04-12,2314705,2400673757,complete,5.1900,1.0400,6.2300
ES,2020-04-12,2314729,2400673765,complete,4.4500,0.8900,5.3400
ES,2020-04-12,2314753,2400673772,complete,4.4500,0.8900,5.3400
ES,2020-04-12,2314770,2400673777,complete,5.1900,1.0400,6.2300
ES,2020-04-12,2314830,2400673794,complete,5.9400,1.1900,7.1300
ES,2020-04-12,2314883,2400673809,complete,7.4200,1.4900,8.9100
ES,2020-04-12,2314916,2400673818,complete,4.4500,0.8900,5.3400
ES,2020-04-12,2314981,2400673837,complete,14.8500,2.9700,17.8200
ES,2020-04-12,2314982,2400673838,complete,5.2000,1.0300,6.2300
ES,2020-04-12,2315005,2400673848,complete,4.4500,0.8900,5.3400
ES,2020-04-12,2315006,2400673849,complete,4.4500,0.8900,5.3400
ES,2020-04-12,2315025,2400673854,complete,4.4500,0.8900,5.3400
ES,2020-04-12,2315029,2400673855,complete,5.1900,1.0400,6.2300
ES,2020-04-12,2315035,2400673858,complete,4.4500,0.8900,5.3400
ES,2020-04-12,2315054,2400673864,complete,7.4200,1.4900,8.9100
ES,2020-04-12,2315055,2400673865,complete,5.1900,1.0400,6.2300
ES,2020-04-12,2315081,2400673872,complete,4.4500,0.8900,5.3400
ES,2020-04-12,2315100,2400673876,complete,4.4500,0.8900,5.3400
ES,2020-04-12,2315167,2400673899,complete,5.1900,1.0400,6.2300
ES,2020-04-12,2315183,2400673904,closed,4.4500,0.8900,5.3400
ES,2020-04-12,2315192,2400673906,complete,5.1900,1.0400,6.2300
ES,2020-04-12,2315198,2400673910,complete,7.4200,1.4900,8.9100
ES,2020-04-12,2315208,2400673911,complete,8.9100,1.7800,10.6900
ES,2020-04-12,2315234,2400673918,complete,5.9400,1.1900,7.1300
ES,2020-04-12,2315259,2400673926,complete,4.4500,0.8900,5.3400
ES,2020-04-12,2315269,2400673930,complete,4.4500,0.8900,5.3400
ES,2020-04-12,2315295,2400673937,complete,4.4500,0.8900,5.3400
ES,2020-04-12,2315317,2400673940,complete,5.1900,1.0400,6.2300
ES,2020-04-12,2315341,2400673947,complete,5.1900,1.0400,6.2300
ES,2020-04-12,2315385,2400673956,complete,5.9400,1.1900,7.1300
ES,2020-04-12,2315538,2500318603,complete,0.0000,0.0000,
ES,2020-04-12,2315700,2400674060,complete,4.4500,0.8900,5.3400
ES,2020-04-12,2315761,2400674077,complete,5.1900,1.0400,6.2300
ES,2020-04-12,2315770,2400674082,complete,5.3400,1.0600,6.4100
ES,2020-04-12,2315771,2400674083,complete,5.9200,1.2000,7.1200
ES,2020-04-12,2315781,2400674087,complete,4.4500,0.8900,5.3400
ES,2020-04-12,2315793,2400674094,complete,5.1900,1.0400,6.2300
ES,2020-04-12,2315794,2400674095,complete,5.1900,1.0400,6.2300
ES,2020-04-13,2315819,2400674107,complete,4.4500,0.8900,5.3400
ES,2020-04-13,2315831,2400674114,complete,5.1900,1.0400,6.2300
ES,2020-04-13,2315865,2400674125,complete,14.8500,2.9700,17.8200
ES,2020-04-13,2315887,2400674132,complete,4.4500,0.8900,5.3400
ES,2020-04-13,2316094,2400674194,complete,4.4500,0.8900,5.3400
ES,2020-04-13,2316173,2400674214,complete,7.4200,1.4900,8.9100
ES,2020-04-13,2316181,2400674216,complete,4.4600,0.8800,5.3400
ES,2020-04-13,2316186,2400674218,complete,5.5600,1.1100,6.6700
ES,2020-04-13,2316257,2400674239,complete,4.4500,0.8900,5.3400
ES,2020-04-13,2316327,2400674262,complete,7.4200,1.4900,8.9100
ES,2020-04-13,2316368,2400674281,complete,7.4200,1.4900,8.9100
ES,2020-04-13,2316531,2400674342,complete,7.4200,1.4900,8.9100
ES,2020-04-13,2316622,2400674377,complete,5.5600,1.1100,6.6700
ES,2020-04-13,2316629,2400674381,complete,4.4500,0.8900,5.3400
ES,2020-04-13,2316655,2400674389,complete,4.4500,0.8900,5.3400
ES,2020-04-13,2316656,2400674390,complete,14.8500,2.9700,17.8200
ES,2020-04-13,2316773,2400674428,complete,4.4500,0.8900,5.3400
ES,2020-04-13,2316807,2400674437,complete,5.5600,1.1100,6.6700
ES,2020-04-13,2316814,2400674438,complete,5.5600,1.1100,6.6700
ES,2020-04-13,2316879,2400674456,complete,5.3400,1.0700,6.4100
ES,2020-04-13,2316989,2400674494,complete,4.4500,0.8900,5.3400
ES,2020-04-13,2317256,2400674580,complete,4.4500,0.8900,5.3400
ES,2020-04-13,2317366,2400674616,complete,7.4200,1.4900,8.9100
ES,2020-04-13,2317483,2400674655,complete,4.4500,0.8900,5.3400
ES,2020-04-13,2317514,2400674668,complete,8.1700,1.6300,9.8000
ES,2020-04-13,2317525,2400674672,complete,4.4500,0.8900,5.3400
ES,2020-04-13,2317707,2400674724,complete,5.5600,1.1100,6.6700
ES,2020-04-13,2317761,2400674738,complete,4.4500,0.8900,5.3400
ES,2020-04-13,2317811,2400674760,complete,4.4500,0.8900,5.3400
ES,2020-04-13,2317841,2400674771,closed,5.5600,1.1100,6.6700
ES,2020-04-13,2317860,2400674778,complete,5.5600,1.1100,6.6700
ES,2020-04-13,2317930,2400674794,complete,4.4500,0.8900,5.3400
ES,2020-04-13,2317982,2400674804,complete,4.4500,0.8900,5.3400
ES,2020-04-13,2317984,2400674805,complete,5.5600,1.1100,6.6700
ES,2020-04-13,2318020,2400674818,complete,4.4500,0.8900,5.3400
ES,2020-04-13,2318121,2600035719,complete,3.9900,0.8000,4.7900
ES,2020-04-13,2318130,2400674851,complete,8.1700,1.6300,9.8000
ES,2020-04-13,2318133,2400674853,complete,7.4200,1.4900,8.9100
ES,2020-04-13,2318142,2600035720,complete,3.9900,0.8000,4.7900
ES,2020-04-13,2318194,2600035721,complete,3.9900,0.8000,4.7900
ES,2020-04-13,2318202,2600035722,complete,3.9900,0.8000,4.7900
ES,2020-04-13,2318234,2400674877,complete,5.5600,1.1100,6.6700
ES,2020-04-13,2318370,2400674921,complete,8.1700,1.6300,9.8000
ES,2020-04-13,2318414,2400674935,complete,5.5600,1.1100,6.6700
ES,2020-04-13,2318522,2400674971,complete,8.1700,1.6300,9.8000
ES,2020-04-14,2318643,2400675012,complete,4.4500,0.8900,5.3400
ES,2020-04-14,2318686,2400675018,complete,4.4500,0.8900,5.3400
ES,2020-04-14,2318704,2400675022,complete,4.4500,0.8900,5.3400
ES,2020-04-14,2318784,2400675044,complete,7.4200,1.4900,8.9100
ES,2020-04-14,2318787,2400675045,complete,5.5600,1.1100,6.6700
ES,2020-04-14,2318791,2400675047,complete,4.4500,0.8900,5.3400
ES,2020-04-14,2318877,2400675087,complete,4.4500,0.8900,5.3400
ES,2020-04-14,2318897,2400675094,complete,4.4500,0.8900,5.3400
ES,2020-04-14,2318901,2400675097,complete,8.1700,1.6300,9.8000
ES,2020-04-14,2318946,2400675106,complete,8.1700,1.6300,9.8000
ES,2020-04-14,2318973,2400675120,complete,5.5600,1.1100,6.6700
ES,2020-04-14,2319016,2400675130,complete,8.1700,1.6300,9.8000
ES,2020-04-14,2319017,2400675131,complete,4.4500,0.8900,5.3400
ES,2020-04-14,2319039,2400675139,complete,8.1700,1.6300,9.8000
ES,2020-04-14,2319088,2400675152,complete,4.4500,0.8900,5.3400
ES,2020-04-14,2319188,2400675167,complete,7.4200,1.4900,8.9100
ES,2020-04-14,2319199,2400675175,complete,4.4500,0.8900,5.3400
ES,2020-04-14,2319222,2400675183,complete,8.1700,1.6300,9.8000
ES,2020-04-14,2319223,2400675184,complete,4.4500,0.8900,5.3400
ES,2020-04-14,2319224,2400675185,complete,8.1700,1.6300,9.8000
ES,2020-04-14,2319440,2400675240,complete,4.4500,0.8900,5.3400
ES,2020-04-14,2319490,2400675253,complete,4.4500,0.8900,5.3400
ES,2020-04-14,2319506,2400675260,complete,7.4200,1.4900,8.9100
ES,2020-04-14,2319507,2400675261,complete,4.4500,0.8900,5.3400
ES,2020-04-14,2319523,2400675269,complete,5.5600,1.1100,6.6700
ES,2020-04-14,2319563,2400675281,complete,5.5600,1.1100,6.6700
ES,2020-04-14,2319577,2400675284,complete,7.4200,1.4900,8.9100
ES,2020-04-14,2319598,2400675291,complete,7.4200,1.4900,8.9100
ES,2020-04-14,2319618,2400675297,complete,5.5600,1.1100,6.6700
ES,2020-04-14,2319641,2400675306,complete,4.4500,0.8900,5.3400
ES,2020-04-14,2319678,2400675318,complete,4.4500,0.8900,5.3400
ES,2020-04-14,2319808,2400675360,complete,4.4500,0.8900,5.3400
ES,2020-04-14,2319846,2400675377,complete,8.1700,1.6300,9.8000
ES,2020-04-14,2319865,2400675384,complete,4.4500,0.8900,5.3400
ES,2020-04-14,2319937,2400675403,complete,5.5600,1.1100,6.6700
ES,2020-04-14,2320014,2400675425,complete,4.4500,0.8900,5.3400
ES,2020-04-14,2320110,2400675456,complete,4.4500,0.8900,5.3400
ES,2020-04-14,2320147,2400675469,complete,7.4200,1.4900,8.9100
ES,2020-04-14,2320158,2400675472,complete,5.5600,1.1100,6.6700
ES,2020-04-14,2320160,2400675473,complete,4.4500,0.8900,5.3400
ES,2020-04-14,2320164,2400675475,complete,8.1700,1.6300,9.8000
ES,2020-04-14,2320242,2400675493,complete,5.5600,1.1100,6.6700
ES,2020-04-14,2320259,2400675499,complete,7.4200,1.4900,8.9100
ES,2020-04-14,2320261,2400675501,complete,4.4500,0.8900,5.3400
ES,2020-04-14,2320273,2400675506,complete,5.5600,1.1100,6.6700
ES,2020-04-14,2320276,2400675507,complete,8.1700,1.6300,9.8000
ES,2020-04-14,2320283,2400675508,complete,5.5600,1.1100,6.6700
ES,2020-04-14,2320328,600724370,complete,7.4600,1.4900,8.9500
ES,2020-04-14,2320360,2400675530,complete,4.4500,0.8900,5.3400
ES,2020-04-14,2320419,2400675550,closed,5.5600,1.1100,6.6700
ES,2020-04-14,2320475,2400675568,complete,4.4500,0.8900,5.3400
ES,2020-04-14,2320478,2400675570,complete,8.1700,1.6300,9.8000
ES,2020-04-14,2320641,2400675618,complete,4.4500,0.8900,5.3400
ES,2020-04-14,2320722,2400675640,complete,8.1700,1.6300,9.8000
ES,2020-04-14,2320780,2400675659,complete,4.4500,0.8900,5.3400
ES,2020-04-14,2320795,2400675665,complete,8.1700,1.6300,9.8000
ES,2020-04-14,2320827,2400675672,complete,8.1700,1.6300,9.8000
ES,2020-04-14,2320828,2400675673,complete,5.5600,1.1100,6.6700
ES,2020-04-14,2320837,2400675678,complete,5.5600,1.1100,6.6700
ES,2020-04-14,2320858,2400675684,complete,4.4500,0.8900,5.3400
ES,2020-04-14,2320881,2400675688,complete,5.3400,1.0700,6.4100
ES,2020-04-14,2320943,2400675704,closed,5.3400,1.0700,6.4100
ES,2020-04-14,2320977,2400675716,complete,5.3400,1.0700,6.4100
ES,2020-04-14,2321031,2400675738,complete,4.4500,0.8900,5.3400
ES,2020-04-14,2321058,2400675749,complete,4.4500,0.8900,5.3400
ES,2020-04-15,2321087,2400675756,complete,4.4500,0.8900,5.3400
ES,2020-04-15,2321319,2400675824,complete,7.4200,1.4900,8.9100
ES,2020-04-15,2321345,2400675837,complete,4.4500,0.8900,5.3400
ES,2020-04-15,2321553,2400675888,complete,4.4500,0.8900,5.3400
ES,2020-04-15,2321580,2400675903,complete,8.1700,1.6300,9.8000
ES,2020-04-15,2321679,2400675926,complete,8.1700,1.6300,9.8000
ES,2020-04-15,2321856,2400675964,complete,4.4500,0.8900,5.3400
ES,2020-04-15,2321885,2400675977,complete,4.4500,0.8900,5.3400
ES,2020-04-15,2321935,2400675988,complete,4.4500,0.8900,5.3400
ES,2020-04-15,2321945,2400675992,complete,5.9400,1.1900,7.1300
ES,2020-04-15,2321946,2400675993,complete,7.4200,1.4900,8.9100
ES,2020-04-15,2321978,2400675998,complete,8.1700,1.6300,9.8000
ES,2020-04-15,2322024,2400676019,complete,6.2300,1.2500,7.4800
ES,2020-04-15,2322043,2400676023,complete,8.1700,1.6300,9.8000
ES,2020-04-15,2322053,2400676027,complete,4.4500,0.8900,5.3400
ES,2020-04-15,2322076,2400676034,complete,5.9400,1.1900,7.1300
ES,2020-04-15,2322222,2400676072,complete,5.9400,1.1900,7.1300
ES,2020-04-15,2322301,2400676091,complete,8.1700,1.6300,9.8000
ES,2020-04-15,2322302,2400676092,complete,5.9400,1.1900,7.1300
ES,2020-04-15,2322325,2400676099,complete,7.4200,1.4900,8.9100
ES,2020-04-15,2322337,2400676104,complete,8.9100,1.7800,10.6900
ES,2020-04-15,2322351,2400676108,complete,5.9400,1.1900,7.1300
ES,2020-04-15,2322482,2400676138,complete,7.4200,1.4900,8.9100
ES,2020-04-15,2322483,2400676139,complete,8.1700,1.6300,9.8000
ES,2020-04-15,2322558,2400676157,complete,4.4500,0.8900,5.3400
ES,2020-04-15,2322635,2400676174,complete,8.1700,1.6300,9.8000
ES,2020-04-15,2322686,2400676190,complete,4.4500,0.8900,5.3400
ES,2020-04-15,2322711,2400676200,complete,4.4500,0.8900,5.3400
ES,2020-04-15,2322770,2400676215,complete,4.4500,0.8900,5.3400
ES,2020-04-15,2322813,2400676226,complete,5.9400,1.1900,7.1300
ES,2020-04-15,2322835,2400676229,complete,4.4500,0.8900,5.3400
ES,2020-04-15,2322892,2400676244,complete,5.3400,1.0700,6.4100
ES,2020-04-15,2322993,2400676273,complete,7.4200,1.4900,8.9100
ES,2020-04-15,2323039,2400676290,complete,8.1700,1.6300,9.8000
ES,2020-04-15,2323131,2400676320,complete,4.4500,0.8900,5.3400
ES,2020-04-15,2323304,2400676376,complete,4.4500,0.8900,5.3400
ES,2020-04-15,2323321,2400676383,complete,4.4500,0.8900,5.3400
ES,2020-04-15,2323394,2400676410,complete,5.9300,1.1900,7.1200
ES,2020-04-15,2323409,2400676414,complete,8.1700,1.6300,9.8000
ES,2020-04-15,2323466,2400676431,complete,5.9400,1.1900,7.1300
ES,2020-04-15,2323471,2400676432,complete,8.1700,1.6300,9.8000
ES,2020-04-15,2323515,2400676442,complete,4.4500,0.8900,5.3400
ES,2020-04-16,2323539,2400676447,complete,4.4500,0.8900,5.3400
ES,2020-04-16,2323554,2400676452,complete,8.1700,1.6300,9.8000
ES,2020-04-16,2323637,2400676472,complete,4.4500,0.8900,5.3400
ES,2020-04-16,2323732,2400676497,complete,5.9400,1.1900,7.1300
ES,2020-04-16,2323859,2400676516,complete,5.9400,1.1900,7.1300
ES,2020-04-16,2323931,2400676534,complete,7.4200,1.4900,8.9100
ES,2020-04-16,2323970,2400676544,complete,8.1700,1.6300,9.8000
ES,2020-04-16,2324061,2400676565,complete,8.1700,1.6300,9.8000
ES,2020-04-16,2324136,2400676583,complete,5.9300,1.1900,7.1200
ES,2020-04-16,2324181,2400676593,complete,8.1700,1.6300,9.8000
ES,2020-04-16,2324208,2400676596,complete,5.9400,1.1900,7.1300
ES,2020-04-16,2324283,2400676617,complete,7.4200,1.4900,8.9100
ES,2020-04-16,2324325,2400676629,complete,5.9400,1.1900,7.1300
ES,2020-04-16,2324469,2400676666,complete,14.8500,2.9700,17.8200
ES,2020-04-16,2324607,2400676696,complete,7.4200,1.4900,8.9100
ES,2020-04-16,2324821,2400676750,complete,7.4200,1.4900,8.9100
ES,2020-04-16,2324822,2400676751,complete,5.9400,1.1900,7.1300
ES,2020-04-16,2324927,2400676778,complete,5.9400,1.1900,7.1300
ES,2020-04-16,2324967,2400676789,complete,8.1700,1.6300,9.8000
ES,2020-04-16,2324991,2400676795,complete,14.8500,2.9700,17.8200
ES,2020-04-16,2325080,2400676821,complete,4.4500,0.8900,5.3400
ES,2020-04-16,2325157,2400676839,complete,4.4500,0.8900,5.3400
ES,2020-04-16,2325177,2400676842,complete,5.9400,1.1900,7.1300
ES,2020-04-16,2325189,2400676846,complete,4.4500,0.8900,5.3400
ES,2020-04-16,2325203,2400676849,closed,7.4300,1.4800,8.9100
ES,2020-04-16,2325251,2400676867,complete,4.4500,0.8900,5.3400
ES,2020-04-16,2325288,2400676881,complete,14.8500,2.9700,17.8200
ES,2020-04-16,2325308,2400676888,complete,4.4500,0.8900,5.3400
ES,2020-04-16,2325355,2400676901,complete,4.4500,0.8900,5.3400
ES,2020-04-16,2325530,600725470,complete,7.4600,1.4900,8.9500
ES,2020-04-16,2325628,2400676967,complete,5.9300,1.1900,7.1200
ES,2020-04-16,2325629,2400676968,complete,4.4500,0.8900,5.3400
ES,2020-04-16,2325662,2400676980,complete,4.4500,0.8900,5.3400
ES,2020-04-16,2325691,2400676990,complete,4.4500,0.8900,5.3400
ES,2020-04-16,2325711,2400677000,complete,5.9400,1.1900,7.1300
ES,2020-04-16,2325738,2400677009,complete,9.8000,1.9600,11.7600
ES,2020-04-16,2325757,2400677014,complete,5.9400,1.1900,7.1300
ES,2020-04-17,2325901,2400677063,complete,4.4500,0.8900,5.3400
ES,2020-04-17,2325958,2400677075,complete,5.9400,1.1900,7.1300
ES,2020-04-17,2326054,2400677111,complete,8.1700,1.6300,9.8000
ES,2020-04-17,2326058,2400677112,complete,5.3400,1.0700,6.4100
ES,2020-04-17,2326059,2400677113,complete,5.9400,1.1900,7.1300
ES,2020-04-17,2326079,2400677122,complete,14.8500,2.9700,17.8200
ES,2020-04-17,2326125,2400677138,complete,5.9400,1.1900,7.1300
ES,2020-04-17,2326145,2400677141,complete,8.1700,1.6300,9.8000
ES,2020-04-17,2326150,2400677144,complete,5.3400,1.0700,6.4100
ES,2020-04-17,2326216,2400677159,complete,4.4500,0.8900,5.3400
ES,2020-04-17,2326249,2400677170,complete,4.4500,0.8900,5.3400
ES,2020-04-17,2326294,2400677185,complete,5.9400,1.1900,7.1300
ES,2020-04-17,2326300,2400677189,complete,4.4500,0.8900,5.3400
ES,2020-04-17,2326310,2400677191,complete,4.4500,0.8900,5.3400
ES,2020-04-17,2326326,2400677195,complete,7.4300,1.4800,8.9100
ES,2020-04-17,2326340,2400677199,complete,8.1700,1.6300,9.8000
ES,2020-04-17,2326430,2400677225,complete,4.4500,0.8900,5.3400
ES,2020-04-17,2326461,2400677231,complete,4.4500,0.8900,5.3400
ES,2020-04-17,2326522,2400677238,complete,5.9400,1.1900,7.1300
ES,2020-04-17,2326575,2400677253,complete,8.9100,1.7900,10.6900
ES,2020-04-17,2326585,2400677258,complete,5.9400,1.1900,7.1300
ES,2020-04-17,2326614,2400677263,complete,14.8500,2.9700,17.8200
ES,2020-04-17,2326651,2400677271,complete,7.4200,1.4900,8.9100
ES,2020-04-17,2326660,2400677274,complete,4.4500,0.8900,5.3400
ES,2020-04-17,2326686,600725719,complete,0.0000,0.0000,
ES,2020-04-17,2326746,2400677296,complete,5.9400,1.1900,7.1300
ES,2020-04-17,2326747,2400677297,complete,14.8500,2.9700,17.8200
ES,2020-04-17,2326748,2400677298,complete,7.1200,1.4200,8.5400
ES,2020-04-17,2326827,2400677322,complete,5.9400,1.1900,7.1300
ES,2020-04-17,2326868,2400677338,complete,5.9400,1.1900,7.1300
ES,2020-04-17,2326875,2400677339,complete,5.9400,1.1900,7.1300
ES,2020-04-17,2326944,2400677354,complete,5.9400,1.1900,7.1300
ES,2020-04-17,2326948,2400677355,complete,4.4500,0.8900,5.3400
ES,2020-04-17,2326954,2400677357,complete,7.4200,1.4900,8.9100
ES,2020-04-17,2326978,2400677364,complete,5.9400,1.1900,7.1300
ES,2020-04-17,2326988,2400677369,complete,5.9400,1.1900,7.1300
ES,2020-04-17,2327068,2400677383,complete,7.4200,1.4900,8.9100
ES,2020-04-17,2327100,2400677393,complete,7.4200,1.4900,8.9100
ES,2020-04-17,2327179,2400677417,complete,5.9400,1.1900,7.1300
ES,2020-04-17,2327199,2400677422,closed,14.8500,2.9700,17.8200
ES,2020-04-17,2327246,2400677435,complete,4.4500,0.8900,5.3400
ES,2020-04-17,2327247,2400677436,complete,4.4500,0.8900,5.3400
ES,2020-04-17,2327257,2400677440,complete,8.1700,1.6300,9.8000
ES,2020-04-17,2327271,2400677445,complete,4.4500,0.8900,5.3400
ES,2020-04-17,2327278,2400677447,complete,7.4200,1.4900,8.9100
ES,2020-04-17,2327279,2400677448,complete,7.4200,1.4900,8.9100
ES,2020-04-17,2327335,2400677462,complete,5.9400,1.1900,7.1300
ES,2020-04-17,2327365,2400677469,complete,4.4500,0.8900,5.3400
ES,2020-04-17,2327447,2400677494,complete,4.4500,0.8900,5.3400
ES,2020-04-17,2327454,2400677500,complete,5.9400,1.1900,7.1300
ES,2020-04-17,2327486,2400677510,complete,4.4500,0.8900,5.3400
ES,2020-04-17,2327499,2400677518,complete,5.9400,1.1900,7.1300
ES,2020-04-17,2327578,2400677537,complete,4.4500,0.8900,5.3400
ES,2020-04-17,2327584,2400677540,complete,4.4500,0.8900,5.3400
ES,2020-04-17,2327618,2400677554,complete,5.9400,1.1900,7.1300
ES,2020-04-17,2327655,2400677565,complete,5.9400,1.1900,7.1300
ES,2020-04-17,2327780,2400677598,complete,4.4500,0.8900,5.3400
ES,2020-04-17,2327875,2400677632,complete,8.1700,1.6300,9.8000
ES,2020-04-18,2327893,2400677638,complete,7.4200,1.4900,8.9100
ES,2020-04-18,2327897,2400677640,complete,4.4500,0.8900,5.3400
ES,2020-04-18,2327902,2400677642,complete,5.9400,1.1900,7.1300
ES,2020-04-18,2327929,2400677651,complete,4.4500,0.8900,5.3400
ES,2020-04-18,2327932,2400677653,complete,8.1700,1.6300,9.8000
ES,2020-04-18,2327986,2400677669,complete,4.4500,0.8900,5.3400
ES,2020-04-18,2327987,2400677670,complete,4.4500,0.8900,5.3400
ES,2020-04-18,2328042,2500322124,complete,104.1700,20.8300,125.0000
ES,2020-04-18,2328111,2400677707,complete,4.4500,0.8900,5.3400
ES,2020-04-18,2328128,2400677713,complete,8.1700,1.6300,9.8000
ES,2020-04-18,2328167,2400677726,complete,4.4500,0.8900,5.3400
ES,2020-04-18,2328211,2400677738,complete,5.9400,1.1900,7.1300
ES,2020-04-18,2328275,2400677757,complete,5.9300,1.1900,7.1200
ES,2020-04-18,2328311,2400677765,complete,5.9400,1.1900,7.1300
ES,2020-04-18,2328316,2400677766,complete,4.4500,0.8900,5.3400
ES,2020-04-18,2328375,2400677783,complete,5.9400,1.1900,7.1300
ES,2020-04-18,2328385,2400677785,complete,5.9400,1.1900,7.1300
ES,2020-04-18,2328462,2400677811,complete,5.9400,1.1900,7.1300
ES,2020-04-18,2328467,2400677812,complete,14.8400,2.9800,17.8200
ES,2020-04-18,2328488,2400677815,complete,4.4500,0.8900,5.3400
ES,2020-04-18,2328535,2400677829,complete,14.8500,2.9700,17.8200
ES,2020-04-18,2328549,2400677836,complete,5.9400,1.1900,7.1300
ES,2020-04-18,2328588,2400677853,complete,4.4500,0.8900,5.3400
ES,2020-04-18,2328634,2400677862,complete,5.9400,1.1900,7.1300
ES,2020-04-18,2328669,2400677875,complete,4.4500,0.8900,5.3400
ES,2020-04-18,2328714,2400677894,complete,4.4500,0.8900,5.3400
ES,2020-04-18,2328747,2400677906,complete,7.4200,1.4900,8.9100
ES,2020-04-18,2328817,2400677920,complete,4.4500,0.8900,5.3400
ES,2020-04-18,2328841,2400677930,complete,4.4500,0.8900,5.3400
ES,2020-04-18,2328911,2400677951,complete,5.9400,1.1900,7.1300
ES,2020-04-18,2328997,2400677978,complete,4.4500,0.8900,5.3400
ES,2020-04-18,2329047,2500322359,complete,4.1300,0.8200,4.9500
ES,2020-04-18,2329104,2400678005,complete,4.4500,0.8900,5.3400
ES,2020-04-18,2329208,2400678039,complete,11.1300,2.2300,13.3600
ES,2020-04-18,2329210,2400678040,complete,8.1700,1.6300,9.8000
ES,2020-04-18,2329331,600726301,complete,7.4600,1.4900,8.9500
ES,2020-04-18,2329400,2400678094,complete,4.4500,0.8900,5.3400
ES,2020-04-18,2329424,2400678102,complete,5.9400,1.1900,7.1300
ES,2020-04-18,2329425,2400678103,complete,5.9400,1.1900,7.1300
ES,2020-04-18,2329426,2400678104,complete,4.4500,0.8900,5.3400
ES,2020-04-18,2329454,2400678114,complete,4.4500,0.8900,5.3400
ES,2020-04-18,2329508,2400678136,complete,7.4200,1.4900,8.9100
ES,2020-04-18,2329553,2400678147,complete,4.4500,0.8900,5.3400
ES,2020-04-18,2329567,2400678150,complete,4.4500,0.8900,5.3400
ES,2020-04-18,2329596,2400678155,complete,5.9400,1.1900,7.1300
ES,2020-04-18,2329660,2400678175,complete,4.4500,0.8900,5.3400
ES,2020-04-18,2329674,2400678179,complete,4.4500,0.8900,5.3400
ES,2020-04-18,2329810,2400678217,complete,5.9400,1.1900,7.1300
ES,2020-04-18,2329837,2400678227,complete,5.9300,1.1900,7.1200
ES,2020-04-18,2330104,2400678301,complete,4.4500,0.8900,5.3400
ES,2020-04-18,2330114,2400678304,complete,5.9400,1.1900,7.1300
ES,2020-04-18,2330115,2400678305,complete,8.1700,1.6300,9.8000
ES,2020-04-18,2330131,2400678311,complete,5.9400,1.1900,7.1300
ES,2020-04-19,2330163,2400678324,complete,7.1200,1.4200,8.5400
ES,2020-04-19,2330170,2400678328,complete,7.4200,1.4900,8.9100
ES,2020-04-19,2330181,2400678335,complete,4.4500,0.8900,5.3400
ES,2020-04-19,2330258,600726464,complete,4.1200,0.8200,4.9500
ES,2020-04-19,2330271,2400678355,complete,8.1700,1.6300,9.8000
ES,2020-04-19,2330439,2400678398,complete,14.8500,2.9700,17.8200
ES,2020-04-19,2330499,2400678419,complete,5.9400,1.1900,7.1300
ES,2020-04-19,2330535,2400678428,complete,5.9400,1.1900,7.1300
ES,2020-04-19,2330540,2400678430,complete,4.4500,0.8900,5.3400
ES,2020-04-19,2330572,2400678442,complete,5.9400,1.1900,7.1300
ES,2020-04-19,2330660,2400678473,complete,5.9400,1.1900,7.1300
ES,2020-04-19,2330705,2400678492,complete,5.9400,1.1900,7.1300
ES,2020-04-19,2330764,2400678507,complete,8.1700,1.6300,9.8000
ES,2020-04-19,2330801,2400678516,complete,8.1700,1.6300,9.8000
ES,2020-04-19,2330805,2400678518,complete,8.1700,1.6300,9.8000
ES,2020-04-19,2330820,2400678523,complete,7.4200,1.4900,8.9100
ES,2020-04-19,2330909,2400678559,complete,5.9300,1.1900,7.1200
ES,2020-04-19,2330960,2400678572,complete,5.9400,1.1900,7.1300
ES,2020-04-19,2330964,2400678573,complete,5.9300,1.1900,7.1200
ES,2020-04-19,2331044,2400678603,complete,14.8500,2.9700,17.8200
ES,2020-04-19,2331045,2400678604,complete,7.4200,1.4900,8.9100
ES,2020-04-19,2331064,2400678610,complete,4.4500,0.8900,5.3400
ES,2020-04-19,2331069,2400678613,complete,5.9400,1.1900,7.1300
ES,2020-04-19,2331141,2400678636,complete,4.4500,0.8900,5.3400
ES,2020-04-19,2331153,2400678641,complete,4.4500,0.8900,5.3400
ES,2020-04-19,2331179,2400678652,complete,7.4200,1.4900,8.9100
ES,2020-04-19,2331315,2400678709,complete,4.4500,0.8900,5.3400
ES,2020-04-19,2331333,2400678717,complete,5.3400,1.0700,6.4100
ES,2020-04-19,2331353,2400678723,complete,7.4200,1.4900,8.9100
ES,2020-04-19,2331354,2400678724,complete,14.8500,2.9700,17.8200
ES,2020-04-19,2331381,2400678731,complete,7.4200,1.4900,8.9100
ES,2020-04-19,2331448,2400678757,complete,4.4500,0.8900,5.3400
ES,2020-04-19,2331482,2400678769,complete,4.4500,0.8900,5.3400
ES,2020-04-19,2331510,2400678776,complete,4.4500,0.8900,5.3400
ES,2020-04-19,2331676,2400678823,complete,7.4200,1.4900,8.9100
ES,2020-04-19,2331678,2400678824,complete,5.9400,1.1900,7.1300
ES,2020-04-19,2331830,2400678870,complete,4.4500,0.8900,5.3400
ES,2020-04-19,2331876,2400678881,complete,5.9400,1.1900,7.1300
ES,2020-04-19,2332021,2400678926,complete,14.8500,2.9700,17.8200
ES,2020-04-19,2332022,2400678927,complete,14.8500,2.9700,17.8200
ES,2020-04-19,2332029,2400678930,complete,8.1700,1.6300,9.8000
ES,2020-04-19,2332250,2400679001,closed,8.1700,1.6300,9.8000
ES,2020-04-19,2332267,2400679006,complete,7.4200,1.4900,8.9100
ES,2020-04-19,2332280,2400679009,complete,7.4200,1.4900,8.9100
ES,2020-04-19,2332331,2400679020,complete,4.4500,0.8900,5.3400
ES,2020-04-19,2332377,2400679035,complete,7.4200,1.4900,8.9100
ES,2020-04-19,2332447,2400679052,complete,8.1700,1.6300,9.8000
ES,2020-04-19,2332563,2400679095,complete,7.4200,1.4900,8.9100
ES,2020-04-19,2332564,2400679096,complete,5.9400,1.1900,7.1300
ES,2020-04-19,2332619,2400679118,complete,5.9400,1.1900,7.1300
ES,2020-04-19,2332628,2400679122,complete,4.4500,0.8900,5.3400
ES,2020-04-19,2332653,2400679134,complete,4.4500,0.8900,5.3400
ES,2020-04-20,2332713,2400679160,complete,8.1700,1.6300,9.8000
ES,2020-04-20,2332930,2400679209,complete,7.4200,1.4900,8.9100
ES,2020-04-20,2333124,2400679262,complete,5.5600,1.1100,6.6700
ES,2020-04-20,2333258,2400679312,complete,5.5600,1.1100,6.6700
ES,2020-04-20,2333310,2400679324,complete,6.6800,1.3400,8.0200
ES,2020-04-20,2333393,2400679346,complete,14.8500,2.9700,17.8200
ES,2020-04-20,2333499,2400679379,complete,6.6800,1.3400,8.0200
ES,2020-04-20,2333500,2400679380,complete,6.6800,1.3400,8.0200
ES,2020-04-20,2333502,2400679381,complete,6.6800,1.3400,8.0200
ES,2020-04-20,2333693,2400679425,complete,8.1700,1.6300,9.8000
ES,2020-04-20,2333790,2400679455,complete,6.6800,1.3400,8.0200
ES,2020-04-20,2333800,1900280189,complete,12.4600,2.4900,14.9500
ES,2020-04-20,2333846,2400679468,complete,8.9100,1.7800,10.6900
ES,2020-04-20,2333874,2400679478,complete,5.5600,1.1100,6.6700
ES,2020-04-20,2333939,2400679498,complete,6.6800,1.3400,8.0200
ES,2020-04-20,2334038,2400679524,complete,8.1700,1.6300,9.8000
ES,2020-04-20,2334039,2400679525,complete,8.9100,1.7800,10.6900
ES,2020-04-20,2334062,2400679534,complete,5.5600,1.1100,6.6700
ES,2020-04-20,2334070,600727307,complete,13.2900,2.6600,15.9500
ES,2020-04-20,2334107,2400679544,complete,6.6800,1.3400,8.0200
ES,2020-04-20,2334130,2400679554,complete,8.1700,1.6300,9.8000
ES,2020-04-20,2334141,2400679559,complete,8.1700,1.6300,9.8000
ES,2020-04-20,2334149,2400679562,complete,14.8500,2.9700,17.8200
ES,2020-04-20,2334332,2400679619,complete,5.5600,1.1100,6.6700
ES,2020-04-20,2334539,2400679683,complete,5.5600,1.1100,6.6700
ES,2020-04-20,2334682,2400679713,complete,8.9100,1.7800,10.6900
ES,2020-04-20,2334731,2400679727,complete,14.8500,2.9700,17.8200
ES,2020-04-20,2334740,2400679732,complete,6.6800,1.3400,8.0200
ES,2020-04-20,2334793,2400679748,complete,8.9100,1.7800,10.6900
ES,2020-04-20,2334856,2400679765,complete,8.1700,1.6300,9.8000
ES,2020-04-20,2335003,2400679805,complete,6.6800,1.3400,8.0200
ES,2020-04-20,2335125,2400679853,complete,8.9100,1.7800,10.6900
ES,2020-04-21,2335193,2400679880,complete,6.6800,1.3400,8.0200
ES,2020-04-21,2335211,2400679888,complete,8.9100,1.7800,10.6900
ES,2020-04-21,2335218,2400679889,complete,14.8500,2.9700,17.8200
ES,2020-04-21,2335276,2400679897,complete,5.5600,1.1100,6.6700
ES,2020-04-21,2335382,2400679925,complete,6.6800,1.3400,8.0200
ES,2020-04-21,2335424,2400679936,closed,6.6800,1.3400,8.0200
ES,2020-04-21,2335469,2400679950,complete,6.6700,1.3500,8.0200
ES,2020-04-21,2335478,2400679953,complete,8.1700,1.6300,9.8000
ES,2020-04-21,2335689,2400680015,complete,6.6800,1.3400,8.0200
ES,2020-04-21,2335737,2400680028,complete,5.5600,1.1100,6.6700
ES,2020-04-21,2335798,2400680047,complete,6.6800,1.3400,8.0200
ES,2020-04-21,2335830,2400680054,complete,14.8500,2.9700,17.8200
ES,2020-04-21,2335927,2400680073,complete,8.9100,1.7800,10.6900
ES,2020-04-21,2335928,2400680074,complete,6.6800,1.3400,8.0200
ES,2020-04-21,2336067,2400680108,complete,6.6800,1.3400,8.0200
ES,2020-04-21,2336082,2400680114,complete,6.6800,1.3400,8.0200
ES,2020-04-21,2336086,2400680116,complete,8.0100,1.6100,9.6100
ES,2020-04-21,2336102,2400680121,complete,6.6800,1.3400,8.0200
ES,2020-04-21,2336140,2400680129,complete,6.6800,1.3400,8.0200
ES,2020-04-21,2336153,2400680131,complete,6.6800,1.3400,8.0200
ES,2020-04-21,2336154,2400680132,complete,6.6800,1.3400,8.0200
ES,2020-04-21,2336192,2400680144,complete,9.6500,1.9400,11.5900
ES,2020-04-21,2336466,2400680223,complete,5.5600,1.1100,6.6700
ES,2020-04-21,2336543,2400680250,complete,9.6500,1.9400,11.5900
ES,2020-04-21,2336648,2400680288,complete,5.5600,1.1100,6.6700
ES,2020-04-21,2336649,2400680289,complete,6.6800,1.3400,8.0200
ES,2020-04-21,2336650,2400680290,complete,6.6800,1.3400,8.0200
ES,2020-04-21,2336651,2400680291,complete,14.8500,2.9700,17.8200
ES,2020-04-21,2336676,2400680303,complete,8.9100,1.7800,10.6900
ES,2020-04-21,2336688,2400680310,complete,8.1700,1.6300,9.8000
ES,2020-04-21,2336694,2400680314,complete,6.6800,1.3400,8.0200
ES,2020-04-21,2336704,2400680318,complete,8.9100,1.7800,10.6900
ES,2020-04-21,2336707,2400680321,complete,5.5600,1.1100,6.6700
ES,2020-04-21,2336727,2400680328,complete,5.5600,1.1100,6.6700
ES,2020-04-21,2336761,2400680342,complete,5.5600,1.1100,6.6700
ES,2020-04-21,2336762,2400680343,closed,9.6500,1.9400,11.5900
ES,2020-04-21,2336766,2400680345,complete,14.8500,2.9700,17.8200
ES,2020-04-21,2336835,2400680366,complete,5.5600,1.1100,6.6700
ES,2020-04-21,2336862,2400680378,complete,14.8500,2.9700,17.8200
ES,2020-04-21,2336920,2400680400,complete,6.6800,1.3400,8.0200
ES,2020-04-21,2336943,2400680408,complete,5.5600,1.1100,6.6700
ES,2020-04-21,2337046,2400680439,complete,8.9100,1.7800,10.6900
ES,2020-04-21,2337198,2400680494,complete,6.6800,1.3400,8.0200
ES,2020-04-21,2337218,2400680500,complete,6.6800,1.3400,8.0200
ES,2020-04-21,2337252,2400680509,complete,8.9100,1.7800,10.6900
ES,2020-04-21,2337282,2400680518,complete,5.5600,1.1100,6.6700
ES,2020-04-21,2337286,2400680520,complete,14.8500,2.9700,17.8200
ES,2020-04-21,2337323,2400680531,complete,6.6800,1.3400,8.0200
ES,2020-04-21,2337393,2400680552,complete,5.5600,1.1100,6.6700
ES,2020-04-21,2337420,2400680560,complete,9.6500,1.9400,11.5900
ES,2020-04-21,2337468,2400680574,complete,5.5600,1.1100,6.6700
ES,2020-04-21,2337518,2400680593,complete,5.5600,1.1100,6.6700
ES,2020-04-21,2337576,2400680621,complete,5.5600,1.1100,6.6700
ES,2020-04-22,2337641,2400680638,complete,5.5600,1.1100,6.6700
ES,2020-04-22,2337642,2400680639,complete,14.8500,2.9700,17.8200
ES,2020-04-22,2337717,2400680654,complete,9.6500,1.9400,11.5900
ES,2020-04-22,2337732,2400680660,complete,6.6800,1.3400,8.0200
ES,2020-04-22,2337749,2400680663,complete,5.5600,1.1100,6.6700
ES,2020-04-22,2337762,2400680669,complete,9.6500,1.9400,11.5900
ES,2020-04-22,2337779,2400680680,complete,14.8500,2.9700,17.8200
ES,2020-04-22,2337863,2400680704,complete,14.8500,2.9700,17.8200
ES,2020-04-22,2337936,2400680726,complete,14.8500,2.9700,17.8200
ES,2020-04-22,2337975,2400680739,complete,5.5600,1.1100,6.6700
ES,2020-04-22,2337982,2400680741,complete,5.5600,1.1100,6.6700
ES,2020-04-22,2338003,2400680748,complete,5.5600,1.1100,6.6700
ES,2020-04-22,2338017,2400680751,complete,6.6800,1.3400,8.0200
ES,2020-04-22,2338023,2400680754,complete,14.8500,2.9700,17.8200
ES,2020-04-22,2338085,2400680769,complete,5.5600,1.1100,6.6700
ES,2020-04-22,2338155,2400680791,complete,5.5600,1.1100,6.6700
ES,2020-04-22,2338211,2400680804,complete,5.5600,1.1100,6.6700
ES,2020-04-22,2338290,2400680823,complete,6.6800,1.3400,8.0200
ES,2020-04-22,2338340,2400680841,complete,14.8400,2.9800,17.8200
ES,2020-04-22,2338354,2400680845,complete,5.5600,1.1100,6.6700
ES,2020-04-22,2338405,2400680861,complete,5.5600,1.1100,6.6700
ES,2020-04-22,2338428,2400680872,complete,5.5600,1.1100,6.6700
ES,2020-04-22,2338537,2400680895,complete,5.5600,1.1100,6.6700
ES,2020-04-22,2338709,2400680933,complete,6.6800,1.3400,8.0200
ES,2020-04-22,2338872,2400680968,complete,5.5600,1.1100,6.6700
ES,2020-04-22,2338956,2400680992,complete,6.6800,1.3400,8.0200
ES,2020-04-22,2338987,2400680999,complete,5.5600,1.1100,6.6700
ES,2020-04-22,2338988,2400681000,complete,5.5600,1.1100,6.6700
ES,2020-04-22,2338993,2400681001,complete,8.9100,1.7800,10.6900
ES,2020-04-22,2339012,2400681004,complete,9.6500,1.9400,11.5900
ES,2020-04-22,2339044,2400681018,complete,6.6800,1.3400,8.0200
ES,2020-04-22,2339081,2400681028,complete,9.6500,1.9400,11.5900
ES,2020-04-22,2339110,2400681040,complete,7.4300,1.4800,8.9100
ES,2020-04-22,2339111,2400681041,complete,9.6500,1.9400,11.5900
ES,2020-04-22,2339153,2400681051,complete,8.9100,1.7800,10.6900
ES,2020-04-22,2339265,2400681085,complete,7.4200,1.4900,8.9100
ES,2020-04-22,2339328,2400681100,complete,5.5600,1.1100,6.6700
ES,2020-04-22,2339385,2400681115,complete,14.8500,2.9700,17.8200
ES,2020-04-22,2339396,2400681122,complete,7.4200,1.4900,8.9100
ES,2020-04-22,2339412,2400681127,complete,7.4200,1.4900,8.9100
ES,2020-04-22,2339413,2400681128,complete,9.6500,1.9400,11.5900
ES,2020-04-22,2339494,2400681147,complete,5.5600,1.1100,6.6700
ES,2020-04-22,2339768,2400681219,complete,5.5700,1.1100,6.6800
ES,2020-04-22,2339826,2400681238,complete,7.4200,1.4900,8.9100
ES,2020-04-22,2339827,2400681239,complete,9.6500,1.9400,11.5900
ES,2020-04-22,2339896,2400681259,complete,14.8500,2.9700,17.8200
ES,2020-04-22,2339911,2400681266,complete,8.9100,1.7800,10.6900
ES,2020-04-22,2339937,2400681273,complete,9.6500,1.9400,11.5900
ES,2020-04-23,2339962,2400681281,complete,8.9100,1.7900,10.6900
ES,2020-04-23,2339983,2400681286,complete,9.6500,1.9400,11.5900
ES,2020-04-23,2339988,2400681288,complete,9.6500,1.9400,11.5900
ES,2020-04-23,2340030,2400681299,complete,5.5600,1.1100,6.6700
ES,2020-04-23,2340086,2500325099,closed,2.0800,0.4200,2.5000
ES,2020-04-23,2340101,2400681312,complete,5.5700,1.1100,6.6800
ES,2020-04-23,2340292,2400681367,complete,5.5600,1.1100,6.6700
ES,2020-04-23,2340332,2400681377,complete,7.4200,1.4900,8.9100
ES,2020-04-23,2340540,2400681427,complete,8.9100,1.7800,10.6900
ES,2020-04-23,2340953,2400681524,complete,5.5600,1.1100,6.6700
ES,2020-04-23,2341023,600728805,complete,0.0000,0.0000,
ES,2020-04-23,2341232,2400681594,complete,8.9100,1.7800,10.6900
ES,2020-04-23,2341233,2400681595,complete,17.8200,3.5700,21.3800
ES,2020-04-23,2341282,2400681612,complete,5.5600,1.1100,6.6700
ES,2020-04-23,2341304,2400681618,complete,5.5600,1.1100,6.6700
ES,2020-04-23,2341314,2400681620,complete,14.8500,2.9700,17.8200
ES,2020-04-23,2341402,2400681641,complete,7.4200,1.4900,8.9100
ES,2020-04-23,2341483,2400681657,complete,7.4200,1.4900,8.9100
ES,2020-04-23,2341510,2400681665,complete,7.4200,1.4900,8.9100
ES,2020-04-23,2341587,2400681689,complete,8.9100,1.7800,10.6900
ES,2020-04-23,2341617,2400681692,complete,9.6500,1.9400,11.5900
ES,2020-04-23,2341621,2400681694,complete,9.6500,1.9400,11.5900
ES,2020-04-23,2341629,2400681697,complete,8.9100,1.7800,10.6900
ES,2020-04-23,2341646,2400681706,complete,5.5600,1.1100,6.6700
ES,2020-04-23,2341730,2400681722,complete,7.4300,1.4800,8.9100
ES,2020-04-23,2341736,2400681725,complete,8.9100,1.7800,10.6900
ES,2020-04-23,2341767,2400681732,complete,7.4200,1.4900,8.9100
ES,2020-04-23,2341774,2400681734,complete,5.5600,1.1100,6.6700
ES,2020-04-23,2341868,2400681762,complete,5.5600,1.1100,6.6700
ES,2020-04-23,2341982,2400681794,complete,9.6500,1.9400,11.5900
ES,2020-04-23,2342050,2400681818,complete,7.4200,1.4900,8.9100
ES,2020-04-23,2342087,2400681826,complete,5.5600,1.1100,6.6700
ES,2020-04-23,2342109,2400681835,complete,10.6900,2.1400,12.8300
ES,2020-04-23,2342112,2400681837,complete,9.6500,1.9400,11.5900
ES,2020-04-23,2342113,2400681838,complete,9.6500,1.9400,11.5900
ES,2020-04-24,2342372,2400681896,complete,7.4300,1.4800,8.9100
ES,2020-04-24,2342376,2400681898,complete,8.9100,1.7800,10.6900
ES,2020-04-24,2342408,2400681903,complete,5.5600,1.1100,6.6700
ES,2020-04-24,2342467,2500325679,complete,0.0000,0.0000,
ES,2020-04-24,2342558,2400681933,complete,3.3200,0.6700,3.9900
ES,2020-04-24,2342586,2400681940,complete,5.5600,1.1100,6.6700
ES,2020-04-24,2342613,2400681944,complete,7.4200,1.4900,8.9100
ES,2020-04-24,2342845,2400682000,complete,5.5600,1.1100,6.6700
ES,2020-04-24,2343234,2400682098,complete,7.4200,1.4900,8.9100
ES,2020-04-24,2343285,2400682109,complete,5.5600,1.1100,6.6700
ES,2020-04-24,2343372,2400682120,complete,9.6500,1.9400,11.5900
ES,2020-04-24,2343471,2400682139,complete,7.4200,1.4900,8.9100
ES,2020-04-24,2343472,2400682140,complete,14.8500,2.9700,17.8200
ES,2020-04-24,2343708,2400682193,complete,5.5600,1.1100,6.6700
ES,2020-04-24,2343773,2400682210,complete,7.4200,1.4900,8.9100
ES,2020-04-24,2343868,2400682234,complete,9.6500,1.9400,11.5900
ES,2020-04-24,2343890,2400682239,complete,7.4200,1.4900,8.9100
ES,2020-04-24,2343914,2400682246,complete,5.5600,1.1100,6.6700
ES,2020-04-24,2343984,2400682264,complete,7.4200,1.4900,8.9100
ES,2020-04-24,2343986,2400682265,complete,5.5600,1.1100,6.6700
ES,2020-04-24,2344071,2400682283,complete,8.9100,1.7800,10.6900
ES,2020-04-24,2344134,2400682301,complete,5.5600,1.1100,6.6700
ES,2020-04-24,2344206,2400682313,complete,7.4200,1.4900,8.9100
ES,2020-04-24,2344387,2400682354,complete,5.5600,1.1100,6.6700
ES,2020-04-25,2344655,2400682422,complete,9.6500,1.9400,11.5900
ES,2020-04-25,2344850,2400682464,complete,8.9100,1.7800,10.6900
ES,2020-04-25,2344920,2400682483,complete,7.4200,1.4900,8.9100
ES,2020-04-25,2344927,2400682488,complete,9.6500,1.9400,11.5900
ES,2020-04-25,2344987,2400682506,complete,7.4200,1.4900,8.9100
ES,2020-04-25,2345033,2400682516,complete,7.4200,1.4900,8.9100
ES,2020-04-25,2345034,2400682517,complete,5.5600,1.1100,6.6700
ES,2020-04-25,2345035,2400682518,complete,5.5600,1.1100,6.6700
ES,2020-04-25,2345099,2400682531,complete,8.9100,1.7800,10.6900
ES,2020-04-25,2345134,2400682545,complete,14.8500,2.9700,17.8200
ES,2020-04-25,2345267,600729744,complete,12.4600,2.4900,14.9500
ES,2020-04-25,2345286,2400682588,complete,7.4200,1.4900,8.9100
ES,2020-04-25,2345289,600729748,complete,13.2900,2.6600,15.9500
ES,2020-04-25,2345388,2400682621,complete,7.4200,1.4900,8.9100
ES,2020-04-25,2345477,2400682643,complete,9.6500,1.9400,11.5900
ES,2020-04-25,2345548,2400682664,complete,5.5600,1.1100,6.6700
ES,2020-04-25,2345555,2400682668,complete,5.5600,1.1100,6.6700
ES,2020-04-25,2345596,2400682678,complete,9.6500,1.9400,11.5900
ES,2020-04-25,2345651,2400682700,complete,6.6600,1.3300,7.9900
ES,2020-04-25,2345673,2400682706,complete,8.9100,1.7800,10.6900
ES,2020-04-25,2345676,2400682708,complete,8.9100,1.7800,10.6900
ES,2020-04-25,2345745,2400682725,complete,5.5600,1.1100,6.6700
ES,2020-04-25,2345787,2400682739,complete,7.4200,1.4900,8.9100
ES,2020-04-25,2345829,2400682754,complete,9.6500,1.9400,11.5900
ES,2020-04-25,2345871,2400682766,complete,11.5800,2.3200,13.9000
ES,2020-04-25,2345889,2400682772,complete,7.4200,1.4900,8.9100
ES,2020-04-25,2345912,2400682777,complete,9.6500,1.9400,11.5900
ES,2020-04-25,2346095,2400682840,complete,7.4200,1.4900,8.9100
ES,2020-04-25,2346197,2400682872,complete,8.9100,1.7800,10.6900
ES,2020-04-25,2346273,2400682900,complete,5.5600,1.1100,6.6700
ES,2020-04-25,2346286,2400682907,complete,9.6500,1.9400,11.5900
ES,2020-04-25,2346310,2400682916,complete,5.5600,1.1100,6.6700
ES,2020-04-25,2346415,2400682938,complete,9.6500,1.9400,11.5900
ES,2020-04-25,2346420,2400682940,complete,8.9100,1.7800,10.6900
ES,2020-04-25,2346431,2400682945,complete,8.9100,1.7800,10.6900
ES,2020-04-25,2346470,2400682957,complete,7.4200,1.4900,8.9100
ES,2020-04-25,2346512,2400682971,complete,5.5600,1.1100,6.6700
ES,2020-04-25,2346569,2400682992,complete,14.8500,2.9700,17.8200
ES,2020-04-25,2346699,2400683033,complete,8.9100,1.7800,10.6900
ES,2020-04-25,2346716,2400683037,complete,8.9100,1.7800,10.6900
ES,2020-04-25,2346727,2400683040,complete,5.5600,1.1100,6.6700
ES,2020-04-25,2346840,2400683068,complete,9.6500,1.9400,11.5900
ES,2020-04-25,2346890,2400683083,complete,5.5600,1.1100,6.6700
ES,2020-04-25,2346930,2400683099,complete,14.8500,2.9700,17.8200
ES,2020-04-25,2346998,2400683122,complete,8.9100,1.7800,10.6900
ES,2020-04-26,2347029,2400683131,complete,5.5600,1.1100,6.6700
ES,2020-04-26,2347035,2400683136,complete,5.5600,1.1100,6.6700
ES,2020-04-26,2347192,2400683171,complete,9.6500,1.9400,11.5900
ES,2020-04-26,2347493,2400683262,complete,7.4200,1.4900,8.9100
ES,2020-04-26,2347747,2400683333,complete,7.4200,1.4900,8.9100
ES,2020-04-26,2347971,2400683405,complete,8.9100,1.7800,10.6900
ES,2020-04-26,2348271,2400683486,complete,8.9100,1.7800,10.6900
ES,2020-04-26,2348407,2400683523,closed,8.9100,1.7800,10.6900
ES,2020-04-26,2348456,2400683546,complete,5.5600,1.1100,6.6700
ES,2020-04-26,2348492,2400683556,complete,7.4200,1.4900,8.9100
ES,2020-04-26,2349069,2400683726,complete,9.6500,1.9400,11.5900
ES,2020-04-26,2349202,2400683762,complete,7.4200,1.4900,8.9100
ES,2020-04-26,2349219,2400683766,complete,9.6500,1.9400,11.5900
ES,2020-04-26,2349454,2400683829,complete,6.6800,1.3400,8.0200
ES,2020-04-26,2349504,2400683841,complete,7.4200,1.4900,8.9100
ES,2020-04-26,2349553,2400683853,complete,7.4200,1.4900,8.9100
ES,2020-04-27,2350244,600730720,complete,7.4600,1.4900,8.9500
ES,2020-04-27,2351046,2400684195,complete,9.6500,1.9400,11.5900
ES,2020-04-27,2351200,2400684220,complete,9.6500,1.9400,11.5900
ES,2020-04-27,2351391,2400684269,complete,8.9100,1.7800,10.6900
ES,2020-04-27,2351422,2400684280,complete,14.8500,2.9700,17.8200
ES,2020-04-27,2351474,2400684296,complete,5.5600,1.1100,6.6700
ES,2020-04-27,2351525,2400684310,complete,9.6500,1.9400,11.5900
ES,2020-04-27,2351632,2400684338,complete,8.9100,1.7800,10.6900
ES,2020-04-27,2351779,2400684373,complete,5.5600,1.1100,6.6700
ES,2020-04-27,2351975,2400684407,complete,9.6500,1.9400,11.5900
ES,2020-04-27,2352053,2400684428,complete,7.4200,1.4900,8.9100
ES,2020-04-27,2352074,2400684434,complete,5.5600,1.1100,6.6700
ES,2020-04-27,2352266,2400684494,complete,11.1300,2.2300,13.3600
ES,2020-04-28,2352827,2400684606,complete,5.5600,1.1100,6.6700
ES,2020-04-28,2352864,2400684611,complete,8.9100,1.7800,10.6900
ES,2020-04-28,2352890,2400684613,complete,7.4200,1.4900,8.9100
ES,2020-04-28,2352939,2400684623,complete,5.5600,1.1100,6.6700
ES,2020-04-28,2353011,2400684637,complete,8.3200,1.6700,9.9900
ES,2020-04-28,2353194,2400684673,complete,7.4200,1.4900,8.9100
ES,2020-04-28,2353246,2400684687,complete,7.4200,1.4900,8.9100
ES,2020-04-28,2353266,2400684692,complete,11.5800,2.3200,13.9000
ES,2020-04-28,2353276,2400684694,complete,9.6500,1.9400,11.5900
ES,2020-04-28,2353281,2500328757,complete,0.0000,0.0000,
ES,2020-04-28,2353307,2400684702,complete,8.9100,1.7800,10.6900
ES,2020-04-28,2353415,2400684728,complete,9.8000,1.9600,11.7600
ES,2020-04-28,2353714,2400684766,complete,8.1700,1.6300,9.8000
ES,2020-04-28,2353715,2400684767,complete,11.5800,2.3200,13.9000
ES,2020-04-28,2353863,2400684822,complete,6.2300,1.2400,7.4800
ES,2020-04-28,2353864,2400684823,complete,5.9400,1.1900,7.1300
ES,2020-04-28,2353865,2400684824,complete,5.1900,1.0400,6.2300
ES,2020-04-28,2353914,2400684834,complete,8.9100,1.7800,10.6900
ES,2020-04-28,2354053,2400684871,complete,5.1900,1.0400,6.2300
ES,2020-04-28,2354069,1900284655,complete,7.4600,1.4900,8.9500
ES,2020-04-28,2354127,2400684891,complete,5.1900,1.0400,6.2300
ES,2020-04-28,2354284,2400684930,complete,5.1900,1.0400,6.2300
ES,2020-04-28,2354319,2400684937,complete,8.9100,1.7800,10.6900
ES,2020-04-28,2354375,2400684950,complete,5.9400,1.1900,7.1300
ES,2020-04-28,2354444,2400684970,complete,11.1300,2.2300,13.3600
ES,2020-04-28,2354457,2400684974,complete,8.1700,1.6300,9.8000
ES,2020-04-28,2354516,2400684991,complete,8.9100,1.7800,10.6900
ES,2020-04-28,2354517,2400684992,complete,8.1700,1.6300,9.8000
ES,2020-04-28,2354532,2400684997,complete,8.9100,1.7800,10.6900
ES,2020-04-28,2354661,2400685029,complete,5.1900,1.0400,6.2300
ES,2020-04-28,2354693,2400685037,complete,8.1700,1.6300,9.8000
ES,2020-04-28,2354730,2400685054,complete,5.1900,1.0400,6.2300
ES,2020-04-28,2354755,2400685060,complete,14.8500,2.9700,17.8200
ES,2020-04-28,2354782,2400685071,complete,5.9400,1.1900,7.1300
ES,2020-04-29,2354839,2400685081,complete,5.9400,1.1900,7.1300
ES,2020-04-29,2355152,2400685141,complete,5.9400,1.1900,7.1300
ES,2020-04-29,2355215,2400685158,complete,5.1900,1.0400,6.2300
ES,2020-04-29,2355251,2400685177,complete,8.9100,1.7800,10.6900
ES,2020-04-29,2355528,2400685264,complete,5.1900,1.0400,6.2300
ES,2020-04-29,2355529,2400685265,complete,8.9100,1.7800,10.6900
ES,2020-04-29,2355530,2400685266,complete,5.1900,1.0400,6.2300
ES,2020-04-29,2355575,2400685289,complete,5.1900,1.0400,6.2300
ES,2020-04-29,2355667,2400685308,complete,8.9100,1.7800,10.6900
ES,2020-04-29,2355693,2400685316,complete,5.1900,1.0400,6.2300
ES,2020-04-29,2355748,2400685331,complete,5.2100,1.0300,6.2400
ES,2020-04-29,2355819,2400685347,complete,5.9400,1.1900,7.1300
ES,2020-04-29,2355940,2400685383,complete,8.9100,1.7800,10.6900
ES,2020-04-29,2356192,2400685449,complete,5.9400,1.1900,7.1300
ES,2020-04-29,2356227,2400685455,complete,9.8000,1.9600,11.7600
ES,2020-04-29,2356228,2400685456,complete,8.1700,1.6300,9.8000
ES,2020-04-29,2356289,2400685470,complete,5.1900,1.0400,6.2300
ES,2020-04-29,2356345,2400685486,complete,5.9400,1.1900,7.1300
ES,2020-04-29,2356405,2400685504,complete,8.1700,1.6300,9.8000
ES,2020-04-29,2356455,2400685526,complete,5.9400,1.1900,7.1300
ES,2020-04-29,2356495,2400685534,complete,5.1900,1.0400,6.2300
ES,2020-04-29,2356506,2400685536,complete,5.1900,1.0400,6.2300
ES,2020-04-29,2356534,2400685543,complete,8.3200,1.6700,9.9900
ES,2020-04-29,2356683,2400685581,complete,5.9400,1.1900,7.1300
ES,2020-04-29,2356739,2400685595,complete,5.1900,1.0400,6.2300
ES,2020-04-29,2356740,2400685596,complete,8.1700,1.6300,9.8000
ES,2020-04-29,2356741,2400685597,complete,8.1700,1.6300,9.8000
ES,2020-04-29,2356742,2400685598,complete,8.9100,1.7800,10.6900
ES,2020-04-29,2356812,2400685619,complete,8.9100,1.7800,10.6900
ES,2020-04-29,2356813,2400685620,complete,5.1900,1.0400,6.2300
ES,2020-04-29,2356814,2400685621,complete,5.9400,1.1900,7.1300
ES,2020-04-29,2356873,2400685642,complete,8.1700,1.6300,9.8000
ES,2020-04-29,2356874,2400685643,complete,14.8500,2.9700,17.8200
ES,2020-04-29,2356887,2400685644,complete,5.9400,1.1900,7.1300
ES,2020-04-29,2356900,2400685648,complete,3.9900,0.8000,4.7900
ES,2020-04-29,2356944,2400685665,complete,5.1900,1.0400,6.2300
ES,2020-04-29,2357162,2400685717,complete,8.9100,1.7800,10.6900
ES,2020-04-29,2357208,2400685732,complete,5.9400,1.1900,7.1300
ES,2020-04-29,2357305,2400685764,complete,5.1900,1.0400,6.2300
ES,2020-04-29,2357315,1900285364,complete,12.4500,2.5000,14.9500
ES,2020-04-30,2357325,2400685770,complete,5.1900,1.0400,6.2300
ES,2020-04-30,2357443,2400685800,packed,5.1900,1.0400,6.2300
ES,2020-04-30,2357479,2400685807,complete,5.9400,1.1900,7.1300
ES,2020-04-30,2357480,2400685808,complete,8.9100,1.7800,10.6900
ES,2020-04-30,2357513,2400685816,complete,5.1900,1.0400,6.2300
ES,2020-04-30,2357593,2400685839,complete,14.8500,2.9700,17.8200
ES,2020-04-30,2357641,2400685851,complete,5.9400,1.1900,7.1300
ES,2020-04-30,2357782,2400685888,packed,5.9400,1.1900,7.1300
ES,2020-04-30,2357877,2400685912,complete,8.9100,1.7800,10.6900
ES,2020-04-30,2357927,2400685931,complete,8.9100,1.7800,10.6900
ES,2020-04-30,2357938,2400685934,packed,5.1900,1.0400,6.2300
ES,2020-04-30,2358024,2400685964,complete,5.1900,1.0400,6.2300
ES,2020-04-30,2358025,2400685965,pick_note_printed,5.9400,1.1900,7.1300
ES,2020-04-30,2358244,2400686024,packed,5.9400,1.1900,7.1300
ES,2020-04-30,2358270,2400686033,pick_note_printed,5.1900,1.0400,6.2300
ES,2020-04-30,2358271,2400686034,pick_note_printed,5.1900,1.0400,6.2300
ES,2020-04-30,2358426,2400686072,pick_note_printed,6.2300,1.2500,7.4800
ES,2020-04-30,2358507,2400686094,pick_note_printed,5.9400,1.1900,7.1300
ES,2020-04-30,2358516,2400686097,pick_note_printed,5.9400,1.1900,7.1300
ES,2020-04-30,2358517,2400686098,pick_note_printed,5.9400,1.1900,7.1300
ES,2020-04-30,2358531,2400686104,pick_note_printed,8.1700,1.6300,9.8000
ES,2020-04-30,2358658,2400686137,pick_note_printed,8.1700,1.6300,9.8000
ES,2020-04-30,2358659,2400686138,complete,5.1900,1.0400,6.2300
ES,2020-04-30,2358663,2400686139,pick_note_printed,5.9400,1.1900,7.1300
ES,2020-04-30,2358696,2400686150,pick_note_printed,8.1700,1.6300,9.8000
ES,2020-04-30,2358811,2500330215,packed,4.1200,0.8300,4.9500
ES,2020-04-30,2358981,2400686206,pick_note_printed,14.8500,2.9700,17.8200
ES,2020-04-30,2359097,2400686238,pick_note_printed,5.1900,1.0400,6.2300
ES,2020-04-30,2359100,2400686240,pick_note_printed,8.9100,1.7800,10.6900
ES,2020-04-30,2359104,2400686242,pick_note_printed,8.1700,1.6300,9.8000
ES,2020-04-30,2359182,2400686264,pick_note_printed,5.9400,1.1900,7.1300
ES,2020-04-30,2359208,2400686269,pick_note_printed,5.9400,1.1900,7.1300
ES,2020-04-30,2359255,2400686278,packed,14.8500,2.9700,17.8200
ES,2020-04-30,2359340,2400686294,packed,8.9100,1.7800,10.6900
ES,2020-04-30,2359450,2400686319,pick_note_printed,5.1900,1.0400,6.2300
ES,2020-04-30,2359479,2400686325,pick_note_printed,5.9400,1.1900,7.1300
ES,2020-04-30,2359600,2400686361,pick_note_printed,8.1700,1.6300,9.8000
ES,2020-04-30,2359659,2400686377,pick_note_printed,5.9400,1.1900,7.1300
ES,2020-04-30,2359679,2400686385,pick_note_printed,5.1900,1.0400,6.2300
ES,2020-04-30,2359689,2400686388,pick_note_printed,5.9400,1.1900,7.1300
ES,2020-04-30,2359692,2400686389,pick_note_printed,8.1700,1.6300,9.8000
ES,2020-04-30,2359738,2400686403,pick_note_printed,8.9100,1.7800,10.6900
ES,2020-04-30,2359757,2400686407,pick_note_printed,5.1900,1.0400,6.2300
ES,2020-04-30,2359758,2400686408,pick_note_printed,6.2300,1.2500,7.4800
ES,2020-04-30,2359771,2400686412,pick_note_printed,5.1900,1.0400,6.2300
ES,2020-04-30,2359800,2400686422,packed,8.1700,1.6300,9.8000
ES,2020-04-30,2359801,2400686423,pick_note_printed,5.9400,1.1900,7.1300
ES,2020-04-30,2359826,2400686429,pick_note_printed,5.9400,1.1900,7.1300
ES,2020-04-30,2359856,2400686438,pick_note_printed,5.9400,1.1900,7.1300
ES,2020-04-30,2359872,2400686442,packed,14.8500,2.9700,17.8200
ES,2020-04-30,2359878,2400686444,pick_note_printed,5.1900,1.0400,6.2300
