country_id,created_at,entity_id,increment_id,status,base_shipping_amount,base_shipping_tax_amount,base_shipping_incl_tax
PT,2021-03-01,2894166,6000978830,complete,46.0800,0.0000,46.0800
PT,2021-03-03,2897016,6000980532,complete,4.9500,0.0000,4.9500
PT,2021-03-04,2897924,EBY24000602795,complete,6.2600,0.0000,6.2600
PT,2021-03-04,2898151,6000981179,complete,5.7100,0.0000,5.7100
PT,2021-03-05,2899264,EBY24000603044,complete,4.9600,0.9900,5.9500
PT,2021-03-05,2898934,6000981615,complete,11.9500,0.0000,11.9500
PT,2021-03-07,2903100,6000983924,complete,12.6300,0.0000,12.6300
PT,2021-03-08,2904126,6000984494,complete,10.9500,0.0000,10.9500
PT,2021-03-08,2903938,EBY24000603862,complete,9.1200,1.8300,10.9500
PT,2021-03-08,2903791,6000984300,complete,12.6300,0.0000,12.6300
PT,2021-03-08,2903654,6000984219,complete,11.9500,0.0000,11.9500
PT,2021-03-09,2905976,6000985504,complete,5.7100,0.0000,5.7100
PT,2021-03-10,2906115,6000985555,complete,23.0200,0.0000,23.0200
PT,2021-03-14,2912739,6000989329,complete,34.5500,0.0000,34.5500
PT,2021-03-14,2912068,EBY24000605384,complete,4.9500,1.0000,5.9500
PT,2021-03-16,2915622,6000990932,complete,13.7800,0.0000,13.7800
PT,2021-03-18,2918188,EBY24000606475,complete,4.9600,0.9900,5.9500
PT,2021-03-18,2918182,6000992380,complete,25.3300,0.0000,25.3300
PT,2021-03-22,2922647,EBY24000607233,complete,4.9500,1.0000,5.9500
PT,2021-03-23,2925304,6000996307,complete,13.7800,0.0000,13.7800
PT,2021-03-23,2924525,6000995845,bike_order,99.9500,0.0000,99.9500
PT,2021-03-26,2929645,6000998505,complete,13.7800,0.0000,13.7800
PT,2021-03-26,2929230,6000998322,complete,19.9500,0.0000,19.9500
PT,2021-03-27,2931399,6000999320,complete,13.7800,0.0000,13.7800
PT,2021-03-29,2934581,6001000862,complete,4.9500,0.0000,4.9500
