country_id,created_at,increment_id,entity_id,base_shipping_amount,base_shipping_tax_amount,base_shipping_incl_tax
IT,2020-04-01,2500015019,176727,4.1300,0.8200,4.9500
IT,2020-04-02,2400051622,176822,0.0000,0.0000,0.0000
IT,2020-04-02,2400051623,176824,0.0000,0.0000,0.0000
IT,2020-04-03,2400051636,176872,4.3800,0.9600,5.3400
IT,2020-04-03,2500015058,176907,2.0900,0.4100,2.5000
IT,2020-04-03,2400051649,176917,0.0000,0.0000,0.0000
IT,2020-04-06,2400051663,176950,0.0000,0.0000,0.0000
IT,2020-04-06,2400051664,176951,0.0000,0.0000,0.0000
IT,2020-04-06,2400051665,176952,0.0000,0.0000,0.0000
IT,2020-04-06,2400051666,176953,0.0000,0.0000,0.0000
IT,2020-04-06,2400051667,176954,0.0000,0.0000,0.0000
IT,2020-04-06,2400051668,176955,0.0000,0.0000,0.0000
IT,2020-04-06,2400051669,176956,0.0000,0.0000,0.0000
IT,2020-04-06,2400051687,176978,3.6500,0.8000,4.4500
IT,2020-04-06,2400051695,176994,0.0000,0.0000,0.0000
IT,2020-04-06,2400051696,176995,0.0000,0.0000,0.0000
IT,2020-04-06,2400051698,177001,0.0000,0.0000,0.0000
IT,2020-04-06,2400051699,177002,0.0000,0.0000,0.0000
IT,2020-04-07,2400051711,177052,5.8400,1.2800,7.1200
IT,2020-04-08,2500015146,177126,4.9400,0.9900,5.9400
IT,2020-04-09,2400051757,177281,0.0000,0.0000,0.0000
IT,2020-04-09,2400051762,177291,0.0000,0.0000,0.0000
IT,2020-04-13,2400051790,177414,8.0300,1.7600,9.7900
IT,2020-04-13,2400051807,177443,0.0000,0.0000,0.0000
IT,2020-04-13,2400051808,177444,0.0000,0.0000,0.0000
IT,2020-04-13,2400051819,177456,8.1700,1.6300,9.8000
IT,2020-04-14,2400051834,177503,8.0300,1.7600,9.7900
IT,2020-04-14,2400051836,177506,5.8400,1.2800,7.1200
IT,2020-04-16,2400051848,177616,5.1100,1.1200,6.2300
IT,2020-04-16,2400051853,177630,8.0300,1.7600,9.7900
IT,2020-04-16,2400051858,177649,5.1100,1.1200,6.2300
IT,2020-04-17,2400051910,177787,8.0300,1.7600,9.7900
IT,2020-04-20,2400051916,177898,5.1100,1.1200,6.2300
IT,2020-04-20,2400051917,177899,5.1100,1.1200,6.2300
IT,2020-04-20,2400051920,177913,6.5700,1.4400,8.0100
IT,2020-04-20,2400051929,177955,0.0000,0.0000,0.0000
IT,2020-04-20,2400051933,177961,0.0000,0.0000,0.0000
IT,2020-04-20,2400051934,177962,0.0000,0.0000,0.0000
IT,2020-04-20,2400051935,177963,0.0000,0.0000,0.0000
IT,2020-04-20,2400051936,177964,0.0000,0.0000,0.0000
IT,2020-04-20,2400051937,177965,0.0000,0.0000,0.0000
IT,2020-04-20,2400051938,177966,0.0000,0.0000,0.0000
IT,2020-04-20,2400051939,177967,0.0000,0.0000,0.0000
IT,2020-04-20,2400051940,177968,0.0000,0.0000,0.0000
IT,2020-04-20,2400051942,177970,0.0000,0.0000,0.0000
IT,2020-04-20,2400051943,177972,0.0000,0.0000,0.0000
IT,2020-04-20,2400051944,177973,0.0000,0.0000,0.0000
IT,2020-04-20,2400051945,177974,0.0000,0.0000,0.0000
IT,2020-04-20,2400051947,177976,0.0000,0.0000,0.0000
IT,2020-04-20,2400051972,178002,5.1100,1.1200,6.2300
IT,2020-04-20,2400051973,178003,0.0000,0.0000,0.0000
IT,2020-04-20,2400051980,178010,0.0000,0.0000,0.0000
IT,2020-04-22,2400052064,178322,7.3000,1.6000,8.9000
IT,2020-04-23,2400052079,178403,0.0000,0.0000,0.0000
IT,2020-04-23,2400052080,178414,7.3000,1.6000,8.9000
IT,2020-04-23,2400052081,178415,5.1100,1.1200,6.2300
IT,2020-04-23,2400052082,178416,8.7600,1.9200,10.6800
IT,2020-04-24,2400052155,178667,5.4700,1.2000,6.6700
IT,2020-04-25,2400052177,178810,0.0000,0.0000,0.0000
IT,2020-04-25,2400052178,178813,0.0000,0.0000,0.0000
IT,2020-04-25,2400052179,178820,4.3800,0.9600,5.3400
IT,2020-04-28,2400052255,179103,0.0000,0.0000,0.0000
IT,2020-04-28,2400052256,179122,8.7600,1.9200,10.6800
IT,2020-04-29,2400052303,179290,3.6500,0.8000,4.4500
IT,2020-04-29,2400052304,179300,4.3800,0.9600,5.3400
IT,2020-04-29,2500015632,179347,4.1100,0.8200,4.9400
