country_id,created_at,increment_id,entity_id,base_shipping_amount,base_shipping_tax_amount,base_shipping_incl_tax
HU,2020-12-30,6000062942,208427,0.0000,0.0000,0.0000
HU,2020-12-31,24000042296,208545,0.0000,0.0000,0.0000
