country_id,created_at,entity_id,increment_id,status,base_shipping_amount,base_shipping_tax_amount,base_shipping_incl_tax
GR,2021-02-01,2853792,6000955204,complete,5.5500,0.0000,5.5500
GR,2021-02-02,2855824,EBY24000594784,complete,4.1200,0.8300,4.9500
GR,2021-02-02,2855746,6000956339,complete,14.9500,0.0000,14.9500
GR,2021-02-03,2856299,6000956634,complete,4.9500,0.0000,4.9500
GR,2021-02-07,2862541,6000960367,complete,16.7700,0.0000,16.7700
GR,2021-02-07,2861891,6000960007,complete,16.7700,0.0000,16.7700
GR,2021-02-08,2864006,24000583220,complete,4.9900,0.0000,4.9900
GR,2021-02-08,2863692,EBY24000596262,complete,4.9600,0.0000,4.9600
GR,2021-02-08,2863608,6000960983,complete,5.5500,0.0000,5.5500
GR,2021-02-10,2867173,6000963049,complete,16.7700,0.0000,16.7700
GR,2021-02-10,2867135,6000963029,complete,16.7700,0.0000,16.7700
GR,2021-02-10,2867031,6000962966,complete,16.7700,0.0000,16.7700
GR,2021-02-11,2868560,6000963886,complete,12.9500,0.0000,12.9500
GR,2021-02-11,2868525,6000963869,complete,4.9500,0.0000,4.9500
GR,2021-02-11,2868363,6000963772,complete,4.9500,0.0000,4.9500
GR,2021-02-12,2868918,EBY24000597338,complete,4.1600,0.8300,4.9900
GR,2021-02-13,2871056,EBY24000597797,complete,6.6500,1.3400,7.9900
GR,2021-02-14,2872155,6000965977,complete,26.8700,0.0000,26.8700
GR,2021-02-14,2871192,EBY24000597827,complete,4.9500,1.0000,5.9500
GR,2021-02-15,2872726,6000966285,complete,14.5300,0.0000,14.5300
GR,2021-02-18,2876704,6000968621,complete,24.6300,0.0000,24.6300
GR,2021-02-21,2881245,6000971388,complete,16.7700,0.0000,16.7700
GR,2021-02-21,2880593,6000971022,complete,12.9500,0.0000,12.9500
GR,2021-02-24,2885857,6000974078,complete,17.3400,0.0000,17.3400
GR,2021-02-24,2885321,6000973759,complete,139.2000,0.0000,139.2000
GR,2021-02-25,2887289,6000974953,complete,21.9500,0.0000,21.9500
GR,2021-02-25,2886780,6000974640,complete,23.9500,0.0000,23.9500
GR,2021-02-27,2889994,6000976490,pick_note_printed,14.9500,0.0000,14.9500
GR,2021-02-28,2891702,6000977424,pick_note_printed,25.4600,0.0000,25.4600
