country_id,created_at,entity_id,increment_id,status,base_shipping_amount,base_shipping_tax_amount,base_shipping_incl_tax
PT,2021-01-01,2801354,6000919696,complete,10.0000,0.0000,10.0000
PT,2021-01-02,2804112,EBY24000586463,complete,4.9600,0.9900,5.9500
PT,2021-01-02,2803734,6000921432,complete,12.3400,0.0000,12.3400
PT,2021-01-02,2804484,6000921974,complete,12.3400,0.0000,12.3400
PT,2021-01-02,2804139,6000921735,complete,11.0000,0.0000,11.0000
PT,2021-01-03,2806766,6000923481,complete,11.0000,0.0000,11.0000
PT,2021-01-03,2806361,6000923229,complete,11.0000,0.0000,11.0000
PT,2021-01-03,2805751,6000922830,complete,10.0000,0.0000,10.0000
PT,2021-01-03,2804812,6000922192,complete,12.3400,0.0000,12.3400
PT,2021-01-04,2808531,6000924726,complete,14.5800,0.0000,14.5800
PT,2021-01-04,2808094,6000924402,complete,14.5800,0.0000,14.5800
PT,2021-01-04,2807712,6000924140,complete,11.0000,0.0000,11.0000
PT,2021-01-05,2810288,6000926018,complete,14.5800,0.0000,14.5800
PT,2021-01-05,2810181,6000925945,complete,11.0000,0.0000,11.0000
PT,2021-01-05,2809427,6000925425,complete,12.3400,0.0000,12.3400
PT,2021-01-06,2811920,6000927205,complete,11.0000,0.0000,11.0000
PT,2021-01-06,2811180,6000926725,complete,11.0000,0.0000,11.0000
PT,2021-01-06,2810608,6000926223,complete,14.5800,0.0000,14.5800
PT,2021-01-07,2812049,EBY24000587798,complete,4.9600,0.9900,5.9500
PT,2021-01-07,2813475,6000928271,complete,12.3400,0.0000,12.3400
PT,2021-01-09,2815226,6000929494,complete,12.3400,0.0000,12.3400
PT,2021-01-10,2817729,EBY24000588677,complete,8.2900,1.6600,9.9500
PT,2021-01-10,2816866,6000930576,complete,14.5800,0.0000,14.5800
PT,2021-01-11,2819379,6000932217,complete,12.3400,0.0000,12.3400
PT,2021-01-12,2821888,6000933831,complete,12.3400,0.0000,12.3400
PT,2021-01-14,2825051,EBY24000589620,complete,4.9600,0.9900,5.9500
PT,2021-01-15,2825569,6000936274,complete,12.3400,0.0000,12.3400
PT,2021-01-16,2828821,6000939627,complete,12.3400,0.0000,12.3400
PT,2021-01-16,2828706,6000939556,complete,12.3400,0.0000,12.3400
PT,2021-01-16,2827799,EBY24000590032,complete,6.6600,1.3300,7.9900
PT,2021-01-17,2830271,6000940457,complete,20.1900,0.0000,20.1900
PT,2021-01-17,2830091,24000582409,complete,4.9900,0.0000,4.9900
PT,2021-01-18,2831804,6000941393,complete,11.0000,0.0000,11.0000
PT,2021-01-19,2833112,EBY24000590841,complete,6.6600,1.3300,7.9900
PT,2021-01-20,2834544,EBY24000591078,complete,9.1200,1.8300,10.9500
PT,2021-01-23,2839882,6000946542,complete,12.3400,0.0000,12.3400
PT,2021-01-23,2838275,6000945523,complete,11.2200,0.0000,11.2200
PT,2021-01-25,2842447,6000948141,complete,11.2200,0.0000,11.2200
PT,2021-01-26,2844205,6000949243,closed,11.9500,0.0000,11.9500
PT,2021-01-26,2843947,6000948031,complete,13.4100,0.0000,13.4100
PT,2021-01-26,2843755,6000948953,complete,12.3400,0.0000,12.3400
PT,2021-01-28,2847356,6000951268,complete,24.6300,0.0000,24.6300
PT,2021-01-28,2846591,EBY24000593107,complete,6.6500,1.3400,7.9900
PT,2021-01-30,2850501,EBY24000593862,pick_note_printed,6.6500,1.3400,7.9900
PT,2021-01-31,2852550,6000954310,pick_note_printed,22.3800,0.0000,22.3800
PT,2021-01-31,2851876,6000953985,pick_note_printed,4.9500,0.0000,4.9500
PT,2021-01-31,2851832,6000953956,pick_note_printed,4.9500,0.0000,4.9500
