country_id,created_at,increment_id,entity_id,base_shipping_amount,base_shipping_tax_amount,base_shipping_incl_tax
ES,2021-03-01,24000043173,217860,0.0000,0.0000,0.0000
ES,2021-03-01,24000043174,217861,4.9600,0.9900,5.9500
ES,2021-03-02,6000070272,218226,0.0000,0.0000,0.0000
ES,2021-03-09,6000070822,219032,0.0000,0.0000,0.0000
ES,2021-03-10,24000041959,219170,0.0000,0.0000,0.0000
ES,2021-03-10,24000041960,219171,0.0000,0.0000,0.0000
ES,2021-03-11,6000070982,219254,0.0000,0.0000,0.0000
ES,2021-03-13,6000071134,219424,0.0000,0.0000,0.0000
ES,2021-03-19,6000071626,220133,0.0000,0.0000,0.0000
ES,2021-03-22,6000071858,220375,13.7800,0.0000,13.7800
ES,2021-03-24,6000071930,220627,0.0000,0.0000,0.0000
ES,2021-03-29,6000072390,221168,0.0000,0.0000,0.0000
