country_id,created_at,increment_id,entity_id,base_shipping_amount,base_shipping_tax_amount,base_shipping_incl_tax
SI,2020-10-07,600072288,200588,0.0000,0.0000,0.0000
SI,2020-10-08,600072333,200707,0.0000,0.0000,0.0000
SI,2020-10-13,1900028065,201118,4.1200,0.8300,4.9500
SI,2020-10-13,1900028066,201119,0.0000,0.0000,0.0000
SI,2020-10-17,600072682,201844,4.1200,0.8300,4.9500
SI,2020-10-20,600072710,201952,0.0000,0.0000,0.0000
SI,2020-10-27,1900028547,202965,0.0000,0.0000,0.0000
SI,2020-10-27,600073128,203050,0.0000,0.0000,0.0000
