country_id,created_at,increment_id,entity_id,base_shipping_amount,base_shipping_tax_amount,base_shipping_incl_tax
BE,2021-01-02,24000042497,208897,4.9900,1.0000,5.9900
BE,2021-01-11,24000042616,210022,5.8200,1.1700,6.9900
BE,2021-01-21,24000041847,212116,0.0000,0.0000,0.0000
BE,2021-01-22,24000042869,212211,8.1700,1.6300,9.8000
BE,2021-01-27,6000066521,213181,0.0000,0.0000,0.0000
