country_id,created_at,increment_id,entity_id,base_shipping_amount,base_shipping_tax_amount,base_shipping_incl_tax
FR,2020-04-01,2400051568,176711,0.0000,0.0000,0.0000
FR,2020-04-02,2400051585,176764,8.1700,1.6300,9.8000
FR,2020-04-02,2400051586,176765,4.4500,0.8900,5.3400
FR,2020-04-02,2400051624,176825,0.0000,0.0000,0.0000
FR,2020-04-02,2400051625,176826,0.0000,0.0000,0.0000
FR,2020-04-03,2400051627,176862,4.4500,0.8900,5.3400
FR,2020-04-03,2400051648,176913,8.1700,1.6300,9.8000
FR,2020-04-06,2400051661,176948,6.6800,1.3400,8.0200
FR,2020-04-06,2400051662,176949,0.0000,0.0000,0.0000
FR,2020-04-06,2400051697,176999,0.0000,0.0000,0.0000
FR,2020-04-07,2400051706,177028,0.0000,0.0000,0.0000
FR,2020-04-09,2400051750,177266,0.0000,0.0000,0.0000
FR,2020-04-09,2400051751,177267,0.0000,0.0000,0.0000
FR,2020-04-09,2400051752,177268,0.0000,0.0000,0.0000
FR,2020-04-09,2400051753,177269,0.0000,0.0000,0.0000
FR,2020-04-09,2400051754,177270,0.0000,0.0000,0.0000
FR,2020-04-09,2400051765,177304,0.0000,0.0000,0.0000
FR,2020-04-10,2400051788,177375,3.7100,0.7400,4.4500
FR,2020-04-13,2400051797,177421,14.8500,2.9700,17.8200
FR,2020-04-13,2400051801,177437,3.7100,0.7400,4.4500
FR,2020-04-13,2400051802,177438,0.0000,0.0000,0.0000
FR,2020-04-13,2400051803,177439,0.0000,0.0000,0.0000
FR,2020-04-13,2400051804,177440,0.0000,0.0000,0.0000
FR,2020-04-13,2400051806,177442,0.0000,0.0000,0.0000
FR,2020-04-14,2400051826,177480,3.7100,0.7400,4.4500
FR,2020-04-14,2400051830,177490,8.1700,1.6300,9.8000
FR,2020-04-14,2400051844,177535,3.7100,0.7400,4.4500
FR,2020-04-15,2400051847,177573,6.6800,1.3400,8.0200
FR,2020-04-18,2400051912,177877,0.0000,0.0000,0.0000
FR,2020-04-20,2400051946,177975,5.1900,1.0400,6.2300
FR,2020-04-20,2400051948,177977,0.0000,0.0000,0.0000
FR,2020-04-20,2400051949,177978,0.0000,0.0000,0.0000
FR,2020-04-20,2400051950,177979,0.0000,0.0000,0.0000
FR,2020-04-20,2400051951,177980,0.0000,0.0000,0.0000
FR,2020-04-20,2400051954,177983,0.0000,0.0000,0.0000
FR,2020-04-20,2400051955,177984,0.0000,0.0000,0.0000
FR,2020-04-20,2400051957,177986,0.0000,0.0000,0.0000
FR,2020-04-20,2400051959,177988,0.0000,0.0000,0.0000
FR,2020-04-20,2400051984,178049,0.0000,0.0000,0.0000
FR,2020-04-22,2400052025,178210,0.0000,0.0000,0.0000
FR,2020-04-22,2400052026,178218,0.0000,0.0000,0.0000
FR,2020-04-22,2400052027,178220,0.0000,0.0000,0.0000
FR,2020-04-22,2400052028,178224,0.0000,0.0000,0.0000
FR,2020-04-22,2400052029,178228,0.0000,0.0000,0.0000
FR,2020-04-22,2400052030,178229,0.0000,0.0000,0.0000
FR,2020-04-22,2400052031,178230,8.1700,1.6300,9.8000
FR,2020-04-22,2400052032,178232,0.0000,0.0000,0.0000
FR,2020-04-22,2400052034,178239,0.0000,0.0000,0.0000
FR,2020-04-22,2400052035,178240,0.0000,0.0000,0.0000
FR,2020-04-22,2400052036,178241,0.0000,0.0000,0.0000
FR,2020-04-22,2400052037,178242,0.0000,0.0000,0.0000
FR,2020-04-22,2400052038,178243,0.0000,0.0000,0.0000
FR,2020-04-22,2400052039,178245,0.0000,0.0000,0.0000
FR,2020-04-22,2400052040,178246,0.0000,0.0000,0.0000
FR,2020-04-23,2400052074,178354,0.0000,0.0000,0.0000
FR,2020-04-23,2400052075,178358,3.7100,0.7400,4.4500
FR,2020-04-23,2400052076,178367,5.9400,1.1900,7.1300
FR,2020-04-24,2400052150,178575,0.0000,0.0000,0.0000
FR,2020-04-24,2400052152,178594,8.1700,1.6300,9.8000
FR,2020-04-25,2500015512,178709,0.0000,0.0000,0.0000
FR,2020-04-25,2400052172,178749,0.0000,0.0000,0.0000
FR,2020-04-25,2400052173,178750,0.0000,0.0000,0.0000
FR,2020-04-25,2400052174,178777,0.0000,0.0000,0.0000
FR,2020-04-25,2400052175,178784,3.7100,0.7400,4.4500
FR,2020-04-27,2500015522,178836,0.0000,0.0000,0.0000
FR,2020-04-27,2400052196,178860,14.8500,2.9700,17.8200
FR,2020-04-28,2400052250,179067,4.4500,0.8900,5.3400
FR,2020-04-28,2400052252,179070,4.4500,0.8900,5.3400
FR,2020-04-29,2400052257,179143,7.4200,1.4900,8.9100
FR,2020-04-29,2400052258,179145,8.1700,1.6300,9.8000
FR,2020-04-29,2400052259,179147,5.9400,1.1900,7.1300
FR,2020-04-29,2400052260,179148,0.0000,0.0000,0.0000
FR,2020-04-29,2400052262,179150,0.0000,0.0000,0.0000
FR,2020-04-29,2400052263,179151,0.0000,0.0000,0.0000
FR,2020-04-29,2400052264,179152,0.0000,0.0000,0.0000
FR,2020-04-29,2400052265,179153,0.0000,0.0000,0.0000
FR,2020-04-29,2400052286,179200,3.7100,0.7400,4.4500
FR,2020-04-29,2400052287,179201,3.7100,0.7400,4.4500
FR,2020-04-29,2400052289,179203,4.4500,0.8900,5.3400
FR,2020-04-29,2400052300,179218,3.7100,0.7400,4.4500
FR,2020-04-29,2400052301,179241,3.7100,0.7400,4.4500
FR,2020-04-30,2400052315,179412,5.1900,1.0400,6.2300
FR,2020-04-30,2400052316,179419,6.6600,1.3300,7.9900
FR,2020-04-30,2400052338,179461,3.7100,0.7400,4.4500
FR,2020-04-30,2400052339,179462,3.7100,0.7400,4.4500
FR,2020-04-30,2400052341,179470,3.7100,0.7400,4.4500
