country_id,created_at,increment_id,entity_id,base_shipping_amount,base_shipping_tax_amount,base_shipping_incl_tax
IT,2020-10-01,2400057291,200056,4.3800,0.9600,5.3400
IT,2020-10-01,2400057295,200061,0.0000,0.0000,0.0000
IT,2020-10-01,2400057296,200062,4.3800,0.9600,5.3400
IT,2020-10-02,2400057302,200130,7.3000,1.6000,8.9000
IT,2020-10-02,2400057303,200131,6.5700,1.4400,8.0100
IT,2020-10-06,2400057371,200486,6.5700,1.4400,8.0100
IT,2020-10-08,2400057399,200681,4.3800,0.9600,5.3400
IT,2020-10-09,2400057439,200829,4.3800,0.9600,5.3400
IT,2020-10-10,2400057449,200865,0.0000,0.0000,0.0000
IT,2020-10-10,2400057450,200866,4.3800,0.9600,5.3400
IT,2020-10-12,2400057476,201030,0.0000,0.0000,0.0000
IT,2020-10-12,2400057477,201031,0.0000,0.0000,0.0000
IT,2020-10-12,2400057478,201032,0.0000,0.0000,0.0000
IT,2020-10-12,2400057479,201033,0.0000,0.0000,0.0000
IT,2020-10-12,2400057480,201035,0.0000,0.0000,0.0000
IT,2020-10-12,2400057482,201037,0.0000,0.0000,0.0000
IT,2020-10-12,2400057483,201038,6.5700,1.4400,8.0100
IT,2020-10-12,2400057487,201042,0.0000,0.0000,0.0000
IT,2020-10-12,2400057488,201044,5.8400,1.2800,7.1200
IT,2020-10-14,2400057642,201440,0.0000,0.0000,0.0000
IT,2020-10-14,2400057651,201450,0.0000,0.0000,0.0000
IT,2020-10-15,2400057686,201540,0.0000,0.0000,0.0000
IT,2020-10-19,2400057731,201859,8.0300,1.7600,9.7900
IT,2020-10-19,2400057732,201863,3.2700,0.7200,3.9900
IT,2020-10-19,2400057737,201883,4.3800,0.9600,5.3400
IT,2020-10-21,2400057768,202106,17.8200,3.5700,21.3900
IT,2020-10-21,2400057769,202108,4.3800,0.9600,5.3400
IT,2020-10-21,2400057770,202109,4.4500,0.8900,5.3400
IT,2020-10-21,2400057771,202110,4.3800,0.9600,5.3400
IT,2020-10-21,2400057772,202111,8.7600,1.9200,10.6800
IT,2020-10-21,2500019572,202295,8.3000,1.6500,9.9500
IT,2020-10-22,2400057811,202342,5.8400,1.2800,7.1200
IT,2020-10-23,2400057839,202559,4.3800,0.9600,5.3400
IT,2020-10-24,2400057873,202700,0.0000,0.0000,0.0000
IT,2020-10-24,2400057874,202702,0.0000,0.0000,0.0000
IT,2020-10-26,2400057944,202900,0.0000,0.0000,0.0000
IT,2020-10-26,2400057945,202901,8.0300,1.7600,9.7900
IT,2020-10-26,2400057946,202902,5.8400,1.2800,7.1200
IT,2020-10-26,2400057947,202903,4.3800,0.9600,5.3400
IT,2020-10-26,2400057948,202905,8.7600,1.9200,10.6800
IT,2020-10-27,2400057954,202923,4.3800,0.9600,5.3400
IT,2020-10-27,2400057955,202924,4.3800,0.9600,5.3400
IT,2020-10-27,2400057956,202925,8.7600,1.9200,10.6800
IT,2020-10-27,2400057963,202981,4.3800,0.9600,5.3400
IT,2020-10-27,2400057964,202982,8.0300,1.7600,9.7900
