country_id,created_at,entity_id,increment_id,status,base_shipping_amount,base_shipping_tax_amount,base_shipping_incl_tax
SE,2020-03-01,2248418,2400654592,complete,6.6800,1.3400,8.0200
SE,2020-03-01,2248460,600710741,complete,6.6200,1.3300,7.9500
SE,2020-03-01,2248495,600710747,complete,4.1300,0.8200,4.9500
SE,2020-03-01,2248866,600710820,complete,6.6300,1.3200,7.9500
SE,2020-03-01,2248893,600710826,complete,6.6300,1.3200,7.9500
SE,2020-03-01,2249779,1900265807,complete,12.4600,2.4900,14.9500
SE,2020-03-02,2250019,600711029,complete,12.4600,2.4900,14.9500
SE,2020-03-02,2250247,600711093,complete,0.0000,0.0000,
SE,2020-03-02,2250664,600711224,complete,12.4600,2.4900,14.9500
SE,2020-03-03,2251142,2500296974,complete,0.0000,0.0000,
SE,2020-03-03,2251362,600711361,complete,4.1200,0.8300,4.9500
SE,2020-03-03,2251405,600711375,complete,79.1200,15.8300,94.9500
SE,2020-03-03,2251723,600711479,complete,6.6200,1.3300,7.9500
SE,2020-03-03,2251967,600711534,complete,12.4500,2.4900,14.9500
SE,2020-03-04,2252490,1900266201,complete,16.6200,3.3300,19.9500
SE,2020-03-04,2252606,2500297251,complete,0.0000,0.0000,
SE,2020-03-04,2252682,600711680,complete,12.4600,2.4900,14.9500
SE,2020-03-04,2252822,600711722,complete,6.6200,1.3300,7.9500
SE,2020-03-04,2252929,2400656200,complete,0.0000,0.0000,
SE,2020-03-04,2253036,2400656247,complete,6.6600,1.3300,7.9900
SE,2020-03-05,2253713,600711919,complete,12.4500,2.4900,14.9500
SE,2020-03-05,2254230,600712073,complete,6.6200,1.3300,7.9500
SE,2020-03-05,2254305,1900266556,complete,16.6200,3.3300,19.9500
SE,2020-03-05,2254455,600712118,complete,12.4500,2.5000,14.9500
SE,2020-03-05,2254460,600712121,complete,12.4600,2.4900,14.9500
SE,2020-03-05,2254474,1900266576,complete,6.6200,1.3300,7.9500
SE,2020-03-06,2255674,600712403,complete,6.6200,1.3300,7.9500
SE,2020-03-06,2255774,2400657285,complete,3.3200,0.6700,3.9900
SE,2020-03-07,2255925,1900266827,complete,6.6200,1.3300,7.9500
SE,2020-03-07,2256150,1900266875,complete,6.6200,1.3300,7.9500
SE,2020-03-07,2256600,600712597,complete,6.6200,1.3300,7.9500
SE,2020-03-07,2256681,2500297992,complete,4.9600,0.9900,5.9500
SE,2020-03-08,2257044,600712672,complete,12.4500,2.4900,14.9500
SE,2020-03-08,2257281,2500298110,complete,0.0000,0.0000,
SE,2020-03-08,2257433,600712739,complete,12.4600,2.4900,14.9500
SE,2020-03-08,2257524,600712755,complete,6.6200,1.3300,7.9500
SE,2020-03-08,2257779,600712815,processing_return,12.4600,2.4900,14.9500
SE,2020-03-08,2258140,600712892,complete,12.4600,2.4900,14.9500
SE,2020-03-08,2258202,600712905,complete,6.6200,1.3300,7.9500
SE,2020-03-09,2258921,600713066,complete,6.6200,1.3300,7.9500
SE,2020-03-09,2259288,600713169,complete,6.6300,1.3200,7.9500
SE,2020-03-09,2259295,1900267492,complete,12.4600,2.4900,14.9500
SE,2020-03-09,2259641,2400658647,complete,0.0000,0.0000,
SE,2020-03-10,2259919,600713293,complete,0.0000,0.0000,
SE,2020-03-10,2260130,1900267657,complete,6.6200,1.3300,7.9500
SE,2020-03-10,2260488,600713455,complete,12.4600,2.4900,14.9500
SE,2020-03-10,2260522,1900267729,complete,6.6200,1.3300,7.9500
SE,2020-03-11,2261161,600713599,complete,6.6200,1.3300,7.9500
SE,2020-03-11,2261554,2500298956,complete,4.9600,0.9900,5.9500
SE,2020-03-11,2261829,1900267944,complete,6.6200,1.3300,7.9500
SE,2020-03-12,2262114,600713801,complete,6.6200,1.3300,7.9500
SE,2020-03-12,2262126,600713803,complete,6.6200,1.3300,7.9500
SE,2020-03-12,2262280,2500299128,complete,2.0800,0.4100,2.5000
SE,2020-03-12,2262567,600713920,complete,4.1200,0.8300,4.9500
SE,2020-03-13,2263244,600714057,complete,0.0000,0.0000,
SE,2020-03-13,2263258,600714063,complete,12.4500,2.5000,14.9500
SE,2020-03-13,2263552,600714159,complete,12.4600,2.4900,14.9500
SE,2020-03-14,2263986,1900268298,complete,6.6200,1.3300,7.9500
SE,2020-03-14,2263999,600714229,complete,6.6200,1.3300,7.9500
SE,2020-03-14,2264041,600714241,complete,4.1300,0.8200,4.9500
SE,2020-03-14,2264085,600714250,complete,6.6200,1.3300,7.9500
SE,2020-03-14,2264210,2500299575,complete,2.0800,0.4200,2.5000
SE,2020-03-14,2264364,2500299616,complete,0.0000,0.0000,
SE,2020-03-14,2264730,600714406,complete,12.4500,2.4900,14.9500
SE,2020-03-15,2264949,600714442,complete,12.4600,2.4900,14.9500
SE,2020-03-15,2265034,1900268497,complete,6.6200,1.3300,7.9500
SE,2020-03-15,2265105,600714487,complete,12.4500,2.4900,14.9500
SE,2020-03-15,2265115,600714488,complete,6.6200,1.3300,7.9500
SE,2020-03-15,2265504,1900268580,complete,12.4500,2.5000,14.9500
SE,2020-03-16,2265958,1900268676,complete,12.4600,2.4900,14.9500
SE,2020-03-16,2266063,600714693,complete,16.6200,3.3200,19.9500
SE,2020-03-16,2266136,2500300092,complete,2.4600,0.4900,2.9500
SE,2020-03-16,2266426,600714789,complete,6.6200,1.3300,7.9500
SE,2020-03-17,2266792,2400660900,complete,3.3200,0.6700,3.9900
SE,2020-03-17,2266950,1900268845,complete,6.6200,1.3300,7.9500
SE,2020-03-17,2266956,2400660941,complete,8.3200,1.6700,9.9900
SE,2020-03-18,2267462,600715084,complete,6.6200,1.3300,7.9500
SE,2020-03-18,2267744,600715184,complete,4.1300,0.8200,4.9500
SE,2020-03-18,2268022,600715256,complete,6.6200,1.3300,7.9500
SE,2020-03-19,2268228,600715313,complete,6.6200,1.3300,7.9500
SE,2020-03-19,2268354,600715361,complete,6.6200,1.3300,7.9500
SE,2020-03-19,2268827,1900269143,complete,6.6200,1.3300,7.9500
SE,2020-03-20,2269388,600715582,complete,6.6200,1.3300,7.9500
SE,2020-03-20,2269514,600715625,complete,6.6200,1.3300,7.9500
SE,2020-03-20,2269638,600715655,complete,6.6200,1.3300,7.9500
SE,2020-03-20,2269831,600715690,complete,12.4600,2.4900,14.9500
SE,2020-03-21,2270603,600715837,complete,0.0000,0.0000,0.0000
SE,2020-03-21,2270815,600715881,complete,12.4600,2.4900,14.9500
SE,2020-03-21,2270824,1900269416,complete,6.6200,1.3300,7.9500
SE,2020-03-22,2271694,1900269555,complete,6.6200,1.3300,7.9500
SE,2020-03-22,2272065,600716112,complete,12.4600,2.4900,14.9500
SE,2020-03-23,2272704,1900269710,complete,6.6200,1.3300,7.9500
SE,2020-03-23,2272857,600716279,complete,6.6200,1.3300,7.9500
SE,2020-03-23,2273030,1900269744,complete,6.6200,1.3300,7.9500
SE,2020-03-23,2273090,2500302520,complete,0.0000,0.0000,
SE,2020-03-24,2274241,2400662623,complete,0.0000,0.0000,
SE,2020-03-24,2274940,600716661,complete,6.6300,1.3200,7.9500
SE,2020-03-24,2275038,2500303408,complete,14.9600,2.9900,17.9500
SE,2020-03-24,2275050,1900269994,complete,12.4600,2.4900,14.9500
SE,2020-03-25,2275559,600716738,complete,6.6200,1.3300,7.9500
SE,2020-03-25,2275696,2500303709,complete,8.2900,1.6600,9.9500
SE,2020-03-25,2275727,600716781,complete,12.4500,2.4900,14.9500
SE,2020-03-25,2276404,2400663098,complete,0.0000,0.0000,
SE,2020-03-25,2276480,600716921,complete,4.1300,0.8200,4.9500
SE,2020-03-25,2276737,1900270183,complete,4.1300,0.8200,4.9500
SE,2020-03-26,2277287,600717040,complete,6.6200,1.3300,7.9500
SE,2020-03-26,2278209,600717219,complete,12.4500,2.4900,14.9500
SE,2020-03-27,2278749,600717288,complete,16.6200,3.3300,19.9500
SE,2020-03-27,2278828,600717297,complete,12.4600,2.4900,14.9500
SE,2020-03-27,2278895,600717315,complete,6.6200,1.3300,7.9500
SE,2020-03-27,2279004,600717343,complete,6.6200,1.3300,7.9500
SE,2020-03-27,2279802,1900270611,complete,12.4500,2.4900,14.9500
SE,2020-03-27,2279976,2500305610,complete,0.0000,0.0000,
SE,2020-03-27,2279993,1900270644,complete,12.4600,2.4900,14.9500
SE,2020-03-28,2280421,600717580,complete,6.6200,1.3300,7.9500
SE,2020-03-28,2280564,600717605,complete,4.1300,0.8200,4.9500
SE,2020-03-28,2281442,1900270881,complete,6.6300,1.3200,7.9500
SE,2020-03-28,2281468,2400664303,complete,0.0000,0.0000,
SE,2020-03-28,2281484,2500306230,complete,8.2900,1.6600,9.9500
SE,2020-03-29,2282335,2500306592,complete,8.2900,1.6600,9.9500
SE,2020-03-29,2282973,600718030,complete,24.9200,4.9800,29.9000
SE,2020-03-29,2283847,600718201,complete,12.4600,2.4900,14.9500
SE,2020-03-30,2284625,2500307460,complete,0.0000,0.0000,
SE,2020-03-30,2284977,1900271481,complete,6.6300,1.3200,7.9500
SE,2020-03-30,2285502,600718524,complete,6.6200,1.3300,7.9500
SE,2020-03-31,2286280,2400665411,complete,6.6600,1.3300,7.9900
SE,2020-03-31,2286510,600718714,pick_note_printed,0.0000,0.0000,
SE,2020-03-31,2286782,600718783,complete,16.6300,3.3200,19.9500
SE,2020-03-31,2287336,600718860,pick_note_printed,6.6200,1.3300,7.9500
