country_id,created_at,increment_id,entity_id,base_shipping_amount,base_shipping_tax_amount,base_shipping_incl_tax
DE,2021-03-02,24000043739,218042,4.9900,0.0000,4.9900
DE,2021-03-02,24000043740,218052,6.0300,0.9600,6.9900
DE,2021-03-03,24000041954,218286,5.1600,0.8300,5.9900
DE,2021-03-04,24000043224,218453,0.0000,0.0000,0.0000
DE,2021-03-04,24000043797,218465,4.9900,0.0000,4.9900
DE,2021-03-04,24000043227,218470,0.0000,0.0000,0.0000
DE,2021-03-04,24000043799,218476,0.0000,0.0000,0.0000
DE,2021-03-05,24000043812,218637,5.0000,0.0000,5.0000
DE,2021-03-06,24000043272,218851,0.0000,0.0000,0.0000
DE,2021-03-06,24000043854,218854,0.0000,0.0000,0.0000
DE,2021-03-08,24000043856,218872,5.0000,0.0000,5.0000
DE,2021-03-08,24000043293,218878,0.0000,0.0000,0.0000
DE,2021-03-08,24000043857,218885,4.9900,0.0000,4.9900
DE,2021-03-08,24000043858,218886,19.9900,0.0000,19.9900
DE,2021-03-08,24000043859,218888,0.0000,0.0000,0.0000
DE,2021-03-09,24000043882,219036,5.0000,0.0000,5.0000
DE,2021-03-10,24000043884,219039,5.0000,0.0000,5.0000
DE,2021-03-10,24000043885,219040,5.0000,0.0000,5.0000
DE,2021-03-10,24000043915,219169,0.0000,0.0000,0.0000
DE,2021-03-11,24000043921,219200,0.0000,0.0000,0.0000
DE,2021-03-13,24000043929,219364,14.9900,0.0000,14.9900
DE,2021-03-13,24000043930,219436,0.0000,0.0000,0.0000
DE,2021-03-15,24000043932,219438,5.0000,0.0000,5.0000
DE,2021-03-15,24000043336,219457,4.9900,1.0000,5.9900
DE,2021-03-15,24000043972,219496,4.9900,0.0000,4.9900
DE,2021-03-15,24000043347,219505,4.9900,1.0000,5.9900
DE,2021-03-16,24000043354,219566,4.9900,1.0000,5.9900
DE,2021-03-16,24000041961,219580,6.4600,1.0300,7.4900
DE,2021-03-16,24000043373,219712,4.9900,1.0000,5.9900
DE,2021-03-16,6000071341,219749,0.0000,0.0000,0.0000
DE,2021-03-16,24000044009,219763,0.0000,0.0000,0.0000
DE,2021-03-17,24000043392,219777,0.0000,0.0000,0.0000
DE,2021-03-17,24000044033,219803,0.0000,0.0000,0.0000
DE,2021-03-17,24000044043,219851,5.0000,0.0000,5.0000
DE,2021-03-17,24000044044,219852,5.0000,0.0000,5.0000
DE,2021-03-18,24000044047,220057,5.0000,0.0000,5.0000
DE,2021-03-19,24000044049,220074,0.0000,0.0000,0.0000
DE,2021-03-19,24000044053,220081,0.0000,0.0000,0.0000
DE,2021-03-19,24000044054,220082,5.0000,0.0000,5.0000
DE,2021-03-19,24000044058,220105,0.0000,0.0000,0.0000
DE,2021-03-20,24000044062,220340,10.9900,0.0000,10.9900
DE,2021-03-20,24000044063,220341,0.0000,0.0000,0.0000
DE,2021-03-22,6000071856,220373,0.0000,0.0000,0.0000
DE,2021-03-22,24000044064,220379,5.0000,0.0000,5.0000
DE,2021-03-22,24000044067,220390,0.0000,0.0000,0.0000
DE,2021-03-22,24000041968,220391,0.0000,0.0000,0.0000
DE,2021-03-22,24000044068,220393,0.0000,0.0000,0.0000
DE,2021-03-22,24000044069,220394,0.0000,0.0000,0.0000
DE,2021-03-22,24000044070,220396,0.0000,0.0000,0.0000
DE,2021-03-22,24000044072,220398,0.0000,0.0000,0.0000
DE,2021-03-22,24000044073,220399,0.0000,0.0000,0.0000
DE,2021-03-22,24000044074,220400,0.0000,0.0000,0.0000
DE,2021-03-22,24000044103,220445,0.0000,0.0000,0.0000
DE,2021-03-22,24000044142,220493,0.0000,0.0000,0.0000
DE,2021-03-22,24000044145,220496,0.0000,0.0000,0.0000
DE,2021-03-24,24000044184,220598,4.9900,0.0000,4.9900
DE,2021-03-24,24000044218,220892,5.0000,0.0000,5.0000
DE,2021-03-26,24000044221,220971,5.0000,0.0000,5.0000
DE,2021-03-26,24000043489,220972,9.1300,1.8200,10.9500
DE,2021-03-26,24000043490,220973,9.1300,1.8200,10.9500
DE,2021-03-27,6000072325,221100,4.9500,0.0000,4.9500
DE,2021-03-29,6000072394,221172,21.8600,0.0000,21.8600
DE,2021-03-29,6000072395,221173,21.8600,0.0000,21.8600
DE,2021-03-29,24000044238,221186,10.9900,0.0000,10.9900
DE,2021-03-30,24000044295,221353,5.0000,0.0000,5.0000
DE,2021-03-30,24000044296,221355,5.0000,0.0000,5.0000
DE,2021-03-30,24000044297,221356,5.0000,0.0000,5.0000
DE,2021-03-30,24000044298,221357,5.0000,0.0000,5.0000
DE,2021-03-30,24000044299,221358,5.0000,0.0000,5.0000
DE,2021-03-30,24000044300,221359,5.0000,0.0000,5.0000
