country_id,created_at,entity_id,increment_id,status,base_shipping_amount,base_shipping_tax_amount,base_shipping_incl_tax
ES,2020-03-01,2248273,2400654548,complete,0.0000,0.0000,
ES,2020-03-01,2248279,2400654550,complete,0.0000,0.0000,
ES,2020-03-01,2248282,2400654551,complete,0.0000,0.0000,
ES,2020-03-01,2248290,2400654554,complete,0.0000,0.0000,
ES,2020-03-01,2248341,2400654564,complete,0.0000,0.0000,
ES,2020-03-01,2248342,600710720,complete,7.4500,1.5000,8.9500
ES,2020-03-01,2248347,600710722,complete,7.4600,1.4900,8.9500
ES,2020-03-01,2248386,2400654580,complete,0.0000,0.0000,
ES,2020-03-01,2248421,2400654594,complete,0.0000,0.0000,
ES,2020-03-01,2248428,2400654596,complete,0.0000,0.0000,
ES,2020-03-01,2248496,2400654627,complete,0.0000,0.0000,
ES,2020-03-01,2248518,2400654635,complete,0.0000,0.0000,
ES,2020-03-01,2248544,2400654646,complete,0.0000,0.0000,
ES,2020-03-01,2248547,2400654647,complete,0.0000,0.0000,
ES,2020-03-01,2248584,2400654659,complete,0.0000,0.0000,
ES,2020-03-01,2248611,2400654672,complete,0.0000,0.0000,
ES,2020-03-01,2248618,600710767,complete,7.4600,1.4900,8.9500
ES,2020-03-01,2248620,2400654675,complete,0.0000,0.0000,
ES,2020-03-01,2248636,2400654681,complete,5.9400,1.1900,7.1300
ES,2020-03-01,2248653,2400654686,complete,5.9400,1.1900,7.1300
ES,2020-03-01,2248672,2400654695,complete,0.0000,0.0000,
ES,2020-03-01,2248690,2400654701,complete,0.0000,0.0000,
ES,2020-03-01,2248693,2400654702,closed,0.0000,0.0000,
ES,2020-03-01,2248700,2400654706,complete,0.0000,0.0000,
ES,2020-03-01,2248720,2400654711,complete,0.0000,0.0000,
ES,2020-03-01,2248781,2400654730,complete,0.0000,0.0000,
ES,2020-03-01,2248782,2400654731,complete,0.0000,0.0000,
ES,2020-03-01,2248876,2400654768,complete,0.0000,0.0000,
ES,2020-03-01,2248915,2400654782,complete,0.0000,0.0000,
ES,2020-03-01,2249018,2400654814,complete,0.0000,0.0000,
ES,2020-03-01,2249019,2400654815,complete,0.0000,0.0000,
ES,2020-03-01,2249020,2400654816,complete,5.9400,1.1900,7.1300
ES,2020-03-01,2249039,2400654824,complete,0.0000,0.0000,
ES,2020-03-01,2249068,2400654832,complete,5.9400,1.1900,7.1300
ES,2020-03-01,2249074,2400654835,complete,0.0000,0.0000,
ES,2020-03-01,2249223,2400654888,closed,0.0000,0.0000,
ES,2020-03-01,2249236,2400654896,complete,0.0000,0.0000,
ES,2020-03-01,2249291,2400654919,complete,0.0000,0.0000,
ES,2020-03-01,2249321,2400654931,complete,0.0000,0.0000,
ES,2020-03-01,2249358,2400654944,complete,5.9400,1.1900,7.1300
ES,2020-03-01,2249394,2400654957,complete,0.0000,0.0000,
ES,2020-03-01,2249397,2400654958,complete,0.0000,0.0000,
ES,2020-03-01,2249436,2400654975,complete,0.0000,0.0000,
ES,2020-03-01,2249437,2400654976,complete,0.0000,0.0000,
ES,2020-03-01,2249480,2400654990,complete,0.0000,0.0000,
ES,2020-03-01,2249525,2400655000,complete,3.3200,0.6700,3.9900
ES,2020-03-01,2249629,2400655040,complete,0.0000,0.0000,
ES,2020-03-01,2249638,2400655042,complete,0.0000,0.0000,
ES,2020-03-01,2249670,2400655053,complete,0.0000,0.0000,
ES,2020-03-01,2249673,2400655056,complete,0.0000,0.0000,
ES,2020-03-01,2249695,2400655063,complete,5.9400,1.1900,7.1300
ES,2020-03-01,2249723,2400655073,complete,5.9400,1.1900,7.1300
ES,2020-03-01,2249737,2400655080,complete,0.0000,0.0000,
ES,2020-03-01,2249794,2400655101,complete,0.0000,0.0000,
ES,2020-03-01,2249811,2400655105,closed,0.0000,0.0000,
ES,2020-03-01,2249837,2400655113,complete,0.0000,0.0000,
ES,2020-03-02,2249870,2400655125,complete,0.0000,0.0000,
ES,2020-03-02,2249909,2400655133,complete,5.9400,1.1900,7.1300
ES,2020-03-02,2249933,2400655142,complete,0.0000,0.0000,
ES,2020-03-02,2249947,2400655149,complete,0.0000,0.0000,
ES,2020-03-02,2249973,2400655162,complete,0.0000,0.0000,
ES,2020-03-02,2249978,2400655164,closed,0.0000,0.0000,
ES,2020-03-02,2250020,1900265843,complete,13.2900,2.6600,15.9500
ES,2020-03-02,2250030,2400655180,complete,0.0000,0.0000,
ES,2020-03-02,2250031,2400655181,complete,0.0000,0.0000,
ES,2020-03-02,2250085,2400655196,complete,0.0000,0.0000,
ES,2020-03-02,2250103,2400655204,complete,0.0000,0.0000,
ES,2020-03-02,2250133,2400655217,complete,0.0000,0.0000,
ES,2020-03-02,2250192,2400655241,complete,0.0000,0.0000,
ES,2020-03-02,2250228,2400655252,complete,0.0000,0.0000,
ES,2020-03-02,2250239,2400655257,complete,0.0000,0.0000,
ES,2020-03-02,2250267,2400655263,complete,0.0000,0.0000,
ES,2020-03-02,2250297,2400655266,complete,0.0000,0.0000,
ES,2020-03-02,2250316,2400655273,complete,0.0000,0.0000,
ES,2020-03-02,2250323,2400655276,complete,0.0000,0.0000,
ES,2020-03-02,2250327,2400655278,complete,0.0000,0.0000,
ES,2020-03-02,2250330,2400655279,complete,0.0000,0.0000,
ES,2020-03-02,2250333,2400655281,complete,0.0000,0.0000,
ES,2020-03-02,2250371,2400655300,complete,0.0000,0.0000,
ES,2020-03-02,2250372,2400655301,complete,0.0000,0.0000,
ES,2020-03-02,2250397,2400655313,complete,5.5600,1.1100,6.6700
ES,2020-03-02,2250404,2400655317,complete,0.0000,0.0000,
ES,2020-03-02,2250407,2400655318,complete,0.0000,0.0000,
ES,2020-03-02,2250436,2400655326,complete,0.0000,0.0000,
ES,2020-03-02,2250441,2400655327,complete,0.0000,0.0000,
ES,2020-03-02,2250498,2400655345,complete,0.0000,0.0000,
ES,2020-03-02,2250507,2400655349,complete,0.0000,0.0000,
ES,2020-03-02,2250508,2400655350,complete,0.0000,0.0000,
ES,2020-03-02,2250509,2400655351,complete,5.5600,1.1100,6.6700
ES,2020-03-02,2250581,2400655372,complete,5.5600,1.1100,6.6700
ES,2020-03-02,2250609,2400655385,closed,0.0000,0.0000,
ES,2020-03-02,2250632,2400655395,complete,0.0000,0.0000,
ES,2020-03-02,2250633,2400655396,closed,0.0000,0.0000,
ES,2020-03-02,2250644,2400655404,complete,0.0000,0.0000,
ES,2020-03-02,2250680,2400655420,complete,0.0000,0.0000,
ES,2020-03-02,2250726,2400655441,complete,0.0000,0.0000,
ES,2020-03-02,2250811,2400655473,complete,0.0000,0.0000,
ES,2020-03-02,2250843,2400655483,complete,0.0000,0.0000,
ES,2020-03-02,2250865,2400655492,complete,0.0000,0.0000,
ES,2020-03-02,2250898,2400655500,complete,0.0000,0.0000,
ES,2020-03-02,2250912,2400655502,complete,0.0000,0.0000,
ES,2020-03-02,2250915,2400655503,closed,0.0000,0.0000,
ES,2020-03-02,2250932,2400655507,complete,0.0000,0.0000,
ES,2020-03-02,2250948,2400655514,complete,5.5600,1.1100,6.6700
ES,2020-03-02,2250955,2400655517,complete,0.0000,0.0000,
ES,2020-03-02,2250958,2400655518,complete,0.0000,0.0000,
ES,2020-03-02,2250977,2400655523,complete,0.0000,0.0000,
ES,2020-03-02,2250990,2400655529,complete,0.0000,0.0000,
ES,2020-03-02,2251017,2400655537,complete,0.0000,0.0000,
ES,2020-03-02,2251018,2400655538,complete,0.0000,0.0000,
ES,2020-03-02,2251033,2400655542,complete,0.0000,0.0000,
ES,2020-03-02,2251037,2400655544,complete,0.0000,0.0000,
ES,2020-03-02,2251046,2400655547,complete,7.4200,1.4900,8.9100
ES,2020-03-02,2251050,2400655551,complete,0.0000,0.0000,
ES,2020-03-02,2251066,2400655556,complete,0.0000,0.0000,
ES,2020-03-02,2251077,2400655559,complete,0.0000,0.0000,
ES,2020-03-03,2251114,2400655571,complete,0.0000,0.0000,
ES,2020-03-03,2251121,2400655573,complete,0.0000,0.0000,
ES,2020-03-03,2251127,2400655575,closed,0.0000,0.0000,
ES,2020-03-03,2251130,2400655576,complete,0.0000,0.0000,
ES,2020-03-03,2251141,600711308,complete,13.2900,2.6600,15.9500
ES,2020-03-03,2251156,600711312,complete,7.4600,1.4900,8.9500
ES,2020-03-03,2251181,2400655583,complete,0.0000,0.0000,
ES,2020-03-03,2251189,2400655586,complete,0.0000,0.0000,
ES,2020-03-03,2251191,2400655587,complete,0.0000,0.0000,
ES,2020-03-03,2251216,2400655594,complete,5.5600,1.1100,6.6700
ES,2020-03-03,2251239,2400655604,closed,0.0000,0.0000,
ES,2020-03-03,2251242,2400655605,complete,0.0000,0.0000,
ES,2020-03-03,2251268,2400655616,complete,0.0000,0.0000,
ES,2020-03-03,2251269,2400655617,complete,0.0000,0.0000,
ES,2020-03-03,2251280,2400655620,complete,0.0000,0.0000,
ES,2020-03-03,2251303,2400655626,complete,0.0000,0.0000,
ES,2020-03-03,2251314,2400655631,complete,0.0000,0.0000,
ES,2020-03-03,2251316,2400655633,complete,0.0000,0.0000,
ES,2020-03-03,2251326,2400655636,complete,0.0000,0.0000,
ES,2020-03-03,2251331,2400655640,complete,0.0000,0.0000,
ES,2020-03-03,2251337,2400655641,complete,0.0000,0.0000,
ES,2020-03-03,2251350,2400655644,complete,0.0000,0.0000,
ES,2020-03-03,2251368,2400655649,complete,0.0000,0.0000,
ES,2020-03-03,2251435,2400655666,complete,0.0000,0.0000,
ES,2020-03-03,2251444,2400655670,complete,0.0000,0.0000,
ES,2020-03-03,2251451,2400655673,closed,0.0000,0.0000,
ES,2020-03-03,2251476,2400655682,complete,0.0000,0.0000,
ES,2020-03-03,2251479,2400655684,complete,5.5600,1.1100,6.6700
ES,2020-03-03,2251526,2400655699,complete,0.0000,0.0000,
ES,2020-03-03,2251527,600711417,complete,0.0000,0.0000,
ES,2020-03-03,2251598,2400655722,complete,0.0000,0.0000,
ES,2020-03-03,2251679,2400655744,complete,0.0000,0.0000,
ES,2020-03-03,2251684,2400655748,complete,0.0000,0.0000,
ES,2020-03-03,2251719,2400655755,complete,5.5600,1.1100,6.6700
ES,2020-03-03,2251746,2400655764,complete,0.0000,0.0000,
ES,2020-03-03,2251753,2400655767,complete,0.0000,0.0000,
ES,2020-03-03,2251770,2400655776,complete,0.0000,0.0000,
ES,2020-03-03,2251780,2400655783,complete,0.0000,0.0000,
ES,2020-03-03,2251786,2400655785,complete,0.0000,0.0000,
ES,2020-03-03,2251794,2400655788,complete,0.0000,0.0000,
ES,2020-03-03,2251800,2400655791,complete,0.0000,0.0000,
ES,2020-03-03,2251832,2400655800,complete,0.0000,0.0000,
ES,2020-03-03,2251839,2400655804,complete,0.0000,0.0000,
ES,2020-03-03,2251860,2400655813,complete,0.0000,0.0000,
ES,2020-03-03,2251884,2400655820,complete,0.0000,0.0000,
ES,2020-03-03,2251918,2400655835,complete,0.0000,0.0000,
ES,2020-03-03,2251927,2400655839,complete,0.0000,0.0000,
ES,2020-03-03,2251970,2400655854,complete,0.0000,0.0000,
ES,2020-03-03,2251987,2400655858,complete,0.0000,0.0000,
ES,2020-03-03,2252004,2400655869,complete,0.0000,0.0000,
ES,2020-03-03,2252009,2400655871,complete,0.0000,0.0000,
ES,2020-03-03,2252016,2400655873,complete,0.0000,0.0000,
ES,2020-03-03,2252017,2400655874,complete,0.0000,0.0000,
ES,2020-03-03,2252021,2400655875,complete,0.0000,0.0000,
ES,2020-03-03,2252033,2400655877,complete,0.0000,0.0000,
ES,2020-03-03,2252034,2400655878,complete,0.0000,0.0000,
ES,2020-03-03,2252035,2400655879,complete,0.0000,0.0000,
ES,2020-03-03,2252036,2400655880,complete,0.0000,0.0000,
ES,2020-03-03,2252058,800039442,complete,8.3300,1.6700,10.0000
ES,2020-03-03,2252091,2400655901,complete,5.5600,1.1100,6.6700
ES,2020-03-03,2252113,2400655909,complete,0.0000,0.0000,
ES,2020-03-03,2252148,2400655924,complete,0.0000,0.0000,
ES,2020-03-03,2252158,2400655927,complete,0.0000,0.0000,
ES,2020-03-03,2252166,2400655933,complete,0.0000,0.0000,
ES,2020-03-03,2252233,2500297178,complete,0.0000,0.0000,
ES,2020-03-03,2252246,2400655957,complete,0.0000,0.0000,
ES,2020-03-03,2252271,2400655966,complete,0.0000,0.0000,
ES,2020-03-03,2252284,2400655971,complete,0.0000,0.0000,
ES,2020-03-03,2252289,2400655972,complete,0.0000,0.0000,
ES,2020-03-03,2252318,2400655986,complete,0.0000,0.0000,
ES,2020-03-03,2252351,2400656000,complete,5.5600,1.1100,6.6700
ES,2020-03-03,2252355,2400656002,complete,5.5600,1.1100,6.6700
ES,2020-03-03,2252364,2400656008,complete,0.0000,0.0000,
ES,2020-03-03,2252385,2400656020,complete,0.0000,0.0000,
ES,2020-03-03,2252392,2400656022,complete,0.0000,0.0000,
ES,2020-03-04,2252406,2400656026,complete,5.5600,1.1100,6.6700
ES,2020-03-04,2252420,2400656028,complete,0.0000,0.0000,
ES,2020-03-04,2252433,2400656032,closed,0.0000,0.0000,
ES,2020-03-04,2252437,2400656034,complete,0.0000,0.0000,
ES,2020-03-04,2252472,2400656042,complete,0.0000,0.0000,
ES,2020-03-04,2252552,2400656062,complete,0.0000,0.0000,
ES,2020-03-04,2252563,2400656066,complete,0.0000,0.0000,
ES,2020-03-04,2252566,2400656069,complete,0.0000,0.0000,
ES,2020-03-04,2252569,2400656071,complete,7.4200,1.4900,8.9100
ES,2020-03-04,2252576,2400656074,complete,0.0000,0.0000,
ES,2020-03-04,2252643,2400656096,complete,0.0000,0.0000,
ES,2020-03-04,2252660,2400656102,complete,0.0000,0.0000,
ES,2020-03-04,2252714,2400656123,complete,5.5600,1.1100,6.6700
ES,2020-03-04,2252719,2400656126,complete,0.0000,0.0000,
ES,2020-03-04,2252755,2400656140,complete,0.0000,0.0000,
ES,2020-03-04,2252799,2400656158,closed,0.0000,0.0000,
ES,2020-03-04,2252816,2400656163,complete,0.0000,0.0000,
ES,2020-03-04,2252825,600711724,complete,7.4500,1.5000,8.9500
ES,2020-03-04,2252869,2400656179,complete,0.0000,0.0000,
ES,2020-03-04,2252875,2400656181,complete,0.0000,0.0000,
ES,2020-03-04,2252904,2400656190,complete,0.0000,0.0000,
ES,2020-03-04,2252934,2400656204,complete,0.0000,0.0000,
ES,2020-03-04,2252938,2400656206,complete,0.0000,0.0000,
ES,2020-03-04,2252951,2400656214,complete,0.0000,0.0000,
ES,2020-03-04,2252972,2400656224,complete,0.0000,0.0000,
ES,2020-03-04,2252987,2400656230,complete,0.0000,0.0000,
ES,2020-03-04,2253001,2400656238,complete,0.0000,0.0000,
ES,2020-03-04,2253099,2400656275,complete,0.0000,0.0000,
ES,2020-03-04,2253126,2400656283,complete,5.5600,1.1100,6.6700
ES,2020-03-04,2253128,1900266362,complete,7.4600,1.4900,8.9500
ES,2020-03-04,2253157,2400656303,complete,0.0000,0.0000,
ES,2020-03-04,2253158,2400656304,complete,0.0000,0.0000,
ES,2020-03-04,2253159,2400656305,complete,0.0000,0.0000,
ES,2020-03-04,2253161,600711820,complete,4.1200,0.8200,4.9500
ES,2020-03-04,2253173,2400656313,complete,5.5600,1.1100,6.6700
ES,2020-03-04,2253196,2400656322,complete,0.0000,0.0000,
ES,2020-03-04,2253204,2400656324,complete,0.0000,0.0000,
ES,2020-03-04,2253205,2400656325,complete,0.0000,0.0000,
ES,2020-03-04,2253209,2400656326,complete,0.0000,0.0000,
ES,2020-03-04,2253224,2400656336,complete,0.0000,0.0000,
ES,2020-03-04,2253225,2400656337,closed,0.0000,0.0000,
ES,2020-03-04,2253235,2400656343,complete,0.0000,0.0000,
ES,2020-03-04,2253332,2400656378,complete,0.0000,0.0000,
ES,2020-03-04,2253348,2400656382,complete,0.0000,0.0000,
ES,2020-03-04,2253367,2400656391,complete,5.5600,1.1100,6.6700
ES,2020-03-04,2253388,2400656401,complete,0.0000,0.0000,
ES,2020-03-04,2253424,2400656419,complete,0.0000,0.0000,
ES,2020-03-04,2253444,2400656428,complete,0.0000,0.0000,
ES,2020-03-04,2253490,2400656444,complete,0.0000,0.0000,
ES,2020-03-04,2253495,2400656447,complete,0.0000,0.0000,
ES,2020-03-04,2253507,2400656450,complete,0.0000,0.0000,
ES,2020-03-04,2253531,2400656462,complete,0.0000,0.0000,
ES,2020-03-04,2253532,2400656463,complete,0.0000,0.0000,
ES,2020-03-04,2253544,2400656466,complete,0.0000,0.0000,
ES,2020-03-04,2253552,2400656470,complete,0.0000,0.0000,
ES,2020-03-04,2253553,2400656471,complete,0.0000,0.0000,
ES,2020-03-04,2253560,2400656474,complete,0.0000,0.0000,
ES,2020-03-04,2253562,2400656475,complete,0.0000,0.0000,
ES,2020-03-04,2253572,2400656480,complete,0.0000,0.0000,
ES,2020-03-05,2253590,2400656485,complete,0.0000,0.0000,
ES,2020-03-05,2253628,2400656493,complete,0.0000,0.0000,
ES,2020-03-05,2253691,2400656518,complete,0.0000,0.0000,
ES,2020-03-05,2253699,2400656520,complete,0.0000,0.0000,
ES,2020-03-05,2253755,2400656548,complete,0.0000,0.0000,
ES,2020-03-05,2253768,2400656552,complete,5.5600,1.1100,6.6700
ES,2020-03-05,2253771,2400656553,complete,0.0000,0.0000,
ES,2020-03-05,2253781,2400656558,complete,0.0000,0.0000,
ES,2020-03-05,2253787,600711936,complete,0.0000,0.0000,
ES,2020-03-05,2253804,2400656563,complete,0.0000,0.0000,
ES,2020-03-05,2253810,2400656566,complete,0.0000,0.0000,
ES,2020-03-05,2253821,2400656570,complete,0.0000,0.0000,
ES,2020-03-05,2253908,2400656599,complete,0.0000,0.0000,
ES,2020-03-05,2253934,2400656609,complete,0.0000,0.0000,
ES,2020-03-05,2253996,2400656636,complete,0.0000,0.0000,
ES,2020-03-05,2254005,2400656642,complete,0.0000,0.0000,
ES,2020-03-05,2254019,2400656646,complete,5.5600,1.1100,6.6700
ES,2020-03-05,2254050,2400656655,complete,0.0000,0.0000,
ES,2020-03-05,2254054,2400656656,closed,0.0000,0.0000,
ES,2020-03-05,2254072,2400656660,complete,0.0000,0.0000,
ES,2020-03-05,2254087,2400656665,complete,0.0000,0.0000,
ES,2020-03-05,2254128,2400656678,complete,0.0000,0.0000,
ES,2020-03-05,2254153,2400656691,complete,0.0000,0.0000,
ES,2020-03-05,2254168,2400656699,complete,0.0000,0.0000,
ES,2020-03-05,2254180,2400656705,complete,0.0000,0.0000,
ES,2020-03-05,2254181,600712057,complete,0.0000,0.0000,
ES,2020-03-05,2254202,2400656716,complete,0.0000,0.0000,
ES,2020-03-05,2254203,2400656717,complete,0.0000,0.0000,
ES,2020-03-05,2254277,2400656740,complete,0.0000,0.0000,
ES,2020-03-05,2254278,2400656741,complete,0.0000,0.0000,
ES,2020-03-05,2254300,2400656746,complete,0.0000,0.0000,
ES,2020-03-05,2254362,2400656773,complete,0.0000,0.0000,
ES,2020-03-05,2254363,2400656774,complete,0.0000,0.0000,
ES,2020-03-05,2254364,2400656775,complete,0.0000,0.0000,
ES,2020-03-05,2254365,2400656776,complete,0.0000,0.0000,
ES,2020-03-05,2254366,2400656777,complete,0.0000,0.0000,
ES,2020-03-05,2254367,2400656778,complete,0.0000,0.0000,
ES,2020-03-05,2254368,2400656779,complete,0.0000,0.0000,
ES,2020-03-05,2254369,2400656780,complete,0.0000,0.0000,
ES,2020-03-05,2254386,2400656784,complete,0.0000,0.0000,
ES,2020-03-05,2254414,2400656795,complete,0.0000,0.0000,
ES,2020-03-05,2254459,600712120,complete,4.1200,0.8200,4.9500
ES,2020-03-05,2254507,2400656833,complete,0.0000,0.0000,
ES,2020-03-05,2254522,2400656841,complete,0.0000,0.0000,
ES,2020-03-05,2254529,2400656842,complete,0.0000,0.0000,
ES,2020-03-05,2254547,2400656849,complete,0.0000,0.0000,
ES,2020-03-05,2254554,2400656853,complete,0.0000,0.0000,
ES,2020-03-05,2254570,600712140,complete,4.1200,0.8300,4.9500
ES,2020-03-05,2254578,2400656863,complete,0.0000,0.0000,
ES,2020-03-05,2254590,2400656867,complete,0.0000,0.0000,
ES,2020-03-05,2254623,2400656882,complete,0.0000,0.0000,
ES,2020-03-05,2254688,2400656907,complete,0.0000,0.0000,
ES,2020-03-05,2254693,2400656908,complete,0.0000,0.0000,
ES,2020-03-05,2254697,2400656910,complete,0.0000,0.0000,
ES,2020-03-05,2254700,2400656912,complete,0.0000,0.0000,
ES,2020-03-05,2254704,2400656915,complete,0.0000,0.0000,
ES,2020-03-05,2254716,2400656919,complete,0.0000,0.0000,
ES,2020-03-05,2254723,2400656921,complete,0.0000,0.0000,
ES,2020-03-05,2254729,2400656924,complete,0.0000,0.0000,
ES,2020-03-05,2254732,2400656925,complete,0.0000,0.0000,
ES,2020-03-06,2254751,2400656934,complete,0.0000,0.0000,
ES,2020-03-06,2254753,2400656935,complete,0.0000,0.0000,
ES,2020-03-06,2254761,2400656939,complete,0.0000,0.0000,
ES,2020-03-06,2254767,2400656942,complete,7.4200,1.4900,8.9100
ES,2020-03-06,2254768,2400656943,complete,0.0000,0.0000,
ES,2020-03-06,2254827,2400656956,complete,0.0000,0.0000,
ES,2020-03-06,2254830,2400656958,closed,0.0000,0.0000,
ES,2020-03-06,2254837,2400656960,complete,0.0000,0.0000,
ES,2020-03-06,2254873,2400656966,complete,0.0000,0.0000,
ES,2020-03-06,2254885,2400656969,complete,0.0000,0.0000,
ES,2020-03-06,2254895,2400656973,complete,0.0000,0.0000,
ES,2020-03-06,2254958,2400656998,complete,0.0000,0.0000,
ES,2020-03-06,2254986,2400657011,complete,0.0000,0.0000,
ES,2020-03-06,2255012,600712207,complete,0.0000,0.0000,
ES,2020-03-06,2255014,2400657018,closed,0.0000,0.0000,
ES,2020-03-06,2255025,600712213,complete,0.0000,0.0000,
ES,2020-03-06,2255034,600712215,complete,0.0000,0.0000,
ES,2020-03-06,2255042,2400657028,complete,5.5600,1.1100,6.6700
ES,2020-03-06,2255101,2400657042,complete,0.0000,0.0000,
ES,2020-03-06,2255116,2400657049,complete,5.5600,1.1100,6.6700
ES,2020-03-06,2255131,2400657056,complete,0.0000,0.0000,
ES,2020-03-06,2255158,2400657068,complete,0.0000,0.0000,
ES,2020-03-06,2255203,2400657083,complete,0.0000,0.0000,
ES,2020-03-06,2255206,2400657085,complete,0.0000,0.0000,
ES,2020-03-06,2255265,2400657102,complete,0.0000,0.0000,
ES,2020-03-06,2255293,2400657112,complete,0.0000,0.0000,
ES,2020-03-06,2255313,2400657123,complete,0.0000,0.0000,
ES,2020-03-06,2255325,2400657127,complete,0.0000,0.0000,
ES,2020-03-06,2255327,2400657128,complete,0.0000,0.0000,
ES,2020-03-06,2255343,2400657131,complete,0.0000,0.0000,
ES,2020-03-06,2255419,2400657156,complete,0.0000,0.0000,
ES,2020-03-06,2255450,2400657170,complete,0.0000,0.0000,
ES,2020-03-06,2255451,2400657171,complete,0.0000,0.0000,
ES,2020-03-06,2255463,2400657175,complete,0.0000,0.0000,
ES,2020-03-06,2255475,2400657180,complete,0.0000,0.0000,
ES,2020-03-06,2255485,2400657183,complete,0.0000,0.0000,
ES,2020-03-06,2255486,2400657184,complete,0.0000,0.0000,
ES,2020-03-06,2255502,2400657194,complete,0.0000,0.0000,
ES,2020-03-06,2255525,2400657200,complete,0.0000,0.0000,
ES,2020-03-06,2255551,2400657211,complete,0.0000,0.0000,
ES,2020-03-06,2255655,2500297781,complete,4.9600,0.9900,5.9500
ES,2020-03-06,2255660,2400657240,complete,0.0000,0.0000,
ES,2020-03-06,2255675,2400657246,complete,0.0000,0.0000,
ES,2020-03-06,2255700,2400657252,complete,0.0000,0.0000,
ES,2020-03-06,2255716,2400657257,complete,0.0000,0.0000,
ES,2020-03-06,2255727,2400657259,complete,0.0000,0.0000,
ES,2020-03-06,2255735,2400657264,complete,0.0000,0.0000,
ES,2020-03-06,2255739,2400657266,complete,0.0000,0.0000,
ES,2020-03-06,2255782,2400657289,complete,0.0000,0.0000,
ES,2020-03-07,2255796,2400657293,complete,0.0000,0.0000,
ES,2020-03-07,2255810,2400657300,complete,0.0000,0.0000,
ES,2020-03-07,2255867,2400657310,complete,0.0000,0.0000,
ES,2020-03-07,2255931,2400657328,complete,0.0000,0.0000,
ES,2020-03-07,2255972,2400657344,complete,0.0000,0.0000,
ES,2020-03-07,2255976,2400657347,complete,6.6800,1.3300,8.0200
ES,2020-03-07,2255982,2400657349,complete,0.0000,0.0000,
ES,2020-03-07,2256001,2400657353,complete,0.0000,0.0000,
ES,2020-03-07,2256055,2400657372,complete,0.0000,0.0000,
ES,2020-03-07,2256091,2400657382,complete,0.0000,0.0000,
ES,2020-03-07,2256102,2400657387,complete,0.0000,0.0000,
ES,2020-03-07,2256108,2400657389,complete,0.0000,0.0000,
ES,2020-03-07,2256123,2400657397,complete,5.5600,1.1100,6.6700
ES,2020-03-07,2256134,2400657401,complete,0.0000,0.0000,
ES,2020-03-07,2256151,2400657409,complete,0.0000,0.0000,
ES,2020-03-07,2256175,2400657417,complete,0.0000,0.0000,
ES,2020-03-07,2256190,2400657419,closed,0.0000,0.0000,
ES,2020-03-07,2256213,2400657427,complete,0.0000,0.0000,
ES,2020-03-07,2256229,2400657431,complete,0.0000,0.0000,
ES,2020-03-07,2256230,2400657432,complete,0.0000,0.0000,
ES,2020-03-07,2256239,600712518,complete,13.2900,2.6600,15.9500
ES,2020-03-07,2256259,2400657445,complete,5.5600,1.1100,6.6700
ES,2020-03-07,2256324,2400657474,complete,0.0000,0.0000,
ES,2020-03-07,2256334,2500297921,complete,0.0000,0.0000,
ES,2020-03-07,2256339,2400657477,complete,0.0000,0.0000,
ES,2020-03-07,2256378,2400657487,complete,0.0000,0.0000,
ES,2020-03-07,2256461,2400657522,complete,0.0000,0.0000,
ES,2020-03-07,2256464,2400657524,complete,0.0000,0.0000,
ES,2020-03-07,2256494,2400657532,complete,0.0000,0.0000,
ES,2020-03-07,2256495,2400657533,complete,0.0000,0.0000,
ES,2020-03-07,2256514,2400657542,complete,0.0000,0.0000,
ES,2020-03-07,2256531,2400657547,complete,0.0000,0.0000,
ES,2020-03-07,2256545,2400657554,complete,0.0000,0.0000,
ES,2020-03-07,2256617,2400657584,complete,0.0000,0.0000,
ES,2020-03-07,2256687,2400657610,complete,0.0000,0.0000,
ES,2020-03-07,2256799,2400657643,complete,0.0000,0.0000,
ES,2020-03-07,2256913,2400657684,complete,0.0000,0.0000,
ES,2020-03-07,2256926,2400657687,complete,0.0000,0.0000,
ES,2020-03-08,2256945,2400657693,complete,0.0000,0.0000,
ES,2020-03-08,2256955,2400657695,complete,0.0000,0.0000,
ES,2020-03-08,2256979,2400657700,complete,0.0000,0.0000,
ES,2020-03-08,2256993,2400657704,complete,0.0000,0.0000,
ES,2020-03-08,2257008,2400657706,complete,0.0000,0.0000,
ES,2020-03-08,2257036,2400657713,complete,0.0000,0.0000,
ES,2020-03-08,2257082,2400657728,complete,0.0000,0.0000,
ES,2020-03-08,2257145,2400657753,complete,0.0000,0.0000,
ES,2020-03-08,2257171,2400657767,complete,0.0000,0.0000,
ES,2020-03-08,2257199,2400657780,complete,0.0000,0.0000,
ES,2020-03-08,2257255,2400657801,complete,0.0000,0.0000,
ES,2020-03-08,2257269,2400657811,complete,0.0000,0.0000,
ES,2020-03-08,2257323,2400657833,complete,0.0000,0.0000,
ES,2020-03-08,2257336,2400657841,complete,0.0000,0.0000,
ES,2020-03-08,2257338,2400657842,complete,0.0000,0.0000,
ES,2020-03-08,2257350,2400657845,complete,0.0000,0.0000,
ES,2020-03-08,2257362,2400657849,complete,0.0000,0.0000,
ES,2020-03-08,2257371,2400657853,complete,0.0000,0.0000,
ES,2020-03-08,2257381,2400657856,complete,0.0000,0.0000,
ES,2020-03-08,2257390,2400657861,closed,0.0000,0.0000,
ES,2020-03-08,2257415,2400657868,complete,5.5600,1.1100,6.6700
ES,2020-03-08,2257418,2400657870,complete,0.0000,0.0000,
ES,2020-03-08,2257424,2400657872,complete,0.0000,0.0000,
ES,2020-03-08,2257460,2400657886,closed,0.0000,0.0000,
ES,2020-03-08,2257558,2400657919,complete,0.0000,0.0000,
ES,2020-03-08,2257597,2400657934,complete,0.0000,0.0000,
ES,2020-03-08,2257603,2400657938,complete,0.0000,0.0000,
ES,2020-03-08,2257618,2400657941,complete,0.0000,0.0000,
ES,2020-03-08,2257685,2400657960,complete,0.0000,0.0000,
ES,2020-03-08,2257688,2400657961,complete,0.0000,0.0000,
ES,2020-03-08,2257750,2400657982,complete,0.0000,0.0000,
ES,2020-03-08,2257758,2400657983,complete,5.5600,1.1100,6.6700
ES,2020-03-08,2257772,2400657989,closed,0.0000,0.0000,
ES,2020-03-08,2257809,2400657997,complete,0.0000,0.0000,
ES,2020-03-08,2257844,2400658008,complete,0.0000,0.0000,
ES,2020-03-08,2257899,2500298249,complete,0.0000,0.0000,
ES,2020-03-08,2257924,2400658041,complete,0.0000,0.0000,
ES,2020-03-08,2258015,2400658077,complete,0.0000,0.0000,
ES,2020-03-08,2258030,2400658084,complete,0.0000,0.0000,
ES,2020-03-08,2258044,2400658087,complete,0.0000,0.0000,
ES,2020-03-08,2258080,2400658097,complete,0.0000,0.0000,
ES,2020-03-08,2258093,2400658100,complete,0.0000,0.0000,
ES,2020-03-08,2258189,2400658134,complete,0.0000,0.0000,
ES,2020-03-08,2258213,2400658143,complete,0.0000,0.0000,
ES,2020-03-08,2258230,2400658148,complete,0.0000,0.0000,
ES,2020-03-08,2258245,2400658155,complete,0.0000,0.0000,
ES,2020-03-08,2258349,2400658195,complete,0.0000,0.0000,
ES,2020-03-08,2258388,2400658210,complete,0.0000,0.0000,
ES,2020-03-09,2258435,2400658231,complete,0.0000,0.0000,
ES,2020-03-09,2258497,2400658249,complete,0.0000,0.0000,
ES,2020-03-09,2258510,2400658250,complete,0.0000,0.0000,
ES,2020-03-09,2258535,2400658259,complete,0.0000,0.0000,
ES,2020-03-09,2258577,2400658277,complete,0.0000,0.0000,
ES,2020-03-09,2258602,2400658283,complete,0.0000,0.0000,
ES,2020-03-09,2258659,2400658302,complete,0.0000,0.0000,
ES,2020-03-09,2258663,2400658304,complete,0.0000,0.0000,
ES,2020-03-09,2258676,2400658312,complete,0.0000,0.0000,
ES,2020-03-09,2258747,2400658336,complete,0.0000,0.0000,
ES,2020-03-09,2258749,2400658337,complete,0.0000,0.0000,
ES,2020-03-09,2258759,2400658340,complete,5.5600,1.1100,6.6700
ES,2020-03-09,2258786,2400658349,complete,0.0000,0.0000,
ES,2020-03-09,2258810,2400658357,complete,0.0000,0.0000,
ES,2020-03-09,2258844,2400658368,complete,0.0000,0.0000,
ES,2020-03-09,2258845,2400658369,complete,0.0000,0.0000,
ES,2020-03-09,2258920,2400658395,complete,0.0000,0.0000,
ES,2020-03-09,2258936,2400658398,complete,0.0000,0.0000,
ES,2020-03-09,2258944,2400658400,complete,0.0000,0.0000,
ES,2020-03-09,2258996,2400658421,complete,0.0000,0.0000,
ES,2020-03-09,2259033,1900267440,complete,7.4500,1.5000,8.9500
ES,2020-03-09,2259078,2400658448,complete,0.0000,0.0000,
ES,2020-03-09,2259081,2400658449,complete,0.0000,0.0000,
ES,2020-03-09,2259119,2400658461,complete,0.0000,0.0000,
ES,2020-03-09,2259120,2400658462,complete,0.0000,0.0000,
ES,2020-03-09,2259135,2400658469,complete,0.0000,0.0000,
ES,2020-03-09,2259141,2400658472,complete,0.0000,0.0000,
ES,2020-03-09,2259161,2400658478,complete,0.0000,0.0000,
ES,2020-03-09,2259174,2400658480,closed,0.0000,0.0000,
ES,2020-03-09,2259192,2600034536,complete,3.9900,0.8000,4.7900
ES,2020-03-09,2259195,2400658486,complete,0.0000,0.0000,
ES,2020-03-09,2259241,2400658505,closed,0.0000,0.0000,
ES,2020-03-09,2259303,2400658527,complete,0.0000,0.0000,
ES,2020-03-09,2259328,2400658532,complete,0.0000,0.0000,
ES,2020-03-09,2259367,2400658549,closed,0.0000,0.0000,
ES,2020-03-09,2259371,2400658550,complete,0.0000,0.0000,
ES,2020-03-09,2259378,2400658554,complete,0.0000,0.0000,
ES,2020-03-09,2259390,2400658560,complete,0.0000,0.0000,
ES,2020-03-09,2259395,2400658561,complete,0.0000,0.0000,
ES,2020-03-09,2259397,2400658562,complete,0.0000,0.0000,
ES,2020-03-09,2259401,2400658565,complete,0.0000,0.0000,
ES,2020-03-09,2259412,2400658570,complete,0.0000,0.0000,
ES,2020-03-09,2259430,2400658578,complete,0.0000,0.0000,
ES,2020-03-09,2259541,2400658613,complete,0.0000,0.0000,
ES,2020-03-09,2259615,2400658638,complete,0.0000,0.0000,
ES,2020-03-09,2259665,2400658656,complete,0.0000,0.0000,
ES,2020-03-09,2259669,2400658659,complete,0.0000,0.0000,
ES,2020-03-09,2259675,2400658662,closed,0.0000,0.0000,
ES,2020-03-09,2259684,2400658666,complete,0.0000,0.0000,
ES,2020-03-09,2259686,2400658668,complete,0.0000,0.0000,
ES,2020-03-10,2259695,2400658670,complete,0.0000,0.0000,
ES,2020-03-10,2259705,2400658673,complete,0.0000,0.0000,
ES,2020-03-10,2259706,2400658674,closed,7.4200,1.4900,8.9100
ES,2020-03-10,2259721,2400658680,complete,0.0000,0.0000,
ES,2020-03-10,2259739,2400658686,complete,0.0000,0.0000,
ES,2020-03-10,2259792,2400658699,complete,0.0000,0.0000,
ES,2020-03-10,2259805,2400658702,complete,0.0000,0.0000,
ES,2020-03-10,2259809,2400658703,complete,0.0000,0.0000,
ES,2020-03-10,2259828,2400658710,complete,0.0000,0.0000,
ES,2020-03-10,2259854,2400658717,complete,0.0000,0.0000,
ES,2020-03-10,2259861,2400658719,complete,0.0000,0.0000,
ES,2020-03-10,2259874,2400658724,complete,0.0000,0.0000,
ES,2020-03-10,2259907,2400658736,complete,0.0000,0.0000,
ES,2020-03-10,2259908,2400658737,complete,0.0000,0.0000,
ES,2020-03-10,2259909,2400658738,complete,0.0000,0.0000,
ES,2020-03-10,2259912,2400658739,complete,0.0000,0.0000,
ES,2020-03-10,2259913,2400658740,complete,0.0000,0.0000,
ES,2020-03-10,2259947,2400658752,complete,0.0000,0.0000,
ES,2020-03-10,2259955,2400658758,complete,0.0000,0.0000,
ES,2020-03-10,2259995,2400658773,complete,0.0000,0.0000,
ES,2020-03-10,2260006,2400658777,complete,0.0000,0.0000,
ES,2020-03-10,2260043,2400658795,complete,0.0000,0.0000,
ES,2020-03-10,2260074,2400658802,complete,0.0000,0.0000,
ES,2020-03-10,2260084,2400658805,complete,0.0000,0.0000,
ES,2020-03-10,2260121,2400658818,complete,0.0000,0.0000,
ES,2020-03-10,2260155,2400658827,complete,0.0000,0.0000,
ES,2020-03-10,2260156,2400658828,complete,0.0000,0.0000,
ES,2020-03-10,2260225,2400658848,complete,0.0000,0.0000,
ES,2020-03-10,2260228,2400658850,complete,0.0000,0.0000,
ES,2020-03-10,2260238,2400658851,complete,0.0000,0.0000,
ES,2020-03-10,2260290,1900267680,complete,7.4600,1.4900,8.9500
ES,2020-03-10,2260297,2400658861,complete,0.0000,0.0000,
ES,2020-03-10,2260298,2400658862,complete,0.0000,0.0000,
ES,2020-03-10,2260345,2400658886,closed,0.0000,0.0000,
ES,2020-03-10,2260346,2400658887,complete,0.0000,0.0000,
ES,2020-03-10,2260379,2400658899,complete,0.0000,0.0000,
ES,2020-03-10,2260432,2400658911,complete,0.0000,0.0000,
ES,2020-03-10,2260468,2400658920,complete,0.0000,0.0000,
ES,2020-03-10,2260627,2400658968,complete,0.0000,0.0000,
ES,2020-03-10,2260633,2400658971,complete,0.0000,0.0000,
ES,2020-03-10,2260643,2400658978,complete,0.0000,0.0000,
ES,2020-03-10,2260675,2400658989,complete,0.0000,0.0000,
ES,2020-03-10,2260696,2400658999,complete,0.0000,0.0000,
ES,2020-03-10,2260699,2400659000,complete,0.0000,0.0000,
ES,2020-03-10,2260710,2400659005,complete,0.0000,0.0000,
ES,2020-03-10,2260731,2400659011,complete,0.0000,0.0000,
ES,2020-03-10,2260745,2400659018,complete,0.0000,0.0000,
ES,2020-03-10,2260747,2400659020,complete,0.0000,0.0000,
ES,2020-03-10,2260757,2400659021,complete,0.0000,0.0000,
ES,2020-03-10,2260775,2400659029,closed,0.0000,0.0000,
ES,2020-03-10,2260792,2400659036,complete,0.0000,0.0000,
ES,2020-03-10,2260800,2400659039,complete,0.0000,0.0000,
ES,2020-03-10,2260819,2400659046,complete,0.0000,0.0000,
ES,2020-03-11,2260862,2400659062,complete,0.0000,0.0000,
ES,2020-03-11,2260923,2400659073,complete,0.0000,0.0000,
ES,2020-03-11,2260954,2400659085,complete,0.0000,0.0000,
ES,2020-03-11,2260967,2400659092,complete,6.6800,1.3400,8.0200
ES,2020-03-11,2261066,2400659122,complete,0.0000,0.0000,
ES,2020-03-11,2261067,2400659123,complete,5.5600,1.1100,6.6700
ES,2020-03-11,2261068,2400659124,complete,0.0000,0.0000,
ES,2020-03-11,2261069,2400659125,complete,0.0000,0.0000,
ES,2020-03-11,2261099,600713584,complete,0.0000,0.0000,
ES,2020-03-11,2261103,2400659133,complete,0.0000,0.0000,
ES,2020-03-11,2261113,2400659137,complete,0.0000,0.0000,
ES,2020-03-11,2261154,2400659157,complete,0.0000,0.0000,
ES,2020-03-11,2261204,2400659174,complete,0.0000,0.0000,
ES,2020-03-11,2261210,2400659177,complete,0.0000,0.0000,
ES,2020-03-11,2261221,2400659181,complete,0.0000,0.0000,
ES,2020-03-11,2261230,2400659185,closed,0.0000,0.0000,
ES,2020-03-11,2261275,2400659201,complete,7.4200,1.4900,8.9100
ES,2020-03-11,2261322,2400659222,complete,0.0000,0.0000,
ES,2020-03-11,2261347,2400659230,complete,5.5600,1.1100,6.6700
ES,2020-03-11,2261464,2400659262,complete,0.0000,0.0000,
ES,2020-03-11,2261465,2400659263,complete,0.0000,0.0000,
ES,2020-03-11,2261466,2400659264,complete,0.0000,0.0000,
ES,2020-03-11,2261480,2400659273,complete,0.0000,0.0000,
ES,2020-03-11,2261498,2400659278,complete,0.0000,0.0000,
ES,2020-03-11,2261528,2400659288,complete,0.0000,0.0000,
ES,2020-03-11,2261639,2400659329,complete,0.0000,0.0000,
ES,2020-03-11,2261663,2400659341,complete,7.4200,1.4900,8.9100
ES,2020-03-11,2261672,2400659344,complete,0.0000,0.0000,
ES,2020-03-11,2261674,2400659345,complete,0.0000,0.0000,
ES,2020-03-11,2261762,2400659379,complete,0.0000,0.0000,
ES,2020-03-11,2261812,2400659399,complete,5.5600,1.1100,6.6700
ES,2020-03-11,2261834,2400659404,complete,0.0000,0.0000,
ES,2020-03-11,2261836,2400659406,complete,0.0000,0.0000,
ES,2020-03-11,2261848,2400659409,complete,0.0000,0.0000,
ES,2020-03-11,2261861,2400659415,complete,0.0000,0.0000,
ES,2020-03-11,2261878,2400659418,closed,0.0000,0.0000,
ES,2020-03-11,2261893,2400659423,complete,0.0000,0.0000,
ES,2020-03-11,2261904,2400659430,complete,0.0000,0.0000,
ES,2020-03-11,2261915,2400659433,complete,0.0000,0.0000,
ES,2020-03-11,2261916,2400659434,complete,0.0000,0.0000,
ES,2020-03-11,2261923,2400659436,complete,5.5600,1.1100,6.6700
ES,2020-03-11,2261943,2400659444,complete,0.0000,0.0000,
ES,2020-03-11,2261952,2400659451,complete,5.5600,1.1100,6.6700
ES,2020-03-11,2261967,2400659456,complete,0.0000,0.0000,
ES,2020-03-12,2261971,2400659459,complete,0.0000,0.0000,
ES,2020-03-12,2261980,2400659461,complete,0.0000,0.0000,
ES,2020-03-12,2261983,2400659462,complete,0.0000,0.0000,
ES,2020-03-12,2261992,2400659465,complete,0.0000,0.0000,
ES,2020-03-12,2262048,2400659481,complete,0.0000,0.0000,
ES,2020-03-12,2262072,2400659486,complete,0.0000,0.0000,
ES,2020-03-12,2262082,2400659490,complete,0.0000,0.0000,
ES,2020-03-12,2262104,2400659503,closed,0.0000,0.0000,
ES,2020-03-12,2262166,2400659529,complete,0.0000,0.0000,
ES,2020-03-12,2262172,2400659530,complete,0.0000,0.0000,
ES,2020-03-12,2262183,2400659534,complete,0.0000,0.0000,
ES,2020-03-12,2262300,2400659569,complete,0.0000,0.0000,
ES,2020-03-12,2262301,2400659570,complete,0.0000,0.0000,
ES,2020-03-12,2262334,2400659583,complete,0.0000,0.0000,
ES,2020-03-12,2262374,2400659597,complete,0.0000,0.0000,
ES,2020-03-12,2262528,2400659643,complete,0.0000,0.0000,
ES,2020-03-12,2262540,600713917,complete,12.4600,2.4900,14.9500
ES,2020-03-12,2262563,2400659657,complete,6.6800,1.3400,8.0200
ES,2020-03-12,2262566,2400659659,complete,0.0000,0.0000,
ES,2020-03-12,2262568,2400659660,complete,0.0000,0.0000,
ES,2020-03-12,2262651,600713934,complete,13.2900,2.6600,15.9500
ES,2020-03-12,2262654,2400659695,complete,0.0000,0.0000,
ES,2020-03-12,2262670,2400659701,complete,0.0000,0.0000,
ES,2020-03-12,2262686,2400659708,complete,0.0000,0.0000,
ES,2020-03-12,2262716,2500299214,complete,0.0000,0.0000,
ES,2020-03-12,2262750,2400659723,complete,0.0000,0.0000,
ES,2020-03-12,2262756,2400659726,complete,0.0000,0.0000,
ES,2020-03-12,2262758,2400659727,complete,0.0000,0.0000,
ES,2020-03-12,2262759,2400659728,complete,0.0000,0.0000,
ES,2020-03-12,2262802,600713800,complete,12.4500,2.5000,14.9500
ES,2020-03-12,2262803,2400659738,complete,0.0000,0.0000,
ES,2020-03-12,2262805,2400659740,complete,0.0000,0.0000,
ES,2020-03-12,2262823,2400659745,complete,6.6800,1.3400,8.0200
ES,2020-03-12,2262843,2400659751,complete,0.0000,0.0000,
ES,2020-03-12,2262896,2400659773,complete,0.0000,0.0000,
ES,2020-03-12,2262924,2400659784,complete,0.0000,0.0000,
ES,2020-03-12,2262962,2400659798,complete,0.0000,0.0000,
ES,2020-03-12,2262978,2400659809,complete,0.0000,0.0000,
ES,2020-03-12,2262982,2400659811,complete,0.0000,0.0000,
ES,2020-03-13,2263050,2400659828,complete,0.0000,0.0000,
ES,2020-03-13,2263080,2400659833,complete,0.0000,0.0000,
ES,2020-03-13,2263167,2400659865,complete,0.0000,0.0000,
ES,2020-03-13,2263255,2400659887,complete,7.4200,1.4900,8.9100
ES,2020-03-13,2263256,2400659888,complete,0.0000,0.0000,
ES,2020-03-13,2263302,2400659904,complete,0.0000,0.0000,
ES,2020-03-13,2263343,2400659917,complete,8.3200,1.6700,9.9900
ES,2020-03-13,2263345,2400659918,complete,0.0000,0.0000,
ES,2020-03-13,2263346,2400659919,complete,0.0000,0.0000,
ES,2020-03-13,2263461,2400659949,complete,0.0000,0.0000,
ES,2020-03-13,2263512,2400659970,complete,0.0000,0.0000,
ES,2020-03-13,2263701,2400660030,complete,0.0000,0.0000,
ES,2020-03-13,2263762,2400660047,complete,0.0000,0.0000,
ES,2020-03-13,2263798,2400660062,complete,0.0000,0.0000,
ES,2020-03-13,2263807,2400660067,complete,6.6800,1.3400,8.0200
ES,2020-03-13,2263854,2400660082,complete,6.6800,1.3400,8.0200
ES,2020-03-14,2263979,2400660129,complete,0.0000,0.0000,
ES,2020-03-14,2264039,2400660147,complete,0.0000,0.0000,
ES,2020-03-14,2264047,2400660149,complete,0.0000,0.0000,
ES,2020-03-14,2264079,2400660161,complete,0.0000,0.0000,
ES,2020-03-14,2264081,2400660162,complete,0.0000,0.0000,
ES,2020-03-14,2264105,2400660167,closed,0.0000,0.0000,
ES,2020-03-14,2264130,2400660177,complete,0.0000,0.0000,
ES,2020-03-14,2264142,2400660181,complete,0.0000,0.0000,
ES,2020-03-14,2264168,2400660188,complete,0.0000,0.0000,
ES,2020-03-14,2264181,2400660193,complete,0.0000,0.0000,
ES,2020-03-14,2264182,600714274,complete,0.0000,0.0000,
ES,2020-03-14,2264238,2400660212,complete,0.0000,0.0000,
ES,2020-03-14,2264346,2400660235,complete,0.0000,0.0000,
ES,2020-03-14,2264377,2400660239,complete,0.0000,0.0000,
ES,2020-03-14,2264437,2400660256,complete,0.0000,0.0000,
ES,2020-03-14,2264449,2400660260,complete,0.0000,0.0000,
ES,2020-03-14,2264489,600714344,complete,7.4600,1.4900,8.9500
ES,2020-03-14,2264507,2400660272,complete,0.0000,0.0000,
ES,2020-03-14,2264526,2400660276,complete,0.0000,0.0000,
ES,2020-03-14,2264527,2400660277,complete,6.6800,1.3400,8.0200
ES,2020-03-14,2264560,2400660288,complete,8.1700,1.6300,9.8000
ES,2020-03-14,2264605,2400660305,complete,0.0000,0.0000,
ES,2020-03-14,2264659,2400660320,complete,0.0000,0.0000,
ES,2020-03-14,2264744,2400660345,complete,0.0000,0.0000,
ES,2020-03-15,2264795,2400660359,complete,0.0000,0.0000,
ES,2020-03-15,2264814,2400660364,complete,7.4200,1.4900,8.9100
ES,2020-03-15,2264816,2400660365,complete,0.0000,0.0000,
ES,2020-03-15,2264842,2400660373,complete,0.0000,0.0000,
ES,2020-03-15,2264913,2400660389,complete,0.0000,0.0000,
ES,2020-03-15,2264917,2400660390,complete,6.6800,1.3400,8.0200
ES,2020-03-15,2264935,2400660396,complete,0.0000,0.0000,
ES,2020-03-15,2264958,2400660402,complete,0.0000,0.0000,
ES,2020-03-15,2265032,2400660424,complete,0.0000,0.0000,
ES,2020-03-15,2265085,2400660432,closed,0.0000,0.0000,
ES,2020-03-15,2265135,2400660448,complete,0.0000,0.0000,
ES,2020-03-15,2265283,2400660486,complete,0.0000,0.0000,
ES,2020-03-15,2265438,2400660538,complete,0.0000,0.0000,
ES,2020-03-15,2265444,600714566,complete,4.1300,0.8200,4.9500
ES,2020-03-15,2265457,2400660542,complete,0.0000,0.0000,
ES,2020-03-15,2265572,2400660571,complete,0.0000,0.0000,
ES,2020-03-15,2265584,2400660574,complete,0.0000,0.0000,
ES,2020-03-15,2265622,2400660586,complete,0.0000,0.0000,
ES,2020-03-15,2265641,2400660592,complete,0.0000,0.0000,
ES,2020-03-15,2265772,2400660627,complete,0.0000,0.0000,
ES,2020-03-16,2266053,600714687,complete,7.4600,1.4900,8.9500
ES,2020-03-16,2266115,2400660718,complete,0.0000,0.0000,
ES,2020-03-16,2266155,2400660732,complete,0.0000,0.0000,
ES,2020-03-16,2266309,2400660776,complete,0.0000,0.0000,
ES,2020-03-16,2266356,2400660788,complete,0.0000,0.0000,
ES,2020-03-16,2266359,2400660790,complete,0.0000,0.0000,
ES,2020-03-16,2266377,2400660796,complete,6.6800,1.3400,8.0200
ES,2020-03-16,2266403,2400660805,complete,0.0000,0.0000,
ES,2020-03-16,2266468,2400660820,complete,0.0000,0.0000,
ES,2020-03-16,2266503,2400660830,complete,0.0000,0.0000,
ES,2020-03-16,2266559,2400660840,complete,0.0000,0.0000,
ES,2020-03-17,2266701,2400660876,complete,0.0000,0.0000,
ES,2020-03-17,2266737,2400660885,complete,0.0000,0.0000,
ES,2020-03-17,2266777,2400660896,complete,6.6800,1.3400,8.0200
ES,2020-03-17,2266884,2400660926,complete,0.0000,0.0000,
ES,2020-03-17,2267027,2400660957,complete,0.0000,0.0000,
ES,2020-03-17,2267029,2400660959,complete,0.0000,0.0000,
ES,2020-03-17,2267031,2400660960,complete,0.0000,0.0000,
ES,2020-03-17,2267038,2400660961,complete,5.5600,1.1100,6.6700
ES,2020-03-17,2267062,2400660964,complete,0.0000,0.0000,
ES,2020-03-17,2267073,2400660970,closed,0.0000,0.0000,
ES,2020-03-17,2267114,2400660983,complete,6.6800,1.3300,8.0200
ES,2020-03-17,2267121,2400660985,complete,0.0000,0.0000,
ES,2020-03-17,2267159,600715018,complete,12.4600,2.4900,14.9500
ES,2020-03-17,2267172,2400661001,complete,5.5600,1.1100,6.6700
ES,2020-03-17,2267181,2400661007,complete,3.3200,0.6700,3.9900
ES,2020-03-17,2267184,2400661008,complete,0.0000,0.0000,
ES,2020-03-17,2267235,2400661012,complete,0.0000,0.0000,
ES,2020-03-17,2267276,2400661026,complete,0.0000,0.0000,
ES,2020-03-17,2267320,2400661037,complete,0.0000,0.0000,
ES,2020-03-17,2267364,2400661054,complete,0.0000,0.0000,
ES,2020-03-18,2267383,2400661061,complete,0.0000,0.0000,
ES,2020-03-18,2267387,2400661063,complete,6.6800,1.3300,8.0200
ES,2020-03-18,2267390,2500300375,complete,2.0800,0.4100,2.5000
ES,2020-03-18,2267443,2400661071,complete,0.0000,0.0000,
ES,2020-03-18,2267500,2400661083,complete,0.0000,0.0000,
ES,2020-03-18,2267572,2400661103,complete,6.6800,1.3300,8.0200
ES,2020-03-18,2267576,2400661104,complete,0.0000,0.0000,
ES,2020-03-18,2267620,2400661113,complete,0.0000,0.0000,
ES,2020-03-18,2267623,2400661114,complete,5.5600,1.1100,6.6700
ES,2020-03-18,2267629,2400661116,complete,0.0000,0.0000,
ES,2020-03-18,2267634,2400661119,complete,0.0000,0.0000,
ES,2020-03-18,2267635,2400661120,complete,6.6800,1.3400,8.0200
ES,2020-03-18,2267642,2400661124,complete,5.5600,1.1100,6.6700
ES,2020-03-18,2267660,2400661132,complete,6.6800,1.3400,8.0200
ES,2020-03-18,2267661,2400661133,closed,8.0100,1.6000,9.6100
ES,2020-03-18,2267706,2400661137,complete,0.0000,0.0000,
ES,2020-03-18,2267724,600715175,complete,7.4600,1.4900,8.9500
ES,2020-03-18,2267755,2400661146,complete,0.0000,0.0000,
ES,2020-03-18,2267828,2400661175,complete,0.0000,0.0000,
ES,2020-03-18,2267976,2400661212,complete,0.0000,0.0000,
ES,2020-03-18,2268075,2400661244,complete,0.0000,0.0000,
ES,2020-03-19,2268198,2400661276,complete,0.0000,0.0000,
ES,2020-03-19,2268295,2400661301,complete,0.0000,0.0000,
ES,2020-03-19,2268324,2400661316,complete,0.0000,0.0000,
ES,2020-03-19,2268337,1900269061,complete,4.1300,0.8200,4.9500
ES,2020-03-19,2268422,2400661346,complete,6.6800,1.3400,8.0200
ES,2020-03-19,2268430,2400661348,complete,0.0000,0.0000,
ES,2020-03-19,2268434,2400661350,complete,0.0000,0.0000,
ES,2020-03-19,2268436,2400661352,complete,0.0000,0.0000,
ES,2020-03-19,2268482,2400661366,complete,0.0000,0.0000,
ES,2020-03-19,2268503,2400661371,complete,0.0000,0.0000,
ES,2020-03-19,2268516,600715409,complete,0.0000,0.0000,
ES,2020-03-19,2268528,2400661379,complete,0.0000,0.0000,
ES,2020-03-19,2268600,2400661404,complete,0.0000,0.0000,
ES,2020-03-19,2268672,2400661423,complete,5.5600,1.1100,6.6700
ES,2020-03-19,2268708,2400661431,complete,0.0000,0.0000,
ES,2020-03-19,2268748,2400661441,complete,0.0000,0.0000,
ES,2020-03-19,2268774,2400661447,complete,0.0000,0.0000,
ES,2020-03-19,2268921,1900269128,complete,4.1300,0.8200,4.9500
ES,2020-03-19,2268957,2400661473,complete,0.0000,0.0000,
ES,2020-03-19,2268982,2400661477,complete,0.0000,0.0000,
ES,2020-03-20,2269003,2400661482,complete,0.0000,0.0000,
ES,2020-03-20,2269006,2400661484,complete,0.0000,0.0000,
ES,2020-03-20,2269010,2400661486,complete,0.0000,0.0000,
ES,2020-03-20,2269015,2400661487,complete,0.0000,0.0000,
ES,2020-03-20,2269148,2500300891,complete,4.9600,0.9900,5.9500
ES,2020-03-20,2269159,2400661507,complete,0.0000,0.0000,
ES,2020-03-20,2269292,2400661534,complete,0.0000,0.0000,
ES,2020-03-20,2269301,2400661537,complete,0.0000,0.0000,
ES,2020-03-20,2269328,2400661541,complete,0.0000,0.0000,
ES,2020-03-20,2269352,2400661546,complete,0.0000,0.0000,
ES,2020-03-20,2269394,2400661552,complete,0.0000,0.0000,
ES,2020-03-20,2269395,2400661553,complete,0.0000,0.0000,
ES,2020-03-20,2269493,2400661569,complete,0.0000,0.0000,
ES,2020-03-20,2269507,2400661573,complete,3.3200,0.6700,3.9900
ES,2020-03-20,2269560,2400661581,complete,0.0000,0.0000,
ES,2020-03-20,2269618,2400661594,complete,0.0000,0.0000,
ES,2020-03-20,2269626,2400661597,complete,0.0000,0.0000,
ES,2020-03-20,2269631,2400661599,complete,0.0000,0.0000,
ES,2020-03-20,2269664,2400661609,complete,0.0000,0.0000,
ES,2020-03-20,2269691,2400661615,complete,0.0000,0.0000,
ES,2020-03-20,2269703,2400661617,complete,0.0000,0.0000,
ES,2020-03-20,2269764,2400661625,complete,0.0000,0.0000,
ES,2020-03-20,2269826,2400661640,complete,0.0000,0.0000,
ES,2020-03-20,2269871,2400661649,complete,0.0000,0.0000,
ES,2020-03-20,2269990,2400661672,complete,0.0000,0.0000,
ES,2020-03-20,2269996,2400661674,complete,0.0000,0.0000,
ES,2020-03-21,2270022,2400661679,complete,0.0000,0.0000,
ES,2020-03-21,2270053,2500301296,complete,0.0000,0.0000,
ES,2020-03-21,2270128,2400661694,complete,0.0000,0.0000,
ES,2020-03-21,2270258,1900269335,complete,12.4600,2.4900,14.9500
ES,2020-03-21,2270283,2400661732,complete,7.4200,1.4900,8.9100
ES,2020-03-21,2270353,2400661754,complete,0.0000,0.0000,
ES,2020-03-21,2270355,2400661755,complete,0.0000,0.0000,
ES,2020-03-21,2270379,2400661760,complete,0.0000,0.0000,
ES,2020-03-21,2270427,2400661769,complete,0.0000,0.0000,
ES,2020-03-21,2270490,2400661786,complete,0.0000,0.0000,
ES,2020-03-21,2270570,2400661808,complete,0.0000,0.0000,
ES,2020-03-21,2270609,2500301511,complete,4.1300,0.8200,4.9500
ES,2020-03-21,2270712,2400661847,complete,0.0000,0.0000,
ES,2020-03-21,2270838,2400661878,complete,0.0000,0.0000,
ES,2020-03-21,2270846,2400661881,complete,7.4200,1.4900,8.9100
ES,2020-03-21,2270886,2400661893,complete,0.0000,0.0000,
ES,2020-03-21,2270896,600715895,complete,7.4500,1.5000,8.9500
ES,2020-03-21,2270934,2400661904,complete,0.0000,0.0000,
ES,2020-03-21,2271017,2400661919,complete,0.0000,0.0000,
ES,2020-03-21,2271081,2500301691,complete,0.0000,0.0000,
ES,2020-03-21,2271097,2600034895,complete,3.9900,0.8000,4.7900
ES,2020-03-21,2271100,2400661944,complete,0.0000,0.0000,
ES,2020-03-22,2271118,2400661951,complete,0.0000,0.0000,
ES,2020-03-22,2271166,2400661960,complete,0.0000,0.0000,
ES,2020-03-22,2271280,2400661979,complete,0.0000,0.0000,
ES,2020-03-22,2271336,2500301783,complete,0.0000,0.0000,
ES,2020-03-22,2271365,2400662001,complete,0.0000,0.0000,
ES,2020-03-22,2271371,2400662004,complete,0.0000,0.0000,
ES,2020-03-22,2271465,2400662029,complete,0.0000,0.0000,
ES,2020-03-22,2271898,2400662117,complete,0.0000,0.0000,
ES,2020-03-22,2271921,2400662122,complete,0.0000,0.0000,
ES,2020-03-22,2272029,2400662148,complete,0.0000,0.0000,
ES,2020-03-22,2272389,2400662211,complete,0.0000,0.0000,
ES,2020-03-22,2272403,2400662214,complete,0.0000,0.0000,
ES,2020-03-22,2272461,2400662232,complete,0.0000,0.0000,
ES,2020-03-22,2272469,2400662234,complete,0.0000,0.0000,
ES,2020-03-23,2272548,2400662254,complete,0.0000,0.0000,
ES,2020-03-23,2272796,600716255,complete,12.4600,2.4900,14.9500
ES,2020-03-23,2272800,2400662305,complete,0.0000,0.0000,
ES,2020-03-23,2272873,2400662322,complete,5.5600,1.1100,6.6700
ES,2020-03-23,2272899,2400662326,complete,0.0000,0.0000,
ES,2020-03-23,2272922,2400662334,complete,0.0000,0.0000,
ES,2020-03-23,2273047,2400662356,complete,0.0000,0.0000,
ES,2020-03-23,2273135,2400662376,complete,0.0000,0.0000,
ES,2020-03-23,2273136,2400662377,complete,8.9100,1.7900,10.6900
ES,2020-03-23,2273257,2400662405,complete,0.0000,0.0000,
ES,2020-03-23,2273262,2400662407,complete,0.0000,0.0000,
ES,2020-03-23,2273272,2400662408,complete,0.0000,0.0000,
ES,2020-03-23,2273384,2400662432,closed,0.0000,0.0000,
ES,2020-03-23,2273457,2400662450,complete,0.0000,0.0000,
ES,2020-03-23,2273514,2400662462,complete,0.0000,0.0000,
ES,2020-03-23,2273528,2400662467,complete,0.0000,0.0000,
ES,2020-03-23,2273732,2400662512,complete,0.0000,0.0000,
ES,2020-03-23,2273827,2400662531,complete,0.0000,0.0000,
ES,2020-03-24,2274224,2400662618,closed,0.0000,0.0000,
ES,2020-03-24,2274304,2400662641,complete,0.0000,0.0000,
ES,2020-03-24,2274361,600716554,complete,0.0000,0.0000,
ES,2020-03-24,2274374,2400662654,complete,0.0000,0.0000,
ES,2020-03-24,2274389,600716559,complete,0.0000,0.0000,
ES,2020-03-24,2274414,600716562,complete,0.0000,0.0000,
ES,2020-03-24,2274502,2400662684,complete,0.0000,0.0000,
ES,2020-03-24,2274518,2400662686,complete,0.0000,0.0000,
ES,2020-03-24,2274551,2400662696,complete,0.0000,0.0000,
ES,2020-03-24,2274580,2400662704,complete,0.0000,0.0000,
ES,2020-03-24,2274706,2400662727,closed,0.0000,0.0000,
ES,2020-03-24,2274716,2400662729,complete,0.0000,0.0000,
ES,2020-03-24,2274738,2400662733,complete,0.0000,0.0000,
ES,2020-03-24,2274752,2400662738,complete,0.0000,0.0000,
ES,2020-03-24,2274883,2400662772,complete,0.0000,0.0000,
ES,2020-03-24,2275069,2400662810,closed,0.0000,0.0000,
ES,2020-03-24,2275095,2400662820,complete,0.0000,0.0000,
ES,2020-03-24,2275112,2400662821,complete,7.4200,1.4900,8.9100
ES,2020-03-24,2275250,2400662853,complete,0.0000,0.0000,
ES,2020-03-24,2275259,2400662857,complete,0.0000,0.0000,
ES,2020-03-24,2275270,2400662865,complete,0.0000,0.0000,
ES,2020-03-24,2275338,2400662883,complete,0.0000,0.0000,
ES,2020-03-25,2275362,2400662889,complete,7.4200,1.4900,8.9100
ES,2020-03-25,2275422,2400662900,complete,0.0000,0.0000,
ES,2020-03-25,2275447,2400662903,complete,0.0000,0.0000,
ES,2020-03-25,2275596,2400662932,complete,0.0000,0.0000,
ES,2020-03-25,2275610,2400662935,complete,0.0000,0.0000,
ES,2020-03-25,2275711,2400662953,complete,0.0000,0.0000,
ES,2020-03-25,2275719,2400662954,complete,0.0000,0.0000,
ES,2020-03-25,2275726,2400662957,complete,0.0000,0.0000,
ES,2020-03-25,2275740,2400662963,complete,7.4200,1.4900,8.9100
ES,2020-03-25,2275850,600716809,complete,13.2900,2.6600,15.9500
ES,2020-03-25,2275898,2400662991,complete,0.0000,0.0000,
ES,2020-03-25,2275960,2400663001,complete,0.0000,0.0000,
ES,2020-03-25,2276083,2400663025,complete,0.0000,0.0000,
ES,2020-03-25,2276137,2400663039,complete,0.0000,0.0000,
ES,2020-03-25,2276152,2400663042,complete,0.0000,0.0000,
ES,2020-03-25,2276379,2400663091,complete,0.0000,0.0000,
ES,2020-03-25,2276418,600716907,complete,4.1300,0.8200,4.9500
ES,2020-03-25,2276433,2400663107,complete,0.0000,0.0000,
ES,2020-03-25,2276477,2400663113,complete,0.0000,0.0000,
ES,2020-03-25,2276510,2400663118,complete,7.4200,1.4900,8.9100
ES,2020-03-25,2276607,2400663146,complete,0.0000,0.0000,
ES,2020-03-25,2276621,2400663148,complete,0.0000,0.0000,
ES,2020-03-25,2276654,2400663155,complete,0.0000,0.0000,
ES,2020-03-25,2276656,2400663157,complete,0.0000,0.0000,
ES,2020-03-25,2276671,2400663163,complete,0.0000,0.0000,
ES,2020-03-25,2276691,2400663166,complete,0.0000,0.0000,
ES,2020-03-25,2276791,2400663188,complete,0.0000,0.0000,
ES,2020-03-25,2276898,2400663214,complete,0.0000,0.0000,
ES,2020-03-26,2277036,2400663249,complete,0.0000,0.0000,
ES,2020-03-26,2277037,2400663250,complete,0.0000,0.0000,
ES,2020-03-26,2277047,2400663252,complete,7.4200,1.4900,8.9100
ES,2020-03-26,2277053,2400663256,complete,0.0000,0.0000,
ES,2020-03-26,2277068,2400663260,complete,0.0000,0.0000,
ES,2020-03-26,2277076,2400663261,complete,0.0000,0.0000,
ES,2020-03-26,2277243,2400663287,complete,0.0000,0.0000,
ES,2020-03-26,2277254,2400663289,complete,0.0000,0.0000,
ES,2020-03-26,2277329,2600035017,complete,3.9900,0.8000,4.7900
ES,2020-03-26,2277391,2400663322,complete,5.5600,1.1100,6.6700
ES,2020-03-26,2277395,2400663323,complete,0.0000,0.0000,
ES,2020-03-26,2277448,2400663336,complete,0.0000,0.0000,
ES,2020-03-26,2277667,2400663401,complete,0.0000,0.0000,
ES,2020-03-26,2277675,2400663405,complete,5.5600,1.1100,6.6700
ES,2020-03-26,2277717,2400663416,complete,0.0000,0.0000,
ES,2020-03-26,2277827,2400663436,complete,0.0000,0.0000,
ES,2020-03-26,2277881,2400663446,complete,0.0000,0.0000,
ES,2020-03-26,2277897,600717164,complete,7.4500,1.5000,8.9500
ES,2020-03-26,2277976,2400663462,complete,0.0000,0.0000,
ES,2020-03-26,2278083,2400663490,complete,0.0000,0.0000,
ES,2020-03-26,2278095,2400663492,complete,0.0000,0.0000,
ES,2020-03-26,2278131,2400663502,complete,0.0000,0.0000,
ES,2020-03-26,2278150,2400663508,complete,0.0000,0.0000,
ES,2020-03-26,2278164,2400663510,complete,0.0000,0.0000,
ES,2020-03-26,2278378,2400663558,complete,0.0000,0.0000,
ES,2020-03-26,2278399,2400663562,complete,0.0000,0.0000,
ES,2020-03-26,2278420,2400663566,complete,0.0000,0.0000,
ES,2020-03-26,2278423,2400663567,complete,0.0000,0.0000,
ES,2020-03-26,2278463,2400663579,complete,0.0000,0.0000,
ES,2020-03-26,2278526,2400663594,complete,0.0000,0.0000,
ES,2020-03-26,2278548,2400663600,complete,0.0000,0.0000,
ES,2020-03-27,2278571,2500305008,complete,4.1300,0.8200,4.9500
ES,2020-03-27,2278574,2400663607,complete,0.0000,0.0000,
ES,2020-03-27,2278686,2400663626,complete,0.0000,0.0000,
ES,2020-03-27,2278820,2400663655,complete,0.0000,0.0000,
ES,2020-03-27,2278951,600717332,complete,13.2900,2.6600,15.9500
ES,2020-03-27,2279006,2400663691,complete,0.0000,0.0000,
ES,2020-03-27,2279026,2400663698,complete,0.0000,0.0000,
ES,2020-03-27,2279053,2400663706,complete,0.0000,0.0000,
ES,2020-03-27,2279088,2400663714,complete,0.0000,0.0000,
ES,2020-03-27,2279176,2400663732,complete,0.0000,0.0000,
ES,2020-03-27,2279534,2400663811,complete,0.0000,0.0000,
ES,2020-03-27,2279722,2400663866,complete,0.0000,0.0000,
ES,2020-03-27,2279805,2400663888,complete,0.0000,0.0000,
ES,2020-03-27,2279860,2400663900,complete,0.0000,0.0000,
ES,2020-03-27,2279895,2400663909,complete,0.0000,0.0000,
ES,2020-03-27,2279971,2400663925,complete,0.0000,0.0000,
ES,2020-03-27,2279983,2400663928,complete,0.0000,0.0000,
ES,2020-03-27,2280006,2400663933,complete,0.0000,0.0000,
ES,2020-03-27,2280029,2400663937,complete,0.0000,0.0000,
ES,2020-03-27,2280091,2400663950,complete,0.0000,0.0000,
ES,2020-03-27,2280100,2400663955,complete,0.0000,0.0000,
ES,2020-03-27,2280152,2400663964,complete,0.0000,0.0000,
ES,2020-03-27,2280199,2400663976,complete,0.0000,0.0000,
ES,2020-03-28,2280604,2400664081,complete,0.0000,0.0000,
ES,2020-03-28,2280690,2400664107,complete,0.0000,0.0000,
ES,2020-03-28,2280751,2500305932,complete,0.0000,0.0000,
ES,2020-03-28,2280786,2400664135,complete,0.0000,0.0000,
ES,2020-03-28,2280924,2400664174,complete,0.0000,0.0000,
ES,2020-03-28,2281074,2400664208,complete,0.0000,0.0000,
ES,2020-03-28,2281507,2400664317,complete,0.0000,0.0000,
ES,2020-03-28,2281605,2400664336,complete,0.0000,0.0000,
ES,2020-03-28,2281761,2400664372,complete,0.0000,0.0000,
ES,2020-03-28,2281905,2400664405,complete,0.0000,0.0000,
ES,2020-03-28,2281939,2400664411,complete,7.4200,1.4900,8.9100
ES,2020-03-28,2282077,2400664443,complete,0.0000,0.0000,
ES,2020-03-28,2282078,2400664444,complete,0.0000,0.0000,
ES,2020-03-29,2282120,2400664457,complete,7.4200,1.4900,8.9100
ES,2020-03-29,2282151,2400664468,complete,7.4200,1.4900,8.9100
ES,2020-03-29,2282212,2400664477,complete,0.0000,0.0000,
ES,2020-03-29,2282331,2400664499,closed,0.0000,0.0000,
ES,2020-03-29,2282362,2400664505,complete,0.0000,0.0000,
ES,2020-03-29,2282508,2400664543,complete,0.0000,0.0000,
ES,2020-03-29,2282512,2400664544,complete,0.0000,0.0000,
ES,2020-03-29,2282645,2400664576,complete,0.0000,0.0000,
ES,2020-03-29,2283080,2500306857,complete,8.2900,1.6600,9.9500
ES,2020-03-29,2283888,2500307167,complete,0.0000,0.0000,
ES,2020-03-30,2284572,600718326,complete,0.0000,0.0000,
ES,2020-03-30,2285293,2500307733,complete,4.1300,0.8200,4.9500
ES,2020-03-30,2285681,1900271593,complete,4.1300,0.8200,4.9500
ES,2020-03-30,2285750,2400665287,complete,6.6600,1.3300,7.9900
ES,2020-03-31,2286375,600718673,pick_note_printed,0.0000,0.0000,
ES,2020-03-31,2286431,2500308158,pick_note_printed,4.1300,0.8200,4.9500
ES,2020-03-31,2286958,2400665547,pick_note_printed,3.6700,0.7400,4.4100
ES,2020-03-31,2287125,2400665585,pick_note_printed,3.6700,0.7400,4.4100
ES,2020-03-31,2287178,2400665593,pick_note_printed,8.8800,1.7700,10.6500
ES,2020-03-31,2287383,2400665647,pick_note_printed,8.8800,1.7700,10.6500
ES,2020-03-31,2287518,2400665682,pick_note_printed,3.6700,0.7400,4.4100
