country_id,created_at,increment_id,entity_id,base_shipping_amount,base_shipping_tax_amount,base_shipping_incl_tax
ES,2020-03-02,2400050617,174182,0.0000,0.0000,0.0000
ES,2020-03-02,2400050633,174232,0.0000,0.0000,0.0000
ES,2020-03-03,2400050635,174261,0.0000,0.0000,0.0000
ES,2020-03-03,2400050639,174279,0.0000,0.0000,0.0000
ES,2020-03-03,2400050676,174329,0.0000,0.0000,0.0000
ES,2020-03-04,2400050679,174353,0.0000,0.0000,0.0000
ES,2020-03-04,2400050685,174360,0.0000,0.0000,0.0000
ES,2020-03-04,2400050686,174361,0.0000,0.0000,0.0000
ES,2020-03-04,2400050687,174362,0.0000,0.0000,0.0000
ES,2020-03-04,2400050688,174363,0.0000,0.0000,0.0000
ES,2020-03-04,2400050689,174364,0.0000,0.0000,0.0000
ES,2020-03-04,2400050696,174372,0.0000,0.0000,0.0000
ES,2020-03-04,2400050767,174451,0.0000,0.0000,0.0000
ES,2020-03-04,2400050772,174491,0.0000,0.0000,0.0000
ES,2020-03-04,2400050773,174492,0.0000,0.0000,0.0000
ES,2020-03-05,2400050776,174550,0.0000,0.0000,0.0000
ES,2020-03-05,2400050784,174598,0.0000,0.0000,0.0000
ES,2020-03-05,2400050785,174599,0.0000,0.0000,0.0000
ES,2020-03-05,2400050786,174600,0.0000,0.0000,0.0000
ES,2020-03-05,2400050787,174601,0.0000,0.0000,0.0000
ES,2020-03-05,2400050789,174604,0.0000,0.0000,0.0000
ES,2020-03-05,2400050790,174605,0.0000,0.0000,0.0000
ES,2020-03-05,2400050791,174606,0.0000,0.0000,0.0000
ES,2020-03-05,2400050792,174607,0.0000,0.0000,0.0000
ES,2020-03-06,2400050811,174649,0.0000,0.0000,0.0000
ES,2020-03-06,2400050842,174704,0.0000,0.0000,0.0000
ES,2020-03-06,2400050843,174705,0.0000,0.0000,0.0000
ES,2020-03-10,2500014679,174912,0.0000,0.0000,0.0000
ES,2020-03-12,2400050929,175026,0.0000,0.0000,0.0000
ES,2020-03-12,2400050935,175035,0.0000,0.0000,0.0000
ES,2020-03-12,2400050936,175040,0.0000,0.0000,0.0000
ES,2020-03-12,2400050937,175041,0.0000,0.0000,0.0000
ES,2020-03-12,2400050939,175063,0.0000,0.0000,0.0000
ES,2020-03-12,2400050940,175077,0.0000,0.0000,0.0000
ES,2020-03-13,600064497,175113,7.4600,1.4900,8.9500
ES,2020-03-13,2400050947,175139,0.0000,0.0000,0.0000
ES,2020-03-13,800002426,175161,0.0000,0.0000,0.0000
ES,2020-03-14,2400050978,175241,0.0000,0.0000,0.0000
ES,2020-03-16,2400050991,175330,0.0000,0.0000,0.0000
ES,2020-03-16,2400050992,175331,0.0000,0.0000,0.0000
ES,2020-03-16,2400050993,175332,0.0000,0.0000,0.0000
ES,2020-03-16,2400050994,175333,0.0000,0.0000,0.0000
ES,2020-03-16,2400050995,175334,0.0000,0.0000,0.0000
ES,2020-03-16,2400050996,175335,0.0000,0.0000,0.0000
ES,2020-03-16,2400050997,175336,0.0000,0.0000,0.0000
ES,2020-03-16,2400050998,175337,0.0000,0.0000,0.0000
ES,2020-03-16,2400050999,175338,0.0000,0.0000,0.0000
ES,2020-03-16,2400051000,175339,0.0000,0.0000,0.0000
ES,2020-03-16,2400051001,175340,0.0000,0.0000,0.0000
ES,2020-03-16,2400051002,175341,0.0000,0.0000,0.0000
ES,2020-03-16,2400051003,175342,0.0000,0.0000,0.0000
ES,2020-03-16,2400051004,175343,0.0000,0.0000,0.0000
ES,2020-03-16,2400051005,175344,0.0000,0.0000,0.0000
ES,2020-03-16,2400051006,175345,0.0000,0.0000,0.0000
ES,2020-03-16,2400051007,175346,0.0000,0.0000,0.0000
ES,2020-03-16,2400051008,175347,0.0000,0.0000,0.0000
ES,2020-03-16,2400051009,175348,0.0000,0.0000,0.0000
ES,2020-03-16,2400051010,175349,0.0000,0.0000,0.0000
ES,2020-03-16,2400051011,175350,0.0000,0.0000,0.0000
ES,2020-03-16,2400051012,175351,0.0000,0.0000,0.0000
ES,2020-03-16,2400051013,175352,0.0000,0.0000,0.0000
ES,2020-03-16,2400051014,175353,0.0000,0.0000,0.0000
ES,2020-03-17,2400051017,175367,0.0000,0.0000,0.0000
ES,2020-03-17,2400051018,175371,0.0000,0.0000,0.0000
ES,2020-03-18,2400051142,175610,0.0000,0.0000,0.0000
ES,2020-03-18,2400051155,175641,0.0000,0.0000,0.0000
ES,2020-03-18,2400051156,175642,0.0000,0.0000,0.0000
ES,2020-03-18,2400051157,175643,8.0100,1.6000,9.6100
ES,2020-03-19,2400051162,175673,0.0000,0.0000,0.0000
ES,2020-03-19,2400051178,175745,0.0000,0.0000,0.0000
ES,2020-03-20,2400051188,175806,0.0000,0.0000,0.0000
ES,2020-03-23,2400051228,175976,0.0000,0.0000,0.0000
ES,2020-03-24,2400051284,176132,0.0000,0.0000,0.0000
ES,2020-03-24,2400051285,176133,0.0000,0.0000,0.0000
ES,2020-03-24,2400051286,176134,0.0000,0.0000,0.0000
ES,2020-03-24,2400051287,176135,0.0000,0.0000,0.0000
ES,2020-03-24,2400051288,176136,0.0000,0.0000,0.0000
ES,2020-03-24,2400051289,176137,0.0000,0.0000,0.0000
ES,2020-03-24,2400051290,176138,0.0000,0.0000,0.0000
ES,2020-03-24,2400051291,176139,0.0000,0.0000,0.0000
ES,2020-03-25,2400051300,176174,0.0000,0.0000,0.0000
ES,2020-03-25,2400051301,176175,0.0000,0.0000,0.0000
ES,2020-03-25,2400051304,176183,0.0000,0.0000,0.0000
ES,2020-03-25,2400051305,176184,0.0000,0.0000,0.0000
ES,2020-03-26,2400051387,176285,0.0000,0.0000,0.0000
ES,2020-03-26,2400051393,176297,0.0000,0.0000,0.0000
ES,2020-03-27,2400051415,176348,0.0000,0.0000,0.0000
ES,2020-03-27,2400051416,176366,0.0000,0.0000,0.0000
ES,2020-03-27,2400051417,176367,5.9400,1.1900,7.1300
ES,2020-03-27,2400051418,176373,0.0000,0.0000,0.0000
ES,2020-03-27,2400051419,176387,0.0000,0.0000,0.0000
ES,2020-03-27,2400051420,176390,0.0000,0.0000,0.0000
ES,2020-03-27,2400051421,176391,0.0000,0.0000,0.0000
ES,2020-03-27,2400051422,176392,0.0000,0.0000,0.0000
ES,2020-03-27,2400051423,176393,0.0000,0.0000,0.0000
ES,2020-03-27,2400051471,176452,0.0000,0.0000,0.0000
ES,2020-03-28,2400051476,176464,0.0000,0.0000,0.0000
ES,2020-03-28,2400051477,176465,0.0000,0.0000,0.0000
ES,2020-03-28,2400051478,176466,0.0000,0.0000,0.0000
ES,2020-03-30,2400051504,176523,0.0000,0.0000,0.0000
ES,2020-03-30,2400051520,176558,0.0000,0.0000,0.0000
ES,2020-03-30,2400051522,176568,7.4200,1.4900,8.9100
ES,2020-03-31,2400051555,176648,0.0000,0.0000,0.0000
ES,2020-03-31,2400051556,176649,0.0000,0.0000,0.0000
ES,2020-03-31,2400051557,176650,0.0000,0.0000,0.0000
ES,2020-03-31,2400051558,176651,0.0000,0.0000,0.0000
