country_id,created_at,increment_id,entity_id,base_shipping_amount,base_shipping_tax_amount,base_shipping_incl_tax
IE,2020-10-05,2400057357,200334,6.6000,1.3900,7.9900
IE,2020-10-06,600072262,200475,0.0000,0.0000,0.0000
IE,2020-10-06,600072263,200476,0.0000,0.0000,0.0000
IE,2020-10-07,2500019322,200568,4.9600,0.9900,5.9500
IE,2020-10-08,2400057404,200688,0.0000,0.0000,0.0000
IE,2020-10-09,2400057424,200778,0.0000,0.0000,0.0000
IE,2020-10-09,1900027967,200794,6.6200,1.3300,7.9500
IE,2020-10-12,600072467,201109,0.0000,0.0000,0.0000
IE,2020-10-13,2400057516,201174,4.1200,0.8700,4.9900
IE,2020-10-14,2400057638,201366,0.0000,0.0000,0.0000
IE,2020-10-14,600072543,201427,0.0000,0.0000,0.0000
IE,2020-10-15,600072552,201541,0.0000,0.0000,0.0000
IE,2020-10-16,600072603,201650,0.0000,0.0000,0.0000
IE,2020-10-16,600072617,201673,0.0000,0.0000,0.0000
IE,2020-10-16,600072618,201675,0.0000,0.0000,0.0000
IE,2020-10-16,600072619,201676,0.0000,0.0000,0.0000
IE,2020-10-16,1900028211,201717,0.0000,0.0000,0.0000
IE,2020-10-22,600072870,202343,0.0000,0.0000,0.0000
IE,2020-10-24,1900028485,202647,0.0000,0.0000,0.0000
IE,2020-10-24,600073018,202715,0.0000,0.0000,0.0000
IE,2020-10-24,600073020,202718,0.0000,0.0000,0.0000
IE,2020-10-24,1900028518,202732,0.0000,0.0000,0.0000
IE,2020-10-27,600073083,202968,0.0000,0.0000,0.0000
