382632,2,24000566733,CRAMLINGTON,001
382633,1,24000566733,CRAMLINGTON,001
382634,1,24000566733,CRAMLINGTON,001
382635,1,24000566733,CRAMLINGTON,001
374977,1,24000566733,CRAMLINGTON,001
374978,1,24000566733,CRAMLINGTON,001
374992,1,24000566733,CRAMLINGTON,001
348238,1,24000566733,CRAMLINGTON,001
344251,1,24000566733,CRAMLINGTON,001
367296,1,24000566733,CRAMLINGTON,001
384763,1,24000566733,CRAMLINGTON,001
384765,1,24000566733,CRAMLINGTON,001
384766,1,24000566733,CRAMLINGTON,001
384767,2,24000566733,CRAMLINGTON,001
384768,2,24000566733,CRAMLINGTON,001
384769,2,24000566733,CRAMLINGTON,001
384770,2,24000566733,CRAMLINGTON,001
384771,2,24000566733,CRAMLINGTON,001
384772,2,24000566733,CRAMLINGTON,001
384773,1,24000566733,CRAMLINGTON,001
384774,1,24000566733,CRAMLINGTON,001
384775,1,24000566733,CRAMLINGTON,001
384650,1,24000566733,CRAMLINGTON,001
384651,1,24000566733,CRAMLINGTON,001
384652,2,24000566733,CRAMLINGTON,001
384653,2,24000566733,CRAMLINGTON,001
384654,2,24000566733,CRAMLINGTON,001
384655,2,24000566733,CRAMLINGTON,001
384656,2,24000566733,CRAMLINGTON,001
384657,2,24000566733,CRAMLINGTON,001
