341683,1,3300002711,CRAMLINGTON,001
350605,1,3300002711,CRAMLINGTON,001
303107,1,3300002711,CRAMLINGTON,001
346849,1,3300002711,CRAMLINGTON,001
347359,1,3300002711,CRAMLINGTON,001
349941,1,3300002711,CRAMLINGTON,001
