344218,1,3300002732,CRAMLINGTON,001
344267,1,3300002732,CRAMLINGTON,001
344790,1,3300002732,CRAMLINGTON,001
344309,1,3300002732,CRAMLINGTON,001
330701,1,3300002732,CRAMLINGTON,001
346070,1,3300002732,CRAMLINGTON,001
335993,1,3300002732,CRAMLINGTON,001
332988,1,3300002732,CRAMLINGTON,001
341680,1,3300002732,CRAMLINGTON,001
324465,1,3300002732,CRAMLINGTON,001
349947,1,3300002732,CRAMLINGTON,001
349963,1,3300002732,CRAMLINGTON,001
343652,1,3300002732,CRAMLINGTON,001
