333817,1,3300002337,CRAMLINGTON,001
247093,1,3300002337,CRAMLINGTON,001
339443,1,3300002337,CRAMLINGTON,001
339448,1,3300002337,CRAMLINGTON,001
218675,1,3300002337,CRAMLINGTON,001
335734,1,3300002337,CRAMLINGTON,001
237424,1,3300002337,CRAMLINGTON,001
313673,1,3300002337,CRAMLINGTON,001
315871,1,3300002337,CRAMLINGTON,001
327833,1,3300002337,CRAMLINGTON,001
292800,1,3300002337,CRAMLINGTON,001
330880,1,3300002337,CRAMLINGTON,001
330893,1,3300002337,CRAMLINGTON,001
332908,1,3300002337,CRAMLINGTON,001
312893,1,3300002337,CRAMLINGTON,001
312894,1,3300002337,CRAMLINGTON,001
332923,1,3300002337,CRAMLINGTON,001
324469,1,3300002337,CRAMLINGTON,001
331744,1,3300002337,CRAMLINGTON,001
