330710,1,3300002789,CRAMLINGTON,001
330713,1,3300002789,CRAMLINGTON,001
330714,1,3300002789,CRAMLINGTON,001
333365,1,3300002789,CRAMLINGTON,001
342594,1,3300002789,CRAMLINGTON,001
310502,2,3300002789,CRAMLINGTON,001
310503,1,3300002789,CRAMLINGTON,001
338595,1,3300002789,CRAMLINGTON,001
323177,1,3300002789,CRAMLINGTON,001
344009,1,3300002789,CRAMLINGTON,001
335818,1,3300002789,CRAMLINGTON,001
335829,1,3300002789,CRAMLINGTON,001
351213,1,3300002789,CRAMLINGTON,001
353974,1,3300002789,CRAMLINGTON,001
334232,1,3300002789,CRAMLINGTON,001
345430,1,3300002789,CRAMLINGTON,001
345676,1,3300002789,CRAMLINGTON,001
347020,1,3300002789,CRAMLINGTON,001
347024,1,3300002789,CRAMLINGTON,001
345124,1,3300002789,CRAMLINGTON,001
345226,1,3300002789,CRAMLINGTON,001
345236,1,3300002789,CRAMLINGTON,001
345273,1,3300002789,CRAMLINGTON,001
349971,1,3300002789,CRAMLINGTON,001
326886,1,3300002789,CRAMLINGTON,001
351479,1,3300002789,CRAMLINGTON,001
311923,2,3300002789,CRAMLINGTON,001
326904,1,3300002789,CRAMLINGTON,001
342863,1,3300002789,CRAMLINGTON,001
332031,1,3300002789,CRAMLINGTON,001
