330869,1,3300002231,CRAMLINGTON,001
333161,1,3300002231,CRAMLINGTON,001
333165,1,3300002231,CRAMLINGTON,001
333166,1,3300002231,CRAMLINGTON,001
333171,1,3300002231,CRAMLINGTON,001
312782,1,3300002231,CRAMLINGTON,001
326999,1,3300002231,CRAMLINGTON,001
330467,1,3300002231,CRAMLINGTON,001
333013,1,3300002231,CRAMLINGTON,001
333014,1,3300002231,CRAMLINGTON,001
333755,1,3300002231,CRAMLINGTON,001
315130,1,3300002231,CRAMLINGTON,001
330936,1,3300002231,CRAMLINGTON,001
330939,1,3300002231,CRAMLINGTON,001
330940,1,3300002231,CRAMLINGTON,001
330941,1,3300002231,CRAMLINGTON,001
333113,1,3300002231,CRAMLINGTON,001
333114,1,3300002231,CRAMLINGTON,001
310913,3,3300002231,CRAMLINGTON,001
326940,1,3300002231,CRAMLINGTON,001
327704,1,3300002231,CRAMLINGTON,001
327721,1,3300002231,CRAMLINGTON,001
310895,1,3300002231,CRAMLINGTON,001
294608,1,3300002231,CRAMLINGTON,001
311883,1,3300002231,CRAMLINGTON,001
311885,1,3300002231,CRAMLINGTON,001
326128,1,3300002231,CRAMLINGTON,001
327734,1,3300002231,CRAMLINGTON,001
327745,1,3300002231,CRAMLINGTON,001
327750,1,3300002231,CRAMLINGTON,001
