312780,1,3300002421,CRAMLINGTON,001
312781,1,3300002421,CRAMLINGTON,001
318608,1,3300002421,CRAMLINGTON,001
330471,1,3300002421,CRAMLINGTON,001
330472,1,3300002421,CRAMLINGTON,001
333009,1,3300002421,CRAMLINGTON,001
333011,1,3300002421,CRAMLINGTON,001
333751,1,3300002421,CRAMLINGTON,001
333757,1,3300002421,CRAMLINGTON,001
333758,1,3300002421,CRAMLINGTON,001
333759,1,3300002421,CRAMLINGTON,001
330937,1,3300002421,CRAMLINGTON,001
333138,1,3300002421,CRAMLINGTON,001
333139,1,3300002421,CRAMLINGTON,001
333140,1,3300002421,CRAMLINGTON,001
310892,1,3300002421,CRAMLINGTON,001
311998,1,3300002421,CRAMLINGTON,001
312000,1,3300002421,CRAMLINGTON,001
326703,1,3300002421,CRAMLINGTON,001
303325,1,3300002421,CRAMLINGTON,001
303327,1,3300002421,CRAMLINGTON,001
320631,1,3300002421,CRAMLINGTON,001
294727,1,3300002421,CRAMLINGTON,001
312030,1,3300002421,CRAMLINGTON,001
334724,1,3300002421,CRAMLINGTON,001
330700,1,3300002421,CRAMLINGTON,001
330701,1,3300002421,CRAMLINGTON,001
330702,1,3300002421,CRAMLINGTON,001
330715,1,3300002421,CRAMLINGTON,001
342576,1,3300002421,CRAMLINGTON,001
