335827,1,3300002573,CRAMLINGTON,001
335830,1,3300002573,CRAMLINGTON,001
336796,1,3300002573,CRAMLINGTON,001
331290,1,3300002573,CRAMLINGTON,001
310109,1,3300002573,CRAMLINGTON,001
310110,1,3300002573,CRAMLINGTON,001
334273,1,3300002573,CRAMLINGTON,001
310203,1,3300002573,CRAMLINGTON,001
331435,1,3300002573,CRAMLINGTON,001
304445,1,3300002573,CRAMLINGTON,001
304505,1,3300002573,CRAMLINGTON,001
234411,1,3300002573,CRAMLINGTON,001
327965,1,3300002573,CRAMLINGTON,001
330886,1,3300002573,CRAMLINGTON,001
332029,1,3300002573,CRAMLINGTON,001
332909,1,3300002573,CRAMLINGTON,001
332990,1,3300002573,CRAMLINGTON,001
341682,1,3300002573,CRAMLINGTON,001
333088,1,3300002573,CRAMLINGTON,001
336934,1,3300002573,CRAMLINGTON,001
336395,1,3300002573,CRAMLINGTON,001
303242,1,3300002573,CRAMLINGTON,001
254466,1,3300002573,CRAMLINGTON,001
331750,1,3300002573,CRAMLINGTON,001
331754,1,3300002573,CRAMLINGTON,001
328727,1,3300002573,CRAMLINGTON,001
339937,2,3300002573,CRAMLINGTON,001
339939,1,3300002573,CRAMLINGTON,001
339941,1,3300002573,CRAMLINGTON,001
307671,1,3300002573,CRAMLINGTON,001
