347101,1,3300002797,CRAMLINGTON,001
344518,1,3300002797,CRAMLINGTON,001
344545,1,3300002797,CRAMLINGTON,001
344293,1,3300002797,CRAMLINGTON,001
344295,1,3300002797,CRAMLINGTON,001
344304,1,3300002797,CRAMLINGTON,001
330710,1,3300002797,CRAMLINGTON,001
330711,1,3300002797,CRAMLINGTON,001
345409,1,3300002797,CRAMLINGTON,001
327908,1,3300002797,CRAMLINGTON,001
341678,1,3300002797,CRAMLINGTON,001
348612,1,3300002797,CRAMLINGTON,001
351898,1,3300002797,CRAMLINGTON,001
