333831,2,3300002238,CRAMLINGTON,001
333832,2,3300002238,CRAMLINGTON,001
333833,2,3300002238,CRAMLINGTON,001
333834,2,3300002238,CRAMLINGTON,001
333835,1,3300002238,CRAMLINGTON,001
333836,1,3300002238,CRAMLINGTON,001
333837,1,3300002238,CRAMLINGTON,001
310728,1,3300002238,CRAMLINGTON,001
329300,1,3300002238,CRAMLINGTON,001
333809,1,3300002238,CRAMLINGTON,001
333810,1,3300002238,CRAMLINGTON,001
333811,1,3300002238,CRAMLINGTON,001
333812,1,3300002238,CRAMLINGTON,001
333813,1,3300002238,CRAMLINGTON,001
333814,1,3300002238,CRAMLINGTON,001
333815,1,3300002238,CRAMLINGTON,001
333816,1,3300002238,CRAMLINGTON,001
333817,1,3300002238,CRAMLINGTON,001
333818,1,3300002238,CRAMLINGTON,001
333819,1,3300002238,CRAMLINGTON,001
333847,1,3300002238,CRAMLINGTON,001
333848,1,3300002238,CRAMLINGTON,001
333853,1,3300002238,CRAMLINGTON,001
333854,1,3300002238,CRAMLINGTON,001
333855,1,3300002238,CRAMLINGTON,001
333856,1,3300002238,CRAMLINGTON,001
333857,1,3300002238,CRAMLINGTON,001
212325,1,3300002238,CRAMLINGTON,001
333780,1,3300002238,CRAMLINGTON,001
333781,1,3300002238,CRAMLINGTON,001
