333160,1,3300002321,CRAMLINGTON,001
333171,1,3300002321,CRAMLINGTON,001
312778,1,3300002321,CRAMLINGTON,001
318606,1,3300002321,CRAMLINGTON,001
327000,1,3300002321,CRAMLINGTON,001
330465,1,3300002321,CRAMLINGTON,001
333015,1,3300002321,CRAMLINGTON,001
333062,1,3300002321,CRAMLINGTON,001
334035,1,3300002321,CRAMLINGTON,001
334040,1,3300002321,CRAMLINGTON,001
340356,1,3300002321,CRAMLINGTON,001
340385,1,3300002321,CRAMLINGTON,001
340400,1,3300002321,CRAMLINGTON,001
315130,1,3300002321,CRAMLINGTON,001
328641,1,3300002321,CRAMLINGTON,001
328644,1,3300002321,CRAMLINGTON,001
333119,1,3300002321,CRAMLINGTON,001
334351,1,3300002321,CRAMLINGTON,001
335238,1,3300002321,CRAMLINGTON,001
335241,1,3300002321,CRAMLINGTON,001
340415,1,3300002321,CRAMLINGTON,001
340416,1,3300002321,CRAMLINGTON,001
340418,1,3300002321,CRAMLINGTON,001
310915,1,3300002321,CRAMLINGTON,001
326939,1,3300002321,CRAMLINGTON,001
326944,1,3300002321,CRAMLINGTON,001
327704,1,3300002321,CRAMLINGTON,001
327706,1,3300002321,CRAMLINGTON,001
327711,1,3300002321,CRAMLINGTON,001
311877,1,3300002321,CRAMLINGTON,001
