310107,1,3300002263,CRAMLINGTON,001
310112,1,3300002263,CRAMLINGTON,001
315298,1,3300002263,CRAMLINGTON,001
331281,1,3300002263,CRAMLINGTON,001
336406,1,3300002263,CRAMLINGTON,001
304470,1,3300002263,CRAMLINGTON,001
316211,1,3300002263,CRAMLINGTON,001
296264,1,3300002263,CRAMLINGTON,001
234380,1,3300002263,CRAMLINGTON,001
312954,1,3300002263,CRAMLINGTON,001
332211,2,3300002263,CRAMLINGTON,001
333084,1,3300002263,CRAMLINGTON,001
333085,1,3300002263,CRAMLINGTON,001
333086,2,3300002263,CRAMLINGTON,001
333087,2,3300002263,CRAMLINGTON,001
333088,2,3300002263,CRAMLINGTON,001
333089,2,3300002263,CRAMLINGTON,001
333090,2,3300002263,CRAMLINGTON,001
333091,2,3300002263,CRAMLINGTON,001
333092,2,3300002263,CRAMLINGTON,001
333093,1,3300002263,CRAMLINGTON,001
333094,1,3300002263,CRAMLINGTON,001
333102,1,3300002263,CRAMLINGTON,001
333955,1,3300002263,CRAMLINGTON,001
333956,1,3300002263,CRAMLINGTON,001
333957,1,3300002263,CRAMLINGTON,001
333958,1,3300002263,CRAMLINGTON,001
333959,1,3300002263,CRAMLINGTON,001
333960,1,3300002263,CRAMLINGTON,001
333961,1,3300002263,CRAMLINGTON,001
