333948,1,3300002677,CRAMLINGTON,001
294191,1,3300002677,CRAMLINGTON,001
333139,1,3300002677,CRAMLINGTON,001
344188,1,3300002677,CRAMLINGTON,001
344516,1,3300002677,CRAMLINGTON,001
312014,1,3300002677,CRAMLINGTON,001
344533,1,3300002677,CRAMLINGTON,001
344534,1,3300002677,CRAMLINGTON,001
344560,1,3300002677,CRAMLINGTON,001
344277,1,3300002677,CRAMLINGTON,001
334708,1,3300002677,CRAMLINGTON,001
330823,1,3300002677,CRAMLINGTON,001
342578,1,3300002677,CRAMLINGTON,001
342582,1,3300002677,CRAMLINGTON,001
349789,1,3300002677,CRAMLINGTON,001
343992,1,3300002677,CRAMLINGTON,001
344015,1,3300002677,CRAMLINGTON,001
342120,1,3300002677,CRAMLINGTON,001
335828,1,3300002677,CRAMLINGTON,001
310111,1,3300002677,CRAMLINGTON,001
331277,1,3300002677,CRAMLINGTON,001
249228,1,3300002677,CRAMLINGTON,001
332029,1,3300002677,CRAMLINGTON,001
332951,1,3300002677,CRAMLINGTON,001
303242,1,3300002677,CRAMLINGTON,001
333375,1,3300002677,CRAMLINGTON,001
