349953,2,3300002656,CRAMLINGTON,001
349955,1,3300002656,CRAMLINGTON,001
349956,2,3300002656,CRAMLINGTON,001
349957,2,3300002656,CRAMLINGTON,001
349958,2,3300002656,CRAMLINGTON,001
349959,2,3300002656,CRAMLINGTON,001
349960,2,3300002656,CRAMLINGTON,001
349961,2,3300002656,CRAMLINGTON,001
349962,2,3300002656,CRAMLINGTON,001
349963,2,3300002656,CRAMLINGTON,001
349964,2,3300002656,CRAMLINGTON,001
