344190,1,3300002614,CRAMLINGTON,001
344516,1,3300002614,CRAMLINGTON,001
344518,1,3300002614,CRAMLINGTON,001
344519,1,3300002614,CRAMLINGTON,001
311884,1,3300002614,CRAMLINGTON,001
320607,1,3300002614,CRAMLINGTON,001
320615,1,3300002614,CRAMLINGTON,001
327736,1,3300002614,CRAMLINGTON,001
344528,1,3300002614,CRAMLINGTON,001
344531,1,3300002614,CRAMLINGTON,001
344532,1,3300002614,CRAMLINGTON,001
344533,1,3300002614,CRAMLINGTON,001
344545,1,3300002614,CRAMLINGTON,001
344547,1,3300002614,CRAMLINGTON,001
344566,1,3300002614,CRAMLINGTON,001
344249,1,3300002614,CRAMLINGTON,001
344252,1,3300002614,CRAMLINGTON,001
344255,1,3300002614,CRAMLINGTON,001
344262,1,3300002614,CRAMLINGTON,001
344265,1,3300002614,CRAMLINGTON,001
344268,1,3300002614,CRAMLINGTON,001
344277,1,3300002614,CRAMLINGTON,001
344279,1,3300002614,CRAMLINGTON,001
344791,1,3300002614,CRAMLINGTON,001
294719,1,3300002614,CRAMLINGTON,001
326722,1,3300002614,CRAMLINGTON,001
326744,1,3300002614,CRAMLINGTON,001
344457,1,3300002614,CRAMLINGTON,001
346314,1,3300002614,CRAMLINGTON,001
333480,1,3300002614,CRAMLINGTON,001
