318606,1,3300002273,CRAMLINGTON,001
330471,1,3300002273,CRAMLINGTON,001
333753,1,3300002273,CRAMLINGTON,001
334373,1,3300002273,CRAMLINGTON,001
301127,1,3300002273,CRAMLINGTON,001
330525,1,3300002273,CRAMLINGTON,001
330937,1,3300002273,CRAMLINGTON,001
330938,1,3300002273,CRAMLINGTON,001
330939,1,3300002273,CRAMLINGTON,001
330940,1,3300002273,CRAMLINGTON,001
310914,1,3300002273,CRAMLINGTON,001
310915,1,3300002273,CRAMLINGTON,001
326938,1,3300002273,CRAMLINGTON,001
326942,1,3300002273,CRAMLINGTON,001
327704,2,3300002273,CRAMLINGTON,001
327705,1,3300002273,CRAMLINGTON,001
327706,1,3300002273,CRAMLINGTON,001
327710,1,3300002273,CRAMLINGTON,001
311882,1,3300002273,CRAMLINGTON,001
327736,1,3300002273,CRAMLINGTON,001
327762,1,3300002273,CRAMLINGTON,001
337832,1,3300002273,CRAMLINGTON,001
312005,1,3300002273,CRAMLINGTON,001
326696,1,3300002273,CRAMLINGTON,001
326698,1,3300002273,CRAMLINGTON,001
326700,1,3300002273,CRAMLINGTON,001
303331,1,3300002273,CRAMLINGTON,001
320629,1,3300002273,CRAMLINGTON,001
337852,1,3300002273,CRAMLINGTON,001
294722,1,3300002273,CRAMLINGTON,001
