351144,1,3300002730,CRAMLINGTON,001
300462,1,3300002730,CRAMLINGTON,001
330786,1,3300002730,CRAMLINGTON,001
347799,1,3300002730,CRAMLINGTON,001
244517,1,3300002730,CRAMLINGTON,001
330696,1,3300002730,CRAMLINGTON,001
330712,1,3300002730,CRAMLINGTON,001
347497,1,3300002730,CRAMLINGTON,001
347782,1,3300002730,CRAMLINGTON,001
310501,1,3300002730,CRAMLINGTON,001
351268,1,3300002730,CRAMLINGTON,001
338085,1,3300002730,CRAMLINGTON,001
334384,1,3300002730,CRAMLINGTON,001
344012,1,3300002730,CRAMLINGTON,001
347412,1,3300002730,CRAMLINGTON,001
336476,1,3300002730,CRAMLINGTON,001
351216,1,3300002730,CRAMLINGTON,001
331282,1,3300002730,CRAMLINGTON,001
334276,1,3300002730,CRAMLINGTON,001
347026,1,3300002730,CRAMLINGTON,001
332819,1,3300002730,CRAMLINGTON,001
332510,1,3300002730,CRAMLINGTON,001
345226,1,3300002730,CRAMLINGTON,001
349058,1,3300002730,CRAMLINGTON,001
349141,1,3300002730,CRAMLINGTON,001
296261,1,3300002730,CRAMLINGTON,001
98511,1,3300002730,CRAMLINGTON,001
234379,1,3300002730,CRAMLINGTON,001
327953,1,3300002730,CRAMLINGTON,001
332027,1,3300002730,CRAMLINGTON,001
