332985,1,3300002731,CRAMLINGTON,001
347138,1,3300002731,CRAMLINGTON,001
348612,1,3300002731,CRAMLINGTON,001
347196,1,3300002731,CRAMLINGTON,001
348568,1,3300002731,CRAMLINGTON,001
350605,1,3300002731,CRAMLINGTON,001
303107,1,3300002731,CRAMLINGTON,001
327141,1,3300002731,CRAMLINGTON,001
327142,1,3300002731,CRAMLINGTON,001
349953,1,3300002731,CRAMLINGTON,001
350972,1,3300002731,CRAMLINGTON,001
