346029,1,3300002729,CRAMLINGTON,001
333010,1,3300002729,CRAMLINGTON,001
333018,1,3300002729,CRAMLINGTON,001
334371,1,3300002729,CRAMLINGTON,001
340391,1,3300002729,CRAMLINGTON,001
348794,1,3300002729,CRAMLINGTON,001
328644,1,3300002729,CRAMLINGTON,001
330936,1,3300002729,CRAMLINGTON,001
330937,1,3300002729,CRAMLINGTON,001
330940,1,3300002729,CRAMLINGTON,001
333117,1,3300002729,CRAMLINGTON,001
347051,1,3300002729,CRAMLINGTON,001
326116,1,3300002729,CRAMLINGTON,001
344487,1,3300002729,CRAMLINGTON,001
344492,1,3300002729,CRAMLINGTON,001
344504,1,3300002729,CRAMLINGTON,001
344506,1,3300002729,CRAMLINGTON,001
344518,1,3300002729,CRAMLINGTON,001
344521,1,3300002729,CRAMLINGTON,001
351246,1,3300002729,CRAMLINGTON,001
344533,1,3300002729,CRAMLINGTON,001
344560,1,3300002729,CRAMLINGTON,001
344564,1,3300002729,CRAMLINGTON,001
344252,1,3300002729,CRAMLINGTON,001
344263,1,3300002729,CRAMLINGTON,001
344264,1,3300002729,CRAMLINGTON,001
344265,1,3300002729,CRAMLINGTON,001
344280,2,3300002729,CRAMLINGTON,001
337842,1,3300002729,CRAMLINGTON,001
344311,1,3300002729,CRAMLINGTON,001
