347103,1,3300002657,CRAMLINGTON,001
296841,1,3300002657,CRAMLINGTON,001
330471,1,3300002657,CRAMLINGTON,001
333952,1,3300002657,CRAMLINGTON,001
333135,1,3300002657,CRAMLINGTON,001
333137,1,3300002657,CRAMLINGTON,001
344156,1,3300002657,CRAMLINGTON,001
294608,1,3300002657,CRAMLINGTON,001
344231,1,3300002657,CRAMLINGTON,001
344544,1,3300002657,CRAMLINGTON,001
344275,1,3300002657,CRAMLINGTON,001
349786,1,3300002657,CRAMLINGTON,001
344011,1,3300002657,CRAMLINGTON,001
331280,1,3300002657,CRAMLINGTON,001
326620,1,3300002657,CRAMLINGTON,001
327902,1,3300002657,CRAMLINGTON,001
327969,1,3300002657,CRAMLINGTON,001
332033,1,3300002657,CRAMLINGTON,001
341686,1,3300002657,CRAMLINGTON,001
335245,1,3300002657,CRAMLINGTON,001
343556,1,3300002657,CRAMLINGTON,001
