348217,1,3300002588,CRAMLINGTON,001
348218,1,3300002588,CRAMLINGTON,001
348219,1,3300002588,CRAMLINGTON,001
348220,1,3300002588,CRAMLINGTON,001
348221,1,3300002588,CRAMLINGTON,001
348222,1,3300002588,CRAMLINGTON,001
348223,1,3300002588,CRAMLINGTON,001
330897,1,3300002588,CRAMLINGTON,001
312887,1,3300002588,CRAMLINGTON,001
307668,2,3300002588,CRAMLINGTON,001
340004,1,3300002588,CRAMLINGTON,001
