344030,1,3300002788,CRAMLINGTON,001
347104,1,3300002788,CRAMLINGTON,001
348781,1,3300002788,CRAMLINGTON,001
348783,1,3300002788,CRAMLINGTON,001
328640,1,3300002788,CRAMLINGTON,001
333113,1,3300002788,CRAMLINGTON,001
333138,1,3300002788,CRAMLINGTON,001
346150,1,3300002788,CRAMLINGTON,001
344190,1,3300002788,CRAMLINGTON,001
344501,1,3300002788,CRAMLINGTON,001
344506,1,3300002788,CRAMLINGTON,001
327749,1,3300002788,CRAMLINGTON,001
351244,1,3300002788,CRAMLINGTON,001
344547,1,3300002788,CRAMLINGTON,001
344560,1,3300002788,CRAMLINGTON,001
344563,1,3300002788,CRAMLINGTON,001
344294,1,3300002788,CRAMLINGTON,001
351130,1,3300002788,CRAMLINGTON,001
351144,1,3300002788,CRAMLINGTON,001
310701,1,3300002788,CRAMLINGTON,001
329304,1,3300002788,CRAMLINGTON,001
329305,1,3300002788,CRAMLINGTON,001
330786,1,3300002788,CRAMLINGTON,001
330792,1,3300002788,CRAMLINGTON,001
330801,1,3300002788,CRAMLINGTON,001
330804,1,3300002788,CRAMLINGTON,001
333387,1,3300002788,CRAMLINGTON,001
347799,1,3300002788,CRAMLINGTON,001
244516,1,3300002788,CRAMLINGTON,001
330699,1,3300002788,CRAMLINGTON,001
