331678,1,3300002672,CRAMLINGTON,001
315122,1,3300002672,CRAMLINGTON,001
328642,1,3300002672,CRAMLINGTON,001
328643,1,3300002672,CRAMLINGTON,001
330940,1,3300002672,CRAMLINGTON,001
347056,1,3300002672,CRAMLINGTON,001
351239,1,3300002672,CRAMLINGTON,001
351240,1,3300002672,CRAMLINGTON,001
351241,1,3300002672,CRAMLINGTON,001
351242,1,3300002672,CRAMLINGTON,001
351243,1,3300002672,CRAMLINGTON,001
351244,1,3300002672,CRAMLINGTON,001
351245,1,3300002672,CRAMLINGTON,001
351246,1,3300002672,CRAMLINGTON,001
351247,1,3300002672,CRAMLINGTON,001
351249,1,3300002672,CRAMLINGTON,001
351250,1,3300002672,CRAMLINGTON,001
344533,1,3300002672,CRAMLINGTON,001
344563,1,3300002672,CRAMLINGTON,001
344252,1,3300002672,CRAMLINGTON,001
344267,1,3300002672,CRAMLINGTON,001
351128,1,3300002672,CRAMLINGTON,001
351129,1,3300002672,CRAMLINGTON,001
351130,1,3300002672,CRAMLINGTON,001
351131,1,3300002672,CRAMLINGTON,001
351132,1,3300002672,CRAMLINGTON,001
351133,1,3300002672,CRAMLINGTON,001
351134,1,3300002672,CRAMLINGTON,001
351135,1,3300002672,CRAMLINGTON,001
351136,1,3300002672,CRAMLINGTON,001
