333012,1,3300002803,CRAMLINGTON,001
328641,1,3300002803,CRAMLINGTON,001
344520,1,3300002803,CRAMLINGTON,001
351245,1,3300002803,CRAMLINGTON,001
344307,1,3300002803,CRAMLINGTON,001
334705,1,3300002803,CRAMLINGTON,001
310696,1,3300002803,CRAMLINGTON,001
342647,1,3300002803,CRAMLINGTON,001
335818,1,3300002803,CRAMLINGTON,001
332540,1,3300002803,CRAMLINGTON,001
332542,1,3300002803,CRAMLINGTON,001
332545,1,3300002803,CRAMLINGTON,001
332546,1,3300002803,CRAMLINGTON,001
332623,1,3300002803,CRAMLINGTON,001
332624,1,3300002803,CRAMLINGTON,001
332627,1,3300002803,CRAMLINGTON,001
332631,1,3300002803,CRAMLINGTON,001
345180,1,3300002803,CRAMLINGTON,001
345290,1,3300002803,CRAMLINGTON,001
350141,1,3300002803,CRAMLINGTON,001
349144,1,3300002803,CRAMLINGTON,001
326913,1,3300002803,CRAMLINGTON,001
350606,1,3300002803,CRAMLINGTON,001
334753,1,3300002803,CRAMLINGTON,001
347358,1,3300002803,CRAMLINGTON,001
