294722,1,3300002469,CRAMLINGTON,001
312030,1,3300002469,CRAMLINGTON,001
312645,1,3300002469,CRAMLINGTON,001
344302,1,3300002469,CRAMLINGTON,001
344303,1,3300002469,CRAMLINGTON,001
344304,1,3300002469,CRAMLINGTON,001
344305,1,3300002469,CRAMLINGTON,001
344306,1,3300002469,CRAMLINGTON,001
344307,1,3300002469,CRAMLINGTON,001
344308,1,3300002469,CRAMLINGTON,001
344309,1,3300002469,CRAMLINGTON,001
344310,1,3300002469,CRAMLINGTON,001
344311,1,3300002469,CRAMLINGTON,001
344312,1,3300002469,CRAMLINGTON,001
310475,1,3300002469,CRAMLINGTON,001
330787,1,3300002469,CRAMLINGTON,001
330802,1,3300002469,CRAMLINGTON,001
333464,1,3300002469,CRAMLINGTON,001
333854,1,3300002469,CRAMLINGTON,001
330698,1,3300002469,CRAMLINGTON,001
333412,1,3300002469,CRAMLINGTON,001
323135,1,3300002469,CRAMLINGTON,001
312866,1,3300002469,CRAMLINGTON,001
343989,1,3300002469,CRAMLINGTON,001
343990,1,3300002469,CRAMLINGTON,001
343991,1,3300002469,CRAMLINGTON,001
343992,1,3300002469,CRAMLINGTON,001
343993,1,3300002469,CRAMLINGTON,001
343994,1,3300002469,CRAMLINGTON,001
343995,1,3300002469,CRAMLINGTON,001
