340424,1,3300002334,CRAMLINGTON,001
326937,1,3300002334,CRAMLINGTON,001
320614,1,3300002334,CRAMLINGTON,001
327747,1,3300002334,CRAMLINGTON,001
310504,1,3300002334,CRAMLINGTON,001
293331,1,3300002334,CRAMLINGTON,001
301968,1,3300002334,CRAMLINGTON,001
314271,1,3300002334,CRAMLINGTON,001
329366,1,3300002334,CRAMLINGTON,001
330882,1,3300002334,CRAMLINGTON,001
330883,1,3300002334,CRAMLINGTON,001
332909,1,3300002334,CRAMLINGTON,001
326812,1,3300002334,CRAMLINGTON,001
327144,1,3300002334,CRAMLINGTON,001
339936,1,3300002334,CRAMLINGTON,001
