349110,1,3300002619,CRAMLINGTON,001
349111,1,3300002619,CRAMLINGTON,001
349112,1,3300002619,CRAMLINGTON,001
349117,1,3300002619,CRAMLINGTON,001
349118,1,3300002619,CRAMLINGTON,001
349119,1,3300002619,CRAMLINGTON,001
349120,1,3300002619,CRAMLINGTON,001
349121,1,3300002619,CRAMLINGTON,001
349122,1,3300002619,CRAMLINGTON,001
349123,1,3300002619,CRAMLINGTON,001
349128,1,3300002619,CRAMLINGTON,001
349129,1,3300002619,CRAMLINGTON,001
349130,1,3300002619,CRAMLINGTON,001
349131,1,3300002619,CRAMLINGTON,001
349132,1,3300002619,CRAMLINGTON,001
349133,1,3300002619,CRAMLINGTON,001
349134,1,3300002619,CRAMLINGTON,001
349139,1,3300002619,CRAMLINGTON,001
349140,1,3300002619,CRAMLINGTON,001
349141,1,3300002619,CRAMLINGTON,001
349142,1,3300002619,CRAMLINGTON,001
349143,1,3300002619,CRAMLINGTON,001
349144,1,3300002619,CRAMLINGTON,001
349145,1,3300002619,CRAMLINGTON,001
349150,1,3300002619,CRAMLINGTON,001
349151,1,3300002619,CRAMLINGTON,001
349152,1,3300002619,CRAMLINGTON,001
349153,1,3300002619,CRAMLINGTON,001
349154,1,3300002619,CRAMLINGTON,001
349155,1,3300002619,CRAMLINGTON,001
