340414,1,3300002293,CRAMLINGTON,001
340415,1,3300002293,CRAMLINGTON,001
340416,1,3300002293,CRAMLINGTON,001
340417,1,3300002293,CRAMLINGTON,001
340418,1,3300002293,CRAMLINGTON,001
340419,1,3300002293,CRAMLINGTON,001
310920,1,3300002293,CRAMLINGTON,001
337826,1,3300002293,CRAMLINGTON,001
312005,1,3300002293,CRAMLINGTON,001
310698,1,3300002293,CRAMLINGTON,001
310497,1,3300002293,CRAMLINGTON,001
310498,1,3300002293,CRAMLINGTON,001
310499,2,3300002293,CRAMLINGTON,001
310500,2,3300002293,CRAMLINGTON,001
310501,2,3300002293,CRAMLINGTON,001
310502,2,3300002293,CRAMLINGTON,001
310503,2,3300002293,CRAMLINGTON,001
310504,2,3300002293,CRAMLINGTON,001
310505,3,3300002293,CRAMLINGTON,001
310506,3,3300002293,CRAMLINGTON,001
310507,1,3300002293,CRAMLINGTON,001
292174,1,3300002293,CRAMLINGTON,001
335733,1,3300002293,CRAMLINGTON,001
331305,1,3300002293,CRAMLINGTON,001
326862,1,3300002293,CRAMLINGTON,001
234420,1,3300002293,CRAMLINGTON,001
312888,1,3300002293,CRAMLINGTON,001
312890,1,3300002293,CRAMLINGTON,001
