309948,1,3300002763,CRAMLINGTON,001
309949,1,3300002763,CRAMLINGTON,001
309950,1,3300002763,CRAMLINGTON,001
309963,1,3300002763,CRAMLINGTON,001
309964,1,3300002763,CRAMLINGTON,001
309974,1,3300002763,CRAMLINGTON,001
309975,1,3300002763,CRAMLINGTON,001
349944,2,3300002763,CRAMLINGTON,001
