338085,1,3300002270,CRAMLINGTON,001
338299,1,3300002270,CRAMLINGTON,001
338300,1,3300002270,CRAMLINGTON,001
338301,1,3300002270,CRAMLINGTON,001
338302,1,3300002270,CRAMLINGTON,001
338303,1,3300002270,CRAMLINGTON,001
338304,1,3300002270,CRAMLINGTON,001
338305,1,3300002270,CRAMLINGTON,001
338306,1,3300002270,CRAMLINGTON,001
338307,1,3300002270,CRAMLINGTON,001
338308,1,3300002270,CRAMLINGTON,001
338602,1,3300002270,CRAMLINGTON,001
338603,1,3300002270,CRAMLINGTON,001
338604,1,3300002270,CRAMLINGTON,001
338605,1,3300002270,CRAMLINGTON,001
338606,1,3300002270,CRAMLINGTON,001
338607,1,3300002270,CRAMLINGTON,001
338608,1,3300002270,CRAMLINGTON,001
338609,1,3300002270,CRAMLINGTON,001
338625,1,3300002270,CRAMLINGTON,001
338626,1,3300002270,CRAMLINGTON,001
338627,1,3300002270,CRAMLINGTON,001
338628,1,3300002270,CRAMLINGTON,001
338629,1,3300002270,CRAMLINGTON,001
338630,1,3300002270,CRAMLINGTON,001
338631,1,3300002270,CRAMLINGTON,001
338632,1,3300002270,CRAMLINGTON,001
339444,1,3300002270,CRAMLINGTON,001
339445,1,3300002270,CRAMLINGTON,001
339446,1,3300002270,CRAMLINGTON,001
