327965,1,3300002560,CRAMLINGTON,001
330893,1,3300002560,CRAMLINGTON,001
341679,1,3300002560,CRAMLINGTON,001
312891,2,3300002560,CRAMLINGTON,001
332210,1,3300002560,CRAMLINGTON,001
332211,1,3300002560,CRAMLINGTON,001
347193,1,3300002560,CRAMLINGTON,001
254462,1,3300002560,CRAMLINGTON,001
331756,1,3300002560,CRAMLINGTON,001
307669,1,3300002560,CRAMLINGTON,001
343749,1,3300002560,CRAMLINGTON,001
