344263,1,3300002468,CRAMLINGTON,001
344264,2,3300002468,CRAMLINGTON,001
344265,2,3300002468,CRAMLINGTON,001
344266,2,3300002468,CRAMLINGTON,001
344267,2,3300002468,CRAMLINGTON,001
344268,1,3300002468,CRAMLINGTON,001
344269,1,3300002468,CRAMLINGTON,001
344270,1,3300002468,CRAMLINGTON,001
344274,1,3300002468,CRAMLINGTON,001
344275,1,3300002468,CRAMLINGTON,001
344276,1,3300002468,CRAMLINGTON,001
344277,1,3300002468,CRAMLINGTON,001
344278,2,3300002468,CRAMLINGTON,001
344279,2,3300002468,CRAMLINGTON,001
344280,2,3300002468,CRAMLINGTON,001
344281,2,3300002468,CRAMLINGTON,001
344282,1,3300002468,CRAMLINGTON,001
344283,1,3300002468,CRAMLINGTON,001
344284,1,3300002468,CRAMLINGTON,001
344288,1,3300002468,CRAMLINGTON,001
344289,1,3300002468,CRAMLINGTON,001
344290,1,3300002468,CRAMLINGTON,001
344291,1,3300002468,CRAMLINGTON,001
344292,2,3300002468,CRAMLINGTON,001
344293,2,3300002468,CRAMLINGTON,001
344294,2,3300002468,CRAMLINGTON,001
344295,2,3300002468,CRAMLINGTON,001
344296,1,3300002468,CRAMLINGTON,001
344297,1,3300002468,CRAMLINGTON,001
344298,1,3300002468,CRAMLINGTON,001
