credit_id,items
109506,230043
109507,230044
110468,232253
110600,232540
110703,232791
110725,"232821,232822"
110841,"233055,233056"
110951,233313
110977,233347
111279,234071
111401,234400
111412,234413
111484,234621
111499,234638
111518,234665
111730,235072
111733,235075
111873,235369
111929,235483
111942,235507
111947,235514
112074,235815
112075,235816
112105,235850
112120,235867
112133,235880
112135,235883
112181,236000
112190,236012
112191,236013
112195,236020
112211,236040
112265,236179
112267,236181
112295,236226
112318,236251
112338,236275
112586,236802
112593,236809
112626,236943
112702,237135
112933,237655
112966,237771
112975,237795
112996,237828
113001,237833
113122,238052
113226,238263
113299,238362
113318,238387
113442,238700
113447,238707
113488,238787
113489,238788
113590,239022
113620,239060
113636,239078
113654,239107
113661,239115
113662,239116
113682,239140
113827,239452
113847,239474
113851,239480
114175,239913
114184,239926
114221,239989
114222,239990
114246,240021
114279,240098
114285,240105
114286,240106
114300,240142
114302,240144
114349,240198
114369,240227
114473,240428
114554,"240526,240527"
114576,240550
114760,240955
114770,240967
114772,240969
114813,241039
114868,241136
114878,241148
114976,241368
114984,241376
114994,241387
115005,241398
115032,241427
115152,241691
115164,"241713,241714"
115299,241993
115385,242204
115467,242361
115472,242369
115486,242390
115598,242654
115601,242658
115606,242664
115622,242684
115625,"242687,242688"
115644,242707
115655,242719
115656,242720
115673,242738
115691,242756
115701,242769
115836,243167
115837,243168
115857,243231
116005,243539
116016,243555
116059,243642
116142,243899
116183,243967
116208,243998
116309,244201
116320,244216
116373,244291
116397,244355
116413,244372
116414,244373
116521,244628
116523,244634
116526,244647
116551,244680
116560,244694
116570,"244708,244709"
116579,244718
116581,244720
116583,244722
116584,244723
116624,244787
116711,245041
116751,245214
116780,245244
116796,245268
116799,245271
116807,245281
116811,"245287,245288"
116818,245299
116820,245301
116896,245485
117015,245726
117082,245886
117106,245918
117108,245920
117111,245923
117119,245942
117128,245951
117131,245954
117132,245955
117164,245988
117174,245999
117175,246000
117177,246002
117199,246023
117200,246024
117204,246028
117215,246038
117225,246048
117228,246051
117233,246056
117299,246201
117429,246481
117471,246544
117602,246868
117607,246873
117681,247048
117683,247050
117704,247080
117708,247084
117737,247114
117740,247117
117931,247539
117948,247560
118113,247880
118123,247991
118173,248102
118216,248175
118222,248180
118223,248181
118230,248188
118232,248192
118236,248196
118239,248204
118248,248214
118279,248253
118574,248929
118575,248930
118581,248937
118620,248990
118631,249003
118632,249004
118804,249466
118815,249479
118824,249489
118841,249509
118854,249524
118927,249666
118954,249702
119136,250096
119138,"250098,250099"
119147,250108
119157,250118
119192,250176
119197,250181
119211,250195
119212,250196
119222,250209
119354,250502
119439,250701
119473,250740
119475,250742
119480,250747
119493,250760
119518,250793
119519,250794
119613,250980
119626,250994
119632,250999
119791,251403
119808,251422
119833,251458
119927,251651
119945,251670
120001,251820
120031,251896
120060,251928
120073,251940
120104,252005
120109,252010
120140,252088
120147,252104
120148,252105
120270,252442
120271,252443
120291,252464
120306,252479
120442,252719
120456,252730
120458,252732
120473,252749
120609,253096
120651,253152
120722,253308
120728,253313
120766,253402
120786,253437
120803,253456
120816,253470
120829,253487
120831,253489
120945,"253719,253720"
120960,253736
121015,253847
121091,254019
121204,254281
121215,254293
121367,254676
121407,"254728,254729"
121540,254966
121679,255299
121876,255745
121908,255801
121975,255893
122015,255982
122032,256036
122111,256334
122132,256374
122326,256719
122356,256756
122357,256757
122444,256949
122446,256951
122451,256956
122745,257563
122764,257592
122776,257606
122916,257949
122981,258056
123004,258098
123018,258112
123032,258127
123047,258141
123051,258145
123082,258205
123110,258253
123182,258417
123187,258422
123313,258623
123384,258768
123393,258780
123400,258788
123492,259011
123495,259014
123503,259026
123569,259160
123590,259210
123660,259341
123665,259347
123669,259351
123683,259364
123689,259370
123700,259383
123716,259415
123765,259578
123819,259677
123826,259688
123847,259725
123939,259938
123940,259939
124139,260372
124149,260381
124158,260398
124173,260413
124224,260488
124243,260521
124300,260678
124312,260701
124313,260702
124375,260821
124378,260825
124383,260832
124412,260878
124445,260926
124466,260949
124467,260950
124471,260954
124479,260967
124618,261350
124625,261362
124627,261365
124641,261388
124647,261395
124651,261400
124659,261411
124661,261414
124663,261416
124672,261425
124747,261591
124803,261689
124834,261746
124837,261750
124851,261769
124948,261973
124949,261974
125009,262073
125028,262090
125092,262220
125169,262424
125224,262501
125230,262507
125252,262576
125335,262787
125349,262807
125504,263184
125511,263194
125570,263326
125591,263381
125621,263430
125627,263436
125628,263437
125638,263449
125918,264092
126001,264290
126045,264339
126052,264347
126057,264352
126082,264408
126099,264430
126254,264747
126281,264780
126311,264826
126410,265038
126412,265040
126432,265065
126456,265097
126459,265100
126482,265125
126686,265532
126706,265559
126795,265683
126802,265698
126804,265700
126889,265910
127035,266263
127043,266275
127051,266284
127189,266615
127193,266619
127204,266630
127233,266660
127450,267088
127624,267481
127640,267498
127767,267760
127793,267788
127910,268009
127973,268080
127981,268088
128004,268112
128068,268250
128074,268255
128477,269135
128479,269137
128547,269234
128580,269276
128592,269288
128703,269521
128796,269714
128937,269962
128965,269997
128966,269998
128996,270041
129075,270172
129076,270173
129077,270174
129078,270175
129079,270176
129080,270177
129081,270178
129082,270179
129083,270180
129084,270181
129085,270182
129086,270183
129087,270184
129088,270185
129154,270293
129332,270634
129342,270643
129346,270647
129443,270851
129555,271109
129561,271116
129580,271155
129594,271170
129609,271194
129618,271211
129753,271432
129857,271659
129858,271660
129904,271745
130000,271946
130024,271988
130061,272097
130174,272359
130181,272366
130182,272367
130249,272464
130257,272472
130276,272489
130533,273136
130546,273150
130560,273166
130564,273171
130571,273182
130672,273377
130673,273378
130777,273536
130788,273547
130795,273558
130801,273565
130817,273583
130883,273697
130934,273842
130953,273872
131155,"274366,274367"
131292,274557
131624,275163
131643,275183
131721,275272
131741,275293
131872,275553
131933,275663
131950,275682
132068,275902
132076,275909
132089,275924
132096,275932
132106,275942
132366,276590
132398,276631
132399,276632
132444,276686
132478,276721
132496,276739
132519,276771
132598,276934
132610,276951
132625,276968
132631,276976
132710,277193
132715,277198
132716,277199
132720,277203
132724,277206
132747,277235
132793,277337
132800,277345
132876,277427
132878,277429
132948,277542
132968,277565
132969,277566
133055,277770
133181,278073
133234,278135
133242,278144
133385,278427
133664,278970
133677,278986
133689,279008
133700,279022
133853,279240
133989,279542
134022,279583
134067,279660
134088,279688
134104,279704
