invoice_id,items
1234885,3631777
1235022,3632152
1235660,3634059
1236377,3635980
1236462,3636246
1236938,3637884
1237587,3639867
1238447,3642653
1238634,3643189
1239678,3646125
1240386,3647886
1240429,3648002
1240443,3648047
1241369,3650606
1241900,3652041
1242192,3652947
1242551,3653881
1242565,3653918
1242611,3654023
1242751,3654402
1242973,3655066
1243218,3655717
1244161,3658401
1244354,3659000
1244681,3660045
1244691,3660067
1245515,3662536
1245721,3663290
1246307,3664999
1246314,3665018
1246458,3665373
1246715,3666015
1247015,3666758
1247181,3667257
1247293,3667579
1247599,3668392
1247970,3669367
1248226,3670029
1250466,3676358
1250665,3676836
1250723,3676986
1251025,3677804
1251536,3679669
1251542,3679685
1251930,3680911
1251932,3680919
1251950,3680961
1252658,3683368
1253754,3686879
1253756,3686883
1254142,3688086
1254568,3689407
1254681,3689707
1254979,3690634
1255026,3690784
1255057,3690866
1255321,3691675
1255350,3691768
1255467,3692077
1256479,3695305
1256586,3695659
1256623,3695759
1256673,3695870
1256710,3695963
1256915,3696572
1256973,3696793
1257417,3698396
1257797,3699721
1257828,3699817
1257853,3699858
1258479,3701895
1259575,3705347
1260392,3707844
1260501,3708128
1260502,3708129
1260889,3709270
1260962,3709433
1261088,3709795
1261575,3711209
1261737,3711636
1261769,3711747
1261801,3711854
1262085,3712677
1262149,3712866
1262846,3715148
1263061,3715929
1265077,3721867
1265788,3723964
1265868,3724175
1265923,3724330
1266147,3725067
1266478,3726000
1266588,3726293
1267178,3728132
1267243,3728316
1267325,3728564
1267410,3728775
1267494,3729011
1267566,3729179
1267735,3729647
1267886,3730059
1267961,3730267
1268432,3731521
1268701,3732313
1269001,3733192
1269092,3733445
1269250,3733875
1269632,3734938
1270214,3736622
1270370,3737013
1270415,3737113
1270609,3737844
1270855,3738628
1271183,3739660
1271343,3740055
1272255,3743139
1273119,3746301
1273300,3746868
1276402,3756109
1276732,3757165
1277075,3758195
1277085,3758219
1277365,3759062
1277702,3759980
1278233,3761418
1278329,3761642
1279431,3765007
1279708,3765933
1279805,3766187
1279927,3766550
1280971,3769585
1281137,3770045
1281186,3770194
1281214,3770294
1281611,3771465
1282100,3772996
1283146,3776059
1283858,3778196
1284794,3781227
1285158,3782392
1285193,3782476
1285364,3783093
1285740,3784704
1285919,3785225
1286349,3786546
1286729,3787841
1286954,3788400
1287023,3788575
1287301,3789637
1287530,3790285
1287539,3790296
1287540,3790298
1287541,3790300
1287542,3790302
1287800,3791072
1287823,3791127
1287829,3791143
1287840,3791168
1288104,3791993
1288154,3792128
1289298,3795389
1289661,3796598
1290050,3797778
1290154,3798139
1290250,3798413
1290288,3798517
1290574,3799583
1290672,3799940
1290836,3800558
1291030,3801053
1291309,3801805
1291763,3803868
1292053,3804849
1292263,3805360
1292464,3805834
1292705,3806706
1293518,3809417
1294676,3812596
1295049,3814065
1295306,3814863
1295457,3815333
1295577,3815762
1295828,3816433
1296161,3817402
1296363,3817977
1296468,3818332
1296513,3818465
1296515,3818469
1297037,3819973
1297139,3820280
1297192,3820427
1297288,3820713
1297948,3822786
1298206,3823424
1298663,3824651
1299052,3825891
1299737,3828111
1299880,3828658
1300001,3829050
1300272,3829843
1300358,3830057
1301215,3832995
1301229,3833021
1301657,3834121
1301664,3834135
1302357,3836225
1303560,3839573
1304015,3841010
1304327,3842006
1304932,3843887
1305121,3844439
1305414,3845305
1306401,3848011
1306789,3849133
1307345,3850839
1307429,3851135
1307430,3851136
1307500,3851291
1307660,3851737
1307987,3852790
1308156,3853327
1308312,3853880
1309428,3857028
1309466,3857161
1309573,3857438
1309952,3858526
1310231,3859385
1310768,3861100
1311335,3863117
1311641,3864024
1311788,3864503
1312162,3865886
1312254,3866131
1312345,3866390
1312399,3866522
1312939,3868162
1312958,3868198
1313113,3868816
1313319,3869481
1313527,3870019
1313577,3870117
1313822,3870870
1314048,3871593
1314160,3871969
1314867,3874159
1314868,3874160
1315341,3875453
1315582,3876143
1315716,3876574
1316231,3877930
1316337,3878268
1316345,3878299
1316373,3878357
1316417,3878471
1317171,3880679
1317274,3880976
1317295,3881035
1317749,3882528
1317910,3883101
1317979,3883290
1318095,3883625
1318226,3884067
1318254,3884169
1318363,3884504
1318686,3885701
1319493,3887927
1319894,3889219
1320598,3891337
1321021,3892700
1321034,3892754
1321338,3893636
1321535,3894320
1321638,3894552
1321843,3895201
1322289,3896356
1322502,3896957
1322511,3896974
1322749,3897725
1322974,3898343
1323572,3900213
1323639,3900401
1323931,3901173
1323961,3901298
1323985,3901372
1323987,3901391
1324006,3901447
1324256,3902187
1324427,3902663
1324696,3903451
1324740,3903601
1324759,3903669
1325166,3904821
1325196,3904917
1325628,3906159
1325633,3906171
1325967,3907055
1326146,3907602
1326306,3908077
1326550,3908912
1326870,3909928
1327011,3910253
1327038,3910351
1327600,3912109
1328080,3913389
1328447,3914338
1328628,3914880
1328693,3915022
1328725,3915120
1328802,3915334
1328885,3915506
1328916,3915569
1329147,3916148
1329723,3917780
1330051,3918680
1330074,3918733
1330245,3919199
1330274,3919285
1330585,3920207
1330858,3921003
1331247,3922137
1331462,3922713
1331829,3923745
1332019,3924214
1332498,3925755
1332564,3925907
1332803,3926544
1332875,3926728
1332920,3926876
1333635,3928907
1333657,3928958
1333663,3928966
1333801,3929327
1334040,3929891
1334281,3930644
1335135,3933086
1335480,3934117
1335641,3934490
1335935,3935226
1335938,3935232
1336300,3936283
1336585,3937096
1337006,3938283
1337007,3938285
1337790,3940399
1337816,3940479
1338154,3941289
1338715,3942894
1338844,3943338
1338978,3943713
1339209,3944323
1339308,3944501
1339505,3945057
1339606,3945452
1339607,3945454
1339710,3945873
1339711,3945875
1339990,3946903
1340352,3947969
1340420,3948122
1340477,3948275
1340919,3949660
1340945,3949772
1341383,3951113
1341765,3952035
1341896,3952361
1341897,3952363
1342314,3953606
1342584,3954350
1342595,3954388
1342636,3954479
1343018,3955517
1343019,3955518
1343100,3955817
1343390,3956921
1343791,3958210
1343874,3958443
1343928,3958648
1343929,3958650
1343953,3958688
1344128,3959296
1344345,3960016
1344544,3960791
1344660,3961129
1344824,3961641
1344997,3962314
1345914,3965199
1345925,3965226
1345959,3965331
1346212,3966089
1346437,3966872
1346635,3967480
1346773,3967867
1346789,3967899
1346799,3967913
1346805,3967954
1347165,3969148
1347243,3969479
1347297,3969617
1347311,3969656
1347326,3969695
1347391,3969850
1347875,3971614
1348203,3972674
1348247,3972855
1348491,3973504
1348536,3973696
1348917,3974786
1348952,3974952
1349017,3975162
1349044,3975235
1349047,3975241
1349189,3975665
1349314,3976061
1349485,3976618
1349499,3976663
1349539,3976784
1349690,3977399
1349903,3978034
1349933,3978106
1350051,3978426
1350128,3978714
1350183,3978903
1350206,3978946
1350283,3979114
1350445,3979436
1350607,3979771
1350890,3980490
1351570,3982360
1351577,3982371
1351720,3982715
1351850,3983087
1351867,3983136
1352090,3983599
1352144,3983727
1352556,3984804
1352560,3984809
1352744,3985244
1352842,3985496
1353361,3986802
1353487,3987118
1353581,3987329
1353727,3987683
1353814,3987905
1354128,3988723
1354382,3989416
1354915,3990819
1355438,3992272
1355697,3993095
1355715,3993131
1356030,3993872
1356048,3993904
1356228,3994287
1356237,3994309
1356497,3994949
1356967,3996224
1357002,3996366
1357081,3996534
1357378,3997252
1357431,3997408
1357680,3997938
1357739,3998124
1359031,4001837
1359506,4003226
1359728,4003825
1359804,4003996
1359832,4004073
1359983,4004499
1360211,4005110
1360324,4005424
1360419,4005646
1360468,4005720
1360688,4006341
1361013,4007354
1361316,4008299
1362023,4010369
1362254,4010885
1362273,4010912
1362279,4010919
1362311,4010963
1363312,4013901
1363894,4015454
1363916,4015501
1363917,4015503
1363966,4015614
1364002,4015719
1364727,4017536
1365276,4019135
1365348,4019321
1365363,4019355
1365489,4019742
1365522,4019809
1365577,4019975
1365871,4020731
1366266,4021773
1366447,4022257
1366592,4022637
1366827,4023293
1366943,4023656
1367342,4024632
1367394,4024773
1367512,4025098
1367552,4025227
1367787,4025870
1367951,4026300
1368158,4026825
1368335,4027236
1368439,4027536
1368501,4027678
1368707,4028147
1368752,4028249
1369422,4030331
1369544,4030795
1370030,4032343
1370307,4033234
1370518,4033775
1370645,4034102
1370662,4034127
1370663,4034129
1370875,4034686
1370911,4034757
1371111,4035448
1371313,4036155
1371337,4036286
1371583,4036844
1371632,4036955
1371769,4037286
1372202,4038874
1372628,4039993
1372748,4040297
1372756,4040311
1373181,4041722
1373253,4041930
1373608,4042853
1374140,4044506
1374427,4045303
1374638,4045918
1374703,4046093
1375060,4047106
1375064,4047121
1375346,4047907
1375541,4048464
1375550,4048486
1375577,4048563
1375747,4048988
1376529,4051448
1376557,4051532
1376619,4051694
1377004,4052768
1377787,4055272
1377793,4055283
1377803,4055299
1378035,4055979
1379284,4060401
1379285,4060403
1379450,4061044
1379953,4062599
1380037,4062815
1380094,4062922
1380266,4063416
1380998,4065529
1381158,4065897
1381202,4065989
1381465,4066650
1381529,4066796
1381629,4067078
1381691,4067231
1381924,4067788
1381934,4067821
1382047,4068126
1382158,4068456
1382488,4069352
1382711,4069923
1382712,4069925
1382800,4070143
1383209,4071292
1383330,4071735
1383550,4072394
1383649,4072740
1383927,4073467
1384084,4073921
1384194,4074214
1384520,4075179
1384867,4076385
1385640,4078744
1385860,4079422
1385911,4079561
1386278,4080512
1387021,4082450
1387483,4083949
1387484,4083951
1387794,4084949
1388090,4085721
1388169,4085916
1388302,4086262
1388338,4086389
1388525,4086867
1388536,4086892
1388609,4087106
1388734,4087486
1388735,4087488
1389070,4088381
1389308,4089100
1389360,4089253
1389855,4090734
1390453,4092627
1390821,4093680
1391112,4094535
1391113,4094537
1391502,4095545
1391554,4095694
1391989,4097079
1392159,4097607
1392905,4100274
1393450,4101705
1393553,4102046
1393554,4102048
1394003,4103299
1394045,4103464
1394177,4104091
1394265,4104413
1394303,4104567
1394318,4104621
1394337,4104714
1394712,4105677
1395060,4106575
1395123,4106723
1395203,4106973
1395213,4106996
1395527,4107822
1395597,4108036
1395680,4108304
1395707,4108370
1395761,4108528
1395840,4108796
1395854,4108826
1396010,4109249
1396129,4109535
1396313,4110060
1396516,4110584
1396932,4111898
1397096,4112326
1397305,4112905
1397385,4113137
1397548,4113679
1397585,4113780
1397878,4114956
1398021,4115483
1398587,4117283
1398712,4117761
1399514,4120379
1399665,4120828
1399926,4121556
1399945,4121614
1400088,4122018
1400168,4122224
1400177,4122247
1400235,4122394
1400418,4123106
1400994,4124760
1401095,4125086
1401261,4125495
1401596,4126384
1401839,4127013
1402135,4128062
1402365,4128802
1402394,4128872
1402815,4130380
1403431,4132294
1403724,4133205
1403831,4133578
1404014,4134189
1404067,4134345
1404329,4135261
1404381,4135496
1404416,4135585
1404750,4136514
1405067,4137636
1405220,4138184
1405598,4139235
1405600,4139239
1405603,4139245
1406206,4141302
1406231,4141359
1406259,4141422
1406374,4141665
1406375,4141667
1407109,4144021
1407797,4146016
1409193,4150758
1409386,4151435
1409536,4151867
1409638,4152147
1410298,4153946
1410306,4153963
1410322,4153991
1410531,4154723
1410853,4155590
1411590,4157717
1411806,4158256
1412130,4159367
1412430,4160148
1412594,4160524
1412615,4160565
1412628,4160586
1413165,4162284
1413537,4163250
1413553,4163285
1413864,4164104
1414068,4164638
1414212,4165033
1414221,4165050
1414498,4165875
1414849,4166965
1414953,4167195
1414960,4167220
1415151,4167721
1415154,4167727
1415726,4169497
1415954,4170053
1416097,4170407
1416577,4171696
1416955,4172664
1417094,4172965
1417146,4173101
1417160,4173145
1417678,4174802
1418186,4176066
1418531,4177175
1418759,4177898
1418870,4178182
1419177,4179085
1419187,4179103
1419332,4179665
1419560,4180471
1419881,4181248
1419882,4181250
1420008,4181541
1420048,4181696
1420180,4182075
1420248,4182243
1421263,4185104
1421342,4185270
1421362,4185382
1421474,4185738
1421518,4185872
1422050,4187654
1422107,4187799
1422187,4188014
1422474,4188874
1422506,4188952
1422549,4189070
1422782,4189800
1422836,4189900
1423325,4191454
1423394,4191598
1423734,4192490
1424356,4194552
1424643,4195637
1424949,4196561
1424985,4196705
1425054,4196957
1425097,4197116
1425253,4197487
1425271,4197542
1425573,4198422
1425659,4198670
1425698,4198811
1425849,4199305
1425962,4199653
1425984,4199724
1426069,4199925
1426074,4199936
1426271,4200683
1426338,4200827
1426374,4200935
1426577,4201446
1426765,4202012
1426768,4202018
1426769,4202020
1426926,4202519
1426928,4202522
1427301,4203861
1427364,4204052
1427396,4204152
1427465,4204316
1427998,4205845
1428029,4205979
1428030,4205981
1428214,4206510
1428811,4207781
1429144,4208506
1429623,4209799
1429774,4210138
1430000,4210630
1430106,4210845
1430233,4211130
1430517,4212211
1430607,4212529
1430663,4212704
1430782,4213109
1430948,4213546
1430995,4213689
1431093,4213900
1431223,4214178
1431316,4214444
1431562,4215217
1431645,4215472
1433134,4219778
1433283,4220165
1433577,4220826
1433820,4221501
1434055,4222342
1434227,4222885
1434357,4223216
1434410,4223351
1434863,4224633
1435375,4226532
1435516,4226992
1435977,4228748
1436233,4229386
1436553,4230244
1437122,4231769
1437161,4231860
1437300,4232212
1437557,4232856
1437804,4233627
1438313,4235042
1438390,4235291
1438700,4236700
1439069,4237927
1439079,4237985
1439090,4238027
1439220,4238342
1439277,4238495
1439354,4238831
1439526,4239316
1439538,4239338
1439922,4240218
1439954,4240324
1440116,4240735
1440194,4240894
1440615,4241953
1440831,4242572
1440917,4242840
1441507,4244549
1441562,4244729
1441926,4246182
1441952,4246246
1443008,4249196
1443079,4249348
1443329,4249943
1443708,4251080
1443788,4251359
1444048,4252235
1444049,4252237
1444073,4252294
1444089,4252326
1444517,4253232
1444572,4253485
1444726,4254073
1444955,4254659
1445152,4255090
1445229,4255309
1445666,4256435
1445777,4256774
1446003,4257324
1446766,4259308
1446949,4259779
1447027,4259979
1447301,4260734
1447477,4261215
1447499,4261271
1447670,4261662
1447867,4262140
1447986,4262403
1448198,4262942
1448354,4263679
1448616,4264326
1449055,4265258
1449257,4265801
1449321,4265938
1449616,4266676
1449618,4266680
1449817,4267276
1449978,4267582
1449988,4267609
1450140,4267958
1450247,4268410
1450412,4268860
1450414,4268863
1451534,4272227
1451851,4273050
1452107,4273752
1452585,4275052
1452877,4275732
1452885,4275748
1453356,4277112
1453375,4277149
1453589,4277676
1453832,4278344
1453881,4278474
1453936,4278603
1454268,4279460
1454326,4279594
1454435,4279882
1454546,4280240
1455546,4283194
1455618,4283370
1455706,4283575
1455814,4283848
1455959,4284243
1456217,4285093
1456715,4286518
1456912,4286960
1456913,4286962
1457111,4287440
1457555,4288828
1457843,4289515
1457909,4289682
1458170,4290289
1458374,4290951
1458808,4292132
1458915,4292387
1458916,4292389
1460377,4296199
1460450,4296339
1460697,4297007
1460703,4297017
1460793,4297249
1460926,4297619
1461063,4297978
1461266,4298570
1461431,4299088
1461499,4299265
1461841,4300061
1461999,4300461
1462070,4300706
1462132,4300955
1462196,4301106
1462396,4301628
1462560,4302010
1462727,4302390
1462776,4302500
1462789,4302644
1463248,4303984
1463943,4305858
1464155,4306522
1464156,4306524
1464239,4306730
1464418,4307173
1464465,4307275
1464608,4307639
1464779,4308058
1465434,4309879
1465615,4310377
1465897,4311098
1466063,4311624
1466436,4312514
1466635,4312955
1466708,4313116
1466779,4313283
1466847,4313437
1466990,4313746
1467316,4314501
1467443,4314777
1467535,4314984
1467656,4315285
1467897,4315873
1468019,4316224
1468203,4316734
1468210,4316745
1468485,4317348
1468879,4318442
1469021,4318773
1469103,4319028
1469125,4319090
1469271,4319500
1469318,4319625
1469415,4319906
1469560,4320218
1469669,4320521
1469826,4320907
1470121,4321716
1470378,4322720
1470503,4323078
1471096,4324623
1471127,4324678
1471539,4325890
1471767,4326527
1471858,4326747
1472109,4327409
1472110,4327411
1472153,4327515
1472555,4328573
1472619,4328772
1472986,4329601
1473165,4329992
1473183,4330040
1473764,4331705
1473835,4331866
1474024,4332337
1474181,4332732
1474193,4332767
1474262,4332961
1474300,4333067
1474301,4333069
1474331,4333173
1474642,4333897
1474850,4334427
1474851,4334429
1474939,4334699
1474953,4334722
1475487,4335977
1475530,4336066
1475576,4336240
1475666,4336439
1475997,4337231
1476193,4337739
1476217,4337860
1476399,4338404
1476786,4339607
1476872,4339815
1476905,4339899
1477051,4340231
1477448,4341377
1477526,4341521
1477590,4341712
1477728,4342169
1477729,4342171
1477735,4342182
1477822,4342397
1477874,4342575
1477876,4342579
1477890,4342605
1477976,4342869
1478217,4343470
1478351,4343796
1478824,4345133
1478856,4345219
1478899,4345302
1478943,4345413
1479022,4345591
1479149,4345895
1479301,4346257
1479337,4346320
1479367,4346420
1479726,4347551
1479905,4347979
1480181,4348581
1480193,4348611
1480194,4348613
1480545,4349565
1480752,4350241
1480792,4350310
1480827,4350386
1480852,4350444
1480984,4350764
1481203,4351294
1481522,4351984
1481840,4352653
1481844,4352661
1481905,4352858
1481930,4352919
1481996,4353091
1482055,4353229
1482056,4353231
1482136,4353433
1482222,4353641
1482315,4353887
1482790,4355178
1482793,4355184
1482906,4355520
1482995,4355723
1483058,4355855
1483130,4356109
1483219,4356351
1483303,4356600
1483688,4357919
1483817,4358266
1483925,4358506
1483930,4358515
1483943,4358542
1484352,4359671
1484602,4360466
1484785,4360986
1484818,4361104
1484834,4361136
1484869,4361225
1485005,4361580
1485693,4363489
1485766,4363659
1485803,4363738
1485902,4363963
1485977,4364153
1486623,4365969
1487445,4368285
1487448,4368291
1487457,4368314
1487543,4368664
1487613,4368802
1487645,4368870
1487831,4369324
1488014,4369824
1488076,4369961
1488137,4370092
1488173,4370144
1488198,4370209
1488269,4370415
1488286,4370450
1488316,4370512
1488544,4371084
1488580,4371144
1488745,4371599
1488771,4371672
1488959,4372124
1489004,4372259
1489072,4372473
1489131,4372637
1489169,4372714
1489258,4372952
1489268,4372978
1489500,4373557
1489572,4373736
1490322,4376001
1490480,4376370
1490514,4376453
1490588,4376623
1491244,4378701
1491271,4378822
1491634,4379967
1491661,4380017
1492088,4381955
1492097,4381972
1492412,4382421
1492644,4383006
1492645,4383008
1492752,4383383
1492946,4383906
1493015,4384077
1493089,4384286
1493127,4384365
1493377,4384985
1493452,4385179
1493604,4385677
1494063,4387001
1494081,4387042
1494134,4387138
1494184,4387246
1494397,4387794
1494411,4387830
1494438,4387895
1494482,4388000
1494517,4388101
1494608,4388304
1494695,4388496
1494738,4388599
1495011,4389404
1495307,4390229
1495337,4390285
1495514,4390742
1495892,4391764
1495978,4392003
1496010,4392084
1496154,4392493
1496350,4393183
1496564,4393981
1496568,4393993
1496925,4395156
1496977,4395253
1496979,4395257
1497019,4395393
1497109,4395620
1497112,4395625
1497267,4396071
1497421,4396476
1497487,4396618
1497488,4396620
1497543,4396771
1497706,4397206
1498206,4398687
1498259,4398810
1498269,4398841
1498364,4399132
1498383,4399221
1498431,4399384
1498687,4400239
1498709,4400311
1498951,4401170
1499414,4402589
1499620,4403101
1499655,4403192
1499696,4403296
1499857,4403809
1499862,4403817
1500042,4404482
1500100,4404627
1500307,4405097
1500363,4405240
1500447,4405492
1500724,4406127
1500743,4406172
1501010,4406962
1501146,4407259
1501147,4407261
1501301,4407610
1501348,4407721
1501387,4407805
1501413,4407847
1501477,4407978
1501566,4408202
1501663,4408408
1501796,4408676
1501802,4408684
1501877,4409004
1501923,4409113
1502690,4410749
1502744,4410922
1502746,4410928
1503010,4411481
1503047,4411570
1503056,4411588
1503063,4411601
1503163,4411860
1503295,4412135
1503320,4412213
1503347,4412282
1503401,4412404
1503502,4412663
1503653,4413190
1503826,4413673
1504626,4415840
1504706,4415990
1504719,4416016
1504900,4416548
1505144,4417405
1505217,4417529
1505221,4417536
1505517,4418273
1505533,4418312
1505612,4418537
1505623,4418558
1505997,4419408
1506090,4419601
1506654,4421040
1506779,4421405
1506912,4421700
1507099,4422087
1507708,4423906
1507947,4424687
1508297,4425569
1508418,4425901
1508432,4425932
1508636,4426264
1508642,4426276
1508987,4427013
1509195,4427404
1509255,4427636
1509279,4427714
1509503,4428291
1509522,4428333
1509686,4428629
1509733,4428703
1509734,4428705
1509737,4428710
1509742,4428720
1509997,4429246
1510021,4429317
1510275,4429950
1510277,4429953
1510345,4430095
1510346,4430097
1510347,4430099
1510457,4430431
1510626,4430893
1511017,4431606
1511102,4431802
1511398,4432412
1511650,4432948
1511651,4432950
1511912,4433572
1512043,4433868
1512550,4435025
1512928,4435937
1513006,4436109
1513150,4436444
1513207,4436550
1513350,4436935
1513462,4437225
1513596,4437573
1513660,4437681
1513686,4437743
1513695,4437760
1513780,4437927
1514183,4439259
1514393,4439738
1514796,4440748
1515117,4441498
1515177,4441690
1515305,4441957
1515374,4442127
1515767,4443164
1516196,4444117
1516318,4444439
1516455,4444897
1516851,4446130
1517043,4446514
1517237,4446919
1517318,4447047
1517601,4447752
1517750,4448081
1518055,4448941
1518114,4449093
1518116,4449097
1518150,4449215
1518211,4449396
1518401,4449809
1518477,4449939
1518491,4449965
1518762,4450675
1518964,4451251
1519166,4451607
1519440,4452156
1519546,4452407
1519971,4453412
1520080,4453686
1520682,4455055
1520848,4455500
1520990,4455853
1521077,4456078
1521175,4456329
1521481,4456956
1521496,4457002
1521718,4457551
1521763,4457661
1521843,4457893
1521897,4458053
1522059,4458459
1522564,4460323
1522568,4460333
1522812,4460948
1523039,4461450
1523042,4461456
1523298,4462044
1523876,4463532
1523929,4463663
1524054,4463995
1524225,4464426
1524310,4464599
1524632,4465271
1524773,4465648
1524839,4465769
1524918,4466102
1525115,4466676
1525116,4466678
1525118,4466682
1525330,4467130
1525389,4467245
1525575,4467620
1525680,4467842
1525914,4468463
1526043,4468883
1526125,4469192
1526163,4469318
1526313,4469602
1526493,4470005
1526581,4470204
1526653,4470380
1526813,4470812
1527141,4471674
1527239,4471863
1527240,4471865
1527264,4471959
1527355,4472152
1527360,4472162
1527498,4472502
1527617,4472779
1527620,4472783
1527680,4472951
1527862,4473398
1527972,4473608
1528007,4473677
1528011,4473685
1528233,4474270
1528332,4474496
1528476,4474858
1528754,4475550
1529220,4476883
1529233,4476919
1529396,4477260
1529572,4477781
1529684,4478104
1529818,4478451
1530051,4478925
1530085,4479003
1530138,4479176
1530185,4479334
1530188,4479340
1530189,4479342
1530191,4479348
1530192,4479350
1530266,4479542
1530281,4479613
1530410,4480006
1530806,4480928
1530885,4481066
1531001,4481317
1531082,4481558
1531140,4481662
1531189,4481809
1531274,4481969
1531320,4482075
1531387,4482240
1531445,4482493
1531451,4482504
1531603,4483034
1531823,4483728
1531876,4483891
1531993,4484094
1532036,4484197
1532103,4484362
1532104,4484364
1532115,4484384
1532192,4484527
1532193,4484529
1532194,4484531
1532255,4484651
1532327,4484821
1532329,4484825
1532414,4485075
1532641,4485701
1532679,4485819
1533047,4486930
1533256,4487381
1533337,4487570
1533338,4487572
1533347,4487590
1533381,4487671
1533382,4487673
1533559,4488059
1533595,4488127
1533672,4488288
1533697,4488353
1533703,4488379
1533804,4488601
1534042,4489207
1534310,4489790
1534350,4489883
1534388,4489949
1534424,4490033
1534620,4490517
1534768,4490848
1534821,4491034
1535395,4492713
1535636,4493244
1535794,4493590
1535987,4494093
1536035,4494208
1536037,4494211
1536041,4494219
1536411,4495089
1536413,4495093
1536636,4495692
1536736,4495944
1536883,4496268
1538566,4501291
1538576,4501306
1538639,4501459
1538736,4501733
1538778,4501872
1538807,4501970
1539018,4502603
1539048,4502670
1539173,4503013
1539218,4503215
1539221,4503221
1539472,4503840
1539762,4504624
1539832,4504817
1539876,4504972
1540047,4505449
1540886,4508307
1540928,4508431
1541031,4508723
1541060,4508827
1541475,4510308
1541493,4510368
1541863,4511298
1542003,4511672
1542030,4511739
1542347,4512478
1542470,4512725
1542523,4512846
1542620,4513067
1543063,4514288
1543133,4514525
1543290,4515024
1543292,4515028
1543348,4515143
1543409,4515311
1543487,4515455
1543517,4515527
1543530,4515570
1543578,4515718
1543646,4515904
1543693,4516054
1543754,4516214
1543966,4516759
1544599,4518843
1544605,4518851
1544754,4519208
1544917,4519631
1545108,4520100
1545165,4520210
1545228,4520357
1545401,4520815
1545428,4520914
1545515,4521200
1545536,4521249
1545553,4521278
1545571,4521312
1545702,4521644
1545713,4521674
1545735,4521772
1546007,4522458
1546124,4522786
1546130,4522796
1546136,4522809
1546170,4522893
1546729,4524222
1546774,4524320
1546984,4524868
1547040,4524982
1547203,4525326
1547387,4526045
1547871,4527392
1547958,4527587
1548048,4527777
1548120,4527975
1548133,4527998
1548188,4528116
1548400,4528678
1548535,4529105
1548570,4529189
1548582,4529221
1548618,4529292
1548632,4529363
1549061,4530631
1549368,4531427
1549370,4531431
1549390,4531474
1549396,4531485
1549676,4531968
1550062,4533279
1550097,4533364
1550164,4533468
1550304,4533728
1550396,4533920
1550400,4533928
1550600,4534438
1550780,4534941
1550795,4535002
1550907,4535300
1551118,4535975
1551340,4536502
1551433,4536747
1551670,4537337
1551884,4537779
1552059,4538272
1552076,4538325
1552660,4539928
1552851,4540272
1553148,4541031
1553450,4541774
1553847,4542825
1553873,4542870
1553940,4543062
1554000,4543214
1554082,4543448
1554168,4543651
1554169,4543653
1554251,4543831
1554369,4544078
1554384,4544134
1554469,4544359
1554552,4544570
1554644,4544852
1554827,4545316
1554861,4545415
1554960,4545603
1555015,4545736
1555059,4545834
1555093,4545917
1555121,4545983
1555624,4547220
1555673,4547376
1555733,4547586
1555790,4547753
1555860,4547951
1556053,4548427
1556117,4548612
1556172,4548758
1556173,4548760
1556232,4548889
1556258,4548935
1556278,4548996
1556405,4549352
1556421,4549383
1556445,4549429
1556649,4549967
1556747,4550196
1556939,4550820
1557347,4551876
1557415,4552029
1557762,4552968
1558114,4553938
1558469,4554950
1558496,4554996
1558621,4555386
1558648,4555459
1558760,4555787
1558955,4556396
1559076,4556845
1559126,4556990
1559297,4557460
1559313,4557514
1559568,4558246
1559615,4558362
1559616,4558364
1559738,4558712
1559759,4558781
1559795,4558854
1559920,4559165
1560194,4559927
1560409,4560619
1560614,4561163
1560625,4561184
1561013,4562179
1561300,4563042
1561484,4563504
1561516,4563602
1561603,4563826
1561715,4564127
1561726,4564171
1561899,4564654
1561906,4564672
1562076,4565051
1562078,4565054
1562256,4565717
1562295,4565823
1562366,4566005
1562570,4566569
1562623,4566732
1562661,4566815
1562829,4567199
1562869,4567304
1562895,4567389
1563037,4567767
1563047,4567793
1563080,4567875
1563172,4568158
1563183,4568192
1563211,4568308
1563391,4568832
1563470,4569014
1563581,4569267
1563595,4569295
1563645,4569411
1563756,4569713
1563780,4569771
1563919,4570254
1563936,4570295
1564040,4570720
1564194,4571263
1564405,4571991
1564466,4572104
1564519,4572254
1564535,4572321
1564571,4572426
1564647,4572625
1564721,4572795
1564752,4572916
1564910,4573371
1565173,4574094
1565175,4574098
1565228,4574206
1565231,4574220
1565232,4574222
1565448,4574900
1565468,4574976
1565577,4575251
1565605,4575364
1565704,4575653
1565853,4576099
1566092,4576665
1566093,4576667
1566405,4577500
1566406,4577502
1566422,4577576
1566464,4577707
1566574,4577956
1566576,4577959
1566608,4578038
1567006,4579206
1567758,4582154
1567802,4582236
1567836,4582306
1567898,4582420
1568056,4582939
1568084,4582990
1569001,4585203
1569006,4585213
1569008,4585217
1569425,4585871
1569671,4586634
1569910,4587274
1569928,4587324
1569984,4587454
1570073,4587715
1570112,4587822
1570409,4588705
1570447,4588843
1570953,4590172
1571022,4590336
1571361,4591216
1571382,4591257
1571568,4591767
1571686,4592058
1571799,4592411
1571801,4592415
1572141,4593305
1572253,4593669
1572511,4594322
1572638,4594635
1572639,4594637
1572743,4594893
1573086,4595916
1573106,4595967
1573582,4597212
1573680,4597492
1573760,4597708
1573926,4598241
1574198,4599090
1574458,4599838
1574489,4599927
1574590,4600272
1574739,4600677
1574992,4601368
1575225,4602005
1575338,4602326
1575732,4603499
1575786,4603691
1576267,4605091
1576446,4605542
1576491,4605717
1576492,4605723
1577328,4607995
1577412,4608224
1577519,4608466
1577615,4608633
1577786,4609072
1578428,4610656
1578651,4611153
1578668,4611213
1578723,4611438
1578835,4611691
1578971,4612029
1579097,4612327
1579247,4612713
1579263,4612744
1579310,4612857
1579412,4613060
1579488,4613198
1579489,4613200
1579492,4613205
1579660,4613572
1579690,4613628
1579773,4613793
1580068,4614475
1580213,4614884
1580298,4615125
1580358,4615253
1580562,4615665
1580574,4615702
1580693,4615912
1580871,4616286
1581161,4616830
1581265,4617090
1581355,4617331
1581377,4617372
1581630,4618062
1581951,4618824
1582060,4619086
1582084,4619157
1582085,4619159
1582198,4619383
1582248,4619512
1582267,4619551
1582304,4619625
1582327,4619705
1582523,4620250
1582561,4620355
1582573,4620377
1582589,4620402
1582684,4620605
1582731,4620732
1582966,4621324
1583009,4621417
1583079,4621618
1583404,4622279
1583576,4622679
1583721,4623013
1583779,4623132
1583846,4623327
1584013,4623703
1584015,4623707
1584275,4624290
1584344,4624411
1584501,4624742
1584587,4624924
1584867,4625626
1585060,4626012
1585077,4626049
1585194,4626322
1585240,4626416
1585255,4626471
1585301,4626562
1585302,4626564
1585321,4626597
1585360,4626703
1585387,4626780
1585490,4627033
1585624,4627303
1585718,4627545
1585727,4627558
1585845,4627878
1586192,4628587
1586238,4628703
1586391,4629097
1586475,4629254
1586496,4629310
1586649,4629621
1586690,4629718
1586758,4629839
1586775,4629866
1586873,4630135
1586876,4630141
1587166,4630893
1587418,4631650
1587535,4631958
1587603,4632172
1587614,4632196
1587638,4632248
1587983,4633085
1588018,4633179
1588074,4633300
1588174,4633541
1588205,4633610
1588487,4634284
1588559,4634437
1588569,4634459
1588622,4634649
1588651,4634720
1588684,4634791
1588835,4635278
1589029,4635727
1589146,4636071
1589433,4636692
1589652,4637090
1589828,4637470
1589863,4637584
1590061,4638004
1590080,4638105
1590245,4638568
1590258,4638590
1590443,4639052
1590458,4639081
1590493,4639146
1590683,4639598
1590948,4640217
1590951,4640223
1590982,4640297
1591009,4640347
1591119,4640589
1591216,4640847
1591252,4640942
1591267,4640972
1591395,4641196
1591446,4641452
1591493,4641592
1591920,4642637
1591976,4642757
1592080,4643099
1592097,4643141
1592109,4643171
1592254,4643425
1592385,4643730
1592675,4644315
1592857,4644697
1592858,4644699
1592870,4644737
1593154,4645444
1593173,4645507
1593294,4645786
1593358,4645963
1593692,4646668
1594204,4647737
1594205,4647739
1594241,4647810
1594297,4647934
1594529,4648495
1594790,4649035
1594856,4649265
1594877,4649303
1594935,4649392
1594945,4649413
1594947,4649417
1594969,4649469
1595160,4649851
1595280,4650095
1595344,4650216
1595876,4651500
1595884,4651515
1595975,4651706
1596108,4651984
1596495,4652793
1596525,4652858
1596537,4652889
1596539,4652895
1596595,4653013
1596870,4653592
1597013,4653897
1597029,4653963
1597294,4654461
1597371,4654700
1597500,4654999
1597529,4655075
1597782,4655690
1597804,4655758
1597985,4656285
1598032,4656410
1598249,4657055
1598307,4657171
1598327,4657205
1598437,4657491
1598500,4657624
1598657,4657970
1598764,4658210
1599291,4659391
1599320,4659732
1599494,4660356
1599592,4660616
1599796,4661144
1599960,4661562
1600206,4662084
1600341,4662415
1600488,4662744
1600912,4663766
1601255,4664478
1601336,4664668
1601371,4664780
1601418,4664876
1601444,4664930
1601743,4665746
1601916,4666258
1601976,4666378
1602000,4666435
1602144,4666747
1602218,4666891
1602303,4667073
1602337,4667146
1602412,4667302
1602414,4667306
1602520,4667562
1602561,4667662
1602710,4667964
1602747,4668024
1602877,4668260
1602930,4668424
1602943,4668449
1602952,4668462
1603026,4668623
1603049,4668677
1603104,4668881
1603123,4668934
1603274,4669259
1603385,4669549
1603581,4670113
1603616,4670220
1603666,4670346
1603849,4670792
1603977,4671063
1604586,4672303
1604899,4673050
1605096,4673805
1605122,4673920
1605511,4675192
1605570,4675315
1605894,4676047
1605916,4676085
1606054,4676430
1606112,4676586
1606113,4676588
1606115,4676592
1606192,4676818
1606240,4676926
1606295,4677081
1606650,4677894
1606896,4678428
1606932,4678538
1606964,4678623
1606975,4678661
1607099,4678985
1607108,4679032
1607259,4679445
1607289,4679502
1607305,4679541
1607449,4679922
1607469,4679959
1607516,4680061
1607548,4680155
1607580,4680218
1607989,4681081
1608132,4681404
1608140,4681417
1608161,4681471
1608259,4681693
1608372,4681932
1608514,4682301
1608619,4682508
1608893,4683137
1608922,4683226
1609213,4683866
1609400,4684350
1609415,4684400
1609599,4684836
1609725,4685133
1609835,4685399
1610165,4686249
1610345,4686675
1610346,4686677
1610432,4686862
1610708,4687563
1610731,4687649
1610782,4687752
1610890,4688020
1611056,4688366
1611058,4688370
1611232,4688750
1611415,4689181
1611482,4689334
1611604,4689669
1611638,4689757
1611710,4689971
1611959,4690638
1611989,4690711
1612127,4691066
1612242,4691407
1612263,4691459
1612382,4691712
1612704,4692664
1612736,4692746
1612836,4692931
1613044,4693376
1613092,4693499
1613120,4693546
1613520,4694527
1613568,4694633
1613743,4695149
1613995,4695876
1613996,4695878
1614001,4695885
1614034,4695979
1614043,4696025
1614044,4696027
1614286,4696513
1614885,4698035
1615152,4698881
1615230,4699034
1615334,4699276
1615523,4699741
1615531,4699753
1615560,4699814
1616090,4701535
1616498,4702487
1616575,4702746
1617101,4703900
1617462,4704724
1617972,4705984
1618256,4706549
1618652,4707387
1618767,4707691
1618780,4707717
1620088,4710892
1620188,4711144
1620332,4711560
1620551,4712179
1620580,4712257
1621051,4713514
1621206,4713981
1621335,4714464
1621367,4714533
1621470,4714760
1621907,4715907
1621946,4716037
1622254,4716824
1622669,4718099
1622701,4718161
1622914,4718707
1623028,4719056
1623277,4719680
1623387,4720005
1623475,4720222
1623538,4720326
1623763,4720958
1623941,4721428
1623979,4721533
1624032,4721704
1624101,4721898
1624228,4722179
1624759,4723700
1625158,4724999
1625858,4726903
1626011,4727310
1626027,4727352
1626096,4727512
1626150,4727652
1626465,4728476
1626959,4729745
1626973,4729789
1627596,4731245
1627630,4731345
1628282,4733013
1628580,4733756
1628884,4734638
1628966,4734846
1629018,4735043
1629241,4735538
1629343,4735770
1629521,4736149
1629556,4736213
1629791,4736826
1630719,4739223
1630728,4739250
1631002,4739985
1631211,4740545
1631281,4740717
1631342,4740929
1631348,4740964
1631350,4740968
1631608,4741766
1631682,4741946
1632007,4742816
1632837,4745187
1633488,4747069
1633631,4747561
1633792,4748136
1633921,4748461
1633922,4748463
1634036,4748768
1634054,4748801
1634066,4748842
1634229,4749273
1634340,4749588
1634382,4749694
1634419,4749819
1634465,4749923
1634664,4750470
1634846,4750911
1634968,4751211
1634978,4751237
1634979,4751239
1634981,4751243
1635308,4752141
1635383,4752344
1635491,4752691
1635551,4752865
1636064,4754397
1636075,4754418
1636213,4754824
1636320,4755094
1636436,4755319
1636437,4755321
1636673,4755931
1636696,4756001
1636779,4756201
1636819,4756306
1636912,4756542
1636915,4756548
1637430,4757822
1637496,4757949
1637545,4758033
1637698,4758286
1637701,4758292
1638387,4760015
1638552,4760352
1638620,4760491
1638726,4760707
1638873,4761061
1638874,4761063
1639595,4762587
1640035,4763574
1640051,4763608
1640102,4763723
1640179,4763910
1640261,4764095
1640436,4764506
1640662,4765048
1640721,4765220
1640916,4765721
1641101,4766155
1641114,4766187
1641324,4766622
1641658,4767470
1641684,4767519
1641746,4767678
1641875,4768060
1641984,4768312
1642084,4768616
1642425,4769421
1642805,4770337
1642917,4770567
1643048,4770829
1643372,4771692
1643593,4772235
1643836,4772757
1643911,4772981
1644191,4773539
1644207,4773566
1644416,4774104
1644830,4775148
1645176,4776090
1645374,4776530
1645697,4777253
1645703,4777265
1645738,4777332
1645805,4777460
1645868,4777610
1646306,4778868
1646455,4779258
1646460,4779268
1646574,4779506
1646726,4779859
1646808,4780025
1646829,4780054
1647195,4780949
1647408,4781444
1647985,4782958
1648318,4783676
1648326,4783696
1648662,4784443
1648858,4784860
1648885,4784912
1649217,4785649
1649226,4785662
1649286,4785779
1649354,4785973
1649557,4786404
1649786,4786946
1649810,4787007
1649918,4787260
1650008,4787505
1650034,4787564
1650294,4788185
1650624,4789010
1650652,4789071
1650690,4789151
1651227,4790464
1651398,4790946
1651467,4791115
1651939,4792399
1652154,4792989
1652370,4793369
1653442,4795854
1653600,4796218
1654004,4797013
1654021,4797062
1654215,4797551
1654450,4798140
1655070,4799564
1655139,4799709
1655253,4799919
1655363,4800124
1655762,4801326
1656177,4802198
1656274,4802381
1656385,4802610
1657073,4804192
1657465,4805114
1657609,4805380
1657616,4805396
1657715,4805625
1657956,4806153
1657975,4806207
1658137,4806488
1658141,4806498
1658486,4807310
1658562,4807450
1658939,4808304
1659073,4808647
1659084,4808672
1659461,4809540
1659935,4810705
1660222,4811490
1660273,4811582
1660863,4813096
1660864,4813098
1660931,4813273
1661548,4814590
1661599,4814698
1662124,4815917
1662129,4815926
1662241,4816151
1662615,4816884
1662984,4817744
1663128,4818040
1663161,4818180
1663560,4819127
1663842,4819722
1664545,4821358
1664745,4821947
1664788,4822099
1665356,4823275
1665441,4823458
1665785,4824091
1665913,4824338
1665951,4824410
1666239,4825066
1666255,4825097
1666258,4825103
1666486,4825555
1666647,4825870
1666730,4826030
1667129,4826886
1667329,4827327
1667803,4828323
1667811,4828334
1667939,4828568
1668550,4829765
1668640,4829926
1668704,4830040
1668721,4830075
1669580,4831746
1669616,4831829
1669643,4831884
1669717,4832027
1669932,4832486
1670656,4833988
1671350,4835429
1671629,4836018
1671643,4836055
1671690,4836137
1671791,4836358
1672021,4836808
1672428,4837660
1672985,4838932
1673139,4839244
1673276,4839458
1673847,4840474
1674066,4840951
1674172,4841175
1675054,4842961
1675066,4842993
1675195,4843221
1675669,4844372
1675918,4845199
1676101,4845718
1676510,4846556
1676588,4846695
1676659,4846839
1676672,4846865
1676811,4847085
1677203,4848043
1677204,4848045
1677426,4848547
1677791,4849212
1677904,4849404
1678160,4849997
1678889,4851743
1679973,4853907
1680098,4854159
1680168,4854299
1680258,4854469
1680324,4854605
1680454,4854886
1680933,4855782
1681290,4856541
1681837,4857867
1681904,4858019
1682281,4858936
1682750,4859987
1683427,4861470
1683440,4861492
1683570,4861772
1683860,4862330
1684020,4862679
1684623,4863891
1684886,4864510
1684903,4864560
1685833,4866574
1686054,4867000
1686060,4867023
1686111,4867213
1686184,4867367
1686340,4867687
1686348,4867700
1686468,4868090
1687093,4869529
1687144,4869624
1687175,4869695
1687656,4870884
1687888,4871411
1687931,4871496
1688089,4871834
1688204,4872117
1688227,4872178
1689040,4874123
1689099,4874238
1689166,4874389
1689353,4874850
1689691,4875578
1689912,4876022
1689915,4876028
1690215,4876626
1690349,4876887
1690365,4876927
1690523,4877225
1690733,4877661
1690945,4878080
1690988,4878184
1691032,4878292
1691287,4878829
1691401,4879052
1691477,4879203
1691763,4879860
1691874,4880115
1692167,4880767
1692218,4880853
1692280,4880978
1692317,4881075
1692641,4881791
1692644,4881797
1692784,4882091
1692799,4882169
1692906,4882435
1694236,4885429
1694246,4885459
1694285,4885527
1694417,4885802
1694502,4885992
1694851,4886716
1695137,4887382
1695216,4887567
1695293,4887782
1695388,4888019
1695584,4888479
1695864,4889059
1695999,4889252
1696013,4889277
1696229,4889731
1696241,4889753
1696262,4889785
1696439,4890229
1696528,4890418
1696780,4891116
1697135,4891990
1697136,4891992
1697159,4892051
1697605,4893121
1697630,4893176
1698490,4895209
1698629,4895479
1698734,4895670
1698935,4896091
1699390,4897059
1699888,4898245
1700068,4898579
1700344,4899105
1700875,4900149
1700950,4900335
1701410,4901286
1701554,4901588
1701576,4901683
1702723,4904321
1703219,4905405
1703261,4905512
1703640,4906359
1703995,4907119
1704173,4907595
1704199,4907656
1704275,4907818
1704370,4908029
1704526,4908367
1704698,4908688
1704777,4908847
1704826,4908951
1704875,4909053
1704876,4909055
