name,type,nominal,taxcode,value_excl
"UK - INT",invoice,4000-UK-INT,1,6079.27666662
"UK - INT ZERO RATED",invoice,4000-UK-INT,2,157.27
"UK - INT EXEMPT",invoice,4000-UK-INT,0,1909.91
"UK - INT ZERO RATED GIFTCARD BOUGHT",invoice,2130--,0,20
"UK - INT ZERO RATED CREDIT PAID",credit,2132--,0,274.16
"EUR - INT",invoice,4000-EUR-INT,1,727.36
"EUR - INT EXEMPT",invoice,4000-EUR-INT,0,4.17
"ROW - INT",invoice,4000-ROW-INT,1,35.75
"ROW - ZERO RATED",invoice,4000-ROW-INT,2,380.08
"Postage - INT",invoice,4040--INT,1,497.71
"Postage - INT NOVAT",invoice,4040--INT,2,374.64
"CAD - ZERO RATED",invoice,4000-CAD-INT,2,59.25
"RUB - ZERO RATED",invoice,4000-RUB-INT,2,26.99
