name,type,nominal,taxcode,value_excl
"UK - INT",invoice,4000-UK-INT,1,9942.62833328
"UK - INT ZERO RATED",invoice,4000-UK-INT,2,352.33
"UK - INT EXEMPT",invoice,4000-UK-INT,0,1394.05
"UK - INT ZERO RATED GIFTCARD PAID",credit,2130--,0,50
"EUR - INT",invoice,4000-EUR-INT,1,914.51
"EUR - INT ZERO RATED",invoice,4000-EUR-INT,2,1172.57
"ROW - INT",invoice,4000-ROW-INT,1,12.5
"ROW - ZERO RATED",invoice,4000-ROW-INT,2,91.59
"Postage - INT",invoice,4040--INT,1,578.74
"Postage - INT NOVAT",invoice,4040--INT,2,321.43
"SEK - INT",invoice,4000-SEK-INT,1,962.34166667
"RUB - ZERO RATED",invoice,4000-RUB-INT,2,33.75
