name,type,nominal,taxcode,value_excl
"GEN - EBY",invoice,4000-GEN-EBY,1,6640.59
"GEN - EBY EXEMPT",invoice,4000-GEN-EBY,0,465.542
"Postage - EBY",invoice,4040--EBY,1,163.76
"Postage - EBY",invoice,4040--EBY,2,31.188
