name,type,nominal,taxcode,value_excl
"UK - INT",invoice,4000-UK-INT,1,16447.77833329
"UK - INT ZERO RATED",invoice,4000-UK-INT,2,809.42
"UK - INT EXEMPT",invoice,4000-UK-INT,0,2192.1
"UK - INT ZERO RATED GIFTCARD BOUGHT",invoice,2130--,0,50
"UK - INT ZERO RATED CREDIT PAID",invoice,2132--,0,100
"EUR - INT",invoice,4000-EUR-INT,1,631.88333334
"EUR - INT ZERO RATED",invoice,4000-EUR-INT,2,1928.72
"EUR - INT EXEMPT",invoice,4000-EUR-INT,0,23.25
"ROW - INT",credit,4000-ROW-INT,1,11.58
"ROW - ZERO RATED",invoice,4000-ROW-INT,2,301.04
"Postage - INT",invoice,4040--INT,1,754.54
"Postage - INT NOVAT",invoice,4040--INT,2,611.94
"CAD - ZERO RATED",invoice,4000-CAD-INT,2,60
"SEK - ZERO RATED",invoice,4000-SEK-INT,2,90.83
"RUB - ZERO RATED",invoice,4000-RUB-INT,2,200.17
