name,type,nominal,taxcode,value_excl
"UK - INT",invoice,4000-UK-INT,1,14569.883611071
"UK - INT ZERO RATED",invoice,4000-UK-INT,2,248
"UK - INT EXEMPT",invoice,4000-UK-INT,0,8879.28
"UK - INT ZERO RATED GIFTCARD BOUGHT",invoice,2130--,0,70
"UK - INT ZERO RATED GIFTCARD PAID",credit,2130--,0,90
"UK - INT ZERO RATED CREDIT PAID",invoice,2132--,0,3.95
"EUR - INT",invoice,4000-EUR-INT,1,1044.555
"EUR - INT ZERO RATED",invoice,4000-EUR-INT,2,1209.29
"EUR - INT EXEMPT",invoice,4000-EUR-INT,0,199.69
"EUR - INT ZERO RATED GIFTCARD PAID",credit,2130--,0,100
"ROW - INT",invoice,4000-ROW-INT,1,66.75333333
"ROW - INT EXEMPT",invoice,4000-ROW-INT,0,210.15
"Postage - INT",invoice,4040--INT,1,816.8
"Postage - INT NOVAT",invoice,4040--INT,2,1754.04
"GEN - EBY",invoice,4000-GEN-EBY,1,3408.98
"GEN - EBY ZERO RATED",invoice,4000-GEN-EBY,2,26
"GEN - EBY EXEMPT",credit,4000-GEN-EBY,0,20.83
"Postage - EBY",invoice,4040--EBY,1,702.27
"Postage - EBY",credit,4040--EBY,2,10.79
