name,type,nominal,taxcode,value_excl
"GEN - EBY",invoice,4000-GEN-EBY,1,5702.43
"GEN - EBY EXEMPT",invoice,4000-GEN-EBY,0,813.714
"Postage - EBY",invoice,4040--EBY,1,101.73
"Postage - EBY",invoice,4040--EBY,2,54.804
