name,type,nominal,taxcode,value_excl
"UK - INT",invoice,4000-UK-INT,1,8132.8150000167
"UK - INT ZERO RATED",invoice,4000-UK-INT,2,205.496
"UK - INT EXEMPT",invoice,4000-UK-INT,0,836.57
"UK - INT ZERO RATED GIFTCARD BOUGHT",invoice,2130--,0,50
"UK - INT ZERO RATED CREDIT PAID",credit,2132--,0,90.79
"EUR - INT",invoice,4000-EUR-INT,1,4113.00833333
"EUR - INT EXEMPT",invoice,4000-EUR-INT,0,71.55
"ROW - ZERO RATED",invoice,4000-ROW-INT,2,171.6
"Postage - INT",invoice,4040--INT,1,475.4
"Postage - INT NOVAT",invoice,4040--INT,2,241.67
"AUD - ZERO RATED",invoice,4000-AUD-INT,2,4.17
