name,type,nominal,taxcode,value_excl
"UK - INT",invoice,4000-UK-INT,1,10607.63666665
"UK - INT ZERO RATED",invoice,4000-UK-INT,2,240.79
"UK - INT EXEMPT",invoice,4000-UK-INT,0,3878.34
"UK - INT ZERO RATED GIFTCARD BOUGHT",invoice,2130--,0,20
"UK - INT ZERO RATED CREDIT PAID",credit,2132--,0,222
"EUR - INT",invoice,4000-EUR-INT,1,207.75333333
"ROW - ZERO RATED",invoice,4000-ROW-INT,2,1097.24
"Postage - INT",invoice,4040--INT,1,386.48
"Postage - INT NOVAT",invoice,4040--INT,2,671.34
