name,type,nominal,taxcode,value_excl
"GEN - EBY",invoice,4000-GEN-EBY,1,6323.07
"GEN - EBY EXEMPT",invoice,4000-GEN-EBY,0,341.616
"Postage - EBY",invoice,4040--EBY,1,92.11
"Postage - EBY",invoice,4040--EBY,2,30.648
