name,type,nominal,taxcode,value_excl
"UK - INT",invoice,4000-UK-INT,1,15783.51333331
"UK - INT ZERO RATED",invoice,4000-UK-INT,2,277.2
"UK - INT EXEMPT",invoice,4000-UK-INT,0,1283.19
"UK - INT ZERO RATED GIFTCARD PAID",credit,2130--,0,70
"UK - INT ZERO RATED CREDIT PAID",credit,2132--,0,115.72
"EUR - INT",invoice,4000-EUR-INT,1,656.03999999
"EUR - INT ZERO RATED",invoice,4000-EUR-INT,2,1551.46
"EUR - INT EXEMPT",invoice,4000-EUR-INT,0,22.5
"ROW - INT",invoice,4000-ROW-INT,1,11.58
"ROW - ZERO RATED",invoice,4000-ROW-INT,2,112.93
"Postage - INT",invoice,4040--INT,1,649.04
"Postage - INT NOVAT",invoice,4040--INT,2,513.38
"RUB - ZERO RATED",invoice,4000-RUB-INT,2,200.26
