name,type,nominal,taxcode,value_excl
"GEN - EBY",invoice,4000-GEN-EBY,1,5897.4
"GEN - EBY EXEMPT",invoice,4000-GEN-EBY,0,946.812
"Postage - EBY",invoice,4040--EBY,1,217.3
"Postage - EBY",invoice,4040--EBY,2,78.216
