name,type,nominal,taxcode,value_excl
"UK - INT",invoice,4000-UK-INT,1,10320.258333243
"UK - INT ZERO RATED",invoice,4000-UK-INT,2,148.5
"UK - INT EXEMPT",invoice,4000-UK-INT,0,2782.86
"UK - INT ZERO RATED CREDIT PAID",credit,2132--,0,205.3
"EUR - INT",invoice,4000-EUR-INT,1,714.72833332
"EUR - INT ZERO RATED",invoice,4000-EUR-INT,2,451.74
"EUR - INT EXEMPT",invoice,4000-EUR-INT,0,101.24
"ROW - ZERO RATED",invoice,4000-ROW-INT,2,99.76
"Postage - INT",invoice,4040--INT,1,550.95
"Postage - INT NOVAT",invoice,4040--INT,2,649.08
"RUB - ZERO RATED",invoice,4000-RUB-INT,2,658.2
