"CREDIT ID","ORDER ID","EBAY ID",NAME,TAXCODE,NOMINAL,TOTAL,TAX
UK-1900017509,1900209738,,"UK - INT",1,4000-UK-INT,8.25333333,1.650666666
UK-1900017512,1900208406,,"UK - INT",1,4000-UK-INT,24.17,4.834
UK-600058125,600634879,,"UK - INT ZERO RATED",2,4000-UK-INT,63,0
UK-600058127,600633452,,"UK - INT",1,4000-UK-INT,70,14
UK-600058127,600633452,,"UK - INT ZERO RATED",2,4000-UK-INT,89.8,0
UK-1900017516,1900210047,,"UK - INT",1,4000-UK-INT,22.5,4.5
UK-1900017518,1900208269,,"UK - INT",1,4000-UK-INT,15.83,3.166
UK-600058131,600635625,,"UK - INT",1,4000-UK-INT,36,7.2
UK-600058133,600635515,,"UK - INT",1,4000-UK-INT,15.00333333,3.000666666
UK-600058136,600635753,,"UK - INT",1,4000-UK-INT,24.17,4.834
UK-600058137,600636454,,"UK - INT",1,4000-UK-INT,41.24666667,8.249333334
UK-1900017520,1900208905,,"UK - INT",1,4000-UK-INT,74.17833333,14.835666666
UK-600058140,600634185,,"UK - INT",1,4000-UK-INT,62.42,12.484
UK-1900017522,1900209464,,"UK - INT ZERO RATED",2,4000-UK-INT,70.19,0
UK-1900017523,1900210635,,"UK - INT",1,4000-UK-INT,59.24666667,11.849333334
UK-600058144,600636585,,"UK - INT",1,4000-UK-INT,22.5,4.5
UK-600058147,600635671,,"UK - INT",1,4000-UK-INT,19.43166667,3.886333334
UK-1900017529,1900208124,,"UK - INT",1,4000-UK-INT,49.92,9.984
