"CREDIT ID","ORDER ID","EBAY ID",NAME,TAXCODE,NOMINAL,TOTAL,TAX
UK-1900017531,1900209934,,"UK - INT",1,4000-UK-INT,8.92833333,1.785666666
UK-600058149,600633394,,"UK - INT",1,4000-UK-INT,8.33,1.666
UK-600058150,600635859,,"UK - INT",1,4000-UK-INT,11.25,2.25
UK-600058151,600637042,,"UK - INT",1,4000-UK-INT,56.25,11.25
UK-600058152,600633973,,"UK - INT",1,4000-UK-INT,665.83,133.166
UK-600058153,600624841,,"UK - INT EXEMPT",0,4000-UK-INT,39.59,0
UK-1900017534,1900211372,,"UK - INT",1,4000-UK-INT,0.83333333333333,0.16666666666667
UK-1900017535,1900204400,,"UK - INT",1,4000-UK-INT,65.83,13.166
UK-1900017536,1900208015,,"UK - INT",1,4000-UK-INT,37.5,7.5
UK-1900017537,1900210548,,"UK - INT",1,4000-UK-INT,8.33,1.666
UK-600058156,600638565,,"UK - INT ZERO RATED",2,4000-UK-INT,20,0
UK-600058157,600638558,,"UK - INT EXEMPT",0,4000-UK-INT,24.99,0
UK-600058159,600635457,,"UK - INT",1,4000-UK-INT,47.925,9.585
UK-1900017539,1900206109,,"UK - INT",1,4000-UK-INT,41.24666667,8.249333334
UK-1900017540,1900210463,,"UK - INT",1,4000-UK-INT,41.24666667,8.249333334
UK-600058162,600635251,,"UK - INT",1,4000-UK-INT,86.175,17.235
ROW-600058154,600636501,,"ROW - ZERO RATED",2,4000-ROW-INT,3.75,0
SHIP-600058153,600624841,,"Postage - INT NOVAT",2,4040--INT,12.95,0
SHIP-1900017536,1900208015,,"Postage - INT",1,4040--INT,4.96,0.992
SHIP-600058156,600638565,,"Postage - INT",1,4040--INT,4.12,0.824
SHIP-600058157,600638558,,"Postage - INT NOVAT",2,4040--INT,22.48,0
