"CREDIT ID","ORDER ID","EBAY ID",NAME,TAXCODE,NOMINAL,TOTAL,TAX
UK-1900017569,1900210905,,"UK - INT EXEMPT",0,4000-UK-INT,30,0
UK-600058193,600638339,,"UK - INT",1,4000-UK-INT,10.83,2.166
UK-1900017572,1900205748,,"UK - INT",1,4000-UK-INT,7.49666667,1.499333334
UK-600058195,600637576,,"UK - INT",1,4000-UK-INT,29.99666667,5.999333334
UK-1900017573,1900209081,,"UK - INT",1,4000-UK-INT,33.75,6.75
UK-1900017574,1900208703,,"UK - INT",1,4000-UK-INT,40.83,8.166
UK-1900017575,1900210993,,"UK - INT",1,4000-UK-INT,41.67,8.334
UK-600058197,600632351,,"UK - INT",1,4000-UK-INT,53.24333333,10.648666666
UK-600058198,600637240,,"UK - INT",1,4000-UK-INT,9.74666667,1.949333334
UK-1900017579,1900210234,,"UK - INT",1,4000-UK-INT,18.74666667,3.749333334
UK-600058199,600623318,,"UK - INT",1,4000-UK-INT,47.5,9.5
UK-600058199,600623318,,"UK - INT ZERO RATED CREDIT PAID",0,2132--,61.94,0,credit
UK-600058200,600635100,,"UK - INT",1,4000-UK-INT,15.00333333,3.000666666
UK-600058201,600637259,,"UK - INT",1,4000-UK-INT,20.83,4.166
UK-1900017583,1900210555,,"UK - INT",1,4000-UK-INT,14.99333333,2.998666666
UK-600058203,600632404,,"UK - INT",1,4000-UK-INT,124.08,24.816
UK-600058206,600621524,,"UK - INT",1,4000-UK-INT,11.25,2.25
UK-1900017585,1900211852,,"UK - INT",1,4000-UK-INT,83.25,16.65
UK-1900017586,1900209605,,"UK - INT",1,4000-UK-INT,20.83,4.166
UK-1900017590,1900203623,,"UK - INT",1,4000-UK-INT,62.5,12.5
UK-1900017591,1900209348,,"UK - INT",1,4000-UK-INT,78.75,15.75
UK-1900017592,1900211129,,"UK - INT",1,4000-UK-INT,99.17,19.834
UK-600058211,600637744,,"UK - INT",1,4000-UK-INT,41.58,8.316
UK-600058212,600637430,,"UK - INT",1,4000-UK-INT,66.58,13.316
UK-600058213,600638266,,"UK - INT",1,4000-UK-INT,42.75,8.55
UK-1900017594,1900210960,,"UK - INT",1,4000-UK-INT,80.92833333,16.185666666
EUR-600058192,600638530,,"EUR - INT ZERO RATED",2,4000-EUR-INT,49.51,0
SHIP-600058191,600638670,,"Postage - INT NOVAT",2,4040--INT,11.18,0
SHIP-600058199,600623318,,"Postage - INT",1,4040--INT,4.12,0.824
SHIP-1900017585,1900211852,,"Postage - INT",1,4040--INT,4.12,0.824
SEK-600058209,600634868,,"SEK - INT",1,4000-SEK-INT,45.83,9.166
