"CREDIT ID","ORDER ID","EBAY ID",NAME,TAXCODE,NOMINAL,TOTAL,TAX
EBY-2500010640,2500215791,7JU72777W6319233H,"GEN - EBY",1,4000-GEN-EBY,23.33,4.666
EBY-2500010640,2500215791,7JU72777W6319233H,"Postage - EBY",1,4040--EBY,1.63,0.326
EBY-2500010641,2500220043,2FN43721N8311312P,"GEN - EBY",1,4000-GEN-EBY,4.17,0.834
