"CREDIT ID","ORDER ID","EBAY ID",NAME,TAXCODE,NOMINAL,TOTAL,TAX
EBY-2500010976,2500224214,71A55739UB914041W,"GEN - EBY",1,4000-GEN-EBY,0.22166666666667,0.044333333333333
EBY-2500010976,2500224214,71A55739UB914041W,"GEN - EBY ZERO RATED",2,4000-GEN-EBY,3.284,0
