"CREDIT ID","ORDER ID","EBAY ID",NAME,TAXCODE,NOMINAL,TOTAL,TAX
EBY-2500010816,2500227888,42U76274AE222711J,"GEN - EBY",1,4000-GEN-EBY,4.17,0.834
EBY-2500010818,2500227989,84S41786G2364743L,"GEN - EBY",1,4000-GEN-EBY,4.17,0.834
EBY-2500010819,2500227869,0DC74670D9858552X,"GEN - EBY",1,4000-GEN-EBY,12.5,2.5
EBY-2500010820,2500228016,9CX20583H15923339,"GEN - EBY",1,4000-GEN-EBY,16.67,3.334
EBY-2500010822,2500227934,2HP90639L1164202K,"GEN - EBY",1,4000-GEN-EBY,8.33,1.666
EBY-2500010824,2500223239,7MS44390SE204633V,"GEN - EBY",1,4000-GEN-EBY,15,3
EBY-2500010825,2500222510,83P76866K9261070Y,"GEN - EBY",1,4000-GEN-EBY,17.5,3.5
EBY-2500010826,2500222484,3SX912611M876402W,"GEN - EBY",1,4000-GEN-EBY,54.17,10.834
EBY-2500010827,2500219682,5LM00668LB8551547,"GEN - EBY",1,4000-GEN-EBY,6.67,1.334
EBY-2500010815,2500227873,9WU05345EY621081K,"GEN - EBY",1,4000-GEN-EBY,4.59,0.918
EBY-2500010817,2500227929,36C92719NW863293U,"GEN - EBY EXEMPT",0,4000-GEN-EBY,7.488,0
EBY-2500010821,2500228018,7N86754956343032M,"GEN - EBY EXEMPT",0,4000-GEN-EBY,14.976,0
EBY-2500010823,2500220587,81S18343K50987946,"GEN - EBY EXEMPT",0,4000-GEN-EBY,119.424,0
