"ORDER ID",EBAY-REF,NAME,TAXCODE,NOMINAL,TOTAL,TAX
EBY-2500229252,58N18331N71906239,"GEN - EBY",1,4000-GEN-EBY,3.33,0.666
EBY-2500229253,6PV080746X5938004,"GEN - EBY",1,4000-GEN-EBY,9.17,1.834
EBY-2500229253,6PV080746X5938004,"Postage - EBY",1,4040--EBY,1.62,0.324
EBY-2500229254,0VD706842G357954T,"GEN - EBY",1,4000-GEN-EBY,49.92,9.984
EBY-2500229254,0VD706842G357954T,"Postage - EBY",1,4040--EBY,2.45,0.49
EBY-2500229255,8T809846MD731534U,"GEN - EBY",1,4000-GEN-EBY,6.67,1.334
EBY-2500229256,3F966981FA376772A,"GEN - EBY",1,4000-GEN-EBY,8.33,1.666
EBY-2500229257,7JD999632Y2184827,"GEN - EBY",1,4000-GEN-EBY,78.33,15.666
EBY-2500229258,0A907172410942315,"GEN - EBY",1,4000-GEN-EBY,95,19
EBY-2500229258,0A907172410942315,"Postage - EBY",1,4040--EBY,6.62,1.324
EBY-2500229259,5NL134036R042700R,"GEN - EBY",1,4000-GEN-EBY,9.17,1.834
EBY-2500229266,8R1260828C037660L,"GEN - EBY",1,4000-GEN-EBY,15,3
EBY-2500229266,8R1260828C037660L,"Postage - EBY",1,4040--EBY,1.62,0.324
EBY-2500229268,4PT31905AJ1054233,"GEN - EBY",1,4000-GEN-EBY,29.17,5.834
EBY-2500229268,4PT31905AJ1054233,"Postage - EBY",1,4040--EBY,6.62,1.324
EBY-2500229269,0PY07562K1207943R,"GEN - EBY",1,4000-GEN-EBY,20.83,4.166
EBY-2500229270,4CE38004C67312844,"GEN - EBY",1,4000-GEN-EBY,62.5,12.5
EBY-2500229271,4TT53443975209026,"GEN - EBY",1,4000-GEN-EBY,20.83,4.166
EBY-2500229272,6U491757P1467380V,"GEN - EBY",1,4000-GEN-EBY,3.29,0.658
EBY-2500229273,7FT22152R91855303,"GEN - EBY",1,4000-GEN-EBY,8.33,1.666
EBY-2500229275,33N587500M8714513,"GEN - EBY",1,4000-GEN-EBY,10.83,2.166
EBY-2500229276,955319840W052160M,"GEN - EBY",1,4000-GEN-EBY,5.83,1.166
EBY-2500229277,39J38359W91722841,"GEN - EBY",1,4000-GEN-EBY,29.17,5.834
EBY-2500229278,32D08561P1726633M,"GEN - EBY",1,4000-GEN-EBY,25,5
EBY-2500229279,8UW44343E5752313V,"GEN - EBY",1,4000-GEN-EBY,45,9
EBY-2500229279,8UW44343E5752313V,"Postage - EBY",1,4040--EBY,3.29,0.658
EBY-2500229280,7L636574108501157,"GEN - EBY",1,4000-GEN-EBY,9.17,1.834
EBY-2500229281,1746427260267492R,"GEN - EBY",1,4000-GEN-EBY,6.67,1.334
EBY-2500229282,3S911104SL2638423,"GEN - EBY",1,4000-GEN-EBY,27.5,5.5
EBY-2500229283,9LM73492S8102643J,"GEN - EBY",1,4000-GEN-EBY,25,5
EBY-2500229284,7ED163185L882022J,"GEN - EBY",1,4000-GEN-EBY,15,3
EBY-2500229285,8KY041102L824212Y,"GEN - EBY",1,4000-GEN-EBY,2.5,0.5
EBY-2500229286,3P6186647S423831P,"GEN - EBY",1,4000-GEN-EBY,15.83,3.166
EBY-2500229287,95716120FK306843M,"GEN - EBY",1,4000-GEN-EBY,49.17,9.834
EBY-2500229288,7DY91031AA041532Y,"GEN - EBY",1,4000-GEN-EBY,23.33,4.666
EBY-2500229289,2CV21493SF735044W,"GEN - EBY",1,4000-GEN-EBY,5.83,1.166
EBY-2500229290,55177845GK299883L,"GEN - EBY",1,4000-GEN-EBY,12.92,2.584
EBY-2500229291,9U0647452W571201D,"GEN - EBY",1,4000-GEN-EBY,26.67,5.334
EBY-2500229292,3SH82033H7642422C,"GEN - EBY",1,4000-GEN-EBY,9.12,1.824
EBY-2500229293,7CD26285UH9963013,"GEN - EBY",1,4000-GEN-EBY,9.17,1.834
EBY-2500229294,1MX39119MF687045D,"GEN - EBY",1,4000-GEN-EBY,5,1
EBY-2500229295,74R86560M9467650S,"GEN - EBY",1,4000-GEN-EBY,6.58,1.316
EBY-2500229296,21V35491DA2386321,"GEN - EBY",1,4000-GEN-EBY,6.67,1.334
EBY-2500229297,5N91427119557234G,"GEN - EBY",1,4000-GEN-EBY,19.17,3.834
EBY-2500229301,1NB25322YF0949344,"GEN - EBY",1,4000-GEN-EBY,74.17,14.834
EBY-2500229303,3JH08482AW528264B,"GEN - EBY",1,4000-GEN-EBY,15,3
EBY-2500229304,4B963270AX402924B,"GEN - EBY",1,4000-GEN-EBY,19.17,3.834
EBY-2500229305,90479180A4248922S,"GEN - EBY",1,4000-GEN-EBY,19.17,3.834
EBY-2500229306,0M524308FF926843K,"GEN - EBY",1,4000-GEN-EBY,9.17,1.834
EBY-2500229307,5N7364227M0244625,"GEN - EBY",1,4000-GEN-EBY,66.67,13.334
EBY-2500229307,5N7364227M0244625,"Postage - EBY",1,4040--EBY,4.12,0.824
EBY-2500229308,4U185178VW290305B,"GEN - EBY",1,4000-GEN-EBY,4.17,0.834
EBY-2500229309,9BW154453R467760P,"GEN - EBY",1,4000-GEN-EBY,66.67,13.334
EBY-2500229309,9BW154453R467760P,"Postage - EBY",1,4040--EBY,4.12,0.824
EBY-2500229310,1VF77248TL901133P,"GEN - EBY",1,4000-GEN-EBY,61.67,12.334
EBY-2500229310,1VF77248TL901133P,"Postage - EBY",1,4040--EBY,4.12,0.824
EBY-2500229311,2J667568CV232553R,"GEN - EBY",1,4000-GEN-EBY,5.83,1.166
EBY-2500229312,0AL32255AX589551B,"GEN - EBY",1,4000-GEN-EBY,45.83,9.166
EBY-2500229313,66L20130UV8419512,"GEN - EBY",1,4000-GEN-EBY,6.67,1.334
EBY-2500229316,4KC93444ME952192Y,"GEN - EBY",1,4000-GEN-EBY,70,14
EBY-2500229316,4KC93444ME952192Y,"Postage - EBY",1,4040--EBY,4.12,0.824
EBY-2500229317,32X233679R540364P,"GEN - EBY",1,4000-GEN-EBY,13.25,2.65
EBY-2500229318,7VD486608S715963X,"GEN - EBY",1,4000-GEN-EBY,13.33,2.666
EBY-2500229319,99V6040625464630A,"GEN - EBY",1,4000-GEN-EBY,4.17,0.834
EBY-2500229320,7AA41779J39705334,"GEN - EBY",1,4000-GEN-EBY,66.58,13.316
EBY-2500229321,8BX088082K9377114,"GEN - EBY",1,4000-GEN-EBY,25.5,5.1
EBY-2500229322,2LW29171X82711749,"GEN - EBY",1,4000-GEN-EBY,10.83,2.166
EBY-2500229324,2LW68031AL633842A,"GEN - EBY",1,4000-GEN-EBY,41.67,8.334
EBY-2500229325,74U823457G057062B,"GEN - EBY",1,4000-GEN-EBY,86.67,17.334
EBY-2500229326,8RY44861JU1202700,"GEN - EBY",1,4000-GEN-EBY,10.83,2.166
EBY-2500229327,3S715481XV729553M,"GEN - EBY",1,4000-GEN-EBY,10,2
EBY-2500229328,5EL966206M447744E,"GEN - EBY",1,4000-GEN-EBY,6.67,1.334
EBY-2500229329,2FJ433661D337504V,"GEN - EBY",1,4000-GEN-EBY,23.33,4.666
EBY-2500229330,2AR09788GP390483A,"GEN - EBY",1,4000-GEN-EBY,8.33,1.666
EBY-2500229331,7J474194LP0207939,"GEN - EBY",1,4000-GEN-EBY,9.17,1.834
EBY-2500229333,0A0925433E3709920,"GEN - EBY",1,4000-GEN-EBY,23.33,4.666
EBY-2500229333,0A0925433E3709920,"Postage - EBY",1,4040--EBY,1.63,0.326
EBY-2500229334,0L089055TR0107429,"GEN - EBY",1,4000-GEN-EBY,5,1
EBY-2500229335,37585436H5997464Y,"GEN - EBY",1,4000-GEN-EBY,12.42,2.484
EBY-2500229336,56113691AX861643S,"GEN - EBY",1,4000-GEN-EBY,29.17,5.834
EBY-2500229337,0AJ50700F15667039,"GEN - EBY EXEMPT",0,4000-GEN-EBY,84,0
EBY-2500229337,0AJ50700F15667039,"Postage - EBY",2,4040--EBY,7.956,0
EBY-2500229338,6WW942862A1400830,"GEN - EBY",1,4000-GEN-EBY,13.33,2.666
EBY-2500229339,40101648KU527074A,"GEN - EBY",1,4000-GEN-EBY,19.17,3.834
EBY-2500229340,4SG329147E831663W,"GEN - EBY",1,4000-GEN-EBY,100.75,20.15
EBY-2500229341,52470197GB330564G,"GEN - EBY",1,4000-GEN-EBY,14.17,2.834
EBY-2500229342,1BB486156F186505K,"GEN - EBY",1,4000-GEN-EBY,53.33,10.666
EBY-2500229343,8P565095689482546,"GEN - EBY",1,4000-GEN-EBY,6.67,1.334
EBY-2500229344,8V210421D13316057,"GEN - EBY",1,4000-GEN-EBY,18.25,3.65
EBY-2500229345,06309704UH1120539,"GEN - EBY",1,4000-GEN-EBY,12.5,2.5
EBY-2500229346,8L4008609E287591V,"GEN - EBY",1,4000-GEN-EBY,16.67,3.334
EBY-2500229347,14451998T69315444,"GEN - EBY",1,4000-GEN-EBY,17.5,3.5
EBY-2500229348,7WT086217A7094109,"GEN - EBY",1,4000-GEN-EBY,85.42,17.084
EBY-2500229349,0GY13807YJ7992315,"GEN - EBY",1,4000-GEN-EBY,10,2
EBY-2500229350,0XC01129YU744923T,"GEN - EBY EXEMPT",0,4000-GEN-EBY,54.996,0
EBY-2500229350,0XC01129YU744923T,"Postage - EBY",2,4040--EBY,7.956,0
EBY-2500229351,7YF501210T7608800,"GEN - EBY",1,4000-GEN-EBY,6.67,1.334
EBY-2500229351,7YF501210T7608800,"Postage - EBY",1,4040--EBY,1.62,0.324
EBY-2500229352,85M080357M210611R,"GEN - EBY",1,4000-GEN-EBY,9.17,1.834
EBY-2500229353,84V78345TS729104U,"GEN - EBY",1,4000-GEN-EBY,15,3
EBY-2500229354,36G69108GM606531A,"GEN - EBY",1,4000-GEN-EBY,20.83,4.166
EBY-2500229355,2H973650U28409116,"GEN - EBY",1,4000-GEN-EBY,1.67,0.334
EBY-2500229356,8JJ92899HF4202011,"GEN - EBY",1,4000-GEN-EBY,19.17,3.834
EBY-2500229357,8BB80992V7724705Y,"GEN - EBY",1,4000-GEN-EBY,44.17,8.834
EBY-2500229357,8BB80992V7724705Y,"Postage - EBY",1,4040--EBY,3.29,0.658
EBY-2500229358,15828887CK153522V,"GEN - EBY",1,4000-GEN-EBY,10.83,2.166
EBY-2500229359,5PP44786RS9052206,"GEN - EBY",1,4000-GEN-EBY,20.83,4.166
EBY-2500229360,75J27110PA754373C,"GEN - EBY",1,4000-GEN-EBY,36.67,7.334
EBY-2500229361,8LU88837LW058344H,"GEN - EBY",1,4000-GEN-EBY,3.33,0.666
EBY-2500229363,9N610815CT033735D,"GEN - EBY",1,4000-GEN-EBY,58.33,11.666
EBY-2500229364,0B827604F6840522T,"GEN - EBY",1,4000-GEN-EBY,39.17,7.834
EBY-2500229364,0B827604F6840522T,"Postage - EBY",1,4040--EBY,8.29,1.658
EBY-2500229365,00D686930W7478842,"GEN - EBY",1,4000-GEN-EBY,29.17,5.834
EBY-2500229366,7BG35588830491600,"GEN - EBY",1,4000-GEN-EBY,29.17,5.834
EBY-2500229367,7J180129S7718550L,"GEN - EBY",1,4000-GEN-EBY,75,15
EBY-2500229367,7J180129S7718550L,"Postage - EBY",1,4040--EBY,4.12,0.824
EBY-2500229369,6T869070M84371821,"GEN - EBY",1,4000-GEN-EBY,29.17,5.834
EBY-2500229370,13667296MS964452P,"GEN - EBY",1,4000-GEN-EBY,9.87,1.974
EBY-2500229372,3CD33833JM465252G,"GEN - EBY",1,4000-GEN-EBY,2.5,0.5
EBY-2500229373,7DW80276ME941883D,"GEN - EBY",1,4000-GEN-EBY,10.83,2.166
EBY-2500229374,11Y60424K9752191H,"GEN - EBY",1,4000-GEN-EBY,35.42,7.084
EBY-2500229375,3NR4849370824122F,"GEN - EBY",1,4000-GEN-EBY,3.33,0.666
EBY-2500229376,1SN9653046343121D,"GEN - EBY",1,4000-GEN-EBY,35.75,7.15
EBY-2500229376,1SN9653046343121D,"Postage - EBY",1,4040--EBY,1.62,0.324
EBY-2500229377,1YF77123MX468090W,"GEN - EBY",1,4000-GEN-EBY,12.5,2.5
EBY-2500229378,2RT49161CN023483Y,"GEN - EBY",1,4000-GEN-EBY,5.83,1.166
EBY-2500229379,0B364581LW179711J,"GEN - EBY",1,4000-GEN-EBY,10.83,2.166
EBY-2500229380,69D304709M444750J,"GEN - EBY",1,4000-GEN-EBY,6.67,1.334
EBY-2500229381,5XJ52435CK660364P,"GEN - EBY",1,4000-GEN-EBY,20.83,4.166
EBY-2500229382,8XT23583RN2674009,"GEN - EBY",1,4000-GEN-EBY,8.33,1.666
EBY-2500229383,2W638008GD3884940,"GEN - EBY",1,4000-GEN-EBY,45,9
EBY-2500229383,2W638008GD3884940,"Postage - EBY",1,4040--EBY,4.12,0.824
EBY-2500229384,21E78285KX2848848,"GEN - EBY",1,4000-GEN-EBY,6.67,1.334
EBY-2500229385,8GJ56904YN1649256,"GEN - EBY",1,4000-GEN-EBY,10.83,2.166
EBY-2500229386,0KP99928WU788742S,"GEN - EBY",1,4000-GEN-EBY,3.29,0.658
EBY-2500229387,5T642430VJ354552D,"GEN - EBY",1,4000-GEN-EBY,2.5,0.5
EBY-2500229388,3Y657373SC5344802,"GEN - EBY",1,4000-GEN-EBY,10.83,2.166
EBY-2500229389,7PG620117L442460X,"GEN - EBY",1,4000-GEN-EBY,6.67,1.334
EBY-2500229390,20000671V71969527,"GEN - EBY",1,4000-GEN-EBY,27.5,5.5
EBY-2500229392,86666710CU8098603,"GEN - EBY",1,4000-GEN-EBY,12.5,2.5
EBY-2500229393,44K127947N7758028,"GEN - EBY",1,4000-GEN-EBY,3.33,0.666
EBY-2500229394,4E206392XM1758302,"GEN - EBY",1,4000-GEN-EBY,23.17,4.634
EBY-2500229395,6T33368787000580B,"GEN - EBY",1,4000-GEN-EBY,257.25,51.45
EBY-2500229395,6T33368787000580B,"Postage - EBY",1,4040--EBY,8.29,1.658
EBY-2500229396,2U333693108452536,"GEN - EBY",1,4000-GEN-EBY,10.83,2.166
EBY-2500229397,8U237910SR8412818,"GEN - EBY",1,4000-GEN-EBY,58.33,11.666
EBY-2500229398,2JL51202E24505502,"GEN - EBY",1,4000-GEN-EBY,99.92,19.984
EBY-2500229399,313333862K091500G,"GEN - EBY",1,4000-GEN-EBY,58.33,11.666
EBY-2500229400,6AF79728ER815223M,"GEN - EBY",1,4000-GEN-EBY,6.67,1.334
EBY-2500229402,5RM22815Y2142730T,"GEN - EBY",1,4000-GEN-EBY,21.67,4.334
EBY-2500229402,5RM22815Y2142730T,"Postage - EBY",1,4040--EBY,1.62,0.324
EBY-2500229404,0F0494040G877925U,"GEN - EBY",1,4000-GEN-EBY,10.83,2.166
EBY-2500229404,0F0494040G877925U,"Postage - EBY",1,4040--EBY,1.63,0.326
EBY-2500229406,814929885Y389354G,"GEN - EBY",1,4000-GEN-EBY,85.82,17.164
EBY-2500229406,814929885Y389354G,"Postage - EBY",1,4040--EBY,1.63,0.326
EBY-2500229407,2YR45422BG816183R,"GEN - EBY",1,4000-GEN-EBY,20.83,4.166
EBY-2500229408,6X584794G8962424J,"GEN - EBY",1,4000-GEN-EBY,10.83,2.166
EBY-2500229409,7PN4456185497822C,"GEN - EBY",1,4000-GEN-EBY,25,5
EBY-2500229410,9Y7041181D3845503,"GEN - EBY",1,4000-GEN-EBY,5.83,1.166
EBY-2500229410,9Y7041181D3845503,"Postage - EBY",1,4040--EBY,1.63,0.326
EBY-2500229411,7AC46062J9078162H,"GEN - EBY",1,4000-GEN-EBY,6.67,1.334
EBY-2500229411,7AC46062J9078162H,"Postage - EBY",1,4040--EBY,1.62,0.324
EBY-2500229413,5W71368006941451U,"GEN - EBY",1,4000-GEN-EBY,53.33,10.666
EBY-2500229414,2YE5986706764543F,"GEN - EBY",1,4000-GEN-EBY,19.17,3.834
EBY-2500229414,2YE5986706764543F,"Postage - EBY",1,4040--EBY,1.62,0.324
EBY-2500229415,89493743PY667525D,"GEN - EBY",1,4000-GEN-EBY,5,1
EBY-2500229416,6UK78799NM0556451,"GEN - EBY",1,4000-GEN-EBY,6.67,1.334
EBY-2500229417,5B786261GT5488002,"GEN - EBY",1,4000-GEN-EBY,9.17,1.834
EBY-2500229418,3RA896685F630834H,"GEN - EBY",1,4000-GEN-EBY,6.67,1.334
EBY-2500229419,2G998261H93638608,"GEN - EBY",1,4000-GEN-EBY,86.67,17.334
EBY-2500229421,0EC7247359795802R,"GEN - EBY",1,4000-GEN-EBY,70,14
EBY-2500229423,6HB59285NC0387123,"GEN - EBY",1,4000-GEN-EBY,13.33,2.666
EBY-2500229424,6GJ136150X483334D,"GEN - EBY",1,4000-GEN-EBY,3.33,0.666
EBY-2500229425,3GP08618PS172262U,"GEN - EBY",1,4000-GEN-EBY,2.46,0.492
EBY-2500229426,9NK68981CX182582K,"GEN - EBY",1,4000-GEN-EBY,18.33,3.666
EBY-2500229427,9PR82027F6115332T,"GEN - EBY",1,4000-GEN-EBY,19.17,3.834
EBY-2500229428,85A56390HK131391F,"GEN - EBY",1,4000-GEN-EBY,10.83,2.166
EBY-2500229430,49E332157B8250917,"GEN - EBY",1,4000-GEN-EBY,10.83,2.166
EBY-2500229431,529439519N423162G,"GEN - EBY",1,4000-GEN-EBY,27.5,5.5
EBY-2500229432,2P504886V2551474D,"GEN - EBY",1,4000-GEN-EBY,29.17,5.834
EBY-2500229433,13T213752A654815L,"GEN - EBY",1,4000-GEN-EBY,31.67,6.334
EBY-2500229433,13T213752A654815L,"Postage - EBY",1,4040--EBY,8.29,1.658
EBY-2500229434,3RA16198GA835891A,"GEN - EBY",1,4000-GEN-EBY,10.83,2.166
EBY-2500229435,68M007889L663831P,"GEN - EBY",1,4000-GEN-EBY,19.17,3.834
EBY-2500229436,75U71373G4732952Y,"GEN - EBY",1,4000-GEN-EBY,6.67,1.334
EBY-2500229438,27U07818T4798094C,"GEN - EBY",1,4000-GEN-EBY,15.83,3.166
EBY-2500229439,4KU90353F52887837,"GEN - EBY",1,4000-GEN-EBY,2.46,0.492
EBY-2500229440,23B49807R9092521U,"GEN - EBY",1,4000-GEN-EBY,5,1
EBY-2500229442,08322293VV985905M,"GEN - EBY",1,4000-GEN-EBY,29.17,5.834
EBY-2500229443,1VG4464986260125F,"GEN - EBY",1,4000-GEN-EBY,44.92,8.984
EBY-2500229443,1VG4464986260125F,"Postage - EBY",1,4040--EBY,8.29,1.658
EBY-2500229445,77M60407S38832148,"GEN - EBY",1,4000-GEN-EBY,3.75,0.75
EBY-2500229446,3VH20962GS8235114,"GEN - EBY",1,4000-GEN-EBY,17.5,3.5
EBY-2500229447,6DP82536N44944341,"GEN - EBY",1,4000-GEN-EBY,9.17,1.834
EBY-2500229448,5YX354002T8640821,"GEN - EBY",1,4000-GEN-EBY,36.67,7.334
EBY-2500229449,672910234A159654G,"GEN - EBY",1,4000-GEN-EBY,9.17,1.834
EBY-2500229450,8BC74831JV9987648,"GEN - EBY",1,4000-GEN-EBY,9.17,1.834
EBY-2500229450,8BC74831JV9987648,"Postage - EBY",1,4040--EBY,1.62,0.324
EBY-2500229451,2WJ82823L8217351M,"GEN - EBY",1,4000-GEN-EBY,9.17,1.834
EBY-2500229452,791537787Y527631U,"GEN - EBY",1,4000-GEN-EBY,19.17,3.834
EBY-2500229452,791537787Y527631U,"Postage - EBY",1,4040--EBY,1.62,0.324
EBY-2500229454,6KJ92762FJ287901S,"GEN - EBY",1,4000-GEN-EBY,6.67,1.334
EBY-2500229455,55D07181NH7415915,"GEN - EBY",1,4000-GEN-EBY,26.24,5.248
EBY-2500229456,3DH27396RY4528328,"GEN - EBY",1,4000-GEN-EBY,9.17,1.834
EBY-2500229457,3Y644779R30607206,"GEN - EBY",1,4000-GEN-EBY,68.33,13.666
EBY-2500229458,276585336L379171B,"GEN - EBY",1,4000-GEN-EBY,45,9
EBY-2500229459,1P798025RE734062C,"GEN - EBY",1,4000-GEN-EBY,25.83,5.166
EBY-2500229460,56718571S36366418,"GEN - EBY",1,4000-GEN-EBY,10.83,2.166
EBY-2500229461,8KF07517SK4361431,"GEN - EBY",1,4000-GEN-EBY,9.17,1.834
EBY-2500229461,8KF07517SK4361431,"Postage - EBY",1,4040--EBY,1.62,0.324
EBY-2500229462,1EV3933000971411W,"GEN - EBY",1,4000-GEN-EBY,6.67,1.334
EBY-2500229464,33H787850B447621S,"GEN - EBY",1,4000-GEN-EBY,19.08,3.816
EBY-2500229465,5CP03009AL1415029,"GEN - EBY",1,4000-GEN-EBY,10.83,2.166
EBY-2500229467,97122607KT0057306,"GEN - EBY",1,4000-GEN-EBY,14.99,2.998
EBY-2500229468,0UP892845R0540624,"GEN - EBY",1,4000-GEN-EBY,6.67,1.334
EBY-2500229469,94A338206R060945M,"GEN - EBY",1,4000-GEN-EBY,19.17,3.834
EBY-2500229470,21665897EF106270W,"GEN - EBY",1,4000-GEN-EBY,15,3
EBY-2500229471,43N905592J029042H,"GEN - EBY",1,4000-GEN-EBY,4.96,0.992
EBY-2500229472,1AN13944LP575983C,"GEN - EBY",1,4000-GEN-EBY,86.67,17.334
EBY-2500229472,1AN13944LP575983C,"Postage - EBY",1,4040--EBY,6.62,1.324
EBY-2500229473,7PD14959BV2799130,"GEN - EBY",1,4000-GEN-EBY,19.17,3.834
EBY-2500229474,56708760PD103090P,"GEN - EBY",1,4000-GEN-EBY,20.83,4.166
EBY-2500229475,9RG47079RL094983F,"GEN - EBY",1,4000-GEN-EBY,19.17,3.834
EBY-2500229477,3RA23127AS522142A,"GEN - EBY",1,4000-GEN-EBY,27.42,5.484
EBY-2500229478,10843257PN778832P,"GEN - EBY",1,4000-GEN-EBY,12.5,2.5
EBY-2500229479,82M1681782672782C,"GEN - EBY",1,4000-GEN-EBY,41.67,8.334
EBY-2500229479,82M1681782672782C,"Postage - EBY",1,4040--EBY,6.62,1.324
EBY-2500229480,8UU03152N93643822,"GEN - EBY",1,4000-GEN-EBY,6.67,1.334
EBY-2500229481,3DB61104XE880470X,"GEN - EBY",1,4000-GEN-EBY,36.67,7.334
EBY-2500229481,3DB61104XE880470X,"Postage - EBY",1,4040--EBY,4.12,0.824
EBY-2500229482,57A6452503591320W,"GEN - EBY",1,4000-GEN-EBY,13.33,2.666
EBY-2500229483,58873910072660443,"GEN - EBY",1,4000-GEN-EBY,9.17,1.834
EBY-2500229484,8GT30239GU2948257,"GEN - EBY",1,4000-GEN-EBY,45.83,9.166
EBY-2500229485,6XY84733UM5756249,"GEN - EBY",1,4000-GEN-EBY,13.33,2.666
EBY-2500229486,59V415968P667520F,"GEN - EBY",1,4000-GEN-EBY,6.67,1.334
EBY-2500229487,2X902648SN661171E,"GEN - EBY",1,4000-GEN-EBY,6.67,1.334
EBY-2500229488,21631017YF567591L,"GEN - EBY",1,4000-GEN-EBY,10.83,2.166
EBY-2500229489,9SV50535TJ0352622,"GEN - EBY",1,4000-GEN-EBY,6.67,1.334
EBY-2500229490,7XG01091K3293572G,"GEN - EBY",1,4000-GEN-EBY,61.58,12.316
EBY-2500229491,0KV06686E2942670N,"GEN - EBY",1,4000-GEN-EBY,66.58,13.316
EBY-2500229491,0KV06686E2942670N,"Postage - EBY",1,4040--EBY,4.13,0.826
EBY-2500229492,3DP15721JR1570944,"GEN - EBY",1,4000-GEN-EBY,13.33,2.666
EBY-2500229493,6M252972J1072591B,"GEN - EBY",1,4000-GEN-EBY,13.75,2.75
EBY-2500229495,92G77181T37014617,"GEN - EBY",1,4000-GEN-EBY,100.75,20.15
EBY-2500229496,1L712494EW985220R,"GEN - EBY",1,4000-GEN-EBY,6.67,1.334
EBY-2500229496,1L712494EW985220R,"Postage - EBY",1,4040--EBY,1.62,0.324
EBY-2500229497,5XV16798CN399024V,"GEN - EBY",1,4000-GEN-EBY,17.5,3.5
EBY-2500229498,11R08751JJ008253P,"GEN - EBY",1,4000-GEN-EBY,6.67,1.334
EBY-2500229499,72G86433933625514,"GEN - EBY",1,4000-GEN-EBY,27.5,5.5
EBY-2500229500,1VF28621JM570105S,"GEN - EBY",1,4000-GEN-EBY,30,6
EBY-2500229501,5JA61457AR955073L,"GEN - EBY",1,4000-GEN-EBY,23.33,4.666
EBY-2500229501,5JA61457AR955073L,"Postage - EBY",1,4040--EBY,8.29,1.658
EBY-2500229502,4M387664CH5121428,"GEN - EBY",1,4000-GEN-EBY,6.67,1.334
EBY-2500229503,5UU67349YG035334H,"GEN - EBY",1,4000-GEN-EBY,10.83,2.166
EBY-2500229504,8BR88103CU106831G,"GEN - EBY",1,4000-GEN-EBY,19.17,3.834
EBY-2500229505,88P239409A6252136,"GEN - EBY",1,4000-GEN-EBY,23.33,4.666
EBY-2500229506,2YM94961S10742529,"GEN - EBY",1,4000-GEN-EBY,13.33,2.666
EBY-2500229507,45P91481JS6861239,"GEN - EBY",1,4000-GEN-EBY,26.67,5.334
EBY-2500229508,8N73082379356802F,"GEN - EBY",1,4000-GEN-EBY,10.83,2.166
EBY-2500229509,3WL03355YK419302G,"GEN - EBY",1,4000-GEN-EBY,12.5,2.5
EBY-2500229510,7S750890R7490652M,"GEN - EBY",1,4000-GEN-EBY,16.67,3.334
EBY-2500229511,0U528128XB9883339,"GEN - EBY",1,4000-GEN-EBY,24.17,4.834
EBY-2500229512,2VV828412H1240123,"GEN - EBY",1,4000-GEN-EBY,6.58,1.316
EBY-2500229515,50W99024PR921891D,"GEN - EBY",1,4000-GEN-EBY,10.83,2.166
EBY-2500229516,17V14930A23840818,"GEN - EBY",1,4000-GEN-EBY,5,1
EBY-2500229517,6E530795SK2855942,"GEN - EBY",1,4000-GEN-EBY,41.67,8.334
EBY-2500229517,6E530795SK2855942,"Postage - EBY",1,4040--EBY,2.45,0.49
EBY-2500229519,5RK628794B4519501,"GEN - EBY",1,4000-GEN-EBY,17.42,3.484
EBY-2500229521,56894066PL226812X,"GEN - EBY",1,4000-GEN-EBY,10.83,2.166
EBY-2500229522,8TG60623D7129714U,"GEN - EBY",1,4000-GEN-EBY,15,3
EBY-2500229523,9XF0024199055991T,"GEN - EBY",1,4000-GEN-EBY,6.67,1.334
EBY-2500229524,1NY07150EG2220924,"GEN - EBY",1,4000-GEN-EBY,8.33,1.666
EBY-2500229525,49E60746K47993713,"GEN - EBY",1,4000-GEN-EBY,3.33,0.666
EBY-2500229526,39W4444282534714W,"GEN - EBY",1,4000-GEN-EBY,12.5,2.5
EBY-2500229527,14484823A5778092A,"GEN - EBY",1,4000-GEN-EBY,37.5,7.5
EBY-2500229528,8WG7205951357351P,"GEN - EBY",1,4000-GEN-EBY,10.83,2.166
EBY-2500229529,52E39966XW445102W,"GEN - EBY",1,4000-GEN-EBY,9.17,1.834
EBY-2500229531,67M793114G1295354,"GEN - EBY",1,4000-GEN-EBY,26.67,5.334
EBY-2500229532,402987330B8927136,"GEN - EBY",1,4000-GEN-EBY,6.67,1.334
EBY-2500229533,6SJ765902G547562S,"GEN - EBY",1,4000-GEN-EBY,66.58,13.316
EBY-2500229534,91F08710C4153984W,"GEN - EBY",1,4000-GEN-EBY,19.17,3.834
EBY-2500229535,0N4658741B093723B,"GEN - EBY",1,4000-GEN-EBY,10.83,2.166
EBY-2500229536,9M8092203W828731H,"GEN - EBY",1,4000-GEN-EBY,50,10
EBY-2500229537,18642630H3630420G,"GEN - EBY",1,4000-GEN-EBY,4.17,0.834
EBY-2500229539,1MP31095NK664993B,"GEN - EBY",1,4000-GEN-EBY,13.33,2.666
EBY-2500229261,37236227A6337352L,"GEN - EBY",1,4000-GEN-EBY,7.09,1.418
EBY-2500229262,3KU404560S880870F,"GEN - EBY",1,4000-GEN-EBY,28.37,5.674
EBY-2500229262,3KU404560S880870F,"Postage - EBY",1,4040--EBY,5.8,1.16
EBY-2500229263,7BP07959XX599270F,"GEN - EBY EXEMPT",0,4000-GEN-EBY,13.512,0
EBY-2500229263,7BP07959XX599270F,"Postage - EBY",2,4040--EBY,6.972,0
EBY-2500229265,64R196849A281071W,"GEN - EBY",1,4000-GEN-EBY,5.1,1.02
EBY-2500229267,23E592641H954701V,"GEN - EBY",1,4000-GEN-EBY,4.59,0.918
EBY-2500229274,9R3978062A356640N,"GEN - EBY",1,4000-GEN-EBY,35.57,7.114
EBY-2500229274,9R3978062A356640N,"Postage - EBY",1,4040--EBY,2.15,0.43
EBY-2500229314,5JS453190W1253514,"GEN - EBY",1,4000-GEN-EBY,52.92,10.584
EBY-2500229315,7LB478404B612915M,"GEN - EBY",1,4000-GEN-EBY,11.26,2.252
EBY-2500229323,6WV646593E7962535,"GEN - EBY",1,4000-GEN-EBY,12.92,2.584
EBY-2500229332,74L53799NH332191D,"GEN - EBY",1,4000-GEN-EBY,31.4,6.28
EBY-2500229332,74L53799NH332191D,"Postage - EBY",1,4040--EBY,4.35,0.87
EBY-2500229362,9G537813YA139942X,"GEN - EBY",1,4000-GEN-EBY,25.68,5.136
EBY-2500229368,9XN33360SM7405704,"GEN - EBY",1,4000-GEN-EBY,13.76,2.752
EBY-2500229391,5X4736300E743772S,"GEN - EBY",1,4000-GEN-EBY,10,2
EBY-2500229401,1CP190299V929305W,"GEN - EBY",1,4000-GEN-EBY,15.42,3.084
EBY-2500229405,8R6148991D150800H,"GEN - EBY",1,4000-GEN-EBY,11.26,2.252
EBY-2500229422,5SG76251V8462652N,"GEN - EBY",1,4000-GEN-EBY,19.59,3.918
EBY-2500229429,4UE65401P7726412X,"GEN - EBY",1,4000-GEN-EBY,11.17,2.234
EBY-2500229437,2H741156FT0184026,"GEN - EBY",1,4000-GEN-EBY,11.26,2.252
EBY-2500229453,6EM09430UE623113X,"GEN - EBY",1,4000-GEN-EBY,63.9,12.78
EBY-2500229463,6BX38524MV526151P,"GEN - EBY",1,4000-GEN-EBY,12.5,2.5
EBY-2500229476,9CU096474A563033F,"GEN - EBY",1,4000-GEN-EBY,11.26,2.252
EBY-2500229494,90749021M1656684W,"GEN - EBY",1,4000-GEN-EBY,7.09,1.418
EBY-2500229513,2PP722473E082652V,"GEN - EBY",1,4000-GEN-EBY,31.4,6.28
EBY-2500229513,2PP722473E082652V,"Postage - EBY",1,4040--EBY,4.35,0.87
EBY-2500229514,87G43350W7092325X,"GEN - EBY",1,4000-GEN-EBY,77.5,15.5
EBY-2500229514,87G43350W7092325X,"Postage - EBY",1,4040--EBY,2.16,0.432
EBY-2500229518,5HX14734JX250142T,"GEN - EBY",1,4000-GEN-EBY,15.42,3.084
EBY-2500229530,6G536972CP023861P,"GEN - EBY",1,4000-GEN-EBY,9.51,1.902
EBY-2500229538,22V92890LT572773E,"GEN - EBY",1,4000-GEN-EBY,398.67,79.734
EBY-2500229538,22V92890LT572773E,"Postage - EBY",1,4040--EBY,5.81,1.162
EBY-2500229264,2E206676RR3484701,"GEN - EBY EXEMPT",0,4000-GEN-EBY,17.496,0
EBY-2500229371,4GJ75940C9890813K,"GEN - EBY EXEMPT",0,4000-GEN-EBY,20.496,0
EBY-2500229403,62B75610AA213112V,"GEN - EBY",1,4000-GEN-EBY,82.85,16.57
EBY-2500229403,62B75610AA213112V,"Postage - EBY",1,4040--EBY,6.28,1.256
EBY-2500229412,4KN4821873649435P,"GEN - EBY EXEMPT",0,4000-GEN-EBY,18.492,0
EBY-2500229420,3NA38139CT922750Y,"GEN - EBY",1,4000-GEN-EBY,22.91,4.582
EBY-2500229420,3NA38139CT922750Y,"Postage - EBY",1,4040--EBY,6.28,1.256
EBY-2500229441,7RV72426L84300259,"GEN - EBY EXEMPT",0,4000-GEN-EBY,9.492,0
EBY-2500229441,7RV72426L84300259,"Postage - EBY",2,4040--EBY,6.024,0
EBY-2500229444,9L4101207S2072333,"GEN - EBY EXEMPT",0,4000-GEN-EBY,30.492,0
EBY-2500229466,2GR15953DN3829143,"GEN - EBY EXEMPT",0,4000-GEN-EBY,10.488,0
EBY-2500229520,1YW67810XB508681U,"GEN - EBY",1,4000-GEN-EBY,25.41,5.082
EBY-2500229260,2KH74622N81309344,"GEN - EBY EXEMPT",0,4000-GEN-EBY,50.52,0
