"CREDIT ID","ORDER ID","EBAY ID",NAME,TAXCODE,NOMINAL,TOTAL,TAX
UK-1900017349,1900209194,,"UK - INT",1,4000-UK-INT,0.445,0.089
UK-1900017349,1900209194,,"UK - INT ZERO RATED",2,4000-UK-INT,2.466,0
UK-1900017351,1900209310,,"UK - INT",1,4000-UK-INT,2.5,0.5
UK-1900017352,1900207383,,"UK - INT",1,4000-UK-INT,11.25,2.25
UK-1900017353,1900207217,,"UK - INT",1,4000-UK-INT,11.99666667,2.399333334
UK-1900017354,1900208199,,"UK - INT",1,4000-UK-INT,41.67,8.334
UK-1900017355,1900207392,,"UK - INT",1,4000-UK-INT,14.25666667,2.851333334
UK-600057867,600633364,,"UK - INT",1,4000-UK-INT,20.75,4.15
UK-600057870,600627834,,"UK - INT",1,4000-UK-INT,13.5,2.7
UK-600057871,600630355,,"UK - INT",1,4000-UK-INT,20.83,4.166
UK-600057875,600631541,,"UK - INT",1,4000-UK-INT,20.83,4.166
UK-1900017360,1900209559,,"UK - INT",1,4000-UK-INT,1.50333333,0.300666666
UK-1900017361,1900209921,,"UK - INT",1,4000-UK-INT,20.75,4.15
UK-1900017363,1900207393,,"UK - INT",1,4000-UK-INT,80.92833333,16.185666666
UK-600057877,600635641,,"UK - INT",1,4000-UK-INT,11.575,2.315
EUR-600057874,600630877,,"EUR - INT",1,4000-EUR-INT,71.99,14.398
ROW-1900017350,1900209752,,"ROW - INT",1,4000-ROW-INT,24.92,4.984
SHIP-1900017361,1900209921,,"Postage - INT",1,4040--INT,2.46,0.492
SHIP-1900017362,1900210097,,"Postage - INT",1,4040--INT,12.46,2.492
SHIP-1900017348,1900210030,,"Postage - INT NOVAT",2,4040--INT,7.95,0
SHIP-1900017350,1900209752,,"Postage - INT",1,4040--INT,2.45,0.49
