"ORDER ID",EBAY-REF,NAME,TAXCODE,NOMINAL,TOTAL,TAX
EBY-2500232059,2T21853879876842W,"GEN - EBY",1,4000-GEN-EBY,9.17,1.834
EBY-2500232060,25D01034T57915404,"GEN - EBY",1,4000-GEN-EBY,5,1
EBY-2500232061,5DW01056XX117974A,"GEN - EBY",1,4000-GEN-EBY,16.67,3.334
EBY-2500232062,104362058J4651239,"GEN - EBY",1,4000-GEN-EBY,5,1
EBY-2500232063,95A910346R4070116,"GEN - EBY",1,4000-GEN-EBY,66.58,13.316
EBY-2500232064,64B63960TH201932F,"GEN - EBY",1,4000-GEN-EBY,10.83,2.166
EBY-2500232065,64R197765F9596034,"GEN - EBY",1,4000-GEN-EBY,66.58,13.316
EBY-2500232066,1C5332252F839272E,"GEN - EBY",1,4000-GEN-EBY,6.67,1.334
EBY-2500232067,70685806C5545454F,"GEN - EBY",1,4000-GEN-EBY,9.17,1.834
EBY-2500232071,4F46322334012720U,"GEN - EBY",1,4000-GEN-EBY,15,3
EBY-2500232072,65U98304HD759974W,"GEN - EBY",1,4000-GEN-EBY,86.67,17.334
EBY-2500232072,65U98304HD759974W,"Postage - EBY",1,4040--EBY,6.62,1.324
EBY-2500232073,9JK24617FV883580R,"GEN - EBY",1,4000-GEN-EBY,11.67,2.334
EBY-2500232074,6M8316211R482820J,"GEN - EBY",1,4000-GEN-EBY,915.75,183.15
EBY-2500232075,06P44940C46974138,"GEN - EBY",1,4000-GEN-EBY,6.67,1.334
EBY-2500232076,49818944N63531401,"GEN - EBY",1,4000-GEN-EBY,45.75,9.15
EBY-2500232076,49818944N63531401,"Postage - EBY",1,4040--EBY,4.12,0.824
EBY-2500232079,3NV25392LL760444H,"GEN - EBY",1,4000-GEN-EBY,41.58,8.316
EBY-2500232080,4F021418SD573191J,"GEN - EBY",1,4000-GEN-EBY,28.33,5.666
EBY-2500232081,4UN50652J2807542C,"GEN - EBY",1,4000-GEN-EBY,12.5,2.5
EBY-2500232082,13H326896F680815Y,"GEN - EBY",1,4000-GEN-EBY,12.42,2.484
EBY-2500232083,9XM34403SW4652830,"GEN - EBY",1,4000-GEN-EBY,66.67,13.334
EBY-2500232084,68110441P76448037,"GEN - EBY",1,4000-GEN-EBY,14.92,2.984
EBY-2500232086,2AW48067UR852231C,"GEN - EBY",1,4000-GEN-EBY,6.67,1.334
EBY-2500232087,6H0931595W636594B,"GEN - EBY",1,4000-GEN-EBY,20.83,4.166
EBY-2500232088,7WH80192EM614043V,"GEN - EBY",1,4000-GEN-EBY,9.17,1.834
EBY-2500232089,3SA55463Y4993772J,"GEN - EBY",1,4000-GEN-EBY,13.33,2.666
EBY-2500232090,6F429522X2986020V,"GEN - EBY",1,4000-GEN-EBY,10.83,2.166
EBY-2500232091,6XD00622UK148042P,"GEN - EBY",1,4000-GEN-EBY,6.67,1.334
EBY-2500232092,5GD19107UW5287919,"GEN - EBY",1,4000-GEN-EBY,10.83,2.166
EBY-2500232093,4VP608173H711352Y,"GEN - EBY",1,4000-GEN-EBY,3.29,0.658
EBY-2500232094,2BX223059A901062R,"GEN - EBY",1,4000-GEN-EBY,17.42,3.484
EBY-2500232095,5AF05049TC794100A,"GEN - EBY",1,4000-GEN-EBY,8.33,1.666
EBY-2500232096,7SP80320NW915910A,"GEN - EBY",1,4000-GEN-EBY,43.33,8.666
EBY-2500232097,184357316J684202E,"GEN - EBY",1,4000-GEN-EBY,9.17,1.834
EBY-2500232098,1GJ854867M907371R,"GEN - EBY",1,4000-GEN-EBY,23.33,4.666
EBY-2500232101,58Y34714L08238917,"GEN - EBY EXEMPT",0,4000-GEN-EBY,50.004,0
EBY-2500232101,58Y34714L08238917,"Postage - EBY",2,4040--EBY,7.956,0
EBY-2500232103,6EU23115GU289815D,"GEN - EBY",1,4000-GEN-EBY,31.67,6.334
EBY-2500232104,4CK53007FC281474K,"GEN - EBY",1,4000-GEN-EBY,25,5
EBY-2500232105,5NR70337BC928773Y,"GEN - EBY",1,4000-GEN-EBY,58.33,11.666
EBY-2500232106,0Y630568284954802,"GEN - EBY",1,4000-GEN-EBY,15,3
EBY-2500232107,1R969367CJ442230B,"GEN - EBY",1,4000-GEN-EBY,3.29,0.658
EBY-2500232108,1JS26152GA646243U,"GEN - EBY",1,4000-GEN-EBY,45.83,9.166
EBY-2500232109,9SB860234L0189727,"GEN - EBY",1,4000-GEN-EBY,12.42,2.484
EBY-2500232110,7U251036RJ205590P,"GEN - EBY",1,4000-GEN-EBY,20.83,4.166
EBY-2500232111,5FW91242NU055933W,"GEN - EBY",1,4000-GEN-EBY,17.42,3.484
EBY-2500232112,70Y31711KU442924A,"GEN - EBY",1,4000-GEN-EBY,54.17,10.834
EBY-2500232113,9RG896208U9104537,"GEN - EBY",1,4000-GEN-EBY,27.5,5.5
EBY-2500232114,8JU66132KA788042G,"GEN - EBY",1,4000-GEN-EBY,32.5,6.5
EBY-2500232116,2R528585XY694991H,"GEN - EBY",1,4000-GEN-EBY,79.08,15.816
EBY-2500232117,52R71164L4120843E,"GEN - EBY",1,4000-GEN-EBY,4.96,0.992
EBY-2500232118,1JR6081630125313S,"GEN - EBY",1,4000-GEN-EBY,49.92,9.984
EBY-2500232119,9WC946119H699651F,"GEN - EBY",1,4000-GEN-EBY,6.66,1.332
EBY-2500232120,72N6578516359541W,"GEN - EBY",1,4000-GEN-EBY,45,9
EBY-2500232121,8MW31232EH488312R,"GEN - EBY",1,4000-GEN-EBY,6.67,1.334
EBY-2500232122,43670400RX745751B,"GEN - EBY",1,4000-GEN-EBY,58.33,11.666
EBY-2500232123,2G828814MA7463621,"GEN - EBY",1,4000-GEN-EBY,14.08,2.816
EBY-2500232124,58N84039S4512721X,"GEN - EBY",1,4000-GEN-EBY,10.83,2.166
EBY-2500232125,7KP72398MU436615H,"GEN - EBY",1,4000-GEN-EBY,45.83,9.166
EBY-2500232126,5KX36582UU9405848,"GEN - EBY",1,4000-GEN-EBY,2.5,0.5
EBY-2500232128,0XE2671319171351X,"GEN - EBY",1,4000-GEN-EBY,41.58,8.316
EBY-2500232128,0XE2671319171351X,"Postage - EBY",1,4040--EBY,4.13,0.826
EBY-2500232129,7WS202212C414002Y,"GEN - EBY",1,4000-GEN-EBY,5.82,1.164
EBY-2500232129,7WS202212C414002Y,"Postage - EBY",1,4040--EBY,1.63,0.326
EBY-2500232130,74B41639D5067404B,"GEN - EBY",1,4000-GEN-EBY,7.5,1.5
EBY-2500232131,4WJ8913001097873W,"GEN - EBY",1,4000-GEN-EBY,19.17,3.834
EBY-2500232132,8VH18283AV4498219,"GEN - EBY",1,4000-GEN-EBY,19.17,3.834
EBY-2500232133,9UV63661CC8838010,"GEN - EBY",1,4000-GEN-EBY,9.17,1.834
EBY-2500232135,74M93182U8837933S,"GEN - EBY",1,4000-GEN-EBY,33.75,6.75
EBY-2500232136,4UN222013L7403932,"GEN - EBY",1,4000-GEN-EBY,16.67,3.334
EBY-2500232137,9YU85654S4996060K,"GEN - EBY",1,4000-GEN-EBY,6.67,1.334
EBY-2500232137,9YU85654S4996060K,"Postage - EBY",1,4040--EBY,1.62,0.324
EBY-2500232138,5K2871503A953344J,"GEN - EBY",1,4000-GEN-EBY,4.57,0.914
EBY-2500232139,63X491029T9991729,"GEN - EBY",1,4000-GEN-EBY,19.17,3.834
EBY-2500232140,3YL05026UG637550W,"GEN - EBY",1,4000-GEN-EBY,20.83,4.166
EBY-2500232141,94K48677FL7303736,"GEN - EBY",1,4000-GEN-EBY,29.17,5.834
EBY-2500232142,1K818572H0510445S,"GEN - EBY",1,4000-GEN-EBY,5,1
EBY-2500232143,7EH51816TB435953J,"GEN - EBY",1,4000-GEN-EBY,6.67,1.334
EBY-2500232144,9U313057H12399811,"GEN - EBY",1,4000-GEN-EBY,6.67,1.334
EBY-2500232145,09M27922RL914391M,"GEN - EBY",1,4000-GEN-EBY,48.32,9.664
EBY-2500232146,27J08818VR2123924,"GEN - EBY",1,4000-GEN-EBY,10.83,2.166
EBY-2500232147,8HL61235WX868011T,"GEN - EBY",1,4000-GEN-EBY,45,9
EBY-2500232148,58H391941N562372H,"GEN - EBY",1,4000-GEN-EBY,9.17,1.834
EBY-2500232149,31H974220E744971P,"GEN - EBY",1,4000-GEN-EBY,10.83,2.166
EBY-2500232150,9E707729L3369701G,"GEN - EBY",1,4000-GEN-EBY,8.33,1.666
EBY-2500232151,6CN20083UX1405423,"GEN - EBY",1,4000-GEN-EBY,8.33,1.666
EBY-2500232152,6XR34980BU638114B,"GEN - EBY",1,4000-GEN-EBY,45.83,9.166
EBY-2500232153,2VU6861793709642M,"GEN - EBY",1,4000-GEN-EBY,6.25,1.25
EBY-2500232154,1HE545623X6176908,"GEN - EBY",1,4000-GEN-EBY,14.92,2.984
EBY-2500232155,90W79521NL138345X,"GEN - EBY",1,4000-GEN-EBY,9.08,1.816
EBY-2500232156,3UA67548UK517350P,"GEN - EBY",1,4000-GEN-EBY,10,2
EBY-2500232157,2Y2076024J0672812,"GEN - EBY",1,4000-GEN-EBY,54.17,10.834
EBY-2500232158,5FP73945GA9853459,"GEN - EBY",1,4000-GEN-EBY,66.67,13.334
EBY-2500232159,8U750447HM701083Y,"GEN - EBY",1,4000-GEN-EBY,66.67,13.334
EBY-2500232159,8U750447HM701083Y,"Postage - EBY",1,4040--EBY,4.12,0.824
EBY-2500232160,7UY43663VB878810A,"GEN - EBY",1,4000-GEN-EBY,10,2
EBY-2500232161,82024285HU2906047,"GEN - EBY",1,4000-GEN-EBY,10.83,2.166
EBY-2500232163,9FR79281H25733133,"GEN - EBY",1,4000-GEN-EBY,5.83,1.166
EBY-2500232165,81R40855UT5188040,"GEN - EBY",1,4000-GEN-EBY,19.17,3.834
EBY-2500232166,9LW20968V6827132L,"GEN - EBY",1,4000-GEN-EBY,9.12,1.824
EBY-2500232167,0L609134TX0398929,"GEN - EBY",1,4000-GEN-EBY,12.5,2.5
EBY-2500232168,3EB638175J987491U,"GEN - EBY",1,4000-GEN-EBY,9.17,1.834
EBY-2500232169,3V127487L39615837,"GEN - EBY",1,4000-GEN-EBY,61.67,12.334
EBY-2500232169,3V127487L39615837,"Postage - EBY",1,4040--EBY,4.12,0.824
EBY-2500232170,7PK95502ER1749817,"GEN - EBY",1,4000-GEN-EBY,15.83,3.166
EBY-2500232171,9FL03103YV8831618,"GEN - EBY",1,4000-GEN-EBY,62.42,12.484
EBY-2500232172,6P717834R6260663J,"GEN - EBY",1,4000-GEN-EBY,33.33,6.666
EBY-2500232174,14F977041X1397237,"GEN - EBY",1,4000-GEN-EBY,6.67,1.334
EBY-2500232175,3UF443236F121061F,"GEN - EBY",1,4000-GEN-EBY,25,5
EBY-2500232177,5729595481665401R,"GEN - EBY",1,4000-GEN-EBY,5,1
EBY-2500232178,1AN80251TA1385543,"GEN - EBY",1,4000-GEN-EBY,28.33,5.666
EBY-2500232179,89F45802T2235873Y,"GEN - EBY",1,4000-GEN-EBY,5,1
EBY-2500232180,65Y89731U9893110C,"GEN - EBY",1,4000-GEN-EBY,10,2
EBY-2500232181,38F51580RW444810U,"GEN - EBY",1,4000-GEN-EBY,23.29,4.658
EBY-2500232181,38F51580RW444810U,"Postage - EBY",1,4040--EBY,1.63,0.326
EBY-2500232183,3J0334717D1877945,"GEN - EBY",1,4000-GEN-EBY,3.29,0.658
EBY-2500232184,86U66608P5215151D,"GEN - EBY",1,4000-GEN-EBY,33.33,6.666
EBY-2500232185,2S7123547V6214151,"GEN - EBY",1,4000-GEN-EBY,13.33,2.666
EBY-2500232186,8DY19490CT2082316,"GEN - EBY",1,4000-GEN-EBY,19.08,3.816
EBY-2500232187,71M02403M51365025,"GEN - EBY",1,4000-GEN-EBY,10,2
EBY-2500232187,71M02403M51365025,"Postage - EBY",1,4040--EBY,1.62,0.324
EBY-2500232188,47H49864KU017962R,"GEN - EBY",1,4000-GEN-EBY,4.17,0.834
EBY-2500232188,47H49864KU017962R,"Postage - EBY",1,4040--EBY,1.62,0.324
EBY-2500232189,4E912248NT168112E,"GEN - EBY",1,4000-GEN-EBY,8.25,1.65
EBY-2500232190,44J938179T105334L,"GEN - EBY",1,4000-GEN-EBY,19.17,3.834
EBY-2500232191,1G9091560N746744J,"GEN - EBY",1,4000-GEN-EBY,12.42,2.484
EBY-2500232193,5G285137PE201411M,"GEN - EBY",1,4000-GEN-EBY,10,2
EBY-2500232194,98F47702VD6794806,"GEN - EBY",1,4000-GEN-EBY,19.17,3.834
EBY-2500232195,0WK492502C264821U,"GEN - EBY",1,4000-GEN-EBY,5.83,1.166
EBY-2500232196,8GV08924H4832991W,"GEN - EBY",1,4000-GEN-EBY,25,5
EBY-2500232197,10K15218B02740055,"GEN - EBY",1,4000-GEN-EBY,53.33,10.666
EBY-2500232197,10K15218B02740055,"Postage - EBY",1,4040--EBY,10.79,2.158
EBY-2500232198,1AB50137425734031,"GEN - EBY",1,4000-GEN-EBY,27.5,5.5
EBY-2500232199,23369568VC170033F,"GEN - EBY",1,4000-GEN-EBY,6.67,1.334
EBY-2500232200,80K03055XT739284G,"GEN - EBY",1,4000-GEN-EBY,13.17,2.634
EBY-2500232201,5W421685WH900034F,"GEN - EBY",1,4000-GEN-EBY,29.17,5.834
EBY-2500232202,41J88615UA681770V,"GEN - EBY",1,4000-GEN-EBY,14.17,2.834
EBY-2500232203,2L5126082J1050104,"GEN - EBY",1,4000-GEN-EBY,13.33,2.666
EBY-2500232205,27C78230UT562681F,"GEN - EBY",1,4000-GEN-EBY,10.83,2.166
EBY-2500232205,27C78230UT562681F,"Postage - EBY",1,4040--EBY,1.63,0.326
EBY-2500232206,1ET72395A80921534,"GEN - EBY",1,4000-GEN-EBY,5,1
EBY-2500232207,60G90499S9052104U,"GEN - EBY",1,4000-GEN-EBY,26.67,5.334
EBY-2500232207,60G90499S9052104U,"Postage - EBY",1,4040--EBY,1.62,0.324
EBY-2500232208,9VJ02019E95988156,"GEN - EBY",1,4000-GEN-EBY,14.08,2.816
EBY-2500232211,6UH08339E90899100,"GEN - EBY",1,4000-GEN-EBY,6.67,1.334
EBY-2500232211,6UH08339E90899100,"Postage - EBY",1,4040--EBY,1.62,0.324
EBY-2500232212,4G3665244F697622P,"GEN - EBY",1,4000-GEN-EBY,5.83,1.166
EBY-2500232213,6CB315133W637654K,"GEN - EBY",1,4000-GEN-EBY,6.67,1.334
EBY-2500232214,4HN629814Y858270X,"GEN - EBY",1,4000-GEN-EBY,22.5,4.5
EBY-2500232215,84A74943M5813911B,"GEN - EBY",1,4000-GEN-EBY,20.83,4.166
EBY-2500232216,642885957S9325720,"GEN - EBY",1,4000-GEN-EBY,12.42,2.484
EBY-2500232217,8KM16097D02068217,"GEN - EBY",1,4000-GEN-EBY,25,5
EBY-2500232218,7AC99906HY0533849,"GEN - EBY",1,4000-GEN-EBY,19.17,3.834
EBY-2500232219,6GD49543SA457105F,"GEN - EBY",1,4000-GEN-EBY,13.33,2.666
EBY-2500232219,6GD49543SA457105F,"Postage - EBY",1,4040--EBY,3.25,0.65
EBY-2500232220,9F524966PR719753E,"GEN - EBY",1,4000-GEN-EBY,8.33,1.666
EBY-2500232221,8GM35039GT267445L,"GEN - EBY",1,4000-GEN-EBY,45,9
EBY-2500232222,9LD88337JD866624H,"GEN - EBY",1,4000-GEN-EBY,4.57,0.914
EBY-2500232223,4B06909851671715F,"GEN - EBY",1,4000-GEN-EBY,31.67,6.334
EBY-2500232223,4B06909851671715F,"Postage - EBY",1,4040--EBY,1.62,0.324
EBY-2500232224,5YG73547P3425450S,"GEN - EBY",1,4000-GEN-EBY,6.67,1.334
EBY-2500232225,4Y518193JM462932J,"GEN - EBY",1,4000-GEN-EBY,23.33,4.666
EBY-2500232226,2VC68588386439239,"GEN - EBY",1,4000-GEN-EBY,1.67,0.334
EBY-2500232227,1DM08747PP036502S,"GEN - EBY",1,4000-GEN-EBY,15,3
EBY-2500232228,5VD21281D81606047,"GEN - EBY",1,4000-GEN-EBY,17.5,3.5
EBY-2500232228,5VD21281D81606047,"Postage - EBY",1,4040--EBY,1.62,0.324
EBY-2500232229,6DB357140D201964P,"GEN - EBY",1,4000-GEN-EBY,10.83,2.166
EBY-2500232229,6DB357140D201964P,"Postage - EBY",1,4040--EBY,1.63,0.326
EBY-2500232230,96U79481M5315764B,"GEN - EBY",1,4000-GEN-EBY,6.67,1.334
EBY-2500232231,20129615G1962624E,"GEN - EBY",1,4000-GEN-EBY,37.5,7.5
EBY-2500232232,8NX60315ML0908919,"GEN - EBY",1,4000-GEN-EBY,6.67,1.334
EBY-2500232233,31M564572V403622Y,"GEN - EBY",1,4000-GEN-EBY,9.08,1.816
EBY-2500232234,8XA34845FG4775906,"GEN - EBY",1,4000-GEN-EBY,45,9
EBY-2500232236,3TY97980PK1054339,"GEN - EBY",1,4000-GEN-EBY,9.17,1.834
EBY-2500232237,7TF83865EG953043D,"GEN - EBY",1,4000-GEN-EBY,12.5,2.5
EBY-2500232238,1V430080K3647021H,"GEN - EBY",1,4000-GEN-EBY,6.67,1.334
EBY-2500232241,47388947BW153453K,"GEN - EBY",1,4000-GEN-EBY,13.33,2.666
EBY-2500232242,9VD68086FN535132E,"GEN - EBY",1,4000-GEN-EBY,9.17,1.834
EBY-2500232243,08N509345U4168628,"GEN - EBY",1,4000-GEN-EBY,10,2
EBY-2500232244,8857330347747202L,"GEN - EBY",1,4000-GEN-EBY,23.33,4.666
EBY-2500232245,0WN95924CM065641W,"GEN - EBY",1,4000-GEN-EBY,14.92,2.984
EBY-2500232246,79S84464T0748631T,"GEN - EBY",1,4000-GEN-EBY,6.67,1.334
EBY-2500232247,0UW55874NE962505C,"GEN - EBY",1,4000-GEN-EBY,6.67,1.334
EBY-2500232248,7L378748KE636704U,"GEN - EBY",1,4000-GEN-EBY,9.17,1.834
EBY-2500232250,0S1943640T685830Y,"GEN - EBY",1,4000-GEN-EBY,19.17,3.834
EBY-2500232251,31X78127DJ411625K,"GEN - EBY",1,4000-GEN-EBY,20,4
EBY-2500232252,4U7007042D8129838,"GEN - EBY",1,4000-GEN-EBY,15.83,3.166
EBY-2500232253,1H731538S90841015,"GEN - EBY",1,4000-GEN-EBY,44.17,8.834
EBY-2500232253,1H731538S90841015,"Postage - EBY",1,4040--EBY,8.29,1.658
EBY-2500232254,3KL94185HL440523C,"GEN - EBY",1,4000-GEN-EBY,6.67,1.334
EBY-2500232255,2KE67634X9087200G,"GEN - EBY",1,4000-GEN-EBY,10.83,2.166
EBY-2500232257,3T178376T0148521V,"GEN - EBY",1,4000-GEN-EBY,4.17,0.834
EBY-2500232259,4Y332335PM8981949,"GEN - EBY",1,4000-GEN-EBY,9.17,1.834
EBY-2500232260,6KU91544M5655052L,"GEN - EBY",1,4000-GEN-EBY,12.5,2.5
EBY-2500232261,7V870987CE5102921,"GEN - EBY",1,4000-GEN-EBY,6.67,1.334
EBY-2500232262,49650905YK4501715,"GEN - EBY",1,4000-GEN-EBY,3.33,0.666
EBY-2500232263,08175336PK572653C,"GEN - EBY",1,4000-GEN-EBY,10.83,2.166
EBY-2500232264,7XC14700EW974893X,"GEN - EBY",1,4000-GEN-EBY,16.67,3.334
EBY-2500232265,9PP69856J4106951X,"GEN - EBY",1,4000-GEN-EBY,16.58,3.316
EBY-2500232266,5BH71284JF123331L,"GEN - EBY",1,4000-GEN-EBY,6.67,1.334
EBY-2500232267,3U712606G9435023G,"GEN - EBY",1,4000-GEN-EBY,12.5,2.5
EBY-2500232268,0YR25807CN787325T,"GEN - EBY",1,4000-GEN-EBY,3.33,0.666
EBY-2500232269,0G0951467M641812U,"GEN - EBY",1,4000-GEN-EBY,9.17,1.834
EBY-2500232270,1DK995017X713301F,"GEN - EBY",1,4000-GEN-EBY,3.29,0.658
EBY-2500232271,09W84441KL3804638,"GEN - EBY",1,4000-GEN-EBY,13.33,2.666
EBY-2500232271,09W84441KL3804638,"Postage - EBY",1,4040--EBY,1.63,0.326
EBY-2500232272,7T104652C6264824S,"GEN - EBY",1,4000-GEN-EBY,50,10
EBY-2500232273,1GW4613536706694R,"GEN - EBY",1,4000-GEN-EBY,6.67,1.334
EBY-2500232274,2XK22414RL5912701,"GEN - EBY",1,4000-GEN-EBY,66.67,13.334
EBY-2500232275,6FX62835TW4366041,"GEN - EBY",1,4000-GEN-EBY,21.25,4.25
EBY-2500232276,3TA494895V5930002,"GEN - EBY",1,4000-GEN-EBY,13.33,2.666
EBY-2500232278,60K76166WJ9881322,"GEN - EBY",1,4000-GEN-EBY,9.17,1.834
EBY-2500232279,2GP06880HH259053P,"GEN - EBY",1,4000-GEN-EBY,6.67,1.334
EBY-2500232280,7B135719L8082913H,"GEN - EBY",1,4000-GEN-EBY,18.33,3.666
EBY-2500232281,42893365N37659328,"GEN - EBY",1,4000-GEN-EBY,9.87,1.974
EBY-2500232282,42R03354US357124A,"GEN - EBY",1,4000-GEN-EBY,45,9
EBY-2500232282,42R03354US357124A,"Postage - EBY",1,4040--EBY,6.62,1.324
EBY-2500232283,1DH22556UU323332C,"GEN - EBY",1,4000-GEN-EBY,10.83,2.166
EBY-2500232285,9XV53686921619808,"GEN - EBY",1,4000-GEN-EBY,9.17,1.834
EBY-2500232286,18418688HK915732S,"GEN - EBY",1,4000-GEN-EBY,36.67,7.334
EBY-2500232288,5A564957LH840214W,"GEN - EBY",1,4000-GEN-EBY,9.17,1.834
EBY-2500232291,4XK887495C513845C,"GEN - EBY",1,4000-GEN-EBY,28.74,5.748
EBY-2500232293,1VC58176WM132341E,"GEN - EBY",1,4000-GEN-EBY,12.5,2.5
EBY-2500232294,39W77271HN0173718,"GEN - EBY",1,4000-GEN-EBY,6.67,1.334
EBY-2500232295,0H449877XY6072018,"GEN - EBY",1,4000-GEN-EBY,6.67,1.334
EBY-2500232296,70309387PG8420156,"GEN - EBY",1,4000-GEN-EBY,1.67,0.334
EBY-2500232297,37Y67667MC3979104,"GEN - EBY",1,4000-GEN-EBY,33.33,6.666
EBY-2500232298,34N27225ER014724W,"GEN - EBY",1,4000-GEN-EBY,6.67,1.334
EBY-2500232299,51M91997CA926805Y,"GEN - EBY",1,4000-GEN-EBY,2.5,0.5
EBY-2500232300,9TY15769FT9033144,"GEN - EBY",1,4000-GEN-EBY,17.5,3.5
EBY-2500232301,368358474W3819306,"GEN - EBY",1,4000-GEN-EBY,10.83,2.166
EBY-2500232302,762098833M523804N,"GEN - EBY",1,4000-GEN-EBY,31.67,6.334
EBY-2500232303,1XD33466D26238844,"GEN - EBY",1,4000-GEN-EBY,10.83,2.166
EBY-2500232304,7WC1256798394724C,"GEN - EBY",1,4000-GEN-EBY,5,1
EBY-2500232307,5BF67080TA7890323,"GEN - EBY",1,4000-GEN-EBY,15,3
EBY-2500232308,68J65999LF611300F,"GEN - EBY",1,4000-GEN-EBY,13.33,2.666
EBY-2500232309,2C12417796240401S,"GEN - EBY",1,4000-GEN-EBY,100,20
EBY-2500232309,2C12417796240401S,"Postage - EBY",1,4040--EBY,1.62,0.324
EBY-2500232310,8U253862JP6812600,"GEN - EBY",1,4000-GEN-EBY,15,3
EBY-2500232311,27338286FB5586929,"GEN - EBY",1,4000-GEN-EBY,7.5,1.5
EBY-2500232312,68R64194NF2427621,"GEN - EBY",1,4000-GEN-EBY,10,2
EBY-2500232313,73Y61102LT012514C,"GEN - EBY",1,4000-GEN-EBY,12.5,2.5
EBY-2500232314,4C452430TM285701F,"GEN - EBY",1,4000-GEN-EBY,27.5,5.5
EBY-2500232314,4C452430TM285701F,"Postage - EBY",1,4040--EBY,1.62,0.324
EBY-2500232315,3TN121374B254661K,"GEN - EBY",1,4000-GEN-EBY,1.67,0.334
EBY-2500232316,9XT9503681905143J,"GEN - EBY",1,4000-GEN-EBY,8.33,1.666
EBY-2500232317,15X32333TX9821038,"GEN - EBY",1,4000-GEN-EBY,14.92,2.984
EBY-2500232318,1EN138638X743213L,"GEN - EBY",1,4000-GEN-EBY,27.42,5.484
EBY-2500232058,95479802XG781363X,"GEN - EBY",1,4000-GEN-EBY,28.33,5.666
EBY-2500232058,95479802XG781363X,"Postage - EBY",1,4040--EBY,4.35,0.87
EBY-2500232077,5FS61619DT982125M,"GEN - EBY",1,4000-GEN-EBY,56.67,11.334
EBY-2500232077,5FS61619DT982125M,"Postage - EBY",1,4040--EBY,2.15,0.43
EBY-2500232078,2JA43093CL777062A,"GEN - EBY",1,4000-GEN-EBY,90,18
EBY-2500232078,2JA43093CL777062A,"Postage - EBY",1,4040--EBY,4.35,0.87
EBY-2500232085,1NV57762YN070204A,"GEN - EBY",1,4000-GEN-EBY,7.09,1.418
EBY-2500232099,7T833154LV064143U,"GEN - EBY",1,4000-GEN-EBY,68.9,13.78
EBY-2500232102,0A6409254D8200044,"GEN - EBY",1,4000-GEN-EBY,12.92,2.584
EBY-2500232115,3GP56011U76414128,"GEN - EBY",1,4000-GEN-EBY,23.07,4.614
EBY-2500232134,1YN887247C903943G,"GEN - EBY",1,4000-GEN-EBY,67.02,13.404
EBY-2500232162,6HM73368SY271351U,"GEN - EBY",1,4000-GEN-EBY,227.09,45.418
EBY-2500232164,7YA436607L0997106,"GEN - EBY",1,4000-GEN-EBY,38.9,7.78
EBY-2500232164,7YA436607L0997106,"Postage - EBY",1,4040--EBY,2.16,0.432
EBY-2500232173,1H9611483T1454151,"GEN - EBY",1,4000-GEN-EBY,7.09,1.418
EBY-2500232176,74A02483P68556038,"GEN - EBY",1,4000-GEN-EBY,5.38,1.076
EBY-2500232192,6EF0113093441874H,"GEN - EBY",1,4000-GEN-EBY,35.85,7.17
EBY-2500232210,0BY169892C154240Y,"GEN - EBY",1,4000-GEN-EBY,18.35,3.67
EBY-2500232235,39138890GU224800S,"GEN - EBY",1,4000-GEN-EBY,55.57,11.114
EBY-2500232235,39138890GU224800S,"Postage - EBY",1,4040--EBY,2.15,0.43
EBY-2500232256,9U388431VX254805E,"GEN - EBY",1,4000-GEN-EBY,68.9,13.78
EBY-2500232256,9U388431VX254805E,"Postage - EBY",1,4040--EBY,2.16,0.432
EBY-2500232277,3XV58027MY695343L,"GEN - EBY",1,4000-GEN-EBY,33.77,6.754
EBY-2500232284,1SC232490F6020014,"GEN - EBY",1,4000-GEN-EBY,13.33,2.666
EBY-2500232289,3VG76455HX4901132,"GEN - EBY",1,4000-GEN-EBY,9.59,1.918
EBY-2500232290,7C676578NC5557244,"GEN - EBY",1,4000-GEN-EBY,25.68,5.136
EBY-2500232292,2C487285PC447572C,"GEN - EBY",1,4000-GEN-EBY,12.92,2.584
EBY-2500232305,69L05192GW310914J,"GEN - EBY",1,4000-GEN-EBY,19.59,3.918
EBY-2500232306,2PP55778HS006853D,"GEN - EBY",1,4000-GEN-EBY,19.59,3.918
EBY-2500232100,6G7855923K798264S,"GEN - EBY EXEMPT",0,4000-GEN-EBY,60.324,0
EBY-2500232100,6G7855923K798264S,"Postage - EBY",2,4040--EBY,11.328,0
EBY-2500232127,65G52492MC998592W,"GEN - EBY",1,4000-GEN-EBY,8.74,1.748
EBY-2500232182,4MT201954T113040F,"GEN - EBY",1,4000-GEN-EBY,50.35,10.07
EBY-2500232204,79645417766371719,"GEN - EBY EXEMPT",0,4000-GEN-EBY,12.492,0
EBY-2500232209,39404760E3430725C,"GEN - EBY",1,4000-GEN-EBY,88.72,17.744
EBY-2500232239,34043682LA984291A,"GEN - EBY EXEMPT",0,4000-GEN-EBY,40.488,0
EBY-2500232239,34043682LA984291A,"Postage - EBY",2,4040--EBY,11.364,0
EBY-2500232240,8YP13715C51517721,"GEN - EBY EXEMPT",0,4000-GEN-EBY,10.488,0
EBY-2500232249,1FM038147A4410830,"GEN - EBY EXEMPT",0,4000-GEN-EBY,12.492,0
EBY-2500232258,48U23234P8676390E,"GEN - EBY EXEMPT",0,4000-GEN-EBY,25.416,0
EBY-2500232287,1AN90455LT867593F,"GEN - EBY EXEMPT",0,4000-GEN-EBY,30.492,0
EBY-2500232720,0AS01193YX284653G,"GEN - EBY EXEMPT",0,4000-GEN-EBY,99.42,0
