"ORDER ID",EBAY-REF,NAME,TAXCODE,NOMINAL,TOTAL,TAX
EBY-2500224796,43F36354G0104803Y,"GEN - EBY",1,4000-GEN-EBY,23.33,4.666
EBY-2500224797,9LM642742M9497500,"GEN - EBY",1,4000-GEN-EBY,4.17,0.834
EBY-2500224799,4S8397505C954343Y,"GEN - EBY",1,4000-GEN-EBY,9.17,1.834
EBY-2500224803,82488228V8707874T,"GEN - EBY",1,4000-GEN-EBY,12.5,2.5
EBY-2500224804,7XP957854C112974W,"GEN - EBY",1,4000-GEN-EBY,15,3
EBY-2500224804,7XP957854C112974W,"Postage - EBY",1,4040--EBY,1.62,0.324
EBY-2500224805,45L388604R715980N,"GEN - EBY",1,4000-GEN-EBY,8.33,1.666
EBY-2500224806,54P69213B8103471J,"GEN - EBY",1,4000-GEN-EBY,27.42,5.484
EBY-2500224807,9S160971T9999721S,"GEN - EBY",1,4000-GEN-EBY,23.33,4.666
EBY-2500224808,37817628Y22625707,"GEN - EBY",1,4000-GEN-EBY,13.33,2.666
EBY-2500224810,2L918684M6726842B,"GEN - EBY",1,4000-GEN-EBY,10.83,2.166
EBY-2500224811,7XP215074N3675208,"GEN - EBY",1,4000-GEN-EBY,5,1
EBY-2500224812,65X37625AG601153G,"GEN - EBY",1,4000-GEN-EBY,6.67,1.334
EBY-2500224813,8MU65655HN1670638,"GEN - EBY",1,4000-GEN-EBY,23.33,4.666
EBY-2500224813,8MU65655HN1670638,"Postage - EBY",1,4040--EBY,1.63,0.326
EBY-2500224814,7NA471226U6942058,"GEN - EBY EXEMPT",0,4000-GEN-EBY,70.488,0
EBY-2500224814,7NA471226U6942058,"Postage - EBY",2,4040--EBY,9.948,0
EBY-2500224815,6FR00424TY861744Y,"GEN - EBY",1,4000-GEN-EBY,27.42,5.484
EBY-2500224816,5B962351PN832051C,"GEN - EBY",1,4000-GEN-EBY,10.83,2.166
EBY-2500224817,3MW45132Y88053448,"GEN - EBY",1,4000-GEN-EBY,13.33,2.666
EBY-2500224818,4W109635B5568370D,"GEN - EBY",1,4000-GEN-EBY,25,5
EBY-2500224819,8L209977L36847307,"GEN - EBY",1,4000-GEN-EBY,36.67,7.334
EBY-2500224820,8YC07692D46642540,"GEN - EBY",1,4000-GEN-EBY,6.67,1.334
EBY-2500224824,012460849U947372G,"GEN - EBY",1,4000-GEN-EBY,8.33,1.666
EBY-2500224824,012460849U947372G,"Postage - EBY",1,4040--EBY,1.63,0.326
EBY-2500224825,2YB95766MA799160A,"GEN - EBY",1,4000-GEN-EBY,2.46,0.492
EBY-2500224826,53105077KW563774X,"GEN - EBY",1,4000-GEN-EBY,10,2
EBY-2500224827,8D9690725G502925M,"GEN - EBY",1,4000-GEN-EBY,10.83,2.166
EBY-2500224829,18548656AE0558313,"GEN - EBY",1,4000-GEN-EBY,20.83,4.166
EBY-2500224830,3LF0621964474360C,"GEN - EBY",1,4000-GEN-EBY,8.33,1.666
EBY-2500224831,68K81742B3871235C,"GEN - EBY",1,4000-GEN-EBY,37.5,7.5
EBY-2500224832,8UK8752553201942U,"GEN - EBY",1,4000-GEN-EBY,4.92,0.984
EBY-2500224833,6AH20438X4292111E,"GEN - EBY",1,4000-GEN-EBY,6.67,1.334
EBY-2500224833,6AH20438X4292111E,"Postage - EBY",1,4040--EBY,1.62,0.324
EBY-2500224834,3WP55460T89562617,"GEN - EBY",1,4000-GEN-EBY,12.42,2.484
EBY-2500224835,7XJ14327H11100211,"GEN - EBY",1,4000-GEN-EBY,2.5,0.5
EBY-2500224836,5JB1888422532934U,"GEN - EBY",1,4000-GEN-EBY,12.5,2.5
EBY-2500224837,07J42974JW340174P,"GEN - EBY",1,4000-GEN-EBY,17.5,3.5
EBY-2500224838,91Y829404T8517529,"GEN - EBY",1,4000-GEN-EBY,12.5,2.5
EBY-2500224839,6S78387432488100V,"GEN - EBY",1,4000-GEN-EBY,8.33,1.666
EBY-2500224841,22528196WH063410Y,"GEN - EBY",1,4000-GEN-EBY,10.83,2.166
EBY-2500224842,58285755S3584624P,"GEN - EBY",1,4000-GEN-EBY,2.5,0.5
EBY-2500224843,4KK59472FD085183C,"GEN - EBY",1,4000-GEN-EBY,33.33,6.666
EBY-2500224844,87J62628SC842363K,"GEN - EBY",1,4000-GEN-EBY,6.67,1.334
EBY-2500224845,3US067764C325520T,"GEN - EBY",1,4000-GEN-EBY,6.67,1.334
EBY-2500224846,3PB4407770626173A,"GEN - EBY",1,4000-GEN-EBY,3.33,0.666
EBY-2500224847,3N170680KH363432M,"GEN - EBY",1,4000-GEN-EBY,2.08,0.416
EBY-2500224848,4EL21709X49541646,"GEN - EBY",1,4000-GEN-EBY,22.42,4.484
EBY-2500224849,55N40847DC7634807,"GEN - EBY",1,4000-GEN-EBY,54.17,10.834
EBY-2500224849,55N40847DC7634807,"Postage - EBY",1,4040--EBY,10.79,2.158
EBY-2500224850,1HC109946E951554H,"GEN - EBY",1,4000-GEN-EBY,44.17,8.834
EBY-2500224851,0FF55569588754633,"GEN - EBY",1,4000-GEN-EBY,6.67,1.334
EBY-2500224852,81B0113481311863J,"GEN - EBY",1,4000-GEN-EBY,6.67,1.334
EBY-2500224853,1LY47729T48991210,"GEN - EBY",1,4000-GEN-EBY,45.83,9.166
EBY-2500224854,0Y184582JS359891R,"GEN - EBY",1,4000-GEN-EBY,3.33,0.666
EBY-2500224855,0AR013209B879381P,"GEN - EBY",1,4000-GEN-EBY,19.17,3.834
EBY-2500224855,0AR013209B879381P,"Postage - EBY",1,4040--EBY,1.62,0.324
EBY-2500224856,5U160950WK536713L,"GEN - EBY",1,4000-GEN-EBY,3.33,0.666
EBY-2500224857,4LX2771768342091G,"GEN - EBY",1,4000-GEN-EBY,33.33,6.666
EBY-2500224858,4SE434858U061894R,"GEN - EBY",1,4000-GEN-EBY,27.42,5.484
EBY-2500224859,9T155495SB782025N,"GEN - EBY",1,4000-GEN-EBY,16.67,3.334
EBY-2500224860,13840365RR402964F,"GEN - EBY",1,4000-GEN-EBY,6.67,1.334
EBY-2500224861,2JH905598D7914940,"GEN - EBY",1,4000-GEN-EBY,6.67,1.334
EBY-2500224862,9P229730LK995252V,"GEN - EBY",1,4000-GEN-EBY,25,5
EBY-2500224863,9FX54817UG370563V,"GEN - EBY",1,4000-GEN-EBY,8.33,1.666
EBY-2500224864,3JE41262YK715461H,"GEN - EBY",1,4000-GEN-EBY,63.33,12.666
EBY-2500224864,3JE41262YK715461H,"Postage - EBY",1,4040--EBY,3.25,0.65
EBY-2500224865,5VK76282EF0503510,"GEN - EBY",1,4000-GEN-EBY,15.83,3.166
EBY-2500224865,5VK76282EF0503510,"Postage - EBY",1,4040--EBY,1.63,0.326
EBY-2500224866,6LP34073NK590561C,"GEN - EBY",1,4000-GEN-EBY,45.83,9.166
EBY-2500224867,5XF54375YW179091H,"GEN - EBY",1,4000-GEN-EBY,17.5,3.5
EBY-2500224868,7Y7747784D282493Y,"GEN - EBY",1,4000-GEN-EBY,6.67,1.334
EBY-2500224871,4MN06318EW942523L,"GEN - EBY",1,4000-GEN-EBY,15,3
EBY-2500224873,7UY61456VA290202A,"GEN - EBY",1,4000-GEN-EBY,5,1
EBY-2500224874,1M9327526U293214S,"GEN - EBY",1,4000-GEN-EBY,10.83,2.166
EBY-2500224880,52X14156MY200801N,"GEN - EBY",1,4000-GEN-EBY,15,3
EBY-2500224881,45971119YN082024D,"GEN - EBY",1,4000-GEN-EBY,14.17,2.834
EBY-2500224882,61862244HL714283W,"GEN - EBY",1,4000-GEN-EBY,19.17,3.834
EBY-2500224883,0R624985UF431201D,"GEN - EBY",1,4000-GEN-EBY,8.33,1.666
EBY-2500224884,0FS47875XS852130X,"GEN - EBY",1,4000-GEN-EBY,27.5,5.5
EBY-2500224886,9F760921WB952491B,"GEN - EBY",1,4000-GEN-EBY,5,1
EBY-2500224888,5J2602589R6035214,"GEN - EBY",1,4000-GEN-EBY,33.33,6.666
EBY-2500224889,0DF09187MU491080P,"GEN - EBY EXEMPT",0,4000-GEN-EBY,63.996,0
EBY-2500224889,0DF09187MU491080P,"Postage - EBY",2,4040--EBY,7.956,0
EBY-2500224891,7PS72381MV210560A,"GEN - EBY",1,4000-GEN-EBY,8.33,1.666
EBY-2500224892,6F41159169845593V,"GEN - EBY",1,4000-GEN-EBY,10.83,2.166
EBY-2500224893,83039672XV221131N,"GEN - EBY",1,4000-GEN-EBY,27.42,5.484
EBY-2500224894,2MJ53959BE091994S,"GEN - EBY",1,4000-GEN-EBY,10.83,2.166
EBY-2500224895,4LU250041W2325429,"GEN - EBY",1,4000-GEN-EBY,27.5,5.5
EBY-2500224896,4J338894NX2880916,"GEN - EBY",1,4000-GEN-EBY,9.17,1.834
EBY-2500224897,4VM155423S462223H,"GEN - EBY",1,4000-GEN-EBY,6.67,1.334
EBY-2500224898,4XP83021EH4459326,"GEN - EBY",1,4000-GEN-EBY,9.17,1.834
EBY-2500224901,0HR383788P013510L,"GEN - EBY",1,4000-GEN-EBY,9.17,1.834
EBY-2500224902,66P79485744005322,"GEN - EBY",1,4000-GEN-EBY,85.82,17.164
EBY-2500224903,51S473944V0466804,"GEN - EBY",1,4000-GEN-EBY,31.67,6.334
EBY-2500224904,4HR97651DH596263U,"GEN - EBY",1,4000-GEN-EBY,6.67,1.334
EBY-2500224905,79M7303584671321D,"GEN - EBY",1,4000-GEN-EBY,33.33,6.666
EBY-2500224906,1JW09545JU0829409,"GEN - EBY",1,4000-GEN-EBY,21.58,4.316
EBY-2500224907,0S0186684E0413348,"GEN - EBY",1,4000-GEN-EBY,20.83,4.166
EBY-2500224908,00N17272D2001815P,"GEN - EBY",1,4000-GEN-EBY,11.67,2.334
EBY-2500224909,2T592072M2583390Y,"GEN - EBY",1,4000-GEN-EBY,60.75,12.15
EBY-2500224910,38P133987J563184W,"GEN - EBY",1,4000-GEN-EBY,10.83,2.166
EBY-2500224911,1MH961709U6898424,"GEN - EBY",1,4000-GEN-EBY,18.25,3.65
EBY-2500224912,53C45923TK202215S,"GEN - EBY",1,4000-GEN-EBY,10.83,2.166
EBY-2500224912,53C45923TK202215S,"Postage - EBY",1,4040--EBY,1.63,0.326
EBY-2500224913,7YM43247G1939194S,"GEN - EBY",1,4000-GEN-EBY,109.92,21.984
EBY-2500224914,3N947882HB604115T,"GEN - EBY",1,4000-GEN-EBY,12.5,2.5
EBY-2500224915,9M360849FX682383L,"GEN - EBY",1,4000-GEN-EBY,3.29,0.658
EBY-2500224916,3CJ49901AA450934N,"GEN - EBY",1,4000-GEN-EBY,10.83,2.166
EBY-2500224916,3CJ49901AA450934N,"Postage - EBY",1,4040--EBY,1.63,0.326
EBY-2500224917,28P99904KH104980G,"GEN - EBY",1,4000-GEN-EBY,26.67,5.334
EBY-2500224917,28P99904KH104980G,"Postage - EBY",1,4040--EBY,1.62,0.324
EBY-2500224918,3H130802G5923021S,"GEN - EBY",1,4000-GEN-EBY,8.33,1.666
EBY-2500224919,1CJ52777BN5062415,"GEN - EBY",1,4000-GEN-EBY,4.57,0.914
EBY-2500224920,46K80547E37183745,"GEN - EBY",1,4000-GEN-EBY,48.33,9.666
EBY-2500224921,4X128074DK301454U,"GEN - EBY",1,4000-GEN-EBY,12.5,2.5
EBY-2500224922,7SX21709U63925705,"GEN - EBY",1,4000-GEN-EBY,6.67,1.334
EBY-2500224923,5C945856K9731361U,"GEN - EBY",1,4000-GEN-EBY,6.67,1.334
EBY-2500224923,5C945856K9731361U,"Postage - EBY",1,4040--EBY,1.62,0.324
EBY-2500224924,0BF06777LN840863Y,"GEN - EBY",1,4000-GEN-EBY,23.33,4.666
EBY-2500224925,9UB33676D8970590R,"GEN - EBY",1,4000-GEN-EBY,9.17,1.834
EBY-2500224927,3JU06134VG515222E,"GEN - EBY",1,4000-GEN-EBY,19.17,3.834
EBY-2500224928,5CD05797R7162720V,"GEN - EBY",1,4000-GEN-EBY,20.83,4.166
EBY-2500224929,0E861077VX3991938,"GEN - EBY",1,4000-GEN-EBY,19.17,3.834
EBY-2500224930,1R729661N5570871V,"GEN - EBY",1,4000-GEN-EBY,25,5
EBY-2500224930,1R729661N5570871V,"Postage - EBY",1,4040--EBY,1.62,0.324
EBY-2500224931,2PL1814573245541H,"GEN - EBY",1,4000-GEN-EBY,5,1
EBY-2500224932,58343875EV4544103,"GEN - EBY",1,4000-GEN-EBY,66.58,13.316
EBY-2500224933,4J989827V2076900B,"GEN - EBY",1,4000-GEN-EBY,23.25,4.65
EBY-2500224934,1JF45169T2243242L,"GEN - EBY",1,4000-GEN-EBY,69.17,13.834
EBY-2500224934,1JF45169T2243242L,"Postage - EBY",1,4040--EBY,2.45,0.49
EBY-2500224935,6H233629RE586745T,"GEN - EBY",1,4000-GEN-EBY,37.5,7.5
EBY-2500224936,3CJ29475ML4547343,"GEN - EBY",1,4000-GEN-EBY,25,5
EBY-2500224938,8KN75101VL125060L,"GEN - EBY",1,4000-GEN-EBY,13.33,2.666
EBY-2500224939,3EN06829NJ4041303,"GEN - EBY",1,4000-GEN-EBY,8.33,1.666
EBY-2500224940,6KR29728Y98645209,"GEN - EBY",1,4000-GEN-EBY,5,1
EBY-2500224941,8YA67646RY224273W,"GEN - EBY",1,4000-GEN-EBY,10.83,2.166
EBY-2500224942,7E1212609D3616814,"GEN - EBY",1,4000-GEN-EBY,8.33,1.666
EBY-2500224943,7VR94485GN130900Y,"GEN - EBY",1,4000-GEN-EBY,50,10
EBY-2500224944,6RP880659C942092K,"GEN - EBY",1,4000-GEN-EBY,33.33,6.666
EBY-2500224945,4LG95825E0665960K,"GEN - EBY",1,4000-GEN-EBY,4.17,0.834
EBY-2500224946,7K204420UA796025A,"GEN - EBY",1,4000-GEN-EBY,3.29,0.658
EBY-2500224947,3V1572197Y1755002,"GEN - EBY",1,4000-GEN-EBY,10.83,2.166
EBY-2500224948,6SJ92585BP134874U,"GEN - EBY",1,4000-GEN-EBY,36.67,7.334
EBY-2500224949,6WE98044DJ024471A,"GEN - EBY",1,4000-GEN-EBY,10.83,2.166
EBY-2500224950,51L69613YX0355943,"GEN - EBY",1,4000-GEN-EBY,5,1
EBY-2500224951,3MW64904K8304331X,"GEN - EBY",1,4000-GEN-EBY,5,1
EBY-2500224953,0DT194749L133430S,"GEN - EBY",1,4000-GEN-EBY,9.17,1.834
EBY-2500224954,9ER30581644479345,"GEN - EBY",1,4000-GEN-EBY,5.42,1.084
EBY-2500224955,13K75721HN936473P,"GEN - EBY",1,4000-GEN-EBY,5,1
EBY-2500224956,5TS64464V31841019,"GEN - EBY",1,4000-GEN-EBY,6.67,1.334
EBY-2500224957,27489733V1064883Y,"GEN - EBY",1,4000-GEN-EBY,27.5,5.5
EBY-2500224959,8BD08016VB5616243,"GEN - EBY",1,4000-GEN-EBY,15,3
EBY-2500224960,8K790312JJ833814U,"GEN - EBY",1,4000-GEN-EBY,7.5,1.5
EBY-2500224961,6WP00835U8822905S,"GEN - EBY",1,4000-GEN-EBY,21.67,4.334
EBY-2500224963,8GK47570F1863560J,"GEN - EBY",1,4000-GEN-EBY,45.83,9.166
EBY-2500224963,8GK47570F1863560J,"Postage - EBY",1,4040--EBY,6.63,1.326
EBY-2500224964,9DN70711BK475821B,"GEN - EBY",1,4000-GEN-EBY,19.17,3.834
EBY-2500224965,93P575083F875792T,"GEN - EBY",1,4000-GEN-EBY,10.83,2.166
EBY-2500224966,43756980YF426505U,"GEN - EBY",1,4000-GEN-EBY,6.67,1.334
EBY-2500224967,2VY255733V3230205,"GEN - EBY",1,4000-GEN-EBY,26.67,5.334
EBY-2500224968,2UT17886E4758264D,"GEN - EBY",1,4000-GEN-EBY,10.83,2.166
EBY-2500224969,2VJ3216721211802A,"GEN - EBY",1,4000-GEN-EBY,41.67,8.334
EBY-2500224970,8LR16853YN319235M,"GEN - EBY",1,4000-GEN-EBY,33.33,6.666
EBY-2500224970,8LR16853YN319235M,"Postage - EBY",1,4040--EBY,4.13,0.826
EBY-2500224971,6MJ74224MT152144D,"GEN - EBY",1,4000-GEN-EBY,45,9
EBY-2500224971,6MJ74224MT152144D,"Postage - EBY",1,4040--EBY,6.62,1.324
EBY-2500224972,3NY36567079683918,"GEN - EBY",1,4000-GEN-EBY,2.46,0.492
EBY-2500224973,7Y954477BB4432631,"GEN - EBY",1,4000-GEN-EBY,12.5,2.5
EBY-2500224974,1FG991192M366923J,"GEN - EBY",1,4000-GEN-EBY,20.83,4.166
EBY-2500224975,1TL60682ND794563W,"GEN - EBY",1,4000-GEN-EBY,8.33,1.666
EBY-2500224976,54F92566229229444,"GEN - EBY",1,4000-GEN-EBY,45,9
EBY-2500224976,54F92566229229444,"Postage - EBY",1,4040--EBY,6.62,1.324
EBY-2500224977,52970398LD5080409,"GEN - EBY",1,4000-GEN-EBY,6.67,1.334
EBY-2500224978,3MV19294HA828192B,"GEN - EBY",1,4000-GEN-EBY,6.67,1.334
EBY-2500224978,3MV19294HA828192B,"Postage - EBY",1,4040--EBY,1.62,0.324
EBY-2500224979,6PR856823T352752R,"GEN - EBY",1,4000-GEN-EBY,17.5,3.5
EBY-2500224980,73843947Y6213744C,"GEN - EBY",1,4000-GEN-EBY,6.67,1.334
EBY-2500224980,73843947Y6213744C,"Postage - EBY",1,4040--EBY,1.62,0.324
EBY-2500224981,87U6847810681162T,"GEN - EBY",1,4000-GEN-EBY,12.5,2.5
EBY-2500224982,4A933418126448935,"GEN - EBY",1,4000-GEN-EBY,6.67,1.334
EBY-2500224983,77K79038W9976914R,"GEN - EBY",1,4000-GEN-EBY,10.83,2.166
EBY-2500224985,3RF26904C9635602W,"GEN - EBY",1,4000-GEN-EBY,4.17,0.834
EBY-2500224986,9S307713UA700235B,"GEN - EBY",1,4000-GEN-EBY,12.42,2.484
EBY-2500224987,1M7022144D7733443,"GEN - EBY",1,4000-GEN-EBY,8.33,1.666
EBY-2500224988,07E18992C8119510J,"GEN - EBY",1,4000-GEN-EBY,6.62,1.324
EBY-2500224989,87G997877X112353X,"GEN - EBY",1,4000-GEN-EBY,9.17,1.834
EBY-2500224990,46X33336T03713715,"GEN - EBY",1,4000-GEN-EBY,25.5,5.1
EBY-2500224991,8S065639NG981604J,"GEN - EBY",1,4000-GEN-EBY,8.33,1.666
EBY-2500224992,5F673359M15307218,"GEN - EBY",1,4000-GEN-EBY,19.17,3.834
EBY-2500224993,0TF39992MF558500R,"GEN - EBY",1,4000-GEN-EBY,38.25,7.65
EBY-2500224994,2V911895Y7464984L,"GEN - EBY",1,4000-GEN-EBY,6.67,1.334
EBY-2500224995,23417090TH718225Y,"GEN - EBY",1,4000-GEN-EBY,33.33,6.666
EBY-2500224996,8TF34881RP309650M,"GEN - EBY",1,4000-GEN-EBY,15,3
EBY-2500224997,8AF5274739337971L,"GEN - EBY",1,4000-GEN-EBY,13.33,2.666
EBY-2500224998,4SY41328869420349,"GEN - EBY",1,4000-GEN-EBY,5,1
EBY-2500224999,69836562HB7562400,"GEN - EBY",1,4000-GEN-EBY,9.17,1.834
EBY-2500225000,1UR37774TS293540U,"GEN - EBY",1,4000-GEN-EBY,8.33,1.666
EBY-2500225002,9NG27424FC031962C,"GEN - EBY",1,4000-GEN-EBY,3.29,0.658
EBY-2500225003,25D61692EG066532N,"GEN - EBY",1,4000-GEN-EBY,5,1
EBY-2500225004,66678860L88176606,"GEN - EBY",1,4000-GEN-EBY,35.42,7.084
EBY-2500225006,32F755046V282394K,"GEN - EBY",1,4000-GEN-EBY,25,5
EBY-2500225007,3VR37568DH7823524,"GEN - EBY",1,4000-GEN-EBY,6.67,1.334
EBY-2500225008,2A577472YX600782G,"GEN - EBY",1,4000-GEN-EBY,45,9
EBY-2500225008,2A577472YX600782G,"Postage - EBY",1,4040--EBY,4.12,0.824
EBY-2500225011,8RR97840PE390761E,"GEN - EBY",1,4000-GEN-EBY,5,1
EBY-2500225012,8U1437035D1826028,"GEN - EBY",1,4000-GEN-EBY,10.83,2.166
EBY-2500225014,5NY12158MD5642454,"GEN - EBY",1,4000-GEN-EBY,4.92,0.984
EBY-2500225015,81C10199S9933761C,"GEN - EBY",1,4000-GEN-EBY,110,22
EBY-2500225016,4UG79034VN744443J,"GEN - EBY",1,4000-GEN-EBY,15.83,3.166
EBY-2500225017,96748275YF921512W,"GEN - EBY",1,4000-GEN-EBY,5,1
EBY-2500225019,46J15788L2683453T,"GEN - EBY",1,4000-GEN-EBY,3.33,0.666
EBY-2500225020,7AP30005UG5502136,"GEN - EBY",1,4000-GEN-EBY,10.83,2.166
EBY-2500225021,2E549150UW542481E,"GEN - EBY",1,4000-GEN-EBY,41.58,8.316
EBY-2500225022,8E0796272G827981R,"GEN - EBY",1,4000-GEN-EBY,4.17,0.834
EBY-2500225022,8E0796272G827981R,"Postage - EBY",1,4040--EBY,8.29,1.658
EBY-2500225023,7211876700360154M,"GEN - EBY",1,4000-GEN-EBY,23.33,4.666
EBY-2500225024,07P73228Y54247920,"GEN - EBY",1,4000-GEN-EBY,33.33,6.666
EBY-2500225025,4T2676360A441460X,"GEN - EBY",1,4000-GEN-EBY,45.83,9.166
EBY-2500225026,7LY88890VS898930K,"GEN - EBY",1,4000-GEN-EBY,1.67,0.334
EBY-2500225027,05R20841FL481751V,"GEN - EBY",1,4000-GEN-EBY,4.17,0.834
EBY-2500225028,4NS253677A125330U,"GEN - EBY",1,4000-GEN-EBY,6.67,1.334
EBY-2500225028,4NS253677A125330U,"Postage - EBY",1,4040--EBY,1.62,0.324
EBY-2500225029,1GH78797CT540242R,"GEN - EBY",1,4000-GEN-EBY,27.5,5.5
EBY-2500225030,7AY05165ND142293V,"GEN - EBY",1,4000-GEN-EBY,4.17,0.834
EBY-2500225031,19U96424FK990913J,"GEN - EBY",1,4000-GEN-EBY,5,1
EBY-2500225032,8CV629950Y654984H,"GEN - EBY",1,4000-GEN-EBY,10.83,2.166
EBY-2500225033,92J13716PE511342J,"GEN - EBY",1,4000-GEN-EBY,6.67,1.334
EBY-2500225034,68H23740JK341031F,"GEN - EBY",1,4000-GEN-EBY,8.33,1.666
EBY-2500225034,68H23740JK341031F,"Postage - EBY",1,4040--EBY,1.63,0.326
EBY-2500225035,88V58319S7092750K,"GEN - EBY",1,4000-GEN-EBY,6.62,1.324
EBY-2500225036,7MV12423PK856141K,"GEN - EBY",1,4000-GEN-EBY,6.67,1.334
EBY-2500225037,11U97227VP314511W,"GEN - EBY",1,4000-GEN-EBY,6.67,1.334
EBY-2500225038,3SG00499LP667674Y,"GEN - EBY",1,4000-GEN-EBY,3.33,0.666
EBY-2500225039,6TT91642CG546512J,"GEN - EBY",1,4000-GEN-EBY,4.17,0.834
EBY-2500225041,2D942432906688224,"GEN - EBY",1,4000-GEN-EBY,28.33,5.666
EBY-2500225042,1E237871HX534105U,"GEN - EBY",1,4000-GEN-EBY,9.17,1.834
EBY-2500225044,25K373577C847032Y,"GEN - EBY",1,4000-GEN-EBY,8.33,1.666
EBY-2500225045,2MP90641WM9620308,"GEN - EBY",1,4000-GEN-EBY,6.67,1.334
EBY-2500225046,68G20643N6456690M,"GEN - EBY",1,4000-GEN-EBY,4.17,0.834
EBY-2500225047,8P030178SW147740D,"GEN - EBY",1,4000-GEN-EBY,12.5,2.5
EBY-2500225048,8AU37056M1412453D,"GEN - EBY",1,4000-GEN-EBY,3.29,0.658
EBY-2500225049,77M70395CW048402N,"GEN - EBY",1,4000-GEN-EBY,19.17,3.834
EBY-2500225050,23607327TU7610948,"GEN - EBY",1,4000-GEN-EBY,8.33,1.666
EBY-2500225050,23607327TU7610948,"Postage - EBY",1,4040--EBY,4.13,0.826
EBY-2500225051,3M4248421M191131U,"GEN - EBY",1,4000-GEN-EBY,19.17,3.834
EBY-2500225052,08A11603AV884143V,"GEN - EBY",1,4000-GEN-EBY,4.17,0.834
EBY-2500225053,05211842YV164601X,"GEN - EBY",1,4000-GEN-EBY,9.17,1.834
EBY-2500225054,1SS66525308033132,"GEN - EBY",1,4000-GEN-EBY,6.67,1.334
EBY-2500225055,64J81963PX4214919,"GEN - EBY",1,4000-GEN-EBY,33.33,6.666
EBY-2500225056,53C12975J6209101Y,"GEN - EBY",1,4000-GEN-EBY,6.67,1.334
EBY-2500225057,8JD119351B9348841,"GEN - EBY",1,4000-GEN-EBY,6.25,1.25
EBY-2500225058,7AE83482UB122615M,"GEN - EBY",1,4000-GEN-EBY,5,1
EBY-2500225059,2AR34843201643723,"GEN - EBY",1,4000-GEN-EBY,45.83,9.166
EBY-2500225060,0KB02642YS8143802,"GEN - EBY",1,4000-GEN-EBY,17.5,3.5
EBY-2500225061,5RU118421Y580911W,"GEN - EBY",1,4000-GEN-EBY,10.83,2.166
EBY-2500225062,22X7284525785714B,"GEN - EBY",1,4000-GEN-EBY,6.67,1.334
EBY-2500225063,2BW57630GN258322W,"GEN - EBY",1,4000-GEN-EBY,16.67,3.334
EBY-2500225064,6R706311KD593025U,"GEN - EBY",1,4000-GEN-EBY,8.33,1.666
EBY-2500225065,9LK32627TD418623S,"GEN - EBY",1,4000-GEN-EBY,27.42,5.484
EBY-2500225065,9LK32627TD418623S,"Postage - EBY",1,4040--EBY,1.62,0.324
EBY-2500225066,9V284802FV091930U,"GEN - EBY",1,4000-GEN-EBY,6.67,1.334
EBY-2500225067,80N72075BB8794901,"GEN - EBY",1,4000-GEN-EBY,6.67,1.334
EBY-2500225068,41F35037LX422953L,"GEN - EBY",1,4000-GEN-EBY,45.83,9.166
EBY-2500225069,03B53162MT221420F,"GEN - EBY",1,4000-GEN-EBY,84.08,16.816
EBY-2500225069,03B53162MT221420F,"Postage - EBY",1,4040--EBY,6.63,1.326
EBY-2500225070,7L666702E7215362Y,"GEN - EBY",1,4000-GEN-EBY,19.17,3.834
EBY-2500225072,81J85634SB330611H,"GEN - EBY",1,4000-GEN-EBY,17.5,3.5
EBY-2500225073,8W6938463V534601C,"GEN - EBY",1,4000-GEN-EBY,9.17,1.834
EBY-2500225074,92P73235819530803,"GEN - EBY",1,4000-GEN-EBY,12.5,2.5
EBY-2500225075,8VL18098EW882361T,"GEN - EBY",1,4000-GEN-EBY,10.83,2.166
EBY-2500225076,60B41496DR101200J,"GEN - EBY",1,4000-GEN-EBY,8.33,1.666
EBY-2500225077,94E353489M5526926,"GEN - EBY",1,4000-GEN-EBY,2.46,0.492
EBY-2500225078,6F7530880E312121Y,"GEN - EBY",1,4000-GEN-EBY,13.32,2.664
EBY-2500225079,94667099XN0061908,"GEN - EBY",1,4000-GEN-EBY,8.33,1.666
EBY-2500225080,81865314GP208681A,"GEN - EBY",1,4000-GEN-EBY,35,7
EBY-2500225081,8X663129V44674427,"GEN - EBY",1,4000-GEN-EBY,8.33,1.666
EBY-2500225082,84393582L57622632,"GEN - EBY",1,4000-GEN-EBY,5,1
EBY-2500225083,4E5101134B854083F,"GEN - EBY",1,4000-GEN-EBY,4.17,0.834
EBY-2500225084,1E0991227Y477520W,"GEN - EBY",1,4000-GEN-EBY,4.17,0.834
EBY-2500225085,55E09534CR892790B,"GEN - EBY",1,4000-GEN-EBY,10.83,2.166
EBY-2500225087,5JF212769H3500044,"GEN - EBY",1,4000-GEN-EBY,85.82,17.164
EBY-2500225088,3YT34730Y96948418,"GEN - EBY",1,4000-GEN-EBY,28.33,5.666
EBY-2500225089,8UA25403283897525,"GEN - EBY",1,4000-GEN-EBY,5.83,1.166
EBY-2500225090,01R14192EF457170Y,"GEN - EBY",1,4000-GEN-EBY,9.17,1.834
EBY-2500225091,2W807140CT519444S,"GEN - EBY",1,4000-GEN-EBY,10.83,2.166
EBY-2500225092,3GY13115HF414761E,"GEN - EBY",1,4000-GEN-EBY,6.67,1.334
EBY-2500225093,7ET43231JU0770811,"GEN - EBY",1,4000-GEN-EBY,10,2
EBY-2500225094,5BV24598EV6804807,"GEN - EBY",1,4000-GEN-EBY,20.83,4.166
EBY-2500225095,5WE0814645144684S,"GEN - EBY",1,4000-GEN-EBY,20.83,4.166
EBY-2500225096,7UV92570L7706484H,"GEN - EBY",1,4000-GEN-EBY,45.83,9.166
EBY-2500225097,2HB36983DW2253027,"GEN - EBY",1,4000-GEN-EBY,28.17,5.634
EBY-2500225098,07G16466BA8195338,"GEN - EBY",1,4000-GEN-EBY,1.67,0.334
EBY-2500225099,3AC14153UP001614H,"GEN - EBY",1,4000-GEN-EBY,15,3
EBY-2500225100,80U36727CJ415611F,"GEN - EBY",1,4000-GEN-EBY,16.67,3.334
EBY-2500225101,38M73003GC336814C,"GEN - EBY",1,4000-GEN-EBY,14.17,2.834
EBY-2500225102,4UG03820RL665043R,"GEN - EBY",1,4000-GEN-EBY,3.29,0.658
EBY-2500225103,65N42359H02115735,"GEN - EBY",1,4000-GEN-EBY,16.67,3.334
EBY-2500225104,0AY51787EH168224X,"GEN - EBY",1,4000-GEN-EBY,10.83,2.166
EBY-2500225105,3SN22307W7349832S,"GEN - EBY",1,4000-GEN-EBY,8.33,1.666
EBY-2500225106,9XU47632RJ204933P,"GEN - EBY",1,4000-GEN-EBY,6.25,1.25
EBY-2500225107,8GM74113BJ418160C,"GEN - EBY",1,4000-GEN-EBY,12.5,2.5
EBY-2500225109,39E86614GJ8328935,"GEN - EBY",1,4000-GEN-EBY,27.5,5.5
EBY-2500225110,1V025715G77314110,"GEN - EBY",1,4000-GEN-EBY,10.83,2.166
EBY-2500225112,5K361284NU030062M,"GEN - EBY",1,4000-GEN-EBY,32.5,6.5
EBY-2500225113,50280181S2430703M,"GEN - EBY",1,4000-GEN-EBY,10.83,2.166
EBY-2500225114,41M85253YA736533J,"GEN - EBY",1,4000-GEN-EBY,10.83,2.166
EBY-2500225115,39M00225H6568254N,"GEN - EBY",1,4000-GEN-EBY,8.33,1.666
EBY-2500225116,9F85541675213051W,"GEN - EBY",1,4000-GEN-EBY,10.83,2.166
EBY-2500225117,5W592918XT7967309,"GEN - EBY",1,4000-GEN-EBY,25,5
EBY-2500225119,0TY47523RM160121R,"GEN - EBY",1,4000-GEN-EBY,12.5,2.5
EBY-2500225120,00G85343W55956235,"GEN - EBY",1,4000-GEN-EBY,8.33,1.666
EBY-2500225121,42M77734AU701372T,"GEN - EBY",1,4000-GEN-EBY,29.17,5.834
EBY-2500225121,42M77734AU701372T,"Postage - EBY",1,4040--EBY,4.12,0.824
EBY-2500225122,0FS025371D0799406,"GEN - EBY",1,4000-GEN-EBY,8.33,1.666
EBY-2500225123,6XL31823JG759182K,"GEN - EBY",1,4000-GEN-EBY,31.67,6.334
EBY-2500225124,6BW871211T9018740,"GEN - EBY",1,4000-GEN-EBY,19.17,3.834
EBY-2500225125,27S66029X13232718,"GEN - EBY",1,4000-GEN-EBY,15,3
EBY-2500225126,7MH80192AA383451N,"GEN - EBY",1,4000-GEN-EBY,26.67,5.334
EBY-2500225127,1AL967229T889284R,"GEN - EBY",1,4000-GEN-EBY,3.33,0.666
EBY-2500225128,11X73785L55194436,"GEN - EBY",1,4000-GEN-EBY,10.83,2.166
EBY-2500225129,3J626592ER018771W,"GEN - EBY",1,4000-GEN-EBY,53.33,10.666
EBY-2500225130,71M43130WE6428414,"GEN - EBY",1,4000-GEN-EBY,21.67,4.334
EBY-2500225131,35735438T9242490Y,"GEN - EBY",1,4000-GEN-EBY,20.83,4.166
EBY-2500225133,5TE24863VS938390G,"GEN - EBY",1,4000-GEN-EBY,3.5,0.7
EBY-2500225134,291559564U488561M,"GEN - EBY",1,4000-GEN-EBY,4.17,0.834
EBY-2500225135,17S25570NB280381J,"GEN - EBY",1,4000-GEN-EBY,17.5,3.5
EBY-2500225136,58B338962B4969702,"GEN - EBY",1,4000-GEN-EBY,6.67,1.334
EBY-2500225136,58B338962B4969702,"Postage - EBY",1,4040--EBY,1.62,0.324
EBY-2500225138,22461690P9980462E,"GEN - EBY",1,4000-GEN-EBY,9.17,1.834
EBY-2500225138,22461690P9980462E,"Postage - EBY",1,4040--EBY,1.62,0.324
EBY-2500225140,1RG84543X1741151U,"GEN - EBY",1,4000-GEN-EBY,18.25,3.65
EBY-2500225141,6HG26187BB382821B,"GEN - EBY",1,4000-GEN-EBY,9.17,1.834
EBY-2500225142,146769930P9546057,"GEN - EBY",1,4000-GEN-EBY,3.33,0.666
EBY-2500225144,7A822855FU843254X,"GEN - EBY",1,4000-GEN-EBY,19.17,3.834
EBY-2500225145,0GV558537E6896640,"GEN - EBY",1,4000-GEN-EBY,52.5,10.5
EBY-2500225146,1TJ27126RR535104A,"GEN - EBY",1,4000-GEN-EBY,12.5,2.5
EBY-2500225147,99685656ES3527941,"GEN - EBY",1,4000-GEN-EBY,15,3
EBY-2500225148,1Y9707788N335650T,"GEN - EBY",1,4000-GEN-EBY,86.67,17.334
EBY-2500225148,1Y9707788N335650T,"Postage - EBY",1,4040--EBY,6.62,1.324
EBY-2500225150,6E2986395K980011C,"GEN - EBY",1,4000-GEN-EBY,95,19
EBY-2500225153,0XX64307VR8331350,"GEN - EBY",1,4000-GEN-EBY,4.17,0.834
EBY-2500225154,7J141533024119236,"GEN - EBY",1,4000-GEN-EBY,19.17,3.834
EBY-2500225155,15K265670G970354R,"GEN - EBY",1,4000-GEN-EBY,10.83,2.166
EBY-2500225156,4KK23096S06472646,"GEN - EBY",1,4000-GEN-EBY,5.83,1.166
EBY-2500225156,4KK23096S06472646,"Postage - EBY",1,4040--EBY,1.63,0.326
EBY-2500225157,1GP60145LW448222F,"GEN - EBY",1,4000-GEN-EBY,8.33,1.666
EBY-2500225158,49B82399X0541773N,"GEN - EBY",1,4000-GEN-EBY,8.33,1.666
EBY-2500225159,1650832028696634W,"GEN - EBY",1,4000-GEN-EBY,12.5,2.5
EBY-2500225160,7K152953Y2143962A,"GEN - EBY",1,4000-GEN-EBY,36.67,7.334
EBY-2500225161,84W72057LJ609291J,"GEN - EBY",1,4000-GEN-EBY,8.33,1.666
EBY-2500225162,2AF03361H7943402K,"GEN - EBY",1,4000-GEN-EBY,12.42,2.484
EBY-2500225163,7V67110476958002N,"GEN - EBY",1,4000-GEN-EBY,20.83,4.166
EBY-2500225164,8TE22351N1536781J,"GEN - EBY",1,4000-GEN-EBY,2.46,0.492
EBY-2500225165,4FS766583D656304K,"GEN - EBY",1,4000-GEN-EBY,16.5,3.3
EBY-2500225166,6SL54548751968723,"GEN - EBY",1,4000-GEN-EBY,27.42,5.484
EBY-2500225167,17679420Y85109054,"GEN - EBY",1,4000-GEN-EBY,10.83,2.166
EBY-2500225168,2NR68848LR066894X,"GEN - EBY",1,4000-GEN-EBY,25,5
EBY-2500225169,8G028294HM943033C,"GEN - EBY",1,4000-GEN-EBY,45,9
EBY-2500225170,4VU58589BS8337035,"GEN - EBY",1,4000-GEN-EBY,45,9
EBY-2500225171,71Y961011T557112G,"GEN - EBY",1,4000-GEN-EBY,2.92,0.584
EBY-2500225172,6VX75941MF989141S,"GEN - EBY",1,4000-GEN-EBY,8.33,1.666
EBY-2500225173,3B674745N6336740U,"GEN - EBY",1,4000-GEN-EBY,8.33,1.666
EBY-2500225174,6NV211780A345410K,"GEN - EBY",1,4000-GEN-EBY,10,2
EBY-2500225175,45010964NJ5037251,"GEN - EBY",1,4000-GEN-EBY,8.33,1.666
EBY-2500225176,4DV162166F2731433,"GEN - EBY",1,4000-GEN-EBY,53.33,10.666
EBY-2500225177,77A65389CD780153D,"GEN - EBY",1,4000-GEN-EBY,10,2
EBY-2500225178,1UB6774452153802W,"GEN - EBY",1,4000-GEN-EBY,29.17,5.834
EBY-2500225179,6GU29443KC9232900,"GEN - EBY",1,4000-GEN-EBY,4.17,0.834
EBY-2500225180,71N68629S12300514,"GEN - EBY",1,4000-GEN-EBY,13.33,2.666
EBY-2500225181,0XN48505YW667042L,"GEN - EBY",1,4000-GEN-EBY,7.5,1.5
EBY-2500225182,30C89038HK121303B,"GEN - EBY",1,4000-GEN-EBY,23.29,4.658
EBY-2500225184,60R90222TF083805G,"GEN - EBY",1,4000-GEN-EBY,12.83,2.566
EBY-2500225186,2N382217H9785930U,"GEN - EBY",1,4000-GEN-EBY,6.67,1.334
EBY-2500225187,9VT40752KK9701930,"GEN - EBY",1,4000-GEN-EBY,12.5,2.5
EBY-2500225188,9UR09954E41044131,"GEN - EBY",1,4000-GEN-EBY,11.67,2.334
EBY-2500225189,380568883N8472059,"GEN - EBY",1,4000-GEN-EBY,45.75,9.15
EBY-2500224802,57781954N94568058,"GEN - EBY",1,4000-GEN-EBY,12.92,2.584
EBY-2500224822,6FT28271U8497034L,"GEN - EBY",1,4000-GEN-EBY,7.09,1.418
EBY-2500224823,0X048913S6619250M,"GEN - EBY",1,4000-GEN-EBY,10,2
EBY-2500224872,02Y31832UL6820921,"GEN - EBY",1,4000-GEN-EBY,27.09,5.418
EBY-2500224890,6E879211166824520,"GEN - EBY",1,4000-GEN-EBY,72.23,14.446
EBY-2500224899,68963561326014720,"GEN - EBY",1,4000-GEN-EBY,14.59,2.918
EBY-2500224900,4JD98763YH692351V,"GEN - EBY",1,4000-GEN-EBY,17.92,3.584
EBY-2500224926,3JE186481U5833006,"GEN - EBY",1,4000-GEN-EBY,19.51,3.902
EBY-2500224937,163797989V606402C,"GEN - EBY",1,4000-GEN-EBY,8.76,1.752
EBY-2500224952,5TW53757620705625,"GEN - EBY",1,4000-GEN-EBY,11.26,2.252
EBY-2500224962,6TV44247HF435971T,"GEN - EBY",1,4000-GEN-EBY,19.59,3.918
EBY-2500224962,6TV44247HF435971T,"Postage - EBY",1,4040--EBY,5.81,1.162
EBY-2500224984,7UH773108J229425F,"GEN - EBY",1,4000-GEN-EBY,13.76,2.752
EBY-2500225001,01A896005V958331D,"GEN - EBY",1,4000-GEN-EBY,10.83,2.166
EBY-2500225009,3A610944DF219112P,"GEN - EBY",1,4000-GEN-EBY,62.94,12.588
EBY-2500225010,7FC584742F0556143,"GEN - EBY",1,4000-GEN-EBY,5.42,1.084
EBY-2500225010,7FC584742F0556143,"Postage - EBY",1,4040--EBY,5.81,1.162
EBY-2500225013,2LJ86302XG796710H,"GEN - EBY",1,4000-GEN-EBY,38.9,7.78
EBY-2500225043,19W40165M7564460H,"GEN - EBY",1,4000-GEN-EBY,11.26,2.252
EBY-2500225071,5RD83108R9680880T,"GEN - EBY",1,4000-GEN-EBY,4.59,0.918
EBY-2500225086,1MT88177SL8957354,"GEN - EBY",1,4000-GEN-EBY,19.59,3.918
EBY-2500225118,1K3396896B755135H,"GEN - EBY",1,4000-GEN-EBY,17.92,3.584
EBY-2500225132,51U64420BY431894B,"GEN - EBY",1,4000-GEN-EBY,48.07,9.614
EBY-2500225137,4H115412P8623300B,"GEN - EBY",1,4000-GEN-EBY,63.9,12.78
EBY-2500225137,4H115412P8623300B,"Postage - EBY",1,4040--EBY,2.16,0.432
EBY-2500225139,9HT64642YH402135A,"GEN - EBY",1,4000-GEN-EBY,88.9,17.78
EBY-2500225149,8V461013MW389735E,"GEN - EBY",1,4000-GEN-EBY,12.92,2.584
EBY-2500225151,51262757276814501,"GEN - EBY",1,4000-GEN-EBY,17.92,3.584
EBY-2500225152,9L282727BX682630A,"GEN - EBY",1,4000-GEN-EBY,14.59,2.918
EBY-2500225185,3US94046708836227,"GEN - EBY",1,4000-GEN-EBY,77.92,15.584
EBY-2500224798,4BN87924HY0062439,"GEN - EBY EXEMPT",0,4000-GEN-EBY,17.496,0
EBY-2500224809,51F67878CH038643H,"GEN - EBY EXEMPT",0,4000-GEN-EBY,40.488,0
EBY-2500224809,51F67878CH038643H,"Postage - EBY",2,4040--EBY,7.536,0
EBY-2500224821,9M80172183837284V,"GEN - EBY EXEMPT",0,4000-GEN-EBY,18.492,0
EBY-2500224828,7FJ8316130475212M,"GEN - EBY EXEMPT",0,4000-GEN-EBY,55.416,0
EBY-2500224869,3J112237PK0316124,"GEN - EBY EXEMPT",0,4000-GEN-EBY,79.416,0
EBY-2500224869,3J112237PK0316124,"Postage - EBY",2,4040--EBY,7.536,0
EBY-2500224870,8GN152646J250941T,"GEN - EBY EXEMPT",0,4000-GEN-EBY,70.416,0
EBY-2500224870,8GN152646J250941T,"Postage - EBY",2,4040--EBY,6.024,0
EBY-2500224875,8X9853635L687084A,"GEN - EBY EXEMPT",0,4000-GEN-EBY,70.32,0
EBY-2500224876,60D37442G5159141J,"GEN - EBY EXEMPT",0,4000-GEN-EBY,65.424,0
EBY-2500224876,60D37442G5159141J,"Postage - EBY",2,4040--EBY,6.024,0
EBY-2500224885,58A00856GD564235E,"GEN - EBY EXEMPT",0,4000-GEN-EBY,10.488,0
EBY-2500224885,58A00856GD564235E,"Postage - EBY",2,4040--EBY,6.024,0
EBY-2500224958,0AT27352VP2886546,"GEN - EBY EXEMPT",0,4000-GEN-EBY,70.416,0
EBY-2500224958,0AT27352VP2886546,"Postage - EBY",2,4040--EBY,3.756,0
EBY-2500225005,5XL162650J4750356,"GEN - EBY EXEMPT",0,4000-GEN-EBY,18.396,0
EBY-2500225018,0S770603U64610712,"GEN - EBY EXEMPT",0,4000-GEN-EBY,13.488,0
EBY-2500225040,80200054L28727113,"GEN - EBY EXEMPT",0,4000-GEN-EBY,13.488,0
EBY-2500225108,4GD96829G9403372F,"GEN - EBY EXEMPT",0,4000-GEN-EBY,20.976,0
EBY-2500225111,7GX01922FK700584D,"GEN - EBY EXEMPT",0,4000-GEN-EBY,30.492,0
EBY-2500225143,28K46736KK138700M,"GEN - EBY EXEMPT",0,4000-GEN-EBY,10.488,0
EBY-2500225183,4EK953089V4858057,"GEN - EBY EXEMPT",0,4000-GEN-EBY,23.49,0
EBY-2500226147,0RH5337152802801F,"GEN - EBY EXEMPT",0,4000-GEN-EBY,20.424,0
EBY-2500224840,7EA48620DE280301D,"GEN - EBY EXEMPT",0,4000-GEN-EBY,35.52,0
EBY-2500224887,4LW80869CS430033R,"GEN - EBY EXEMPT",0,4000-GEN-EBY,69.516,0
