"ORDER ID",EBAY-REF,NAME,TAXCODE,NOMINAL,TOTAL,TAX
UK-600640934,,"UK - INT",1,4000-UK-INT,28.50333333,5.700666666
UK-600640935,,"UK - INT",1,4000-UK-INT,64.92,12.984
UK-600628757,,"UK - INT EXEMPT",0,4000-UK-INT,24.37,0
UK-600640939,,"UK - INT",1,4000-UK-INT,82.5,16.5
UK-600640940,,"UK - INT EXEMPT",0,4000-UK-INT,88.51,0
UK-1900212976,,"UK - INT EXEMPT",0,4000-UK-INT,174.97,0
UK-1900212977,,"UK - INT",1,4000-UK-INT,57.5,11.5
UK-1900212978,,"UK - INT",1,4000-UK-INT,62.5,12.5
UK-1900212979,,"UK - INT",1,4000-UK-INT,11.67,2.334
UK-600640946,,"UK - INT",1,4000-UK-INT,84.83,16.966
UK-600640947,,"UK - INT",1,4000-UK-INT,16.67,3.334
UK-600640947,,"UK - INT ZERO RATED",2,4000-UK-INT,17,0
UK-600640948,,"UK - INT EXEMPT",0,4000-UK-INT,81.66,0
UK-1900212982,,"UK - INT",1,4000-UK-INT,89.92,17.984
UK-1900212983,,"UK - INT",1,4000-UK-INT,65,13
UK-1900212713,,"UK - INT",1,4000-UK-INT,63.25,12.65
UK-1900212985,,"UK - INT",1,4000-UK-INT,65,13
UK-1900212986,,"UK - INT ZERO RATED",2,4000-UK-INT,25,0
UK-600640960,,"UK - INT",1,4000-UK-INT,75,15
UK-800036838,,"UK - INT",1,4000-UK-INT,12.5,2.5
UK-600640962,,"UK - INT",1,4000-UK-INT,16.67,3.334
UK-600640963,,"UK - INT",1,4000-UK-INT,20.83,4.166
UK-1900212987,,"UK - INT",1,4000-UK-INT,50.83333333,10.166666666
UK-600640965,,"UK - INT",1,4000-UK-INT,79.12,15.824
UK-600640965,,"UK - INT ZERO RATED GIFTCARD PAID",0,2130--,40,0,credit
UK-1900212988,,"UK - INT",1,4000-UK-INT,57.42,11.484
UK-600640966,,"UK - INT",1,4000-UK-INT,42.5,8.5
UK-1900212990,,"UK - INT EXEMPT",0,4000-UK-INT,8.33,0
UK-600640968,,"UK - INT",1,4000-UK-INT,7.5,1.5
UK-600640969,,"UK - INT",1,4000-UK-INT,65,13
UK-2700002369,,"UK - INT",1,4000-UK-INT,9.83,1.966
UK-1900212992,,"UK - INT",1,4000-UK-INT,62.5,12.5
UK-1900212995,,"UK - INT",1,4000-UK-INT,29.17,5.834
UK-1900212997,,"UK - INT",1,4000-UK-INT,862.92,172.584
UK-1900212997,,"UK - INT ZERO RATED",2,4000-UK-INT,76.5,0
UK-600640972,,"UK - INT",1,4000-UK-INT,370.83,74.166
UK-1900212999,,"UK - INT",1,4000-UK-INT,77.5,15.5
UK-600640973,,"UK - INT",1,4000-UK-INT,95,19
UK-1900212778,,"UK - INT EXEMPT",0,4000-UK-INT,29.17,0
UK-600640974,,"UK - INT",1,4000-UK-INT,130,26
UK-1900213000,,"UK - INT",1,4000-UK-INT,15,3
UK-1900213001,,"UK - INT",1,4000-UK-INT,49.17,9.834
UK-600640975,,"UK - INT",1,4000-UK-INT,79.92,15.984
UK-600640976,,"UK - INT",1,4000-UK-INT,117.42,23.484
UK-800036841,,"UK - INT",1,4000-UK-INT,8.33,1.666
UK-1900213002,,"UK - INT EXEMPT",0,4000-UK-INT,70.46,0
UK-1900213003,,"UK - INT",1,4000-UK-INT,57.5,11.5
UK-600640977,,"UK - INT",1,4000-UK-INT,49.17,9.834
UK-1900213004,,"UK - INT",1,4000-UK-INT,40.83,8.166
UK-1900213007,,"UK - INT",1,4000-UK-INT,20.83,4.166
UK-1900213009,,"UK - INT",1,4000-UK-INT,32.50333333,6.500666666
UK-600640978,,"UK - INT",1,4000-UK-INT,51.75,10.35
UK-600640979,,"UK - INT",1,4000-UK-INT,270.83,54.166
UK-600640982,,"UK - INT",1,4000-UK-INT,74.25,14.85
UK-600640983,,"UK - INT",1,4000-UK-INT,150.59666667,30.119333334
UK-600640983,,"UK - INT ZERO RATED",2,4000-UK-INT,13.5,0
UK-600640984,,"UK - INT",1,4000-UK-INT,76.25,15.25
UK-600640986,,"UK - INT",1,4000-UK-INT,47.5,9.5
UK-600640987,,"UK - INT",1,4000-UK-INT,23.33,4.666
UK-600640988,,"UK - INT",1,4000-UK-INT,8.33,1.666
UK-600640989,,"UK - INT",1,4000-UK-INT,32.5,6.5
UK-600640985,,"UK - INT",1,4000-UK-INT,74.92,14.984
UK-600640990,,"UK - INT",1,4000-UK-INT,52.49666667,10.499333334
UK-600640992,,"UK - INT",1,4000-UK-INT,6.67,1.334
UK-1900213011,,"UK - INT",1,4000-UK-INT,45.83,9.166
UK-600640997,,"UK - INT",1,4000-UK-INT,47.5,9.5
UK-600640999,,"UK - INT",1,4000-UK-INT,37.5,7.5
UK-2700002370,,"UK - INT",1,4000-UK-INT,25,5
UK-1900213012,,"UK - INT EXEMPT",0,4000-UK-INT,10,0
UK-600641001,,"UK - INT",1,4000-UK-INT,20.75,4.15
UK-600641004,,"UK - INT",1,4000-UK-INT,20.83,4.166
UK-1900213010,,"UK - INT EXEMPT",0,4000-UK-INT,52.42,0
UK-600641007,,"UK - INT",1,4000-UK-INT,9.12,1.824
UK-600641010,,"UK - INT",1,4000-UK-INT,58.33333333,11.666666666
UK-1900213014,,"UK - INT",1,4000-UK-INT,65.83,13.166
UK-2700002371,,"UK - INT",1,4000-UK-INT,12.42,2.484
UK-600641014,,"UK - INT EXEMPT",0,4000-UK-INT,74.92,0
UK-600641016,,"UK - INT",1,4000-UK-INT,65.83,13.166
UK-1900213019,,"UK - INT",1,4000-UK-INT,59.24666667,11.849333334
UK-600641017,,"UK - INT",1,4000-UK-INT,24.16666667,4.833333334
UK-600641018,,"UK - INT",1,4000-UK-INT,16.58,3.316
UK-1900213021,,"UK - INT",1,4000-UK-INT,53.33333333,10.666666666
UK-600641019,,"UK - INT",1,4000-UK-INT,20.83,4.166
UK-1900213025,,"UK - INT",1,4000-UK-INT,20,4
UK-1900213026,,"UK - INT",1,4000-UK-INT,74.17,14.834
UK-600641023,,"UK - INT EXEMPT",0,4000-UK-INT,99.17,0
UK-1900213028,,"UK - INT",1,4000-UK-INT,6.67,1.334
UK-600641024,,"UK - INT",1,4000-UK-INT,58.5,11.7
UK-600641025,,"UK - INT",1,4000-UK-INT,29,5.8
UK-600641026,,"UK - INT",1,4000-UK-INT,74.92,14.984
UK-1900213029,,"UK - INT",1,4000-UK-INT,41.67,8.334
UK-600641027,,"UK - INT",1,4000-UK-INT,45.00333333,9.000666666
UK-600641028,,"UK - INT",1,4000-UK-INT,65,13
UK-600641029,,"UK - INT",1,4000-UK-INT,33.25,6.65
UK-1900213031,,"UK - INT",1,4000-UK-INT,386.62,77.324
UK-600641031,,"UK - INT",1,4000-UK-INT,47.5,9.5
UK-600641032,,"UK - INT",1,4000-UK-INT,6.00333333,1.200666666
UK-600641034,,"UK - INT",1,4000-UK-INT,65,13
UK-600641037,,"UK - INT",1,4000-UK-INT,16.67,3.334
UK-1900213035,,"UK - INT",1,4000-UK-INT,41.58,8.316
UK-1900213036,,"UK - INT",1,4000-UK-INT,26.87833333,5.375666666
UK-1900213037,,"UK - INT",1,4000-UK-INT,193.17,38.634
UK-600641038,,"UK - INT",1,4000-UK-INT,4.17,0.834
UK-600641039,,"UK - INT",1,4000-UK-INT,45.00333333,9.000666666
UK-1900213039,,"UK - INT",1,4000-UK-INT,13.33,2.666
UK-600641040,,"UK - INT",1,4000-UK-INT,98.33,19.666
UK-1900213040,,"UK - INT",1,4000-UK-INT,4.17,0.834
UK-600641043,,"UK - INT",1,4000-UK-INT,98.33,19.666
UK-1900213041,,"UK - INT",1,4000-UK-INT,37.5,7.5
UK-600641047,,"UK - INT",1,4000-UK-INT,33.33,6.666
UK-600641051,,"UK - INT",1,4000-UK-INT,49.17,9.834
UK-1900213043,,"UK - INT",1,4000-UK-INT,24.92,4.984
UK-600641052,,"UK - INT",1,4000-UK-INT,10,2
UK-600641053,,"UK - INT EXEMPT",0,4000-UK-INT,109.08,0
UK-1900213044,,"UK - INT",1,4000-UK-INT,16.67,3.334
UK-600641056,,"UK - INT",1,4000-UK-INT,23.25,4.65
UK-1900213046,,"UK - INT",1,4000-UK-INT,52.42,10.484
UK-600641058,,"UK - INT",1,4000-UK-INT,57.5,11.5
UK-1900213048,,"UK - INT",1,4000-UK-INT,10.83,2.166
UK-1900213050,,"UK - INT ZERO RATED",2,4000-UK-INT,33.9,0
UK-600641060,,"UK - INT",1,4000-UK-INT,143.66,28.732
UK-600641061,,"UK - INT",1,4000-UK-INT,53.33,10.666
UK-1900213052,,"UK - INT EXEMPT",0,4000-UK-INT,60,0
UK-800036843,,"UK - INT",1,4000-UK-INT,15.96833333,3.193666666
UK-1900213053,,"UK - INT",1,4000-UK-INT,90.83,18.166
UK-1900213056,,"UK - INT",1,4000-UK-INT,62.5,12.5
UK-1900213058,,"UK - INT",1,4000-UK-INT,49.17,9.834
UK-1900213059,,"UK - INT ZERO RATED",2,4000-UK-INT,15,0
UK-600641073,,"UK - INT",1,4000-UK-INT,42.50333333,8.500666666
UK-1900213061,,"UK - INT",1,4000-UK-INT,49.17,9.834
UK-600641074,,"UK - INT",1,4000-UK-INT,58.33333333,11.666666666
UK-1900213062,,"UK - INT",1,4000-UK-INT,82.5,16.5
UK-1900213063,,"UK - INT ZERO RATED",2,4000-UK-INT,41.4,0
UK-600641075,,"UK - INT",1,4000-UK-INT,52.5,10.5
UK-600641076,,"UK - INT",1,4000-UK-INT,74.17,14.834
UK-600641077,,"UK - INT",1,4000-UK-INT,104.92,20.984
UK-1900213068,,"UK - INT",1,4000-UK-INT,179.17166667,35.834333334
UK-600641078,,"UK - INT",1,4000-UK-INT,89.92,17.984
UK-600641079,,"UK - INT",1,4000-UK-INT,49.92,9.984
UK-600641080,,"UK - INT",1,4000-UK-INT,29.17,5.834
UK-800036844,,"UK - INT",1,4000-UK-INT,5.26333333,1.052666666
UK-600641085,,"UK - INT",1,4000-UK-INT,60.83333333,12.166666666
UK-1900213071,,"UK - INT",1,4000-UK-INT,81.67,16.334
UK-1900213072,,"UK - INT",1,4000-UK-INT,24.96,4.992
UK-600641088,,"UK - INT EXEMPT",0,4000-UK-INT,33.33,0
UK-600641090,,"UK - INT",1,4000-UK-INT,148.5,29.7
UK-600641091,,"UK - INT",1,4000-UK-INT,1499.17,299.834
UK-600641093,,"UK - INT",1,4000-UK-INT,6.75,1.35
UK-1900213073,,"UK - INT",1,4000-UK-INT,69.16333333,13.832666666
UK-600641094,,"UK - INT",1,4000-UK-INT,282.5,56.5
UK-600641095,,"UK - INT",1,4000-UK-INT,26.58,5.316
UK-1900213077,,"UK - INT",1,4000-UK-INT,8.33,1.666
UK-600641099,,"UK - INT",1,4000-UK-INT,60.83333333,12.166666666
UK-1900213081,,"UK - INT",1,4000-UK-INT,82.42,16.484
UK-1900213083,,"UK - INT",1,4000-UK-INT,58.33,11.666
UK-600641108,,"UK - INT",1,4000-UK-INT,43.33333333,8.666666666
UK-600641110,,"UK - INT",1,4000-UK-INT,54.17,10.834
UK-600641116,,"UK - INT",1,4000-UK-INT,78.41333333,15.682666666
UK-600641117,,"UK - INT",1,4000-UK-INT,89.92,17.984
UK-1900213086,,"UK - INT",1,4000-UK-INT,39,7.8
UK-1900213085,,"UK - INT",1,4000-UK-INT,491.67,98.334
UK-1900213087,,"UK - INT",1,4000-UK-INT,29.925,5.985
UK-600641118,,"UK - INT",1,4000-UK-INT,25,5
UK-600641120,,"UK - INT",1,4000-UK-INT,13.33,2.666
UK-600641121,,"UK - INT",1,4000-UK-INT,54,10.8
UK-600641123,,"UK - INT",1,4000-UK-INT,12.5,2.5
UK-600641125,,"UK - INT",1,4000-UK-INT,62.42,12.484
UK-600641126,,"UK - INT ZERO RATED",2,4000-UK-INT,44.9,0
UK-1900213089,,"UK - INT",1,4000-UK-INT,52.5,10.5
UK-1900213091,,"UK - INT",1,4000-UK-INT,52.42,10.484
UK-600641129,,"UK - INT",1,4000-UK-INT,10.75,2.15
UK-600641130,,"UK - INT",1,4000-UK-INT,8.33,1.666
UK-1900213092,,"UK - INT",1,4000-UK-INT,1.62,0.324
UK-600641132,,"UK - INT",1,4000-UK-INT,27.29,5.458
UK-1900213094,,"UK - INT",1,4000-UK-INT,8.33,1.666
UK-600641136,,"UK - INT",1,4000-UK-INT,64.17,12.834
UK-600641136,,"UK - INT ZERO RATED CREDIT PAID",0,2132--,70,0,credit
UK-600641137,,"UK - INT",1,4000-UK-INT,24.17,4.834
UK-1900213099,,"UK - INT",1,4000-UK-INT,49.17,9.834
UK-800036847,,"UK - INT",1,4000-UK-INT,6.66333333,1.332666666
UK-800036847,,"UK - INT ZERO RATED",2,4000-UK-INT,29.44,0
UK-1900213101,,"UK - INT ZERO RATED",2,4000-UK-INT,145.27,0
UK-600641138,,"UK - INT",1,4000-UK-INT,22.83,4.566
UK-600641140,,"UK - INT",1,4000-UK-INT,25,5
UK-1900213104,,"UK - INT",1,4000-UK-INT,49.17,9.834
UK-600641141,,"UK - INT",1,4000-UK-INT,41.67,8.334
UK-1900213105,,"UK - INT",1,4000-UK-INT,56.17833333,11.235666666
UK-600641142,,"UK - INT",1,4000-UK-INT,37.5,7.5
UK-600641144,,"UK - INT",1,4000-UK-INT,82.42,16.484
UK-600641146,,"UK - INT",1,4000-UK-INT,74.08,14.816
UK-600641149,,"UK - INT",1,4000-UK-INT,10.83,2.166
UK-600641151,,"UK - INT",1,4000-UK-INT,16.75,3.35
UK-600641151,,"UK - INT ZERO RATED CREDIT PAID",0,2132--,20,0,credit
UK-1900213108,,"UK - INT",1,4000-UK-INT,104.92,20.984
UK-600641152,,"UK - INT",1,4000-UK-INT,97.42,19.484
UK-1900213109,,"UK - INT",1,4000-UK-INT,27.08,5.416
UK-600641154,,"UK - INT",1,4000-UK-INT,41.58,8.316
UK-1900213110,,"UK - INT",1,4000-UK-INT,82.5,16.5
UK-600641156,,"UK - INT",1,4000-UK-INT,41.5,8.3
UK-1900213111,,"UK - INT",1,4000-UK-INT,45.82,9.164
UK-1900213112,,"UK - INT",1,4000-UK-INT,89.92,17.984
UK-1900213113,,"UK - INT",1,4000-UK-INT,20.83,4.166
UK-600641158,,"UK - INT",1,4000-UK-INT,123.25,24.65
UK-600641160,,"UK - INT EXEMPT",0,4000-UK-INT,58.33,0
UK-600641162,,"UK - INT",1,4000-UK-INT,40.83,8.166
UK-600564239,,"UK - INT",1,4000-UK-INT,9.675,1.935
UK-600641163,,"UK - INT",1,4000-UK-INT,49.17,9.834
UK-1900213117,,"UK - INT",1,4000-UK-INT,23.33,4.666
UK-600641165,,"UK - INT",1,4000-UK-INT,342.665,68.533
UK-600641166,,"UK - INT",1,4000-UK-INT,41.67,8.334
UK-1900213118,,"UK - INT",1,4000-UK-INT,6.67,1.334
UK-600641167,,"UK - INT",1,4000-UK-INT,99.17,19.834
UK-600641168,,"UK - INT",1,4000-UK-INT,40.83,8.166
UK-600641169,,"UK - INT",1,4000-UK-INT,66.58,13.316
UK-1900213121,,"UK - INT",1,4000-UK-INT,127.5,25.5
UK-600641170,,"UK - INT",1,4000-UK-INT,48.25,9.65
UK-600641172,,"UK - INT",1,4000-UK-INT,74.92,14.984
UK-1900213124,,"UK - INT",1,4000-UK-INT,16.67,3.334
UK-1900213125,,"UK - INT",1,4000-UK-INT,89.16333333,17.832666666
UK-600641175,,"UK - INT",1,4000-UK-INT,44.92833333,8.985666666
UK-1900213128,,"UK - INT",1,4000-UK-INT,57.5,11.5
UK-600641177,,"UK - INT",1,4000-UK-INT,29.17833333,5.835666666
UK-1900213130,,"UK - INT",1,4000-UK-INT,31.66333333,6.332666666
UK-1900213131,,"UK - INT",1,4000-UK-INT,145,29
UK-600641179,,"UK - INT",1,4000-UK-INT,24.92,4.984
UK-1900213132,,"UK - INT",1,4000-UK-INT,12.5,2.5
UK-600641181,,"UK - INT",1,4000-UK-INT,65.75,13.15
UK-600641183,,"UK - INT",1,4000-UK-INT,65,13
UK-1900213134,,"UK - INT",1,4000-UK-INT,50,10
UK-600641186,,"UK - INT",1,4000-UK-INT,16.58,3.316
EUR-600640998,,"EUR - INT",1,4000-EUR-INT,119.17,23.834
EUR-600641000,,"EUR - INT",1,4000-EUR-INT,49.08,9.816
EUR-600641003,,"EUR - INT",1,4000-EUR-INT,63.74666667,12.749333334
EUR-600641020,,"EUR - INT",1,4000-EUR-INT,164.99,32.998
EUR-600641030,,"EUR - INT",1,4000-EUR-INT,1091.24333333,218.248666666
EUR-600641042,,"EUR - INT EXEMPT",0,4000-EUR-INT,410.69,0
EUR-600641097,,"EUR - INT",1,4000-EUR-INT,102.42,20.484
EUR-600641113,,"EUR - INT",1,4000-EUR-INT,47.5,9.5
EUR-600641119,,"EUR - INT EXEMPT",0,4000-EUR-INT,225.82,0
EUR-600641133,,"EUR - INT",1,4000-EUR-INT,51.75,10.35
EUR-600641171,,"EUR - INT",1,4000-EUR-INT,242.1,48.42
ROW-1900212969,,"ROW - ZERO RATED",2,4000-ROW-INT,41.67,0
ROW-600640958,,"ROW - ZERO RATED",2,4000-ROW-INT,26.13,0
ROW-600641049,,"ROW - INT",1,4000-ROW-INT,11.67,2.334
SHIP-600640934,,"Postage - INT",1,4040--INT,2.45,0.49
SHIP-600640935,,"Postage - INT",1,4040--INT,4.12,0.824
SHIP-600628757,,"Postage - INT NOVAT",2,4040--INT,4.95,0
SHIP-600640940,,"Postage - INT NOVAT",2,4040--INT,12.95,0
SHIP-1900212976,,"Postage - INT NOVAT",2,4040--INT,38.85,0
SHIP-1900212978,,"Postage - INT",1,4040--INT,12.46,2.492
SHIP-1900212979,,"Postage - INT",1,4040--INT,2.45,0.49
SHIP-600640946,,"Postage - INT",1,4040--INT,4.13,0.826
SHIP-600640947,,"Postage - INT",1,4040--INT,2.45,0.49
SHIP-600640948,,"Postage - INT NOVAT",2,4040--INT,12.95,0
SHIP-1900212713,,"Postage - INT",1,4040--INT,6.62,1.324
SHIP-1900212986,,"Postage - INT",1,4040--INT,2.46,0.492
SHIP-600640960,,"Postage - INT",1,4040--INT,4.12,0.824
SHIP-600640962,,"Postage - INT",1,4040--INT,2.45,0.49
SHIP-600640963,,"Postage - INT",1,4040--INT,2.46,0.492
SHIP-1900212987,,"Postage - INT",1,4040--INT,4.12,0.824
SHIP-1900212988,,"Postage - INT",1,4040--INT,4.12,0.824
SHIP-600640966,,"Postage - INT",1,4040--INT,4.12,0.824
SHIP-1900212990,,"Postage - INT NOVAT",2,4040--INT,5.79,0
SHIP-600640968,,"Postage - INT",1,4040--INT,2.46,0.492
SHIP-1900212992,,"Postage - INT",1,4040--INT,4.96,0.992
SHIP-1900212995,,"Postage - INT",1,4040--INT,2.45,0.49
SHIP-1900212999,,"Postage - INT",1,4040--INT,4.12,0.824
SHIP-600640973,,"Postage - INT",1,4040--INT,4.12,0.824
SHIP-1900212778,,"Postage - INT NOVAT",2,4040--INT,24.13,0
SHIP-1900213000,,"Postage - INT",1,4040--INT,2.46,0.492
SHIP-1900213001,,"Postage - INT",1,4040--INT,4.12,0.824
SHIP-1900213002,,"Postage - INT NOVAT",2,4040--INT,12.95,0
SHIP-1900213003,,"Postage - INT",1,4040--INT,6.62,1.324
SHIP-600640977,,"Postage - INT",1,4040--INT,4.12,0.824
SHIP-1900213004,,"Postage - INT",1,4040--INT,4.96,0.992
SHIP-1900213007,,"Postage - INT",1,4040--INT,2.46,0.492
SHIP-1900213009,,"Postage - INT",1,4040--INT,4.12,0.824
SHIP-600640978,,"Postage - INT",1,4040--INT,4.12,0.824
SHIP-600640983,,"Postage - INT",1,4040--INT,6.63,1.326
SHIP-600640984,,"Postage - INT",1,4040--INT,12.46,2.492
SHIP-600640986,,"Postage - INT",1,4040--INT,4.12,0.824
SHIP-600640987,,"Postage - INT",1,4040--INT,2.46,0.492
SHIP-600640988,,"Postage - INT",1,4040--INT,2.46,0.492
SHIP-600640989,,"Postage - INT",1,4040--INT,4.12,0.824
SHIP-600640990,,"Postage - INT",1,4040--INT,4.13,0.826
SHIP-600640992,,"Postage - INT",1,4040--INT,2.45,0.49
SHIP-1900213011,,"Postage - INT",1,4040--INT,4.13,0.826
SHIP-600640997,,"Postage - INT",1,4040--INT,4.12,0.824
SHIP-600640999,,"Postage - INT",1,4040--INT,4.12,0.824
SHIP-1900213012,,"Postage - INT NOVAT",2,4040--INT,4.95,0
SHIP-600641001,,"Postage - INT",1,4040--INT,4.96,0.992
SHIP-600641004,,"Postage - INT",1,4040--INT,2.46,0.492
SHIP-1900213010,,"Postage - INT NOVAT",2,4040--INT,12.95,0
SHIP-600641007,,"Postage - INT",1,4040--INT,2.46,0.492
SHIP-600641010,,"Postage - INT",1,4040--INT,4.12,0.824
SHIP-1900213014,,"Postage - INT",1,4040--INT,4.96,0.992
SHIP-600641014,,"Postage - INT NOVAT",2,4040--INT,12.95,0
SHIP-600641016,,"Postage - INT",1,4040--INT,4.13,0.826
SHIP-600641017,,"Postage - INT",1,4040--INT,4.12,0.824
SHIP-600641018,,"Postage - INT",1,4040--INT,2.46,0.492
SHIP-1900213021,,"Postage - INT",1,4040--INT,4.12,0.824
SHIP-600641019,,"Postage - INT",1,4040--INT,4.13,0.826
SHIP-1900213025,,"Postage - INT",1,4040--INT,2.46,0.492
SHIP-1900213026,,"Postage - INT",1,4040--INT,4.12,0.824
SHIP-600641023,,"Postage - INT NOVAT",2,4040--INT,12.95,0
SHIP-1900213028,,"Postage - INT",1,4040--INT,2.45,0.49
SHIP-600641025,,"Postage - INT",1,4040--INT,2.46,0.492
SHIP-1900213029,,"Postage - INT",1,4040--INT,4.12,0.824
SHIP-600641027,,"Postage - INT",1,4040--INT,4.12,0.824
SHIP-600641029,,"Postage - INT",1,4040--INT,2.46,0.492
SHIP-600641031,,"Postage - INT",1,4040--INT,4.12,0.824
SHIP-600641032,,"Postage - INT",1,4040--INT,5.79,1.158
SHIP-600641034,,"Postage - INT",1,4040--INT,4.96,0.992
SHIP-600641037,,"Postage - INT",1,4040--INT,2.45,0.49
SHIP-1900213035,,"Postage - INT",1,4040--INT,4.96,0.992
SHIP-1900213036,,"Postage - INT",1,4040--INT,2.46,0.492
SHIP-600641038,,"Postage - INT",1,4040--INT,2.45,0.49
SHIP-600641039,,"Postage - INT",1,4040--INT,4.12,0.824
SHIP-1900213039,,"Postage - INT",1,4040--INT,2.46,0.492
SHIP-600641040,,"Postage - INT",1,4040--INT,4.13,0.826
SHIP-1900213040,,"Postage - INT",1,4040--INT,2.45,0.49
SHIP-1900213041,,"Postage - INT",1,4040--INT,4.12,0.824
SHIP-600641047,,"Postage - INT",1,4040--INT,12.46,2.492
SHIP-600641051,,"Postage - INT",1,4040--INT,4.12,0.824
SHIP-1900213043,,"Postage - INT",1,4040--INT,2.45,0.49
SHIP-600641052,,"Postage - INT",1,4040--INT,2.46,0.492
SHIP-600641053,,"Postage - INT NOVAT",2,4040--INT,24.95,0
SHIP-1900213044,,"Postage - INT",1,4040--INT,4.12,0.824
SHIP-600641056,,"Postage - INT",1,4040--INT,4.96,0.992
SHIP-1900213046,,"Postage - INT",1,4040--INT,4.12,0.824
SHIP-600641058,,"Postage - INT",1,4040--INT,4.12,0.824
SHIP-1900213048,,"Postage - INT",1,4040--INT,2.46,0.492
SHIP-1900213050,,"Postage - INT",1,4040--INT,4.12,0.824
SHIP-600641060,,"Postage - INT",1,4040--INT,4.12,0.824
SHIP-600641061,,"Postage - INT",1,4040--INT,4.13,0.826
SHIP-1900213052,,"Postage - INT NOVAT",2,4040--INT,12.95,0
SHIP-1900213056,,"Postage - INT",1,4040--INT,4.12,0.824
SHIP-1900213058,,"Postage - INT",1,4040--INT,4.12,0.824
SHIP-1900213059,,"Postage - INT",1,4040--INT,2.46,0.492
SHIP-600641073,,"Postage - INT",1,4040--INT,2.45,0.49
SHIP-1900213061,,"Postage - INT",1,4040--INT,2.45,0.49
SHIP-600641074,,"Postage - INT",1,4040--INT,4.12,0.824
SHIP-1900213062,,"Postage - INT",1,4040--INT,4.12,0.824
SHIP-1900213063,,"Postage - INT",1,4040--INT,4.12,0.824
SHIP-1900213068,,"Postage - INT",1,4040--INT,4.13,0.826
SHIP-600641079,,"Postage - INT",1,4040--INT,4.12,0.824
SHIP-600641080,,"Postage - INT",1,4040--INT,2.45,0.49
SHIP-1900213071,,"Postage - INT",1,4040--INT,4.95,0.99
SHIP-1900213072,,"Postage - INT",1,4040--INT,2.46,0.492
SHIP-600641088,,"Postage - INT NOVAT",2,4040--INT,12.95,0
SHIP-600641093,,"Postage - INT",1,4040--INT,2.46,0.492
SHIP-600641095,,"Postage - INT",1,4040--INT,2.46,0.492
SHIP-1900213077,,"Postage - INT",1,4040--INT,2.46,0.492
SHIP-1900213083,,"Postage - INT",1,4040--INT,2.46,0.492
SHIP-600641108,,"Postage - INT",1,4040--INT,4.12,0.824
SHIP-600641110,,"Postage - INT",1,4040--INT,4.95,0.99
SHIP-1900213086,,"Postage - INT",1,4040--INT,2.46,0.492
SHIP-1900213087,,"Postage - INT",1,4040--INT,2.46,0.492
SHIP-600641118,,"Postage - INT",1,4040--INT,4.96,0.992
SHIP-600641120,,"Postage - INT",1,4040--INT,2.46,0.492
SHIP-600641121,,"Postage - INT",1,4040--INT,4.96,0.992
SHIP-600641123,,"Postage - INT",1,4040--INT,2.46,0.492
SHIP-600641125,,"Postage - INT",1,4040--INT,4.12,0.824
SHIP-600641126,,"Postage - INT",1,4040--INT,4.12,0.824
SHIP-1900213089,,"Postage - INT",1,4040--INT,4.12,0.824
SHIP-1900213091,,"Postage - INT",1,4040--INT,4.95,0.99
SHIP-600641129,,"Postage - INT",1,4040--INT,2.46,0.492
SHIP-600641130,,"Postage - INT",1,4040--INT,2.46,0.492
SHIP-1900213092,,"Postage - INT",1,4040--INT,4.96,0.992
SHIP-600641132,,"Postage - INT",1,4040--INT,2.46,0.492
SHIP-1900213094,,"Postage - INT",1,4040--INT,2.46,0.492
SHIP-600641136,,"Postage - INT",1,4040--INT,4.12,0.824
SHIP-600641137,,"Postage - INT",1,4040--INT,2.45,0.49
SHIP-1900213099,,"Postage - INT",1,4040--INT,4.12,0.824
SHIP-1900213101,,"Postage - INT NOVAT",2,4040--INT,12.46,0
SHIP-600641138,,"Postage - INT",1,4040--INT,2.46,0.492
SHIP-600641140,,"Postage - INT",1,4040--INT,4.96,0.992
SHIP-1900213104,,"Postage - INT",1,4040--INT,4.12,0.824
SHIP-600641141,,"Postage - INT",1,4040--INT,4.12,0.824
SHIP-600641142,,"Postage - INT",1,4040--INT,4.12,0.824
SHIP-600641149,,"Postage - INT",1,4040--INT,2.46,0.492
SHIP-600641151,,"Postage - INT",1,4040--INT,2.46,0.492
SHIP-1900213109,,"Postage - INT",1,4040--INT,4.13,0.826
SHIP-600641154,,"Postage - INT",1,4040--INT,4.96,0.992
SHIP-600641156,,"Postage - INT",1,4040--INT,2.46,0.492
SHIP-1900213113,,"Postage - INT",1,4040--INT,2.46,0.492
SHIP-600641160,,"Postage - INT NOVAT",2,4040--INT,2.46,0
SHIP-600641162,,"Postage - INT",1,4040--INT,4.13,0.826
SHIP-600564239,,"Postage - INT",1,4040--INT,2.46,0.492
SHIP-600641163,,"Postage - INT",1,4040--INT,4.12,0.824
SHIP-1900213117,,"Postage - INT",1,4040--INT,4.13,0.826
SHIP-600641165,,"Postage - INT",1,4040--INT,4.96,0.992
SHIP-600641166,,"Postage - INT",1,4040--INT,4.12,0.824
SHIP-1900213118,,"Postage - INT",1,4040--INT,2.45,0.49
SHIP-600641168,,"Postage - INT",1,4040--INT,4.96,0.992
SHIP-1900213121,,"Postage - INT",1,4040--INT,4.12,0.824
SHIP-600641170,,"Postage - INT",1,4040--INT,4.12,0.824
SHIP-1900213124,,"Postage - INT",1,4040--INT,2.45,0.49
SHIP-1900213125,,"Postage - INT",1,4040--INT,6.63,1.326
SHIP-1900213128,,"Postage - INT",1,4040--INT,4.12,0.824
SHIP-600641177,,"Postage - INT",1,4040--INT,4.12,0.824
SHIP-1900213130,,"Postage - INT",1,4040--INT,2.46,0.492
SHIP-600641179,,"Postage - INT",1,4040--INT,4.12,0.824
SHIP-1900213132,,"Postage - INT",1,4040--INT,2.46,0.492
SHIP-600641181,,"Postage - INT",1,4040--INT,2.46,0.492
SHIP-1900213134,,"Postage - INT",1,4040--INT,4.96,0.992
SHIP-600641186,,"Postage - INT",1,4040--INT,2.46,0.492
SHIP-600640998,,"Postage - INT",1,4040--INT,12.45,2.49
SHIP-600641000,,"Postage - INT",1,4040--INT,10.79,2.158
SHIP-600641003,,"Postage - INT",1,4040--INT,7.46,1.492
SHIP-600641020,,"Postage - INT",1,4040--INT,12.46,2.492
SHIP-600641042,,"Postage - INT NOVAT",2,4040--INT,91.64,0
SHIP-600641097,,"Postage - INT",1,4040--INT,8.33,1.666
SHIP-600641113,,"Postage - INT",1,4040--INT,6.62,1.324
SHIP-600641119,,"Postage - INT NOVAT",2,4040--INT,35.43,0
SHIP-600641133,,"Postage - INT",1,4040--INT,6.62,1.324
SHIP-600641171,,"Postage - INT",1,4040--INT,12.46,2.492
SHIP-1900212969,,"Postage - INT NOVAT",2,4040--INT,7.95,0
SHIP-600640958,,"Postage - INT NOVAT",2,4040--INT,11.24,0
SHIP-600641049,,"Postage - INT",1,4040--INT,2.45,0.49
SHIP-600640938,,"Postage - INT NOVAT",2,4040--INT,12.95,0
SHIP-600640941,,"Postage - INT NOVAT",2,4040--INT,12.95,0
SHIP-600641184,,"Postage - INT",1,4040--INT,10.79,2.158
SHIP-600640943,,"Postage - INT NOVAT",2,4040--INT,24.19,0
SHIP-600640950,,"Postage - INT NOVAT",2,4040--INT,12.95,0
SHIP-600640981,,"Postage - INT NOVAT",2,4040--INT,12.95,0
AUD-600640938,,"AUD - ZERO RATED",2,4000-AUD-INT,103.17,0
AUD-600640941,,"AUD - ZERO RATED",2,4000-AUD-INT,66,0
SEK-600641184,,"SEK - INT",1,4000-SEK-INT,53.25333333,10.650666666
RUB-600640943,,"RUB - ZERO RATED",2,4000-RUB-INT,125.85,0
RUB-600640950,,"RUB - ZERO RATED",2,4000-RUB-INT,33.75,0
RUB-600640981,,"RUB - ZERO RATED",2,4000-RUB-INT,61.5,0
