"ORDER ID",EBAY-REF,NAME,TAXCODE,NOMINAL,TOTAL,TAX
UK-1900208676,,"UK - INT",1,4000-UK-INT,29.58,5.916
UK-600634045,,"UK - INT",1,4000-UK-INT,33.33,6.666
UK-1900208681,,"UK - INT",1,4000-UK-INT,64.08,12.816
UK-1900208682,,"UK - INT",1,4000-UK-INT,45.83333333,9.166666666
UK-600634049,,"UK - INT",1,4000-UK-INT,65.83,13.166
UK-1900208686,,"UK - INT",1,4000-UK-INT,10.42,2.084
UK-2700002251,,"UK - INT",1,4000-UK-INT,21.58,4.316
UK-2700002252,,"UK - INT",1,4000-UK-INT,29.87,5.974
UK-1900208688,,"UK - INT",1,4000-UK-INT,10,2
UK-600634053,,"UK - INT",1,4000-UK-INT,89.92,17.984
UK-600634054,,"UK - INT",1,4000-UK-INT,82.42,16.484
UK-1900208690,,"UK - INT",1,4000-UK-INT,1.62,0.324
UK-600634056,,"UK - INT",1,4000-UK-INT,29.17,5.834
UK-600634057,,"UK - INT EXEMPT",0,4000-UK-INT,184.92,0
UK-600634060,,"UK - INT",1,4000-UK-INT,82.5,16.5
UK-1900208691,,"UK - INT",1,4000-UK-INT,18.29,3.658
UK-1900208692,,"UK - INT",1,4000-UK-INT,52.5,10.5
UK-800036583,,"UK - INT",1,4000-UK-INT,2.46,0.492
UK-1900208696,,"UK - INT",1,4000-UK-INT,68.75,13.75
UK-600634065,,"UK - INT",1,4000-UK-INT,16.67,3.334
UK-1900208698,,"UK - INT",1,4000-UK-INT,50.00333333,10.000666666
UK-600634070,,"UK - INT EXEMPT",0,4000-UK-INT,495,0
UK-800036584,,"UK - INT",1,4000-UK-INT,3.33666667,0.667333334
UK-600634074,,"UK - INT EXEMPT",0,4000-UK-INT,83.33,0
UK-600634074,,"UK - INT ZERO RATED CREDIT PAID",0,2132--,96.28,0,credit
UK-1900208702,,"UK - INT",1,4000-UK-INT,50,10
UK-600634080,,"UK - INT",1,4000-UK-INT,3.33,0.666
UK-600634078,,"UK - INT",1,4000-UK-INT,40.83,8.166
UK-1900208704,,"UK - INT",1,4000-UK-INT,57.5,11.5
UK-600634082,,"UK - INT",1,4000-UK-INT,12.42,2.484
UK-600634084,,"UK - INT",1,4000-UK-INT,212.41333333,42.482666666
UK-1900208707,,"UK - INT",1,4000-UK-INT,20.83,4.166
UK-600634088,,"UK - INT",1,4000-UK-INT,12.49666667,2.499333334
UK-600634091,,"UK - INT",1,4000-UK-INT,4.12,0.824
UK-1900208712,,"UK - INT",1,4000-UK-INT,25,5
UK-600634092,,"UK - INT EXEMPT",0,4000-UK-INT,810,0
UK-600634094,,"UK - INT",1,4000-UK-INT,29.17,5.834
UK-1900208713,,"UK - INT",1,4000-UK-INT,82.5,16.5
UK-1900208714,,"UK - INT",1,4000-UK-INT,7.5,1.5
UK-600634101,,"UK - INT",1,4000-UK-INT,16.67,3.334
UK-600634102,,"UK - INT",1,4000-UK-INT,83.32,16.664
UK-1900208717,,"UK - INT",1,4000-UK-INT,16.67,3.334
UK-600634112,,"UK - INT",1,4000-UK-INT,38.33333333,7.666666666
UK-1900208718,,"UK - INT",1,4000-UK-INT,10.42,2.084
UK-600634116,,"UK - INT",1,4000-UK-INT,8.33,1.666
UK-600634117,,"UK - INT ZERO RATED",2,4000-UK-INT,10,0
UK-600634126,,"UK - INT EXEMPT",0,4000-UK-INT,49,0
UK-1900208724,,"UK - INT",1,4000-UK-INT,65.83,13.166
UK-600634133,,"UK - INT",1,4000-UK-INT,19.17,3.834
UK-1900208725,,"UK - INT",1,4000-UK-INT,94.92,18.984
UK-1900208726,,"UK - INT",1,4000-UK-INT,24.17,4.834
UK-600634140,,"UK - INT",1,4000-UK-INT,54.17,10.834
UK-600634142,,"UK - INT",1,4000-UK-INT,15,3
UK-600634146,,"UK - INT",1,4000-UK-INT,24.08,4.816
UK-1900208728,,"UK - INT",1,4000-UK-INT,99.08,19.816
UK-600634147,,"UK - INT",1,4000-UK-INT,65.83,13.166
UK-600634149,,"UK - INT",1,4000-UK-INT,49.17,9.834
UK-1900208732,,"UK - INT",1,4000-UK-INT,19.83,3.966
UK-600634093,,"UK - INT",1,4000-UK-INT,60.83333333,12.166666666
UK-1900208735,,"UK - INT",1,4000-UK-INT,124.08,24.816
UK-600634157,,"UK - INT",1,4000-UK-INT,26.67,5.334
UK-600634161,,"UK - INT",1,4000-UK-INT,12.5,2.5
UK-1900208734,,"UK - INT",1,4000-UK-INT,15,3
UK-600634163,,"UK - INT",1,4000-UK-INT,6.67,1.334
UK-600634164,,"UK - INT",1,4000-UK-INT,86.67,17.334
UK-1900208742,,"UK - INT ZERO RATED",2,4000-UK-INT,5.4,0
UK-600634167,,"UK - INT",1,4000-UK-INT,12.5,2.5
UK-1900208744,,"UK - INT",1,4000-UK-INT,29.17,5.834
UK-1900208745,,"UK - INT",1,4000-UK-INT,74.17,14.834
UK-600634171,,"UK - INT",1,4000-UK-INT,65.83,13.166
UK-600634172,,"UK - INT",1,4000-UK-INT,74.25,14.85
UK-600634173,,"UK - INT",1,4000-UK-INT,16.67,3.334
UK-1900208747,,"UK - INT",1,4000-UK-INT,7.5,1.5
UK-600634175,,"UK - INT",1,4000-UK-INT,41.67,8.334
UK-600634176,,"UK - INT",1,4000-UK-INT,36.58,7.316
UK-1900208749,,"UK - INT",1,4000-UK-INT,36.74666667,7.349333334
UK-600634181,,"UK - INT",1,4000-UK-INT,18.75,3.75
UK-800036585,,"UK - INT",1,4000-UK-INT,8.33,1.666
UK-1900208751,,"UK - INT",1,4000-UK-INT,4.17,0.834
UK-600634185,,"UK - INT",1,4000-UK-INT,62.42,12.484
UK-600634187,,"UK - INT",1,4000-UK-INT,20.65333333,4.130666666
UK-600634187,,"UK - INT ZERO RATED",2,4000-UK-INT,20.72,0
UK-600634190,,"UK - INT",1,4000-UK-INT,47.09666667,9.419333334
UK-600634190,,"UK - INT ZERO RATED",2,4000-UK-INT,26.6,0
UK-600634194,,"UK - INT",1,4000-UK-INT,16.67,3.334
UK-1900208753,,"UK - INT",1,4000-UK-INT,312.42,62.484
UK-600634196,,"UK - INT",1,4000-UK-INT,72.03833333,14.407666666
UK-1900208756,,"UK - INT",1,4000-UK-INT,33.33,6.666
UK-600634202,,"UK - INT",1,4000-UK-INT,10.42,2.084
UK-600634203,,"UK - INT",1,4000-UK-INT,44.58,8.916
UK-1900208761,,"UK - INT ZERO RATED",2,4000-UK-INT,44.9,0
UK-600634208,,"UK - INT",1,4000-UK-INT,31.67,6.334
UK-1900208762,,"UK - INT",1,4000-UK-INT,25,5
UK-600634209,,"UK - INT",1,4000-UK-INT,21.67,4.334
UK-1900208764,,"UK - INT",1,4000-UK-INT,7.5,1.5
UK-1900208766,,"UK - INT",1,4000-UK-INT,6.67,1.334
UK-1900208767,,"UK - INT",1,4000-UK-INT,20.75,4.15
UK-600634214,,"UK - INT",1,4000-UK-INT,50.08333333,10.016666666
UK-600634213,,"UK - INT",1,4000-UK-INT,20.83,4.166
UK-1900208768,,"UK - INT",1,4000-UK-INT,83.32,16.664
UK-600634217,,"UK - INT EXEMPT",0,4000-UK-INT,399.59,0
UK-600634218,,"UK - INT",1,4000-UK-INT,75.75333333,15.150666666
UK-1900208770,,"UK - INT",1,4000-UK-INT,665.83,133.166
UK-1900208769,,"UK - INT",1,4000-UK-INT,83.32,16.664
UK-600634221,,"UK - INT",1,4000-UK-INT,64.17,12.834
UK-1900208773,,"UK - INT",1,4000-UK-INT,50,10
UK-1900208775,,"UK - INT",1,4000-UK-INT,15,3
UK-600634227,,"UK - INT",1,4000-UK-INT,20.99666667,4.199333334
UK-600634228,,"UK - INT",1,4000-UK-INT,14.24666667,2.849333334
UK-1900208771,,"UK - INT",1,4000-UK-INT,19.92,3.984
UK-600634229,,"UK - INT",1,4000-UK-INT,175,35
UK-600634232,,"UK - INT",1,4000-UK-INT,47.25,9.45
UK-1900208779,,"UK - INT",1,4000-UK-INT,67.49,13.498
UK-2700002256,,"UK - INT",1,4000-UK-INT,16.67,3.334
UK-1900208781,,"UK - INT",1,4000-UK-INT,57.5,11.5
UK-600634234,,"UK - INT EXEMPT",0,4000-UK-INT,148.5,0
UK-600634236,,"UK - INT",1,4000-UK-INT,102.375,20.475
UK-600634237,,"UK - INT",1,4000-UK-INT,104.92,20.984
UK-1900208784,,"UK - INT",1,4000-UK-INT,12.5,2.5
UK-600565077,,"UK - INT",1,4000-UK-INT,148.5,29.7
UK-1900208785,,"UK - INT",1,4000-UK-INT,23.25,4.65
UK-600634239,,"UK - INT",1,4000-UK-INT,187.425,37.485
UK-600634240,,"UK - INT",1,4000-UK-INT,21.75333333,4.350666666
UK-600634242,,"UK - INT",1,4000-UK-INT,216.58,43.316
UK-600634243,,"UK - INT",1,4000-UK-INT,84.08,16.816
UK-1900208789,,"UK - INT",1,4000-UK-INT,15.00333333,3.000666666
UK-600634244,,"UK - INT",1,4000-UK-INT,13.5,2.7
UK-600634245,,"UK - INT ZERO RATED",2,4000-UK-INT,13.5,0
UK-600634246,,"UK - INT",1,4000-UK-INT,58.25,11.65
UK-1900208793,,"UK - INT",1,4000-UK-INT,37.50333333,7.500666666
UK-600634249,,"UK - INT",1,4000-UK-INT,82.5,16.5
UK-600634251,,"UK - INT",1,4000-UK-INT,37.50333333,7.500666666
UK-1900208795,,"UK - INT",1,4000-UK-INT,18.675,3.735
UK-1900208796,,"UK - INT",1,4000-UK-INT,86.66666667,17.333333334
UK-600634253,,"UK - INT",1,4000-UK-INT,18.74666667,3.749333334
UK-1900208799,,"UK - INT",1,4000-UK-INT,4.16333333,0.832666666
UK-1900208799,,"UK - INT ZERO RATED",2,4000-UK-INT,40,0
UK-1900208765,,"UK - INT",1,4000-UK-INT,1665.83,333.166
UK-600634256,,"UK - INT",1,4000-UK-INT,6.25,1.25
UK-600634257,,"UK - INT",1,4000-UK-INT,32.5,6.5
UK-1900208801,,"UK - INT",1,4000-UK-INT,12.5,2.5
UK-1900208803,,"UK - INT ZERO RATED",2,4000-UK-INT,62.99,0
UK-1900208804,,"UK - INT",1,4000-UK-INT,22.5,4.5
UK-1900208806,,"UK - INT",1,4000-UK-INT,107.33,21.466
UK-1900208811,,"UK - INT",1,4000-UK-INT,82.5,16.5
UK-600634262,,"UK - INT",1,4000-UK-INT,25,5
UK-1900208814,,"UK - INT",1,4000-UK-INT,4.17,0.834
UK-600634266,,"UK - INT",1,4000-UK-INT,42.5,8.5
UK-600634266,,"UK - INT ZERO RATED",2,4000-UK-INT,5,0
UK-600634265,,"UK - INT",1,4000-UK-INT,97.5,19.5
UK-600634265,,"UK - INT ZERO RATED CREDIT PAID",0,2132--,50,0,credit
UK-600634267,,"UK - INT",1,4000-UK-INT,103.5,20.7
UK-600634268,,"UK - INT",1,4000-UK-INT,41.67,8.334
UK-600634272,,"UK - INT",1,4000-UK-INT,17.25333333,3.450666666
UK-800036586,,"UK - INT",1,4000-UK-INT,86.76166667,17.352333334
UK-1900208820,,"UK - INT",1,4000-UK-INT,15,3
UK-800036588,,"UK - INT",1,4000-UK-INT,20,4
UK-600634274,,"UK - INT",1,4000-UK-INT,59.24666667,11.849333334
UK-600634276,,"UK - INT",1,4000-UK-INT,127.50333333,25.500666666
UK-1900208824,,"UK - INT",1,4000-UK-INT,41.66333333,8.332666666
UK-600634277,,"UK - INT",1,4000-UK-INT,20.83,4.166
UK-1900208825,,"UK - INT",1,4000-UK-INT,25,5
UK-600634279,,"UK - INT",1,4000-UK-INT,40.42833333,8.085666666
UK-1900208827,,"UK - INT",1,4000-UK-INT,63,12.6
UK-1900208829,,"UK - INT",1,4000-UK-INT,5.83,1.166
UK-1900208832,,"UK - INT",1,4000-UK-INT,10.41,2.082
UK-600634282,,"UK - INT",1,4000-UK-INT,25,5
UK-600634283,,"UK - INT",1,4000-UK-INT,29.87,5.974
UK-600634283,,"UK - INT ZERO RATED",2,4000-UK-INT,5,0
UK-1900208835,,"UK - INT",1,4000-UK-INT,41.24666667,8.249333334
UK-600634288,,"UK - INT",1,4000-UK-INT,29.17,5.834
UK-1900208833,,"UK - INT",1,4000-UK-INT,22.96166667,4.592333334
UK-1900208838,,"UK - INT",1,4000-UK-INT,20.83,4.166
UK-600634285,,"UK - INT",1,4000-UK-INT,51.75,10.35
UK-600634295,,"UK - INT",1,4000-UK-INT,83.32,16.664
UK-600634297,,"UK - INT",1,4000-UK-INT,25,5
UK-2700002257,,"UK - INT",1,4000-UK-INT,13.33666667,2.667333334
UK-600634299,,"UK - INT",1,4000-UK-INT,204.16333333,40.832666666
UK-600634302,,"UK - INT",1,4000-UK-INT,188.25,37.65
UK-1900208844,,"UK - INT",1,4000-UK-INT,10.83,2.166
UK-600634304,,"UK - INT",1,4000-UK-INT,42.00333333,8.400666666
UK-600634305,,"UK - INT",1,4000-UK-INT,20.75,4.15
UK-1900208846,,"UK - INT",1,4000-UK-INT,40.5,8.1
UK-600634306,,"UK - INT",1,4000-UK-INT,78.67833333,15.735666666
UK-1900208847,,"UK - INT",1,4000-UK-INT,80.92833333,16.185666666
UK-600634307,,"UK - INT",1,4000-UK-INT,61.66333333,12.332666666
UK-1900208848,,"UK - INT",1,4000-UK-INT,80.92833333,16.185666666
UK-600634308,,"UK - INT",1,4000-UK-INT,73.29,14.658
UK-2700002259,,"UK - INT",1,4000-UK-INT,8.33,1.666
UK-1900208851,,"UK - INT",1,4000-UK-INT,44.25333333,8.850666666
UK-600634311,,"UK - INT",1,4000-UK-INT,26.17166667,5.234333334
UK-1900208850,,"UK - INT",1,4000-UK-INT,45.83,9.166
UK-600634312,,"UK - INT EXEMPT",0,4000-UK-INT,445.5,0
UK-1900208854,,"UK - INT",1,4000-UK-INT,20.83,4.166
UK-600634313,,"UK - INT",1,4000-UK-INT,32.24666667,6.449333334
UK-1900208856,,"UK - INT",1,4000-UK-INT,8.33,1.666
UK-600634318,,"UK - INT EXEMPT",0,4000-UK-INT,445.5,0
UK-600634320,,"UK - INT",1,4000-UK-INT,74.17,14.834
UK-1900208857,,"UK - INT",1,4000-UK-INT,41.67,8.334
UK-600634323,,"UK - INT",1,4000-UK-INT,33.17,6.634
UK-600634324,,"UK - INT",1,4000-UK-INT,106.425,21.285
UK-600634324,,"UK - INT ZERO RATED",2,4000-UK-INT,10.8,0
UK-1900208855,,"UK - INT",1,4000-UK-INT,24.17,4.834
UK-600634327,,"UK - INT",1,4000-UK-INT,42.00333333,8.400666666
UK-600634328,,"UK - INT",1,4000-UK-INT,193.17,38.634
UK-600634329,,"UK - INT",1,4000-UK-INT,82.5,16.5
UK-1900208863,,"UK - INT",1,4000-UK-INT,4.17,0.834
UK-600634330,,"UK - INT",1,4000-UK-INT,25,5
UK-600634332,,"UK - INT",1,4000-UK-INT,66.67,13.334
UK-1900208870,,"UK - INT",1,4000-UK-INT,127.42166667,25.484333334
UK-1900208845,,"UK - INT",1,4000-UK-INT,29.92,5.984
UK-600634333,,"UK - INT",1,4000-UK-INT,90.83,18.166
UK-600634336,,"UK - INT",1,4000-UK-INT,33.33,6.666
UK-1900208872,,"UK - INT",1,4000-UK-INT,76.09166667,15.218333334
UK-600634339,,"UK - INT",1,4000-UK-INT,54.17,10.834
UK-600634342,,"UK - INT EXEMPT",0,4000-UK-INT,247.05,0
UK-1900208875,,"UK - INT",1,4000-UK-INT,18.74666667,3.749333334
UK-600634344,,"UK - INT",1,4000-UK-INT,44.25333333,8.850666666
UK-800036589,,"UK - INT",1,4000-UK-INT,16.67,3.334
UK-2700002260,,"UK - INT",1,4000-UK-INT,6.66333333,1.332666666
UK-600634347,,"UK - INT",1,4000-UK-INT,85.75,17.15
UK-600634348,,"UK - INT",1,4000-UK-INT,18.74666667,3.749333334
UK-1900208878,,"UK - INT",1,4000-UK-INT,10.83,2.166
UK-600634350,,"UK - INT",1,4000-UK-INT,93.25,18.65
UK-1900208864,,"UK - INT",1,4000-UK-INT,74.25,14.85
UK-600634351,,"UK - INT",1,4000-UK-INT,87.42,17.484
UK-1900208881,,"UK - INT",1,4000-UK-INT,24.92,4.984
UK-600634356,,"UK - INT",1,4000-UK-INT,10,2
UK-1900208886,,"UK - INT",1,4000-UK-INT,91.67,18.334
UK-600634357,,"UK - INT",1,4000-UK-INT,106.66,21.332
UK-600634357,,"UK - INT ZERO RATED CREDIT PAID",0,2132--,75.12,0,credit
EUR-600633857,,"EUR - INT",1,4000-EUR-INT,58.33,11.666
EUR-600634108,,"EUR - INT",1,4000-EUR-INT,99.17,19.834
EUR-600634132,,"EUR - INT",1,4000-EUR-INT,89.92,17.984
EUR-600634138,,"EUR - INT ZERO RATED",2,4000-EUR-INT,806.93,0
EUR-600634195,,"EUR - INT",1,4000-EUR-INT,38.29333333,7.658666666
EUR-600634226,,"EUR - INT",1,4000-EUR-INT,110.83666667,22.167333334
EUR-600634233,,"EUR - INT",1,4000-EUR-INT,37.50333333,7.500666666
EUR-1900208822,,"EUR - INT",1,4000-EUR-INT,51.34166667,10.268333334
EUR-600634290,,"EUR - INT",1,4000-EUR-INT,148.5,29.7
EUR-600634316,,"EUR - INT",1,4000-EUR-INT,20.98666667,4.197333334
EUR-600634316,,"EUR - INT ZERO RATED",2,4000-EUR-INT,40.49,0
ROW-1900207613,,"ROW - ZERO RATED",2,4000-ROW-INT,87.8,0
SHIP-1900208676,,"Postage - INT",1,4040--INT,2.46,0.492
SHIP-600634045,,"Postage - INT",1,4040--INT,2.46,0.492
SHIP-1900208681,,"Postage - INT",1,4040--INT,2.46,0.492
SHIP-1900208682,,"Postage - INT",1,4040--INT,4.12,0.824
SHIP-600634049,,"Postage - INT",1,4040--INT,4.13,0.826
SHIP-1900208686,,"Postage - INT",1,4040--INT,2.45,0.49
SHIP-1900208688,,"Postage - INT",1,4040--INT,2.46,0.492
SHIP-1900208690,,"Postage - INT",1,4040--INT,2.46,0.492
SHIP-600634056,,"Postage - INT",1,4040--INT,4.12,0.824
SHIP-600634057,,"Postage - INT NOVAT",2,4040--INT,24.19,0
SHIP-1900208691,,"Postage - INT",1,4040--INT,2.46,0.492
SHIP-1900208692,,"Postage - INT",1,4040--INT,4.12,0.824
SHIP-1900208696,,"Postage - INT",1,4040--INT,4.12,0.824
SHIP-600634065,,"Postage - INT",1,4040--INT,2.45,0.49
SHIP-1900208698,,"Postage - INT",1,4040--INT,4.95,0.99
SHIP-600634070,,"Postage - INT NOVAT",2,4040--INT,44.97,0
SHIP-600634074,,"Postage - INT NOVAT",2,4040--INT,12.95,0
SHIP-1900208702,,"Postage - INT",1,4040--INT,4.12,0.824
SHIP-600634080,,"Postage - INT",1,4040--INT,2.46,0.492
SHIP-600634078,,"Postage - INT",1,4040--INT,2.46,0.492
SHIP-1900208704,,"Postage - INT",1,4040--INT,4.12,0.824
SHIP-600634082,,"Postage - INT",1,4040--INT,2.45,0.49
SHIP-1900208707,,"Postage - INT",1,4040--INT,4.96,0.992
SHIP-600634088,,"Postage - INT",1,4040--INT,2.46,0.492
SHIP-600634091,,"Postage - INT",1,4040--INT,2.46,0.492
SHIP-1900208712,,"Postage - INT",1,4040--INT,2.46,0.492
SHIP-600634092,,"Postage - INT NOVAT",2,4040--INT,116.55,0
SHIP-600634094,,"Postage - INT",1,4040--INT,4.12,0.824
SHIP-1900208713,,"Postage - INT",1,4040--INT,4.12,0.824
SHIP-1900208714,,"Postage - INT",1,4040--INT,2.46,0.492
SHIP-600634101,,"Postage - INT",1,4040--INT,2.45,0.49
SHIP-1900208717,,"Postage - INT",1,4040--INT,4.12,0.824
SHIP-600634112,,"Postage - INT",1,4040--INT,4.12,0.824
SHIP-1900208718,,"Postage - INT",1,4040--INT,2.45,0.49
SHIP-600634116,,"Postage - INT",1,4040--INT,2.46,0.492
SHIP-600634117,,"Postage - INT",1,4040--INT,2.46,0.492
SHIP-600634126,,"Postage - INT NOVAT",2,4040--INT,25.9,0
SHIP-1900208724,,"Postage - INT",1,4040--INT,4.13,0.826
SHIP-600634133,,"Postage - INT",1,4040--INT,2.45,0.49
SHIP-1900208725,,"Postage - INT",1,4040--INT,4.12,0.824
SHIP-1900208726,,"Postage - INT",1,4040--INT,4.12,0.824
SHIP-600634140,,"Postage - INT",1,4040--INT,4.12,0.824
SHIP-600634142,,"Postage - INT",1,4040--INT,2.46,0.492
SHIP-600634146,,"Postage - INT",1,4040--INT,2.46,0.492
SHIP-600634147,,"Postage - INT",1,4040--INT,4.13,0.826
SHIP-600634149,,"Postage - INT",1,4040--INT,4.95,0.99
SHIP-1900208732,,"Postage - INT",1,4040--INT,2.46,0.492
SHIP-600634093,,"Postage - INT",1,4040--INT,4.12,0.824
SHIP-1900208735,,"Postage - INT",1,4040--INT,19.99,3.998
SHIP-600634157,,"Postage - INT",1,4040--INT,2.45,0.49
SHIP-600634161,,"Postage - INT",1,4040--INT,2.46,0.492
SHIP-1900208734,,"Postage - INT",1,4040--INT,2.46,0.492
SHIP-600634163,,"Postage - INT",1,4040--INT,2.45,0.49
SHIP-600634164,,"Postage - INT",1,4040--INT,4.12,0.824
SHIP-1900208742,,"Postage - INT",1,4040--INT,2.46,0.492
SHIP-600634167,,"Postage - INT",1,4040--INT,2.46,0.492
SHIP-1900208744,,"Postage - INT",1,4040--INT,4.95,0.99
SHIP-1900208745,,"Postage - INT",1,4040--INT,4.12,0.824
SHIP-600634171,,"Postage - INT",1,4040--INT,4.96,0.992
SHIP-600634172,,"Postage - INT",1,4040--INT,4.12,0.824
SHIP-600634173,,"Postage - INT",1,4040--INT,2.45,0.49
SHIP-1900208747,,"Postage - INT",1,4040--INT,2.46,0.492
SHIP-600634175,,"Postage - INT",1,4040--INT,4.95,0.99
SHIP-600634176,,"Postage - INT",1,4040--INT,2.46,0.492
SHIP-1900208749,,"Postage - INT",1,4040--INT,4.96,0.992
SHIP-600634181,,"Postage - INT",1,4040--INT,2.46,0.492
SHIP-1900208751,,"Postage - INT",1,4040--INT,2.45,0.49
SHIP-600634185,,"Postage - INT",1,4040--INT,4.12,0.824
SHIP-600634187,,"Postage - INT",1,4040--INT,4.12,0.824
SHIP-600634190,,"Postage - INT",1,4040--INT,4.13,0.826
SHIP-600634194,,"Postage - INT",1,4040--INT,2.45,0.49
SHIP-600634196,,"Postage - INT",1,4040--INT,4.13,0.826
SHIP-1900208756,,"Postage - INT",1,4040--INT,4.96,0.992
SHIP-600634202,,"Postage - INT",1,4040--INT,2.45,0.49
SHIP-600634203,,"Postage - INT",1,4040--INT,2.46,0.492
SHIP-1900208761,,"Postage - INT",1,4040--INT,4.12,0.824
SHIP-600634208,,"Postage - INT",1,4040--INT,2.45,0.49
SHIP-1900208762,,"Postage - INT",1,4040--INT,2.46,0.492
SHIP-600634209,,"Postage - INT",1,4040--INT,4.95,0.99
SHIP-1900208764,,"Postage - INT",1,4040--INT,2.46,0.492
SHIP-1900208766,,"Postage - INT",1,4040--INT,2.45,0.49
SHIP-1900208767,,"Postage - INT",1,4040--INT,2.46,0.492
SHIP-600634214,,"Postage - INT",1,4040--INT,4.12,0.824
SHIP-600634213,,"Postage - INT",1,4040--INT,2.46,0.492
SHIP-600634217,,"Postage - INT NOVAT",2,4040--INT,64.75,0
SHIP-600634221,,"Postage - INT",1,4040--INT,2.45,0.49
SHIP-1900208773,,"Postage - INT",1,4040--INT,4.96,0.992
SHIP-1900208775,,"Postage - INT",1,4040--INT,2.46,0.492
SHIP-600634227,,"Postage - INT",1,4040--INT,2.46,0.492
SHIP-600634228,,"Postage - INT",1,4040--INT,2.46,0.492
SHIP-1900208771,,"Postage - INT",1,4040--INT,4.95,0.99
SHIP-600634229,,"Postage - INT",1,4040--INT,4.12,0.824
SHIP-600634232,,"Postage - INT",1,4040--INT,4.12,0.824
SHIP-1900208781,,"Postage - INT",1,4040--INT,4.12,0.824
SHIP-600634234,,"Postage - INT NOVAT",2,4040--INT,12.95,0
SHIP-600634236,,"Postage - INT",1,4040--INT,4.12,0.824
SHIP-1900208784,,"Postage - INT",1,4040--INT,2.46,0.492
SHIP-1900208785,,"Postage - INT",1,4040--INT,2.46,0.492
SHIP-600634240,,"Postage - INT",1,4040--INT,2.45,0.49
SHIP-1900208789,,"Postage - INT",1,4040--INT,2.45,0.49
SHIP-600634244,,"Postage - INT",1,4040--INT,2.46,0.492
SHIP-600634245,,"Postage - INT",1,4040--INT,2.46,0.492
SHIP-600634246,,"Postage - INT",1,4040--INT,6.62,1.324
SHIP-1900208793,,"Postage - INT",1,4040--INT,4.12,0.824
SHIP-600634251,,"Postage - INT",1,4040--INT,4.12,0.824
SHIP-1900208795,,"Postage - INT",1,4040--INT,2.46,0.492
SHIP-1900208796,,"Postage - INT",1,4040--INT,4.96,0.992
SHIP-600634253,,"Postage - INT",1,4040--INT,2.46,0.492
SHIP-1900208799,,"Postage - INT",1,4040--INT,4.96,0.992
SHIP-600634256,,"Postage - INT",1,4040--INT,2.46,0.492
SHIP-600634257,,"Postage - INT",1,4040--INT,4.12,0.824
SHIP-1900208801,,"Postage - INT",1,4040--INT,2.46,0.492
SHIP-1900208803,,"Postage - INT",1,4040--INT,4.12,0.824
SHIP-1900208804,,"Postage - INT",1,4040--INT,4.12,0.824
SHIP-600634262,,"Postage - INT",1,4040--INT,2.46,0.492
SHIP-1900208814,,"Postage - INT",1,4040--INT,2.45,0.49
SHIP-600634266,,"Postage - INT",1,4040--INT,4.96,0.992
SHIP-600634265,,"Postage - INT",1,4040--INT,4.12,0.824
SHIP-600634267,,"Postage - INT",1,4040--INT,4.12,0.824
SHIP-600634268,,"Postage - INT",1,4040--INT,4.12,0.824
SHIP-600634272,,"Postage - INT",1,4040--INT,2.45,0.49
SHIP-800036586,,"Postage - INT",1,4040--INT,6.63,1.326
SHIP-1900208820,,"Postage - INT",1,4040--INT,2.46,0.492
SHIP-600634274,,"Postage - INT",1,4040--INT,4.13,0.826
SHIP-600634276,,"Postage - INT",1,4040--INT,4.12,0.824
SHIP-1900208824,,"Postage - INT",1,4040--INT,4.13,0.826
SHIP-600634277,,"Postage - INT",1,4040--INT,2.46,0.492
SHIP-1900208825,,"Postage - INT",1,4040--INT,2.46,0.492
SHIP-600634279,,"Postage - INT",1,4040--INT,2.45,0.49
SHIP-1900208827,,"Postage - INT",1,4040--INT,4.96,0.992
SHIP-1900208829,,"Postage - INT",1,4040--INT,2.46,0.492
SHIP-1900208832,,"Postage - INT",1,4040--INT,2.46,0.492
SHIP-600634282,,"Postage - INT",1,4040--INT,4.12,0.824
SHIP-600634283,,"Postage - INT",1,4040--INT,2.46,0.492
SHIP-1900208835,,"Postage - INT",1,4040--INT,2.46,0.492
SHIP-600634288,,"Postage - INT",1,4040--INT,4.12,0.824
SHIP-1900208833,,"Postage - INT",1,4040--INT,2.45,0.49
SHIP-1900208838,,"Postage - INT",1,4040--INT,2.46,0.492
SHIP-600634285,,"Postage - INT",1,4040--INT,4.12,0.824
SHIP-600634297,,"Postage - INT",1,4040--INT,4.96,0.992
SHIP-1900208844,,"Postage - INT",1,4040--INT,2.46,0.492
SHIP-600634304,,"Postage - INT",1,4040--INT,4.12,0.824
SHIP-600634305,,"Postage - INT",1,4040--INT,2.46,0.492
SHIP-1900208846,,"Postage - INT",1,4040--INT,4.12,0.824
SHIP-600634306,,"Postage - INT",1,4040--INT,4.12,0.824
SHIP-600634307,,"Postage - INT",1,4040--INT,4.13,0.826
SHIP-600634308,,"Postage - INT",1,4040--INT,4.96,0.992
SHIP-1900208851,,"Postage - INT",1,4040--INT,4.95,0.99
SHIP-600634311,,"Postage - INT",1,4040--INT,4.13,0.826
SHIP-1900208850,,"Postage - INT",1,4040--INT,4.13,0.826
SHIP-600634312,,"Postage - INT NOVAT",2,4040--INT,64.88,0
SHIP-1900208854,,"Postage - INT",1,4040--INT,2.46,0.492
SHIP-600634313,,"Postage - INT",1,4040--INT,2.46,0.492
SHIP-1900208856,,"Postage - INT",1,4040--INT,2.46,0.492
SHIP-600634318,,"Postage - INT NOVAT",2,4040--INT,64.88,0
SHIP-600634320,,"Postage - INT",1,4040--INT,4.12,0.824
SHIP-1900208857,,"Postage - INT",1,4040--INT,4.12,0.824
SHIP-600634323,,"Postage - INT",1,4040--INT,2.45,0.49
SHIP-1900208855,,"Postage - INT",1,4040--INT,4.95,0.99
SHIP-600634327,,"Postage - INT",1,4040--INT,4.12,0.824
SHIP-600634329,,"Postage - INT",1,4040--INT,4.12,0.824
SHIP-1900208863,,"Postage - INT",1,4040--INT,2.45,0.49
SHIP-600634330,,"Postage - INT",1,4040--INT,2.46,0.492
SHIP-600634332,,"Postage - INT",1,4040--INT,2.45,0.49
SHIP-1900208845,,"Postage - INT",1,4040--INT,2.45,0.49
SHIP-600634333,,"Postage - INT",1,4040--INT,4.13,0.826
SHIP-600634336,,"Postage - INT",1,4040--INT,2.46,0.492
SHIP-600634339,,"Postage - INT",1,4040--INT,2.45,0.49
SHIP-600634342,,"Postage - INT NOVAT",2,4040--INT,38.85,0
SHIP-1900208875,,"Postage - INT",1,4040--INT,4.13,0.826
SHIP-600634344,,"Postage - INT",1,4040--INT,4.95,0.99
SHIP-600634347,,"Postage - INT",1,4040--INT,4.12,0.824
SHIP-600634348,,"Postage - INT",1,4040--INT,2.46,0.492
SHIP-1900208878,,"Postage - INT",1,4040--INT,2.46,0.492
SHIP-1900208864,,"Postage - INT",1,4040--INT,4.96,0.992
SHIP-600634351,,"Postage - INT",1,4040--INT,4.12,0.824
SHIP-1900208881,,"Postage - INT",1,4040--INT,2.45,0.49
SHIP-600634356,,"Postage - INT",1,4040--INT,2.46,0.492
SHIP-1900208886,,"Postage - INT",1,4040--INT,4.12,0.824
SHIP-600634357,,"Postage - INT",1,4040--INT,2.46,0.492
SHIP-600633857,,"Postage - INT",1,4040--INT,6.63,1.326
SHIP-600634108,,"Postage - INT",1,4040--INT,16.62,3.324
SHIP-600634132,,"Postage - INT",1,4040--INT,8.33,1.666
SHIP-600634138,,"Postage - INT NOVAT",2,4040--INT,90.54,0
SHIP-600634195,,"Postage - INT",1,4040--INT,4.12,0.824
SHIP-600634226,,"Postage - INT",1,4040--INT,12.45,2.49
SHIP-600634233,,"Postage - INT",1,4040--INT,10.79,2.158
SHIP-1900208822,,"Postage - INT",1,4040--INT,8.33,1.666
SHIP-600634290,,"Postage - INT",1,4040--INT,7.46,1.492
SHIP-600634316,,"Postage - INT",1,4040--INT,4.12,0.824
SHIP-1900207613,,"Postage - INT NOVAT",2,4040--INT,12.95,0
SHIP-600634050,,"Postage - INT NOVAT",2,4040--INT,4.95,0
SHIP-1900196073,,"Postage - INT NOVAT",2,4040--INT,4.95,0
SHIP-600634310,,"Postage - INT",1,4040--INT,12.46,2.492
SHIP-600634346,,"Postage - INT NOVAT",2,4040--INT,12.95,0
AUD-600634050,,"AUD - ZERO RATED",2,4000-AUD-INT,29.91,0
AUD-1900196073,,"AUD - ZERO RATED",2,4000-AUD-INT,18.34,0
SEK-600634310,,"SEK - INT",1,4000-SEK-INT,81.675,16.335
RUB-600634346,,"RUB - ZERO RATED",2,4000-RUB-INT,41.58,0
