"ORDER ID",EBAY-REF,NAME,TAXCODE,NOMINAL,TOTAL,TAX
EBY-2500228006,83L77943YM1926724,"GEN - EBY",1,4000-GEN-EBY,9.17,1.834
EBY-2500228006,83L77943YM1926724,"Postage - EBY",1,4040--EBY,1.62,0.324
EBY-2500228007,88514278895213150,"GEN - EBY",1,4000-GEN-EBY,13.33,2.666
EBY-2500228008,0E526734TG7574327,"GEN - EBY",1,4000-GEN-EBY,13.33,2.666
EBY-2500228009,6L534253A1972312Y,"GEN - EBY",1,4000-GEN-EBY,18.33,3.666
EBY-2500228010,96552375VN613254U,"GEN - EBY",1,4000-GEN-EBY,13.33,2.666
EBY-2500228011,7H868502MH770303G,"GEN - EBY",1,4000-GEN-EBY,10.83,2.166
EBY-2500228012,3H3355571B3251643,"GEN - EBY",1,4000-GEN-EBY,6.67,1.334
EBY-2500228013,7TL190943C458024W,"GEN - EBY",1,4000-GEN-EBY,25,5
EBY-2500228014,80366398461366808,"GEN - EBY",1,4000-GEN-EBY,8.33,1.666
EBY-2500228015,87F119537R474680P,"GEN - EBY",1,4000-GEN-EBY,41.67,8.334
EBY-2500228016,9CX20583H15923339,"GEN - EBY",1,4000-GEN-EBY,16.67,3.334
EBY-2500228017,9HJ87508UM8670150,"GEN - EBY",1,4000-GEN-EBY,5,1
EBY-2500228019,24537064787360450,"GEN - EBY",1,4000-GEN-EBY,6.67,1.334
EBY-2500228020,1TY68291K5278515A,"GEN - EBY",1,4000-GEN-EBY,5,1
EBY-2500228023,158617642F343870F,"GEN - EBY",1,4000-GEN-EBY,9.16,1.832
EBY-2500228028,14274296W3501672J,"GEN - EBY",1,4000-GEN-EBY,12.5,2.5
EBY-2500228030,2C634097E4181401W,"GEN - EBY",1,4000-GEN-EBY,86.67,17.334
EBY-2500228030,2C634097E4181401W,"Postage - EBY",1,4040--EBY,6.62,1.324
EBY-2500228031,7Y013096G59191423,"GEN - EBY",1,4000-GEN-EBY,48.33,9.666
EBY-2500228032,60S99483414760708,"GEN - EBY",1,4000-GEN-EBY,9.17,1.834
EBY-2500228032,60S99483414760708,"Postage - EBY",1,4040--EBY,1.62,0.324
EBY-2500228033,2CD02419HA644945A,"GEN - EBY",1,4000-GEN-EBY,18.33,3.666
EBY-2500228033,2CD02419HA644945A,"Postage - EBY",1,4040--EBY,1.63,0.326
EBY-2500228034,6SP851515T916142C,"GEN - EBY",1,4000-GEN-EBY,6.67,1.334
EBY-2500228035,79A12308T8225933A,"GEN - EBY",1,4000-GEN-EBY,3.33,0.666
EBY-2500228036,82N48206WA170741H,"GEN - EBY",1,4000-GEN-EBY,6.67,1.334
EBY-2500228037,5FA32052M9538973G,"GEN - EBY",1,4000-GEN-EBY,9.17,1.834
EBY-2500228037,5FA32052M9538973G,"Postage - EBY",1,4040--EBY,1.62,0.324
EBY-2500228038,6UB41934G21165801,"GEN - EBY",1,4000-GEN-EBY,45.83,9.166
EBY-2500228038,6UB41934G21165801,"Postage - EBY",1,4040--EBY,6.63,1.326
EBY-2500228039,47D387268H8355324,"GEN - EBY",1,4000-GEN-EBY,9.17,1.834
EBY-2500228039,47D387268H8355324,"Postage - EBY",1,4040--EBY,1.62,0.324
EBY-2500228040,8U303034PC106932R,"GEN - EBY",1,4000-GEN-EBY,9.17,1.834
EBY-2500228041,3UP17537012253238,"GEN - EBY",1,4000-GEN-EBY,59.17,11.834
EBY-2500228041,3UP17537012253238,"Postage - EBY",1,4040--EBY,6.62,1.324
EBY-2500228042,3RS03750T7941502S,"GEN - EBY",1,4000-GEN-EBY,20.83,4.166
EBY-2500228043,10E62324AG7153721,"GEN - EBY",1,4000-GEN-EBY,56.58,11.316
EBY-2500228044,2MV38749GJ6702345,"GEN - EBY",1,4000-GEN-EBY,12.5,2.5
EBY-2500228045,79P53748RY6565059,"GEN - EBY",1,4000-GEN-EBY,5,1
EBY-2500228046,9BF21330PM3779130,"GEN - EBY",1,4000-GEN-EBY,85.75,17.15
EBY-2500228047,6GJ0024307580250B,"GEN - EBY",1,4000-GEN-EBY,28.33,5.666
EBY-2500228048,5NB001887M6837441,"GEN - EBY",1,4000-GEN-EBY,9.17,1.834
EBY-2500228048,5NB001887M6837441,"Postage - EBY",1,4040--EBY,8.29,1.658
EBY-2500228049,3LU30819B15405619,"GEN - EBY",1,4000-GEN-EBY,56.58,11.316
EBY-2500228049,3LU30819B15405619,"Postage - EBY",1,4040--EBY,3.29,0.658
EBY-2500228050,8T309658DW3313815,"GEN - EBY",1,4000-GEN-EBY,6.67,1.334
EBY-2500228051,0RK039674R742125R,"GEN - EBY",1,4000-GEN-EBY,10.83,2.166
EBY-2500228052,6FL499269S5468032,"GEN - EBY",1,4000-GEN-EBY,34.17,6.834
EBY-2500228053,79G589382T9002135,"GEN - EBY",1,4000-GEN-EBY,19.17,3.834
EBY-2500228056,43A911500W8079144,"GEN - EBY",1,4000-GEN-EBY,12.5,2.5
EBY-2500228057,9MK754420Y018113U,"GEN - EBY",1,4000-GEN-EBY,34.08,6.816
EBY-2500228057,9MK754420Y018113U,"Postage - EBY",1,4040--EBY,6.63,1.326
EBY-2500228058,27E80349L8035883P,"GEN - EBY",1,4000-GEN-EBY,6.67,1.334
EBY-2500228059,5PK85691Y8698943W,"GEN - EBY",1,4000-GEN-EBY,10.83,2.166
EBY-2500228059,5PK85691Y8698943W,"Postage - EBY",1,4040--EBY,1.63,0.326
EBY-2500228060,4FS58675P4319463V,"GEN - EBY",1,4000-GEN-EBY,31.67,6.334
EBY-2500228060,4FS58675P4319463V,"Postage - EBY",1,4040--EBY,8.29,1.658
EBY-2500228061,8S341275HE808410P,"GEN - EBY",1,4000-GEN-EBY,66.67,13.334
EBY-2500228061,8S341275HE808410P,"Postage - EBY",1,4040--EBY,6.62,1.324
EBY-2500228062,87X42318619899328,"GEN - EBY",1,4000-GEN-EBY,53.33,10.666
EBY-2500228063,48F969540P194460R,"GEN - EBY",1,4000-GEN-EBY,4.17,0.834
EBY-2500228064,0L0211345V7017823,"GEN - EBY",1,4000-GEN-EBY,1.67,0.334
EBY-2500228065,89P39602Y25360815,"GEN - EBY",1,4000-GEN-EBY,20,4
EBY-2500228066,32M90637D24859407,"GEN - EBY",1,4000-GEN-EBY,9.17,1.834
EBY-2500228067,14H424483T047902N,"GEN - EBY",1,4000-GEN-EBY,12.5,2.5
EBY-2500228068,6YC31230EU5686245,"GEN - EBY",1,4000-GEN-EBY,109.92,21.984
EBY-2500228069,4YH86024YS306293H,"GEN - EBY",1,4000-GEN-EBY,54.17,10.834
EBY-2500228070,9R107475741885906,"GEN - EBY",1,4000-GEN-EBY,25,5
EBY-2500228071,9HW37483G7323644R,"GEN - EBY",1,4000-GEN-EBY,33.33,6.666
EBY-2500228072,1SN3275012024973S,"GEN - EBY",1,4000-GEN-EBY,5,1
EBY-2500228073,5SH30536HK8404614,"GEN - EBY",1,4000-GEN-EBY,21.67,4.334
EBY-2500228074,69M09428V53322110,"GEN - EBY",1,4000-GEN-EBY,9.17,1.834
EBY-2500228074,69M09428V53322110,"Postage - EBY",1,4040--EBY,1.62,0.324
EBY-2500228075,1FR24543WM128252H,"GEN - EBY",1,4000-GEN-EBY,16.46,3.292
EBY-2500228075,1FR24543WM128252H,"Postage - EBY",1,4040--EBY,3.29,0.658
EBY-2500228076,57J69716P0734135X,"GEN - EBY",1,4000-GEN-EBY,15.83,3.166
EBY-2500228077,6N095068CG078623T,"GEN - EBY",1,4000-GEN-EBY,37.5,7.5
EBY-2500228078,5WE08100WP411333T,"GEN - EBY",1,4000-GEN-EBY,41.67,8.334
EBY-2500228079,6GX58440VJ429671V,"GEN - EBY",1,4000-GEN-EBY,33.75,6.75
EBY-2500228079,6GX58440VJ429671V,"Postage - EBY",1,4040--EBY,1.62,0.324
EBY-2500228080,06W65393XB455923Y,"GEN - EBY",1,4000-GEN-EBY,15,3
EBY-2500228081,31W98085RP6100608,"GEN - EBY",1,4000-GEN-EBY,15,3
EBY-2500228082,3JR38375RL875670E,"GEN - EBY",1,4000-GEN-EBY,13.33,2.666
EBY-2500228083,14825393559939357,"GEN - EBY",1,4000-GEN-EBY,12.5,2.5
EBY-2500228084,0UH29213J28301914,"GEN - EBY",1,4000-GEN-EBY,46.67,9.334
EBY-2500228085,0X603086SK130532V,"GEN - EBY",1,4000-GEN-EBY,10,2
EBY-2500228086,4PF27359YR9247732,"GEN - EBY",1,4000-GEN-EBY,11.67,2.334
EBY-2500228087,1HX55519GD172671Y,"GEN - EBY",1,4000-GEN-EBY,15.83,3.166
EBY-2500228088,1F159803CM980353A,"GEN - EBY",1,4000-GEN-EBY,29.17,5.834
EBY-2500228089,2P953483DH733203A,"GEN - EBY",1,4000-GEN-EBY,35.83,7.166
EBY-2500228090,94J67162E55544454,"GEN - EBY",1,4000-GEN-EBY,62.42,12.484
EBY-2500228091,8SU124787W1710053,"GEN - EBY",1,4000-GEN-EBY,26.67,5.334
EBY-2500228092,9G056519PM9488259,"GEN - EBY",1,4000-GEN-EBY,23.33,4.666
EBY-2500228092,9G056519PM9488259,"Postage - EBY",1,4040--EBY,1.63,0.326
EBY-2500228094,3R413250WU463094P,"GEN - EBY",1,4000-GEN-EBY,13.33,2.666
EBY-2500228094,3R413250WU463094P,"Postage - EBY",1,4040--EBY,1.63,0.326
EBY-2500228095,5RC049470B933252A,"GEN - EBY",1,4000-GEN-EBY,14.92,2.984
EBY-2500228096,1ND98105V0011215F,"GEN - EBY",1,4000-GEN-EBY,53.33,10.666
EBY-2500228096,1ND98105V0011215F,"Postage - EBY",1,4040--EBY,4.13,0.826
EBY-2500228097,27M536316S521904M,"GEN - EBY",1,4000-GEN-EBY,15,3
EBY-2500228098,9KX48941DV5180716,"GEN - EBY",1,4000-GEN-EBY,10.83,2.166
EBY-2500228099,84J246215H8673104,"GEN - EBY",1,4000-GEN-EBY,6.67,1.334
EBY-2500228100,0T739932ED353934S,"GEN - EBY",1,4000-GEN-EBY,79.08,15.816
EBY-2500228101,7NX12373531572022,"GEN - EBY",1,4000-GEN-EBY,129.08,25.816
EBY-2500228102,8B3296727S406823S,"GEN - EBY",1,4000-GEN-EBY,10.83,2.166
EBY-2500228103,5WW72177352165407,"GEN - EBY",1,4000-GEN-EBY,56.58,11.316
EBY-2500228104,8DW00436BP176983H,"GEN - EBY",1,4000-GEN-EBY,9.17,1.834
EBY-2500228105,4C650607VS703803D,"GEN - EBY",1,4000-GEN-EBY,20.83,4.166
EBY-2500228106,22E66826KB602143G,"GEN - EBY",1,4000-GEN-EBY,12.42,2.484
EBY-2500228107,1M511900AG5099703,"GEN - EBY",1,4000-GEN-EBY,5.83,1.166
EBY-2500228108,6RM61125E8753371M,"GEN - EBY",1,4000-GEN-EBY,9.17,1.834
EBY-2500228109,7WD97091MA484582X,"GEN - EBY",1,4000-GEN-EBY,26.67,5.334
EBY-2500228111,2GV959353K9250134,"GEN - EBY",1,4000-GEN-EBY,5.83,1.166
EBY-2500228112,0XN55389JY270025V,"GEN - EBY",1,4000-GEN-EBY,12.42,2.484
EBY-2500228113,35G36650PJ5763603,"GEN - EBY",1,4000-GEN-EBY,86.67,17.334
EBY-2500228115,8R448377WU9804523,"GEN - EBY",1,4000-GEN-EBY,70.75,14.15
EBY-2500228116,74649123CG2966245,"GEN - EBY",1,4000-GEN-EBY,12.92,2.584
EBY-2500228116,74649123CG2966245,"Postage - EBY",1,4040--EBY,8.29,1.658
EBY-2500228118,6DW54992AF556850B,"GEN - EBY",1,4000-GEN-EBY,10.83,2.166
EBY-2500228119,6N2769155W754270K,"GEN - EBY",1,4000-GEN-EBY,29.17,5.834
EBY-2500228120,37X02733EL1258344,"GEN - EBY",1,4000-GEN-EBY,35.83,7.166
EBY-2500228121,071700482Y498964U,"GEN - EBY",1,4000-GEN-EBY,18.33,3.666
EBY-2500228122,17G69518WV0638638,"GEN - EBY",1,4000-GEN-EBY,18.33,3.666
EBY-2500228122,17G69518WV0638638,"Postage - EBY",1,4040--EBY,1.63,0.326
EBY-2500228123,3YY90231598296324,"GEN - EBY",1,4000-GEN-EBY,25.42,5.084
EBY-2500228124,7NF8590044914092B,"GEN - EBY",1,4000-GEN-EBY,66.58,13.316
EBY-2500228125,6U68661228559634F,"GEN - EBY",1,4000-GEN-EBY,9.17,1.834
EBY-2500228126,7N4412657P656861H,"GEN - EBY",1,4000-GEN-EBY,4.17,0.834
EBY-2500228127,7AV26482VB942381J,"GEN - EBY",1,4000-GEN-EBY,23.33,4.666
EBY-2500228128,1VY59162FF9592637,"GEN - EBY",1,4000-GEN-EBY,3.29,0.658
EBY-2500228129,8VA78293M8289415S,"GEN - EBY",1,4000-GEN-EBY,26.67,5.334
EBY-2500228129,8VA78293M8289415S,"Postage - EBY",1,4040--EBY,1.62,0.324
EBY-2500228130,4RD44691X6369252E,"GEN - EBY",1,4000-GEN-EBY,15.83,3.166
EBY-2500228131,9KT57457GA865082Y,"GEN - EBY",1,4000-GEN-EBY,35.83,7.166
EBY-2500228132,8J051184C74271112,"GEN - EBY",1,4000-GEN-EBY,30,6
EBY-2500228133,8F496530P7592702H,"GEN - EBY",1,4000-GEN-EBY,12.42,2.484
EBY-2500228134,5HB09047VJ672970F,"GEN - EBY",1,4000-GEN-EBY,10.83,2.166
EBY-2500228135,86805093WH6974252,"GEN - EBY",1,4000-GEN-EBY,86.67,17.334
EBY-2500228136,572373164H8930356,"GEN - EBY",1,4000-GEN-EBY,15,3
EBY-2500228137,6KY616180J1511828,"GEN - EBY",1,4000-GEN-EBY,9.17,1.834
EBY-2500228138,6EV850036R418961H,"GEN - EBY",1,4000-GEN-EBY,10.83,2.166
EBY-2500228139,8A308893JU083892F,"GEN - EBY",1,4000-GEN-EBY,3.29,0.658
EBY-2500228142,04836496DC552662M,"GEN - EBY",1,4000-GEN-EBY,18.33,3.666
EBY-2500228143,58Y79136E1658064B,"GEN - EBY",1,4000-GEN-EBY,15,3
EBY-2500228144,0PJ89350MH3728943,"GEN - EBY",1,4000-GEN-EBY,20.83,4.166
EBY-2500228145,0FN9325471247541S,"GEN - EBY",1,4000-GEN-EBY,7.5,1.5
EBY-2500228146,5PL40308ME623821U,"GEN - EBY",1,4000-GEN-EBY,3.75,0.75
EBY-2500228147,59369838PS212642W,"GEN - EBY",1,4000-GEN-EBY,100.75,20.15
EBY-2500228148,13276218L6900042U,"GEN - EBY",1,4000-GEN-EBY,9.17,1.834
EBY-2500228149,13P51838370259126,"GEN - EBY",1,4000-GEN-EBY,25,5
EBY-2500228150,88J70424RT2140439,"GEN - EBY",1,4000-GEN-EBY,15,3
EBY-2500228151,7VW24350C3193073M,"GEN - EBY",1,4000-GEN-EBY,66.67,13.334
EBY-2500228152,023446361D864300R,"GEN - EBY",1,4000-GEN-EBY,10.83,2.166
EBY-2500228153,73V50528NJ031690T,"GEN - EBY",1,4000-GEN-EBY,78.33,15.666
EBY-2500228154,6PP76140K3149435U,"GEN - EBY",1,4000-GEN-EBY,19.17,3.834
EBY-2500228155,8R754357MA9254510,"GEN - EBY",1,4000-GEN-EBY,12.49,2.498
EBY-2500228157,4MN93501UF972343A,"GEN - EBY",1,4000-GEN-EBY,8.75,1.75
EBY-2500228158,81N8542107054031T,"GEN - EBY",1,4000-GEN-EBY,17.5,3.5
EBY-2500228159,3BT84361YT445902E,"GEN - EBY",1,4000-GEN-EBY,45.83,9.166
EBY-2500228160,4BE9962104232250M,"GEN - EBY",1,4000-GEN-EBY,45.83,9.166
EBY-2500228161,36221077NX352153Y,"GEN - EBY",1,4000-GEN-EBY,5,1
EBY-2500228162,38J99173S3043711X,"GEN - EBY",1,4000-GEN-EBY,9.08,1.816
EBY-2500228163,3UP63485S46044506,"GEN - EBY",1,4000-GEN-EBY,4.17,0.834
EBY-2500228164,4FF71088CB725552F,"GEN - EBY",1,4000-GEN-EBY,9.17,1.834
EBY-2500228165,3C152276TF1558351,"GEN - EBY",1,4000-GEN-EBY,7.5,1.5
EBY-2500228167,43665322M9120561G,"GEN - EBY",1,4000-GEN-EBY,27.5,5.5
EBY-2500228168,6SB40359UF031774B,"GEN - EBY",1,4000-GEN-EBY,9.17,1.834
EBY-2500228169,975250644U1323147,"GEN - EBY",1,4000-GEN-EBY,10.83,2.166
EBY-2500228169,975250644U1323147,"Postage - EBY",1,4040--EBY,1.63,0.326
EBY-2500228170,9M739295293550208,"GEN - EBY",1,4000-GEN-EBY,49.92,9.984
EBY-2500228171,3PY20828EU962735X,"GEN - EBY",1,4000-GEN-EBY,12.42,2.484
EBY-2500228172,67P069325U843172X,"GEN - EBY",1,4000-GEN-EBY,50,10
EBY-2500228173,2RP40881SK7693453,"GEN - EBY",1,4000-GEN-EBY,45.83,9.166
EBY-2500228174,23H54449R8017704W,"GEN - EBY",1,4000-GEN-EBY,19.17,3.834
EBY-2500228175,7RT19061FG328790J,"GEN - EBY",1,4000-GEN-EBY,9.17,1.834
EBY-2500228176,4T786059V3957452C,"GEN - EBY",1,4000-GEN-EBY,1.25,0.25
EBY-2500228177,64T71240K4087564C,"GEN - EBY",1,4000-GEN-EBY,37.5,7.5
EBY-2500228178,8AD62948EB744005L,"GEN - EBY",1,4000-GEN-EBY,3.33,0.666
EBY-2500228179,64N98398KL263643K,"GEN - EBY",1,4000-GEN-EBY,77.49,15.498
EBY-2500228180,9HK660303E562863P,"GEN - EBY",1,4000-GEN-EBY,10.83,2.166
EBY-2500228181,55R088491C662134R,"GEN - EBY",1,4000-GEN-EBY,15.83,3.166
EBY-2500228182,5AU874431V1840743,"GEN - EBY",1,4000-GEN-EBY,24.83,4.966
EBY-2500228183,9P825738DH9130203,"GEN - EBY",1,4000-GEN-EBY,10.83,2.166
EBY-2500228184,1PP72513X1551993A,"GEN - EBY",1,4000-GEN-EBY,3.33,0.666
EBY-2500228185,5KB33973JW276504C,"GEN - EBY",1,4000-GEN-EBY,29.17,5.834
EBY-2500228186,0XB03885US4612359,"GEN - EBY",1,4000-GEN-EBY,3.29,0.658
EBY-2500228188,4WK02657FB7561203,"GEN - EBY",1,4000-GEN-EBY,10,2
EBY-2500228189,9VG12841LY498730A,"GEN - EBY",1,4000-GEN-EBY,5,1
EBY-2500228191,2SX777974L9725814,"GEN - EBY",1,4000-GEN-EBY,10.83,2.166
EBY-2500228192,02J28421SH815733J,"GEN - EBY",1,4000-GEN-EBY,13.33,2.666
EBY-2500228193,1BJ9009470605554A,"GEN - EBY",1,4000-GEN-EBY,85.82,17.164
EBY-2500228194,8JM406766V4241942,"GEN - EBY",1,4000-GEN-EBY,27.46,5.492
EBY-2500228195,6WG30609H89433324,"GEN - EBY",1,4000-GEN-EBY,45.83,9.166
EBY-2500228196,6X4152952F915954D,"GEN - EBY",1,4000-GEN-EBY,9.17,1.834
EBY-2500228196,6X4152952F915954D,"Postage - EBY",1,4040--EBY,1.62,0.324
EBY-2500228197,51G28877TM414070L,"GEN - EBY",1,4000-GEN-EBY,27.5,5.5
EBY-2500228198,3VV7690463681234X,"GEN - EBY",1,4000-GEN-EBY,10.83,2.166
EBY-2500228199,0TL699915S888232K,"GEN - EBY",1,4000-GEN-EBY,99.92,19.984
EBY-2500228200,9DN04595JH1880052,"GEN - EBY",1,4000-GEN-EBY,37.5,7.5
EBY-2500228200,9DN04595JH1880052,"Postage - EBY",1,4040--EBY,3.29,0.658
EBY-2500228201,47524495FH365423R,"GEN - EBY",1,4000-GEN-EBY,13.33,2.666
EBY-2500228202,7VH84826C6973801A,"GEN - EBY",1,4000-GEN-EBY,19.17,3.834
EBY-2500228203,0ND929497J1219915,"GEN - EBY",1,4000-GEN-EBY,10.83,2.166
EBY-2500228204,47H90583UM204132D,"GEN - EBY",1,4000-GEN-EBY,5,1
EBY-2500228204,47H90583UM204132D,"Postage - EBY",1,4040--EBY,1.62,0.324
EBY-2500228205,2LT03239GN6609812,"GEN - EBY",1,4000-GEN-EBY,9.17,1.834
EBY-2500228205,2LT03239GN6609812,"Postage - EBY",1,4040--EBY,1.62,0.324
EBY-2500228206,5HC32194W6340964M,"GEN - EBY",1,4000-GEN-EBY,13.33,2.666
EBY-2500228207,32P87822U3549190U,"GEN - EBY",1,4000-GEN-EBY,19.17,3.834
EBY-2500228208,9CH70141C0689080K,"GEN - EBY",1,4000-GEN-EBY,25,5
EBY-2500228209,2DP55795775483101,"GEN - EBY",1,4000-GEN-EBY,9.17,1.834
EBY-2500228210,5LJ7520349600131P,"GEN - EBY",1,4000-GEN-EBY,6.58,1.316
EBY-2500228211,56J92610NF0182116,"GEN - EBY",1,4000-GEN-EBY,5.83,1.166
EBY-2500228212,0M099928NP836963V,"GEN - EBY",1,4000-GEN-EBY,3.33,0.666
EBY-2500228213,8JY705840B082901U,"GEN - EBY",1,4000-GEN-EBY,43.25,8.65
EBY-2500228214,51D20797AS500615U,"GEN - EBY",1,4000-GEN-EBY,1.67,0.334
EBY-2500228216,78L31419RU4725426,"GEN - EBY",1,4000-GEN-EBY,10.83,2.166
EBY-2500228217,85L744236N999903V,"GEN - EBY",1,4000-GEN-EBY,15,3
EBY-2500228218,1EM09559FY544740Y,"GEN - EBY",1,4000-GEN-EBY,25,5
EBY-2500228220,43F455124V7908131,"GEN - EBY",1,4000-GEN-EBY,94.17,18.834
EBY-2500228221,5YE969928M253814F,"GEN - EBY",1,4000-GEN-EBY,9.17,1.834
EBY-2500228221,5YE969928M253814F,"Postage - EBY",1,4040--EBY,1.62,0.324
EBY-2500228222,58D82988640406317,"GEN - EBY",1,4000-GEN-EBY,3.33,0.666
EBY-2500228223,5XD38403R3123834C,"GEN - EBY",1,4000-GEN-EBY,100.75,20.15
EBY-2500228224,5LD23766CF563061F,"GEN - EBY",1,4000-GEN-EBY,85.82,17.164
EBY-2500228225,23C33484UH491515F,"GEN - EBY",1,4000-GEN-EBY,24.92,4.984
EBY-2500228226,1BE58790NR079243J,"GEN - EBY",1,4000-GEN-EBY,3.33,0.666
EBY-2500228227,730696715M621643U,"GEN - EBY",1,4000-GEN-EBY,8.33,1.666
EBY-2500228227,730696715M621643U,"Postage - EBY",1,4040--EBY,1.63,0.326
EBY-2500228228,62X2645134199651G,"GEN - EBY",1,4000-GEN-EBY,2.5,0.5
EBY-2500228230,5TX02397JU110434B,"GEN - EBY",1,4000-GEN-EBY,27.42,5.484
EBY-2500228232,66U69989PJ663202T,"GEN - EBY",1,4000-GEN-EBY,9.08,1.816
EBY-2500228233,09B21364XH520551R,"GEN - EBY",1,4000-GEN-EBY,20.83,4.166
EBY-2500228235,95050799L1545153P,"GEN - EBY",1,4000-GEN-EBY,6.67,1.334
EBY-2500228236,858086381Y471111L,"GEN - EBY",1,4000-GEN-EBY,12.5,2.5
EBY-2500228237,5LY423220G562413R,"GEN - EBY",1,4000-GEN-EBY,6.69,1.338
EBY-2500228238,4RU93670VD7977823,"GEN - EBY",1,4000-GEN-EBY,10.83,2.166
EBY-2500228240,30M85405JK5376706,"GEN - EBY",1,4000-GEN-EBY,9.17,1.834
EBY-2500228240,30M85405JK5376706,"Postage - EBY",1,4040--EBY,1.62,0.324
EBY-2500228242,6F9177372C444651D,"GEN - EBY",1,4000-GEN-EBY,15,3
EBY-2500228243,3XS73851DB610271F,"GEN - EBY",1,4000-GEN-EBY,13.33,2.666
EBY-2500228244,5K401156K9448801H,"GEN - EBY",1,4000-GEN-EBY,13.33,2.666
EBY-2500228245,7CW7984241437162T,"GEN - EBY",1,4000-GEN-EBY,9.17,1.834
EBY-2500228245,7CW7984241437162T,"Postage - EBY",1,4040--EBY,1.62,0.324
EBY-2500228246,6DW1182445142145T,"GEN - EBY",1,4000-GEN-EBY,10.83,2.166
EBY-2500228247,17S37098GA6247035,"GEN - EBY",1,4000-GEN-EBY,27.5,5.5
EBY-2500228248,6NC78546DS1196736,"GEN - EBY",1,4000-GEN-EBY,13.33,2.666
EBY-2500228249,07809169KJ222024J,"GEN - EBY",1,4000-GEN-EBY,78.33,15.666
EBY-2500228250,7AS71127F55416454,"GEN - EBY",1,4000-GEN-EBY,9.17,1.834
EBY-2500228252,59424553X4648444Y,"GEN - EBY",1,4000-GEN-EBY,100.75,20.15
EBY-2500228253,8PY406736P119370C,"GEN - EBY",1,4000-GEN-EBY,50,10
EBY-2500228254,1KM38432VJ2046353,"GEN - EBY",1,4000-GEN-EBY,5.83,1.166
EBY-2500228255,9BP8797051735200K,"GEN - EBY",1,4000-GEN-EBY,6.67,1.334
EBY-2500228256,1LJ08644H5047813F,"GEN - EBY",1,4000-GEN-EBY,10.83,2.166
EBY-2500228257,09M59928LG031771L,"GEN - EBY",1,4000-GEN-EBY,27.5,5.5
EBY-2500228258,2R776953RN982335F,"GEN - EBY",1,4000-GEN-EBY,129.08,25.816
EBY-2500228259,65G53471XW349525Y,"GEN - EBY",1,4000-GEN-EBY,94.17,18.834
EBY-2500228260,6B905685DT104905S,"GEN - EBY",1,4000-GEN-EBY,9.17,1.834
EBY-2500228260,6B905685DT104905S,"Postage - EBY",1,4040--EBY,1.62,0.324
EBY-2500228261,7KA39063UN371790E,"GEN - EBY",1,4000-GEN-EBY,39.99,7.998
EBY-2500228262,4N7658872V582810X,"GEN - EBY",1,4000-GEN-EBY,3.29,0.658
EBY-2500228263,8EX31840BV213272S,"GEN - EBY",1,4000-GEN-EBY,17.5,3.5
EBY-2500228264,5BC7740663828854B,"GEN - EBY",1,4000-GEN-EBY,21.58,4.316
EBY-2500228264,5BC7740663828854B,"Postage - EBY",1,4040--EBY,3.29,0.658
EBY-2500228265,1HY42998YP4534607,"GEN - EBY",1,4000-GEN-EBY,9.17,1.834
EBY-2500228265,1HY42998YP4534607,"Postage - EBY",1,4040--EBY,1.62,0.324
EBY-2500228266,5NP179283F5791328,"GEN - EBY",1,4000-GEN-EBY,10.83,2.166
EBY-2500228267,4MM40215JC9048348,"GEN - EBY",1,4000-GEN-EBY,33.75,6.75
EBY-2500228268,34F44909XR608461V,"GEN - EBY",1,4000-GEN-EBY,10.83,2.166
EBY-2500228269,8YR97341HV169751H,"GEN - EBY",1,4000-GEN-EBY,70,14
EBY-2500228269,8YR97341HV169751H,"Postage - EBY",1,4040--EBY,3.29,0.658
EBY-2500228271,0GR04911W9047374B,"GEN - EBY",1,4000-GEN-EBY,25,5
EBY-2500228272,1UG59540UX735822B,"GEN - EBY",1,4000-GEN-EBY,9.17,1.834
EBY-2500228273,6AP91016WK276005Y,"GEN - EBY",1,4000-GEN-EBY,10.83,2.166
EBY-2500228274,2J966622AL9609742,"GEN - EBY",1,4000-GEN-EBY,3.29,0.658
EBY-2500228275,87456338FM776961R,"GEN - EBY",1,4000-GEN-EBY,6.67,1.334
EBY-2500228276,6PA87212VV628074G,"GEN - EBY",1,4000-GEN-EBY,9.17,1.834
EBY-2500228276,6PA87212VV628074G,"Postage - EBY",1,4040--EBY,1.62,0.324
EBY-2500228277,74J41083KA065513L,"GEN - EBY",1,4000-GEN-EBY,26.67,5.334
EBY-2500228278,0AW276568U0853341,"GEN - EBY",1,4000-GEN-EBY,23.25,4.65
EBY-2500228279,92V661931X534784E,"GEN - EBY",1,4000-GEN-EBY,20.83,4.166
EBY-2500228280,55032015EP4058425,"GEN - EBY",1,4000-GEN-EBY,9.17,1.834
EBY-2500228281,9WB41739MK288014J,"GEN - EBY",1,4000-GEN-EBY,17.5,3.5
EBY-2500228282,5YW48617GR3041034,"GEN - EBY",1,4000-GEN-EBY,24.75,4.95
EBY-2500228282,5YW48617GR3041034,"Postage - EBY",1,4040--EBY,8.29,1.658
EBY-2500228283,6UE76753W7426191S,"GEN - EBY",1,4000-GEN-EBY,45.83,9.166
EBY-2500228285,8767312053280944T,"GEN - EBY",1,4000-GEN-EBY,20.83,4.166
EBY-2500228286,4J126367HA1804311,"GEN - EBY",1,4000-GEN-EBY,26.67,5.334
EBY-2500228287,42865642XX3141230,"GEN - EBY",1,4000-GEN-EBY,2.08,0.416
EBY-2500228288,7LB74367JY6016255,"GEN - EBY",1,4000-GEN-EBY,6.67,1.334
EBY-2500228289,98C068823V814425S,"GEN - EBY",1,4000-GEN-EBY,86.67,17.334
EBY-2500228290,9CR834553W421254G,"GEN - EBY",1,4000-GEN-EBY,19.17,3.834
EBY-2500228290,9CR834553W421254G,"Postage - EBY",1,4040--EBY,1.62,0.324
EBY-2500228291,69127446V91758425,"GEN - EBY",1,4000-GEN-EBY,23.33,4.666
EBY-2500228292,9VG2487736113364H,"GEN - EBY",1,4000-GEN-EBY,504.12,100.824
EBY-2500228293,24X62326JP278270F,"GEN - EBY",1,4000-GEN-EBY,3.33,0.666
EBY-2500228294,8F107503HT2551207,"GEN - EBY",1,4000-GEN-EBY,9.17,1.834
EBY-2500228295,3BJ16891A4568535G,"GEN - EBY",1,4000-GEN-EBY,12.42,2.484
EBY-2500228296,3CU22719H0202090Y,"GEN - EBY",1,4000-GEN-EBY,6.67,1.334
EBY-2500228297,67E79616E8728092N,"GEN - EBY",1,4000-GEN-EBY,15.83,3.166
EBY-2500228298,70V248735P265530A,"GEN - EBY",1,4000-GEN-EBY,14.17,2.834
EBY-2500228298,70V248735P265530A,"Postage - EBY",1,4040--EBY,1.62,0.324
EBY-2500228299,0HL14775249450531,"GEN - EBY",1,4000-GEN-EBY,10.83,2.166
EBY-2500228300,9J228888J6902884U,"GEN - EBY",1,4000-GEN-EBY,3.75,0.75
EBY-2500228301,67P57115EC2702117,"GEN - EBY",1,4000-GEN-EBY,8.33,1.666
EBY-2500228303,01732369HX908691C,"GEN - EBY EXEMPT",0,4000-GEN-EBY,126.77,0
EBY-2500228303,01732369HX908691C,"Postage - EBY",2,4040--EBY,24.88,0
EBY-2500228304,2JU08720MT495814J,"GEN - EBY",1,4000-GEN-EBY,15,3
EBY-2500228305,4N03899173466060E,"GEN - EBY",1,4000-GEN-EBY,9.98,1.996
EBY-2500228306,7TV44749UK4256639,"GEN - EBY",1,4000-GEN-EBY,19.08,3.816
EBY-2500228307,37L91868E5727360C,"GEN - EBY",1,4000-GEN-EBY,23.25,4.65
EBY-2500228308,9WA01413J1396943T,"GEN - EBY",1,4000-GEN-EBY,6.67,1.334
EBY-2500228029,01S13707XB7124330,"GEN - EBY",1,4000-GEN-EBY,80.57,16.114
EBY-2500228029,01S13707XB7124330,"Postage - EBY",1,4040--EBY,4.35,0.87
EBY-2500228093,75V17767CH523520G,"GEN - EBY",1,4000-GEN-EBY,17.09,3.418
EBY-2500228110,0HU66781WW510261A,"GEN - EBY",1,4000-GEN-EBY,44.59,8.918
EBY-2500228141,46C39426DG321234E,"GEN - EBY",1,4000-GEN-EBY,11.26,2.252
EBY-2500228166,8Y843346HX667750D,"GEN - EBY",1,4000-GEN-EBY,8.76,1.752
EBY-2500228215,77C69162FK971030Y,"GEN - EBY",1,4000-GEN-EBY,11.26,2.252
EBY-2500228219,10H975509F8325111,"GEN - EBY",1,4000-GEN-EBY,19.59,3.918
EBY-2500228219,10H975509F8325111,"Postage - EBY",1,4040--EBY,5.81,1.162
EBY-2500228229,4HW65100324629450,"GEN - EBY",1,4000-GEN-EBY,11.26,2.252
EBY-2500228231,3LY0304864124292L,"GEN - EBY",1,4000-GEN-EBY,15.42,3.084
EBY-2500228234,5W181111KD627574M,"GEN - EBY",1,4000-GEN-EBY,60.57,12.114
EBY-2500228234,5W181111KD627574M,"Postage - EBY",1,4040--EBY,7.27,1.454
EBY-2500228241,3KY63959JL989864R,"GEN - EBY",1,4000-GEN-EBY,23.07,4.614
EBY-2500228251,5YR20702DG358022T,"GEN - EBY",1,4000-GEN-EBY,18.67,3.734
EBY-2500228270,1H00213059657324Y,"GEN - EBY",1,4000-GEN-EBY,11.26,2.252
EBY-2500228302,5JD489274L449720J,"GEN - EBY",1,4000-GEN-EBY,26.26,5.252
EBY-2500228018,7N86754956343032M,"GEN - EBY EXEMPT",0,4000-GEN-EBY,14.976,0
EBY-2500228021,3U896191483739909,"GEN - EBY EXEMPT",0,4000-GEN-EBY,38.88,0
EBY-2500228025,4SX58644FN389430T,"GEN - EBY EXEMPT",0,4000-GEN-EBY,44.976,0
EBY-2500228025,4SX58644FN389430T,"Postage - EBY",2,4040--EBY,3.756,0
EBY-2500228026,78F98612NP633153G,"GEN - EBY EXEMPT",0,4000-GEN-EBY,17.496,0
EBY-2500228054,7NX00988AM158950H,"GEN - EBY EXEMPT",0,4000-GEN-EBY,73.32,0
EBY-2500228114,0NS78125LR4579741,"GEN - EBY EXEMPT",0,4000-GEN-EBY,15.492,0
EBY-2500228140,680880481L990294L,"GEN - EBY EXEMPT",0,4000-GEN-EBY,20.496,0
EBY-2500228156,9S727601MN014373L,"GEN - EBY EXEMPT",0,4000-GEN-EBY,70.416,0
EBY-2500228156,9S727601MN014373L,"Postage - EBY",2,4040--EBY,3.756,0
EBY-2500228187,00668074W4202333H,"GEN - EBY EXEMPT",0,4000-GEN-EBY,35.496,0
EBY-2500228190,18661115SV332325U,"GEN - EBY EXEMPT",0,4000-GEN-EBY,40.488,0
EBY-2500228190,18661115SV332325U,"Postage - EBY",2,4040--EBY,6.024,0
EBY-2500228239,7FV72141T21698724,"GEN - EBY EXEMPT",0,4000-GEN-EBY,55.488,0
EBY-2500228239,7FV72141T21698724,"Postage - EBY",2,4040--EBY,3.756,0
EBY-2500228284,4MH63682AJ135800B,"GEN - EBY EXEMPT",0,4000-GEN-EBY,134.388,0
EBY-2500228117,92E67864XD105752J,"GEN - EBY EXEMPT",0,4000-GEN-EBY,55.524,0
