168,605296444219,13511,"Bodyglide The Original Anti Chafe Balm 42g"
41,605296008015,185451,"Bodyglide The Original Anti Chafe Balm 22g"
34,BQ2045,291660,"adidas D2M 3 Stripe Womens 3/4 Capri Running Tights - Black-L"
25,AA2289,292882,"adidas 3S Performance Ankle (6 Pack) Training Socks - Black-8.5 - 11"
17,1280021-3538,229205,"Salming Distance D1 Womens Running Shoes - Purple-6"
17,"T619N 4393",159987,"Asics Patriot 8 Mens Running Shoes - Blue-9.5"
17,BA8237,292818,"adidas Adizero Tempo Boost 9 Mens Running Shoes - Grey-10"
16,L38154400,169327,"Salomon X-Scream 3D Mens Running Shoes - Red-9"
15,5051686341340,223696,"Mizuno Reflective Mens Running Gilet - Black"
15,CP9250,249573,"adidas Ultra Boost 4.0 Mens Running Shoes - Blue-12"
14,"T619N 9605",215668,"Asics Gel Patriot 8 Mens Running Shoes - Grey-9.5"
14,MEST-S-1S-Black-Marl,246264,"TCA SuperKnit Engineered Mens Short Sleeve Running Top - Grey-L"
14,"S015F 06I",212085,"Shock Absorber Active Shaped Support Womens Sports Bra - Pink-38""-C"
14,5051686347373,236617,"Mizuno Woven Solid Mens Running Shorts - Blue"
13,BXC31,120878,"Shimano XC31 MTB SPD Mens Cycling Shoes - Black-EU44"
12,8717999560034,192022,"Asics 5 Inch 2 in 1 mens Running Shorts - Black"
11,Trusox-White,96039,"Trusox Mid-Calf Cushion Football Socks-L"
11,L38313200,189112,"Salomon Speedcross 4 Mens Trail Running Shoes - Blue-10"
11,"4003314 01",211718,"Sub Sports Heat Stay Cool Semi Compression Sleeveless Top - Black-XL"
11,AP0304,195612,"adidas Tiro15 Mens Training Pants - Black-M"
