65,018468373697,98839,"Merrell Moab Ventilator Mens Walking Shoes-11"
54,"5040001 1FG",226537,"Champion Sports (3 Pack) Socks - White-EU 39-42"
52,"T687N 9793",215671,"Asics Gel Tambora 5 Trail Womens Running Shoes - Black-4"
44,AQ3325,222967,"adidas Havoc Mens Wrestling Shoes - Black-7.5"
38,4055014202687,229643,"adidas Essential 3 Stripe Mens Hoody - Blue"
37,"514357 01",192159,"Puma NightCat Mens Running Jacket - Black-S"
36,B39760,122941,"adidas Powerlift 2.0 Weight Lifting Shoes-6"
35,AP0304,195612,"adidas Tiro15 Mens Training Pants - Black-XXL"
34,AF6551,229718,"adidas Supernova Glide 8 Boost Mens Running Shoes - Black-8.5"
32,"110261 3636",223366,"Champion Large Logo Print Womens Hoody - Blue-M"
32,4054714658930,128296,"adidas Tiro15 Junior Football Training Top - Blue"
31,4055014744200,234521,"adidas Tiro Team Medium Holdall - Blue"
29,BB3733,228621,"adidas KO Legend 16.2 Boxing Shoes - White-9"
28,8717999395087,114338,"Asics Hermes Mens Winter Running Tight-XL"
27,"T619N 9093",174257,"Asics Patriot 8 Mens Running Shoes - Black-8"
25,AL24NVIB,221409,"Altura Night Vision City Cycling Overshoes - Black-Large"
24,"2003318 12",212606,"Sub Sports Cold Mens Compression Long Tights - Grey-L"
24,4055344560495,226246,"adidas Half Zip Womens Long Sleeve Running Top - Orange"
21,"T669N 5806",177282,"Asics Patriot 8 Womens Running Shoes - Navy-6"
19,"T243Z6 0081",174380,"Asics Stef Mens Running Gilet - Yellow-S"
