76,S77991,299826,"adidas Duramo Sliders - Black-10"
59,CD6413,245016,"adidas 2 In 1 Womens Training Shorts - Black-M"
42,849994067534,217647,"Pony Canon Hi Top Trainers - Blue"
31,BA8016,296512,"adidas Powerlift 3.1 Weight Lifting Shoes - Red-11"
30,MNSH-S-26-Grey,252513,"TCA Natural Performance Mens Running Shorts - Grey-L"
28,849994066766,217662,"Pony Arena Hi Top Trainers - White"
28,828468862660,215392,"Pony Feed The Dog Lo Trainers - Blue"
25,"70713 FTR 02",216735,"Pony Topstar Leather Hi Top Trainers - Green-4"
24,8717999996529,208664,"Asics 2 in 1 Womens Running Shorts - Black"
21,849994013036,220505,"Pony Track It Back Hi Top Mens Trainers - Blue"
20,BR0736,220306,"Reebok Speedwick  F.E.F Graphic Mens Crossfit Top - Black-M"
20,"129933 8133",299018,"Asics FuzeX 9 Inch Mens Running Shorts - Blue-L"
20,5057422078273,242798,"Ben Sherman Mens Sliders - Black"
18,BQ2045,291660,"adidas D2M 3 Stripe Womens 3/4 Capri Running Tights - Black-L"
18,5051686347403,236617,"Mizuno Woven Solid Mens Running Shorts - Blue"
18,849994067305,217631,"Pony Canon Hi Top Trainers - Black"
18,"S015F 06I",212085,"Shock Absorber Active Shaped Support Womens Sports Bra - Pink-32""-C"
18,5054977021327,220661,"Pony Shooter Low Womens Trainers - Red"
18,MEST-S-1S-Green-Marl,246313,"TCA SuperKnit Engineered Mens Short Sleeve Running Top - Green-M"
18,5057422078327,242804,"Ben Sherman Mens Sliders - Blue"
