68,CD6413,245016,"adidas 2 In 1 Womens Training Shorts - Black-M"
60,S77991,299826,"adidas Duramo Sliders - Black-9"
43,BQ2045,291660,"adidas D2M 3 Stripe Womens 3/4 Capri Running Tights - Black-S"
31,"BEN3165 043",242798,"Ben Sherman Mens Sliders - Black-10"
23,SS15013WBH,217662,"Pony Arena Hi Top Trainers - White-7.5"
22,AP0304,195612,"adidas Tiro15 Mens Track Pants - Black-M"
21,"S015F 06I",212085,"Shock Absorber Active Shaped Support Womens Sports Bra - Pink-34""-D"
21,CP9251,254190,"adidas Ultra Boost 4.0 Mens Running Shoes - Grey-10"
21,"1305421 001",253690,"Under Armour Play Up 2.0 Womens Running Shorts - Black-S"
20,MEST-S-1S-Green-Marl,246313,"TCA SuperKnit Engineered Mens Short Sleeve Running Top - Green-XL"
20,5055604355242,199235,"More Mile Weighted 1.5kg Hula Hoop - Purple"
20,5051686347403,236617,"Mizuno Woven Solid Mens Running Shorts - Blue"
19,5057422078310,242804,"Ben Sherman Mens Sliders - Blue"
18,2001202,206285,"Kappa Official Size and Weight Basketball-7"
17,"T7A4N 4549",247731,"Asics GT 1000 6 Mens Running Shoes - Blue-11.5"
17,CZ8721,292549,"adidas Supernova Mens Running Singlet - Black-M"
16,5020436905125,236336,"Regatta Jazmine Shell Lightweight Womens Waterproof Jacket - Black"
16,BQ7189,240283,"adidas Supernova Mens Running Singlet - Blue-L"
15,AA2289,292882,"adidas 3S Performance Ankle (6 Pack) Training Socks - Black-5.5 - 8"
15,BA8016,296512,"adidas Powerlift 3.1 Weight Lifting Shoes - Red-6.5"
