147,5037823905651,346230,"Mitre Relay Football - Black"
79,"1289566 001",202337,"Under Armour HeatGear 2.0 Comp Mens Running Shorts - Black-L"
74,5037823935573,346481,"Mitre Final Training Football - Green"
67,"1289577 001",202360,"Under Armour HeatGear 2.0 Mens Compression Tights - Black-M"
61,7141047077631,346811,"HouseFit Large Exercise Ab Wheel - Blue"
57,"1287325 001",348270,"Under Armour Locker III Mens Sliders - Black-10"
57,MM3PKMENS,292424,"More Mile Mens Complete 3 Pack Cushioned Running Sports Socks-8.5 - 10.5"
47,"1011A540 401",333042,"Asics GT 1000 8 Mens Running Shoes - Blue-11"
45,7141047077600,346812,"HouseFit Medium Exercise Ab Wheel"
45,"1012A468 003",330931,"Asics Gel Cumulus 21 Womens Running Shoes - Green-6.5"
44,"1012A467 400",330490,"Asics Gel Pulse 11 Womens Running Shoes - Blue-5.5"
38,"S4490 054",193694,"Shock Absorber Active Multi Womens Sports Support Bra - Red-38""-C"
38,5037835250008,14836,"Muc-Off 8 In 1 Bicycle Cleaning Kit"
38,"1307196 001",253713,"Under Armour Keyhole Womens Mid Sports Bra - Black-M"
34,5037835966008,12425,"Muc-Off Dry Lube 120ml - Black"
34,"1309628 001",253731,"Under Armour HeatGear 7/8 Womens Training Tights - Black-M"
33,753759222536,327197,"Garmin Bike Speed Sensor 2"
32,192564218370,349931,"Under Armour Patterson Backpack - Black"
30,"1257471 100",126620,"Under Armour HeatGear Compression Mens Long Sleeve Top - White-L"
29,"1328849 001",350283,"Under Armour Vanish Womens Long Training Tights - Black-M"
