237,"1240128 001",62178,"Under Armour Heatgear Mirage 8"" Mens Short "
73,J06011,331734,"Merrell Moab 2 Ventilator Mens Walking Shoes - Brown-10.5"
35,BA8019,221842,"adidas Powerlift 3.1 Mens Weightlifting Shoes - Black-5.5"
29,J06015,331735,"Merrell Moab 2 Ventilator Mens Walking Shoes - Grey-11.5"
27,"T7B3N 9097",241264,"Asics Gel Cumulus 19 Mens Running Shoes - Black-8.5"
24,"1011A008 400",294210,"Asics Gel Cumulus 20 Mens Running Shoes - Blue-9"
22,DB3199,310285,"adidas Ultra Boost 4.0 Mens Running Shoes - White-10.5"
22,CN1022,247862,"Reebok Crossfit Nano 8 Flexweave Mens Training Shoes – Black-10.5"
20,MM3019,318906,"More Mile More Lift 4 Weightlifting / Crossfit Shoes - Black-9.5"
20,CQ1771,237440,"adidas Leistung 16 ll Mens Weightlifting Shoes - White-8"
19,AR3199,328539,"Reebok Crossfit Speed TR Mens Training Shoes - Grey-7.5"
18,"T7B8N 9014",318835,"Asics Gel Cumulus 19 Womens Running Shoes - Black-6.5"
17,DA9874,237456,"adidas Adipower Weightlifting Shoes - Green-5.5"
17,WURT-S-1B-OrangeZest,246051,"TCA Ultralite Womens Running Vest Tank Top - Orange-S"
17,"3021395 001",321145,"Under Armour HOVR Infinite Mens Running Shoes - Black-9"
16,5055906526425,246141,"TCA Hazard Mens Running Vest - Black"
16,5055604358328,211868,"More Mile Endurance (5 Pack) Womens Running Socks"
16,5055604363209,233448,"More Mile Cheviot 4 Womens Trail Running Shoes - Blue"
16,4059805369238,315793,"adidas Classic Backpack - Black"
16,MM2941,289478,"More Mile Conquer 2 in 1 Womens Running Shorts - Navy-S"
