88,192564218370,349931,"Under Armour Patterson Backpack - Black"
48,"S4490 054",193694,"Shock Absorber Active Multi Womens Sports Support Bra - Red-38""-C"
46,AQ3325,222967,"adidas Havoc Mens Wrestling Shoes - Black-10.5"
44,4057827507485,353239,"Puma Pro Training II Medium Holdall - Black"
40,FU6827,335809,"Reebok Crossfit Nano 9.0 Mens Training Shoes - Grey-9"
27,5037835904000,338754,"Muc-Off Nano Tech Bike Cleaner 1 Ltr"
24,4057827507508,353241,"Puma Pro Training II Medium Holdall - Blue"
21,J06015,331735,"Merrell Moab 2 Ventilator Mens Walking Shoes - Grey-10"
21,"1011A712 400",332899,"Asics Gel Kayano 26 Mens Running Shoes - Blue-9"
20,"67XWS170 09",223696,"Mizuno Reflective Mens Running Gilet - Black-L"
20,"1228539 001",126390,"Under Armour Tech Short Sleeve Mens Running Top - Black-XL"
18,"1011A713 001",327960,"Asics GT 2000 7 Mens Running Shoes - Black-10.5"
17,MM2472,163815,"More Mile Cheviot (5 Pack) Trail Running Socks - Multi-8.5 - 10.5"
17,B96493,296957,"adidas Speedex 18 Boxing Shoes - White-7"
16,192564218349,349932,"Under Armour Patterson Backpack - Grey"
16,"1228539 090",198200,"Under Armour Tech Short Sleeve Mens Running Top - Grey-L"
16,"1011A540 003",333008,"Asics GT 1000 8 Mens Running Shoes - Black-7"
16,"E523487 00A",346598,"Canterbury Advantage Mens Rugby Shorts - White-M"
16,CN4513,299880,"Reebok Lifter PR Mens Weightlifting Shoes - White-11"
15,5037835214000,103652,"Muc-Off Anti-Fog Treatent - 35ml"
