291,"1240128 001",62178,"Under Armour Heatgear Mirage 8"" Mens Short "
68,AQ3325,222967,"adidas Havoc Mens Wrestling Shoes - Black-10.5"
60,"W270003 8007",311249,"DBlade Canvas Multipocket Mens Work Wear Pants - Blue-XL"
36,4059805369238,315793,"adidas Classic Backpack - Black"
34,CQ1774,310924,"adidas Powerlift 3.1 Mens Weightlifting Shoes - Red-7"
34,BB6167,240713,"adidas Ultra Boost 4.0 Mens Running Shoes - Grey-9.5"
34,"WA4169b BLK/SRF",244913,"2XU Hyoptik Mid Rise Womens Long Compression Tights - Black-S"
34,CN1022,247862,"Reebok Crossfit Nano 8 Flexweave Mens Training Shoes – Black-11"
31,"W180001 8004",311289,"DBlade Denim Multipocket Mens Work Wear Jeans - Denim-L"
30,BA7928,223008,"adidas Box Hog 2 Mens Boxing Shoes - Black-8.5"
30,CM7492,252572,"adidas Terrex Swift R2 GTX Mens Walking Shoes - Black-10"
30,BB6168,240746,"adidas Ultra Boost 4.0 Mens Running Shoes - White-10"
29,BB6166,240698,"adidas Ultra Boost 4.0 Mens Running Shoes - Black-9.5"
29,"838425 01",321086,"Puma Essential No.1 Fleece Womens Joggers - Black-L"
29,"J1GC1831 16",301668,"Mizuno Wave Rider 22 Mens Running Shoes - Blue-8.5"
27,"T243Z6 0081",174380,"Asics Stef Mens Running Gilet - Yellow-M"
26,CG1508,245495,"adidas Prime Workout Mens Joggers - Black-S"
24,5055604359950,231084,"More Mile Super Lift 3 CrossFit / Weightlifting Shoes - Green"
23,"T6E6N 9039",313300,"Asics Gel Pulse 8 Womens Running Shoes - Black-5.5"
22,BB6363,237499,"adidas Power Perfect lll Weightlifting Shoes - Black-9"
