64,"512807 01",192114,"Puma Essential Womens Running Tights- Black-XS"
47,BXC31,120878,"Shimano XC31 MTB SPD Mens Cycling Shoes - Black-EU45"
42,AQ3325,222967,"adidas Havoc Mens Wrestling Shoes - Black-7.5"
33,S77952,146628,"adidas Powerlift 2.0 Mens Weight Lifting Shoes - Black-UK 6"
24,QDSS-S-0E-Grey,248120,"TCA QuickDry Mens Short Sleeve Running Top - Grey-M"
22,AP0304,195612,"adidas Tiro15 Mens Training Pants - Black-M"
21,S77950,146606,"adidas Powerlift 2.0 Weight Lifting Shoes-7"
21,S94633,234751,"adidas X Football Socks - Grey-6.5 - 8"
19,"654617 03",242507,"Puma TB Mens Short Running Tights - Black-M"
15,QDSS-S-0D-Blue,246487,"TCA QuickDry Mens Short Sleeve Running Top - Blue-M"
14,G17563,40446,"adidas Power Perfect 2.0 Weight Lifting Shoes-9.5"
14,"TRA442 800",287246,"Regatta Tarah Womens Quilted Jacket - Black-XXXL"
14,BB5769,200569,"adidas Allroundstar Junior Running Spike - White-1"
14,4056561460391,229725,"adidas Adizero Short Sleeve Mens Running Top - White"
14,BY2860,249417,"adidas Galaxy 4 Mens Running Shoes - Blue-10.5"
14,849994066841,217662,"Pony Arena Hi Top Trainers - White"
13,"190371 02",242556,"Puma Mega NRGY Knit Mens Running Shoes - Green-7"
12,1280021-3538,229205,"Salming Distance D1 Womens Running Shoes - Purple-6"
12,BS8346,223230,"Reebok Crossfit Nano 7 Weave Mens Training Shoes - White-9.5"
12,849994067671,217647,"Pony Canon Hi Top Trainers - Blue"
