94,"211197 1149",211184,"Champion Hooded Sweatshirt - Grey-S"
69,"211197 2192",211235,"Champion Hooded Sweatshirt - Blue-M"
69,"T6A3N 4900",194270,"Asics GT 1000 5 Mens Running Shoes - Blue-8.5"
62,"211199 2175",211246,"Champion Print Mens Short Sleeve Top - Black-L"
47,L39078600,219183,"Salomon Speedcross Vario Mens Trail Running Shoes - Grey-10.5"
42,"211197 2175",211230,"Champion Hooded Sweatshirt - Black-S"
38,AX6087,163284,"adidas Condivo 16 Mens Training Pants-M"
35,"211199 006",211251,"Champion Print Mens Short Sleeve Top - White-L"
34,"103671 01",220899,"Puma evoTouch Pro Firm Ground Mens Football Boots - Black-7"
30,G81804,183779,"adidas Condivo 14 Mens Training Shorts - Black-S"
26,"360248 13",212618,"Puma Epic V2 Unisex Flip Flops - Pink-7"
22,AP0304,195612,"adidas Tiro15 Mens Training Pants - Black-XXL"
19,"512807 01",192114,"Puma Essential Ladies Running Tights- Black-XS"
18,BB1612,193954,"adidas Supernova Sequence 9 Boost Mens Running Shoes - Grey-UK 12"
18,"238889 2978",205190,"Scott MTB Comp Ladies SPD Cycling Shoes - Black-EU41"
17,"747880 01",137708,"Puma Newcastle United Home 2015/16 Mens Shirt-L"
16,8-087423503,205095,"Speedo Monogram Mens Swimming Aquashort - Black-36"""
16,"3003320 16",213043,"Sub Sports Elite RX Mens Compression Short Tights - Red-M"
16,4051911041480,220394,"Puma Tech Ladies Golf Shorts - Purple"
16,4053059812663,218982,"Puma Solid Tech Bermuda Ladies Golf Shorts - White"
