88,"1253824 001",182694,"Under Armour HeatGear Armour Junior Long Running Tights - Black-L"
78,BA8019,221842,"adidas Powerlift 3.1 Mens Weight Lifting Shoes - Black-10"
57,"1289577 001",202360,"Under Armour HeatGear 2.0 Long Mens Tights - Black-M"
51,CN1022,247862,"Reebok Crossfit Nano 8 Flexweave Mens Training Shoes – Black-9.5"
47,"1242220 411",306517,"Under Armour Tech 1/4 Zip Long Sleeve Mens Training Top - Navy-S"
45,AP0304,195612,"adidas Tiro15 Mens Track Pants - Black-M"
38,"110243 1D419",243858,"Brooks Cascadia 12 Mens Running Shoes - Blue-7.5"
37,5055906525831,252363,"TCA Cloud Fleece Womens Thermal Running Top - Black"
37,"1289568 001",202350,"Under Armour HeatGear 2.0 Long Comp Mens Running Shorts - Black-M"
35,"T243Z6 0081",174380,"Asics Stef Mens Running Gilet - Yellow-M"
34,WHST-S-1E-Black,250529,"TCA Infinity Half-Zip Womens Long Sleeve Running Top - Black-M"
34,"001397 R042",201428,"Ronhill Running Beanie Hat and Glove Set - Yellow-S-M"
32,8057016792995,227645,"Champion Logo Mens Closed Hem Joggers - Navy"
32,G15892,302820,"adidas Duramo Sliders - Blue-7"
31,"1240128 040",62104,"Under Armour Heatgear Mirage 8"" Mens Shorts "
31,"03100 040",45801,"Ronhill Trackster Classic-M"
30,"135154 0261",305434,"Asics Performance Beanie And Glove Pack - Pink-M"
30,MSPJ-S-2G-Black,247314,"TCA Airlite Shower Proof Mens Running Jacket - Black-L"
28,"2003318 12",212606,"Sub Sports Cold Mens Compression Long Tights - Grey-L"
28,"110243 1D663",294308,"Brooks Cascadia 12 Mens Running Shoes - Red-7.5"
