94,BA8019,221842,"adidas Powerlift 3.1 Mens Weight Lifting Shoes - Black-8.5"
69,"1253824 001",182694,"Under Armour HeatGear Armour Junior Long Running Tights - Black-S"
67,CN1022,247862,"Reebok Crossfit Nano 8 Flexweave Mens Training Shoes – Black-7.5"
49,"1318546 001",311581,"Under Armour Liner 2.0 Running Gloves - Black-M"
47,"T243Z6 0081",174380,"Asics Stef Mens Running Gilet - Yellow-M"
38,"211536 2192",227645,"Champion Logo Mens Closed Hem Joggers - Navy-L"
38,"110567 2038",210700,"Asics Print FujiTrail Packable Womens Running Jacket - Black-XS"
37,4057289797974,286114,"adidas Linear Performance Small Holdall - Black"
36,"001397 R042",201428,"Ronhill Running Beanie Hat and Glove Set - Yellow-M-L"
36,8717999538507,210696,"Asics Print FujiTrail Packable Womens Running Jacket - Pink"
33,DA9874,237456,"adidas Adipower Weightlifting Shoes - Green-7"
33,4055262413767,234736,"Puma Pom Pom Beanie Hat - Black"
32,5055906522793,247314,"TCA Airlite Shower Proof Mens Running Jacket - Black"
30,"135154 0261",305434,"Asics Performance Beanie And Glove Pack - Pink-M"
29,CE2036,253159,"adidas Designed 2 Move Climalite Womens Long Training Tights - Black-M"
28,8717999896416,216551,"Asics Performance Mens Long Running Tights - Black"
28,5055906525831,252363,"TCA Cloud Fleece Womens Thermal Running Top - Black"
27,"VN OA349SIJU",312300,"Vans Chapman Stripe Suede Shoes - Black-5"
27,AQ3530,312276,"adidas Supernova Glide Boost 8 Chill Mens Running Shoes - Blue-10.5"
27,AQ3325,222967,"adidas Havoc Mens Wrestling Shoes - Black-7.5"
