72,4059805542198,245016,"adidas 2 In 1 Womens Training Shorts - Black"
36,5057422078266,242798,"Ben Sherman Mens Slider Sandals - Black"
30,5051686347403,236617,"Mizuno Woven Solid Mens Running Shorts - Blue"
26,BQ2045,291660,"adidas D2M 3 Stripe Womens 3/4 Capri Running Tights - Black-M"
25,S77991,299826,"adidas Duramo Sliders - Black-8"
21,MEST-S-1S-Green-Marl,246313,"TCA SuperKnit Engineered Mens Short Sleeve Running Top - Green-L"
20,"S015F 06I",212085,"Shock Absorber Active Shaped Support Womens Sports Bra - Pink-34""-E"
20,8717999996529,208664,"Asics 2 in 1 Womens Running Shorts - Black"
19,1280021-3538,229205,"Salming Distance D1 Womens Running Shoes - Purple-6"
18,5055604361359,225032,"More Mile Compression Womens Short Running Tights - Black"
17,5055604355242,199235,"More Mile Weighted 1.5kg Hula Hoop - Purple"
17,5057422078310,242804,"Ben Sherman Mens Slider Sandals - Blue"
17,CP9251,254190,"adidas Ultra Boost 4.0 Mens Running Shoes - Grey-8.5"
16,5053159447399,224927,"Kukri Premium Short Sleeve Womens Netball Top - Navy"
14,8057016123041,234362,"Champion Print Mens Short Sleeve Top - Green"
14,M25733,96824,"adidas adiPower Weight Lifting Shoes-11"
14,4051412871456,219168,"Puma Performance LH Mens Golf Glove - Orange"
14,"211393 2175",234338,"Champion Logo Print Mens Short Sleeve Top - Black-L"
13,"RWF399 3SK",294017,"Regatta Santa Cruz Womens Sandals - Grey-3"
13,000484-WH,289469,"Inov8 Race Elite Running Cap - White-M"
