99,"211197 1149",211184,"Champion Hooded Sweatshirt - Grey-L"
89,"211197 2175",211230,"Champion Hooded Sweatshirt - Black-L"
83,"5040001 1FG",226537,"Champion Sports (3 Pack) Socks - White-EU 43-46"
57,"T669N 9020",195417,"Asics Patriot 8 Ladies Running Shoes - Black-7"
50,"361220 02 ",223528,"Puma Desierto High Top Trainers - Black-9.5"
43,8718833767503,194198,"Asics Gel Sonoma 3 Mens Trail Running Shoes - Blue"
37,"C570N 0790",226813,"Asics Gel Zaraca 4 GS Junior Running Shoes - Yellow-4.5"
34,5053159447627,224984,"Kukri Premium Classic Mens Short Sleeve Polo Shirt - Navy"
32,AX6087,163284,"adidas Condivo 16 Mens Training Pants-S"
32,"211197 8714",211189,"Champion Hooded Sweatshirt - Blue-S"
30,"1257472 001",148679,"Under Armour HeatGear Armour Mens Long Compression Shorts-S"
29,AL24NVIB,221409,"Altura Night Vision City Cycling Overshoes - Black-Large"
28,S27116,200075,"adidas Tiro 15 Mens Football Hooded Top - Blue-S"
25,"J1GC1744 03",196600,"Mizuno Wave Inspire 13 Mens Running Shoes - Blue-10.5"
24,X19212,223559,"adidas Essential 3 Stripe Mens Shorts - Black-S"
23,AQ3325,222967,"adidas Havoc Mens Wrestling Shoes - Black-10.5"
23,"110413 0904",93826,"Asics Woven 7 Inch Mens Running Shorts-M"
23,"T619N 9091",195186,"Asics Gel Patriot 8 Mens Running Shoes - Black-8"
22,AP0304,195612,"adidas Tiro15 Mens Training Pants - Black-S"
22,"512807 01",192114,"Puma Essential Ladies Running Tights- Black-M"
