24,5054977023444,234713,"adidas Originals Womens Washed Sweater - Grey"
24,8058188834247,206285,"Kappa Official Size and Weight Basketball"
20,888284806460,167593,"Under Armour HeatGear Armour Compression Mens Tights - Black"
8,5053159361626,208884,"Kukri Sherpa Mens Hoodie - Green"
8,5051522367251,205741,"Dare2b Luminous Waterproof Mens Running Jacket - Orange"
8,5051686341333,223696,"Mizuno Reflective Mens Running Gilet - Black"
6,5051513340461,213028,"Regatta Classic Mens Bodywarmer Gilet - Navy"
6,4051936284312,231297,"adidas Terrex Active Gore-Tex Active Shell Mens Jacket - Blue"
6,889645109329,223321,"Salomon Tikal II CS Waterproof Mens Walking Boots - Grey"
6,4056565452811,228621,"adidas KO Legend 16.2 Boxing Shoes - White"
6,889362863313,204796,"Under Armour Pitch Knit Tech Mens Track Pants - Grey"
6,5051508382612,201428,"Ronhill Running Beanie Hat and Glove Set - Yellow"
6,5020436436186,233997,"Regatta Cartersville II Mens Fleece Jacket - Black"
6,5020436280598,224581,"Regatta Cartersville II Mens Fleece Jacket - Black"
6,889819807754,203800,"Under Armour ColdGear Infrared Mens Fleece Gloves - Green"
6,5055289945509,224088,"Marussia F1 Team Race Sponsor Mens Short Sleeve Top - Black"
6,4056565126729,234085,"adidas Combat Speed 4 Junior Wrestling Shoes - White"
6,4055014202601,229643,"adidas Essential 3 Stripe Mens Hoody - Blue"
6,190496054066,206066,"Under Armour HeatGear Womens Long Running Tights - Purple"
4,5055604323562,86387,"More Mile More-Tech Long Sleeve Mens Running Top "
