62,8013183083328,311064,"DBlade Softshell Mens Work Wear Jacket - Black"
56,3608851320857,193694,"Shock Absorber Active Multi Womens Sports Support Bra - Red"
52,8057016792933,227645,"Champion Logo Mens Closed Hem Joggers - Navy"
36,5020436694722,308134,"Dare2B Cohesion Low Mens Waterproof Walking Shoes - Black"
34,5055604355228,199626,"More Mile Roadster Mens Track Pants - Navy"
30,3608851447882,212085,"Shock Absorber Active Shaped Support Womens Sports Bra - Pink"
28,4051911204625,46882,"Puma Mens Essential Long Running Tights - Black "
26,8013183083366,311058,"DBlade Softshell Mens Work Wear Vest Gilet - Black"
26,5055604324552,86078,"More Mile More-Tech Mens 3/4 Capri Running Tights "
24,5055604355174,199645,"More Mile Roadster Mens Track Pants - Black"
22,091204892447,108754,"Nike Revolutionary Womens Support Bra - White"
22,8055114317140,174380,"Asics Stef Mens Running Gilet - Yellow"
22,8013183073640,311173,"DBlade Winter Mens Work Wear Shirt - Black"
20,5055604324842,86097,"More Mile More-Tech Mens Long Running Tights - Black"
20,5055604343737,153014,"More Mile Weighted 1.5kg Hula Hoop - Pink-Grey"
19,2160517111908,308737,"Original Penguin Berg Bobble Beanie Hat - Red"
18,4055262129880,226540,"Puma Expedite Mens Running Shoes - Blue"
18,8057016792711,228082,"Champion Athletic Mens Closed Hem Joggers - Black"
18,805173554714,308472,"adidas Euro Club Mens Training Jacket - Blue"
18,9336340559672,244913,"2XU Hyoptik Mid Rise Womens Long Compression Tights - Black"
