336,5054977108868,328404,"Merida Lightweight Bicycle Inner Tube 32mm Presta Valve"
176,5037823935573,346481,"Mitre Final Training Football - Green"
126,5051595965668,346581,"Canterbury VapoDri Mens Woven Shorts - Grey"
125,719975605126,357498,"Admiral Premier Superglide Training Football - Yellow"
116,192810799004,348102,"Under Armour Play Up 3.0 Womens Running Shorts - Black"
115,618983987708,213032,"Warrior Liverpool FC Football - White"
104,8033764944572,214683,"Asics Zona Mens Training Shorts - Black"
96,886091707338,126390,"Under Armour Tech Short Sleeve Mens Running Top - Black"
86,5054600084118,352813,"Russell Athletic Oxford Mens Canvas Shoes - White"
71,5055604355426,199950,"More Mile Rotating Push Up Bars - Blue"
66,192564220250,334178,"Under Armour MK1 Terry Mens Training Shorts - Black"
62,190085645705,348270,"Under Armour Locker III Mens Sliders - Black"
58,7318572878372,352985,"Craft Rise Short Sleeve Mens Cycling Jersey - White"
57,5055604345786,158386,"Piu Miglia 750ml Sports Water Bottle - Red"
52,4059506746826,299654,"Puma Ignite Mens Long Running Tights - Black"
50,4057828063669,228145,"Puma Blast 2 In 1 Womens Running Shorts - Black"
46,5055906515078,252795,"TCA MeshLuxe Womens Running Vest - Black"
44,5051522280888,322859,"Dare2B Saddle Sure Mens Cycling Shorts - Black"
42,889362752396,187930,"Under Armour HeatGear Armour Womens 3/4 Capri Tights - Black"
41,4897053040000,287303,"GMTee Hollow Practice (6 Pack) Golf Balls - White"
