32,5020436440466,346903,"Regatta Questra Stretch Softshell Mens Short Walking Trousers - Grey"
28,8013183083311,311064,"DBlade Softshell Mens Work Wear Jacket - Black"
26,192564243709,334185,"Under Armour Vanish Woven Mens Training Pants - Black"
20,190085100013,202472,"Under Armour Tech Terry Mens Training Jogging Pants - Black"
20,3608851320734,193694,"Shock Absorber Active Multi Womens Sports Support Bra - Red"
18,8013183089306,311295,"DBlade Australian Canvas Mens Work Wear Pants - Black"
16,5051522804527,335068,"Regatta Bardolf Stretch Mens Waterproof Jacket - Orange"
16,7613368141259,343115,"Scott Road Comp Mens Lace Up Cycling Shoes - Grey"
16,5055604350377,176255,"More Mile R2R Compression Socks - Black"
14,8033764944572,214683,"Asics Zona Mens Training Shorts - Black"
14,5055604355174,199645,"More Mile Roadster Mens Track Pants - Black"
14,5020436882587,335062,"Regatta Dover Plus II Mens Jacket - Blue"
14,8013183073503,311058,"DBlade Softshell Mens Work Wear Vest Gilet - Black"
14,8713537913980,229440,"Puma Performance + R Medium Quarter Running Socks - White"
12,5055906511360,252420,"TCA Infinity Half Zip Long Sleeve Mens Running Top - Black"
12,5060239547542,84096,"More Mile New York Cushioned Running Socks "
12,5051686341357,223696,"Mizuno Reflective Mens Running Gilet - Black"
12,886091707314,126390,"Under Armour Tech Short Sleeve Mens Running Top - Black"
10,4524667850076,111608,"Shimano M065 SPD Mens MTB Cycling Shoes - Black"
10,5051595965668,346581,"Canterbury VapoDri Mens Woven Shorts - Grey"
