46,8058188834247,206285,"Kappa Official Size 7 Indoor Outdoor Rubber Basketball"
26,5055604343737,153014,"More Mile Weighted 1.5kg Hula Hoop - Pink-Grey"
24,7613317676702,234887,"Scott RC Team 20 Mens Short Sleeve Cycling Jersey - Green"
22,190872028452,209308,"Skechers GO STEP Lite Womens Shoes - Pink"
21,5055604355242,199235,"More Mile Weighted 1.5kg Hula Hoop - Purple"
20,5052316012012,295774,"Gill Baltimore 2 Eyelet Mens Deck Shoes - Brown"
18,4054713728351,186791,"Reebok Crossfit Nano 4.0 Mens Gym Training Shoes - Yellow"
18,844502411687,133452,"661 Wrist Wrap Left Joint MTB Cycling Support"
18,5054977016781,211943,"VR46 Kevin Schwantz 34 MotoGP Mens Top - White"
18,828468890670,229240,"Pony Beater Hi Top Trainers  - Black"
14,5054977016538,211982,"VR46 Kevin Schwantz 34 MotoGP Mens Top - Blue"
10,0887850511319,204471,"Salomon Sense Mantra 3 Mens Running Shoes - Blue"
10,5054977017238,212191,"VR46 Alvaro Bautista 19 MotoGP Mens Top - White"
10,8718108757833,206953,"Asics Onitsuka Tiger Lawnship Unisex Trainers - Black "
8,3608851321199,193694,"Shock Absorber Active Multi Womens Sports Support Bra - Red"
8,5051522367251,205741,"Dare2b Luminous Waterproof Mens Running Jacket - Orange"
8,5054977003705,37421,"Mitre Grande Goalkeeper Shorts"
8,5054977018266,212993,"Kappa Ringo Mens Jacket"
8,5051513086178,218174,"Regatta Catla Zip Off Womens Pants - Grey"
8,888728795282,240909,"Under Armour Match Play Blocked Junior Golf Polo Shirt - Green"
