102,8013183083250,311046,"DBlade Regen Technical Mens Work Wear Rain Jacket - Black"
74,3608851320857,193694,"Shock Absorber Active Multi Womens Sports Support Bra - Red"
60,8013183082765,311122,"DBlade Logo Mens Full Zip Hoody - Navy"
56,192564764198,327922,"Under Armour Project Rock 1 Mens Training Shoes - White"
52,8013183083618,311153,"DBlade Piquet Mens Short Sleeve Polo Shirt - Black"
52,5055604355181,199645,"More Mile Roadster Mens Track Pants - Black"
52,8713537913973,229440,"Puma Performance + R Medium Quarter Running Socks - White"
50,887162301127,62178,"Under Armour Heatgear Mirage 8 Inch Mens Running Short - Black"
48,190085100013,202472,"Under Armour Tech Terry Mens Training Jogging Pants - Black"
44,5055906515061,252795,"TCA MeshLuxe Womens Running Vest - Black"
42,8033764944589,214683,"Asics Zona Mens Training Shorts - Black"
39,5055604343720,153034,"More Mile Weighted 1.2kg Hula Hoop - Green/Blue"
36,4056205575580,202245,"Puma Blaze Ignite Mens Suede Trainers - Black"
34,5055604332458,121947,"More Mile Team Mens Running Vest"
32,5055604362769,233469,"More Mile Cheviot 4 Mens Trail Running Shoes - Black"
30,8013183083700,311110,"DBlade Logo Mens Full Zip Hoody - Black"
30,4053059656472,223421,"Puma Streetballer Lo Trainers - Navy"
30,5051686154070,221603,"Mizuno Mid Running / Training (3 Pack) Socks"
28,5055604332519,121954,"More Mile Team Mens Running Vest"
26,8054612012229,300223,"Champion Classic Mens Swim Shorts - Red"
