40,5054977023475,234713,"adidas Originals Womens Washed Sweater - Grey"
40,5051513340454,213028,"Regatta Classic Mens Bodywarmer Gilet - Navy"
26,8058188834247,206285,"Kappa Official Size and Weight Basketball"
22,5051686341340,223696,"Mizuno Reflective Mens Running Gilet - Black"
20,4055344359785,195612,"adidas Tiro15 Mens Training Pants - Black"
20,889645109268,223321,"Salomon Tikal II CS Waterproof Mens Walking Boots - Grey"
16,5051686341395,223691,"Mizuno Reflective Mens Running Gilet - Yellow"
16,4056565452842,228621,"adidas KO Legend 16.2 Boxing Shoes - White"
14,8718833494461,215669,"Asics Gel Essent 2 Mens Running Shoes - Grey"
14,8718179393923,226537,"Champion Sports (3 Pack) Socks - White"
12,5054977016804,212165,"VR46 Alvaro Bautista 19 MotoGP Mens Fleece Hoody - Black"
12,5051508375645,227508,"Ronhill Running Beanie Hat and Glove Set - Pink"
12,5051508382605,201428,"Ronhill Running Beanie Hat and Glove Set - Yellow"
10,5054977017054,211917,"VR46 MotoGP Pol Espargaro Never Give up  Mens Hoody - Black"
10,5020436460327,234677,"Regatta Blanchet Womens Waterproof Jacket - Red"
10,889362863313,204796,"Under Armour Pitch Knit Tech Mens Track Pants - Grey"
10,4056562488622,229639,"Reebok One Series Activ Chill Mens Shorts"
10,8718108213001,225602,"Asics Split Second 9 Wrestling Shoes - Black"
10,5051522345563,205748,"Dare2b Luminous Waterproof Womens Running Jacket - Pink"
10,5054977016644,212232,"VR46 Kevin Schwantz 34 MotoGP Mens Top - Blue"
