48,8013183083243,311046,"DBlade Regen Technical Mens Work Wear Rain Jacket - Black"
38,8033764944572,214683,"Asics Zona Mens Training Shorts - Black"
38,3608851320642,193694,"Shock Absorber Active Multi Womens Sports Support Bra - Red"
28,5055604343874,146576,"More Mile London Mens Running Socks (5 Pack) - Multi"
28,5051595965651,346581,"Canterbury VapoDri Mens Woven Shorts - Grey"
28,8013183083298,311052,"DBlade Hi Visibility Work Wear Rain Jacket - Yellow"
24,8013183083328,311064,"DBlade Softshell Mens Work Wear Jacket - Black"
22,720026473595,349938,"Merrell Moab 2.0 GTX Mens Walking Shoes - Brown"
20,8718824069029,229456,"Puma Performance + T Medium Quarter Training Socks - Grey"
19,5037823952327,346229,"Mitre Flare Football - Orange"
18,720026458547,331735,"Merrell Moab 2 Ventilator Mens Walking Shoes - Grey"
18,5055839531619,321531,"Corex Fitness Logo Stringer Mens Training Vest - Grey"
18,071570009779,45210,"Jelly Belly Sport Beans"
18,5020436571801,332136,"Regatta Closinda Womens Fleece - Red"
18,5051686341357,223696,"Mizuno Reflective Mens Running Gilet - Black"
16,8033764944510,214676,"Asics Zona Mens Training Shorts - Blue"
16,8033562668748,348523,"Superga 2750 Cotu Classic Mens Canvas Shoes - Beige"
16,192564240531,342336,"Under Armour Charged Cotton (3 Pack) Mens Boxer Jock - Black"
16,5055604363728,237936,"More Mile Train To Run Mens Long Sleeve Half Zip Running Top - Grey"
16,5051522269814,246034,"Dare2B Core Stretch Cycling Leg Warmers - Black"
