70,8013183083243,311046,"DBlade Regen Technical Mens Work Wear Rain Jacket - Black"
60,8033764944565,214683,"Asics Zona Mens Training Shorts - Black"
30,3608851320642,193694,"Shock Absorber Active Multi Womens Sports Support Bra - Red"
26,5055839531626,321531,"Corex Fitness Logo Stringer Mens Training Vest - Grey"
26,8013183083328,311064,"DBlade Softshell Mens Work Wear Jacket - Black"
26,5051595965651,346581,"Canterbury VapoDri Mens Woven Shorts - Grey"
26,5034004084570,329477,"Craghoppers Kiwi Pro Stretch Long Womens Walking Trousers - Beige"
26,720026458547,331735,"Merrell Moab 2 Ventilator Mens Walking Shoes - Grey"
20,5055604343881,146576,"More Mile London Mens Running Socks (5 Pack) - Multi"
20,192810002845,331367,"Under Armour Vanish Seamless Half Zip Mens Long Sleeve Training Top - Grey"
18,5060239547559,84096,"More Mile New York Cushioned Running Socks "
18,5020436571801,332136,"Regatta Closinda Womens Fleece - Red"
18,888284811440,126615,"Under Armour HeatGear Compression Mens Long Sleeve Top - Black"
18,5020436903756,308899,"Regatta Longsight Mens Insulated Gilet - Black"
18,5055604363711,237936,"More Mile Train To Run Mens Long Sleeve Half Zip Running Top - Grey"
16,8718837138118,287848,"Asics 3 Pack Quarter Running Socks - White"
16,738575023147,341326,"Merrell Jungle Moc Mens Shoes - Black"
16,5055604349494,163815,"More Mile Cheviot (5 Pack) Trail Running Socks - Multi"
14,844502567315,345318,"661 Comp Slice Cycling Gloves - Yellow"
14,8013183083434,311289,"DBlade Denim Multipocket Mens Work Wear Jeans - Denim"
