40,5051522367251,205741,"Dare2b Luminous Waterproof Mens Running Jacket - Orange"
38,5051508011390,40542,"Ronhill Classic Mens Running Trackster - Black"
30,4056206342709,208562,"Puma Suede Classic+ Mens Trainers - Green"
26,5055906522908,246178,"TCA Airlite Shower Proof Mens Running Jacket - Green"
16,5051508011345,45801,"Ronhill Classic Mens Running Trackster - Blue"
16,5051686341333,223696,"Mizuno Reflective Mens Running Gilet - Black"
14,4051911114092,219173,"Puma Performance LH Mens Golf Glove - Blue"
14,4051409213627,247861,"Puma Suede Classic + Mens Trainers - Black"
12,3608851320550,193694,"Shock Absorber Active Multi Womens Sports Support Bra - Red"
12,7613317174109,199937,"Scott AS 10 Cycling Balaclava - Black"
12,844502411717,133453,"661 Wrist Wrap Right Joint MTB Cycling Support"
12,7613317676696,234887,"Scott RC Team 20 Mens Short Sleeve Cycling Jersey - Green"
12,4051911204588,46882,"Puma Mens Essential Long Running Tights"
10,091204892010,94301,"Nike Revolutionary Womens Support Bra - Black"
10,7613317678157,234894,"Scott RC Team Mens Cycling Bib Shorts - White"
10,4056562619071,226222,"adidas ClimaChill Mens Running Shorts - Blue"
10,5055604360314,233181,"More Mile B-Grade Mud Warrior 1 Cross Country Running Spikes (With Tape) - Blue"
10,4054713728351,186791,"Reebok Crossfit Nano 4.0 Mens Gym Training Shoes - Yellow"
10,4055339755097,146628,"adidas Powerlift 2.0 Mens Weight Lifting Shoes - Black"
10,190496054066,206066,"Under Armour HeatGear Womens Long Running Tights - Purple"
