34,3608851233287,176523,"Shock Absorber Active Zipped Plunge Ladies Sports Bra - Black"
22,5054977016835,212165,"VR46 Alvaro Bautista 19 MotoGP Mens Fleece Hoody - Black"
22,5032040971960,224021,"Mizuno Pro Team Mens Training Tracksuit - Navy"
22,888284795450,148679,"Under Armour HeatGear Armour Mens Compression Shorts - Black"
20,887850709037,212642,"Salomon Evasion CS WP Tempest Mens Walking Shoes - Grey"
20,5051746864925,205095,"Speedo Monogram Mens Swimming Aquashort - Black"
20,5055604323906,120469,"More Mile More-Tech Square-Cut Mens Running Shorts "
16,3608851320642,193694,"Shock Absorber Active Multi Ladies Sports Support Bra - Red"
16,889819619272,204762,"Under Armour ColdGear Fleece Icon 1/4 Zip Long Sleeve Mens Running Top - Blue"
16,5054977016644,212232,"VR46 Kevin Schwantz 34 MotoGP Mens Top - Blue"
14,5053159361626,208884,"Kukri Sherpa Mens Hoodie - Green"
14,190078202892,206516,"Under Armour Printed Original 6 Inch Mens Boxer Jock - Black"
14,5055289945370,223743,"Marussia F1 Team Race Mens Short Sleeve Sponsor Polo Shirt - Black"
14,884603589328,152431,"Cannondale Quick MTB Cycling Helmet - White"
12,8058188834247,206285,"Kappa Official Size and Weight Basketball"
12,5051686341364,223696,"Mizuno Reflective Mens Running Gilet - Black"
12,4056561603255,162500,"adidas Adizero Mens Running Singlet - White"
12,5060198163876,215739,"Sub Sports Elite RX Mens Long Compression Tights - White"
12,8717999440190,216526,"Asics Essential 3/4 Mens Running Tights - Black"
12,4051911114085,219173,"Puma Performance LH Mens Golf Glove - Blue"
