26,5051508382612,201428,"Ronhill Running Beanie Hat and Glove Set - Yellow"
24,888284087142,306517,"Under Armour Tech 1/4 Zip Long Sleeve Mens Training Top - Navy"
24,5051508011383,40542,"Ronhill Classic Mens Running Trackster - Black"
24,5055604358342,211834,"More Mile Endurance (5 Pack) Running Socks"
20,886549979805,238651,"Nike Preika Womens Ski & Snowboarding Pants - Brown"
20,4056205575368,202245,"Puma Blaze Ignite Mens Suede Trainers - Black"
20,4058028073564,292854,"Reebok Mens Boxing Shoes - Black"
18,4051911204625,46882,"Puma Mens Essential Long Running Tights - Black "
18,5051686341364,223696,"Mizuno Reflective Mens Running Gilet - Black"
18,4055344359785,195612,"adidas Tiro15 Mens Track Pants - Black"
18,191480463451,306858,"Under Armour Storm Armour Mens Fleece Joggers - Grey"
18,5051508011369,45801,"Ronhill Classic Mens Running Trackster - Blue"
18,8717999439620,52141,"Asics Essentials Long Sleeve Half Zip Mens Running Top - Black"
16,3608851320857,193694,"Shock Absorber Active Multi Womens Sports Support Bra - Red"
16,9336340559672,244913,"2XU Hyoptik Mid Rise Womens Long Compression Tights - Black"
16,8057016773376,211267,"Champion Mens Closed Hem Joggers - Grey"
16,4524667726326,111608,"Shimano M065 SPD Mens MTB Cycling Shoes - Black"
16,4051412872330,219197,"Puma Performance RH Mens Golf Glove - Black"
16,191480426210,306838,"Under Armour AF 1/4 Zip Mens Long Sleeve Running Top - Grey"
14,5055604324552,86078,"More Mile More-Tech Mens 3/4 Capri Running Tights "
